22228 22300
22300 22424
29827 29977
29977 30074
30074 30171
30171 30268
30268 30366
30366 30463
30463 30560
30560 30656
30656 30752
30752 30848
30848 30944
30944 31040
31040 31136
31136 31233
31233 31331
31331 31428
31428 31526
31526 31624
31624 31724
31724 31822
31822 31920
31920 32018
32018 32115
32115 32213
32213 32309
32309 32406
32406 32502
32502 32599
32599 32695
32695 32791
32791 32888
32888 32985
32985 33082
33082 33179
33179 33276
33276 33374
33374 33472
33472 33570
33570 33669
33669 33768
33768 33866
33866 33964
33964 34062
34062 34161
34161 34259
34259 34358
34358 34456
34456 34555
34555 34655
34655 34754
34754 34853
34853 34952
34952 35052
35052 35150
35150 35248
35248 35345
35345 35443
35443 35541
35541 35637
35637 35734
35734 35830
35830 35927
35927 36023
36023 36118
36118 36215
36215 36314
36314 36412
36412 36510
36510 36608
36608 36705
36705 36803
36803 36902
36902 36998
36998 37096
37096 37193
37193 37291
37291 37388
37388 37486
37486 37584
37584 37683
37683 37781
37781 37879
37879 37978
37978 38077
38077 38174
38174 38273
38273 38370
38370 38468
38468 38565
38565 38662
38662 38759
38759 38856
38856 38953
38953 39050
39050 39147
39147 39245
39245 39343
39343 39441
39441 39537
39537 39636
39636 39735
39735 39833
39833 39931
39931 40029
40029 40127
40127 40225
40225 40324
40324 40422
40422 40520
40520 40618
40618 40717
40717 40816
40816 40914
40914 41012
41012 41109
41109 41207
41207 41304
41304 41400
41400 41496
41496 41593
41593 41690
41690 41787
41787 41884
41884 41980
41980 42076
42076 42172
42172 42268
42268 42364
42364 42461
42461 42558
42558 42653
42653 42751
42751 42847
42847 42943
42943 43039
43039 43135
43135 43232
43232 43328
43328 43425
43425 43522
43522 43620
43620 43718
43718 43817
43817 43916
43916 44016
44016 44116
44116 44216
44216 44315
44315 44416
44416 44516
44516 44615
44615 44715
44715 44814
44814 44913
44913 45012
45012 45109
45109 45207
45207 45305
45305 45402
45402 45500
45500 45597
45597 45694
45694 45791
45791 45888
45888 45984
45984 46082
46082 46180
46180 46277
46277 46373
46373 46471
46471 46568
46568 46665
46665 46762
46762 46859
46859 46956
46956 47054
47054 47151
47151 47248
47248 47346
47346 47443
47443 47539
47539 47636
47636 47733
47733 47831
47831 47927
47927 48024
48024 48121
48121 48218
48218 48316
48316 48413
48413 48511
48511 48608
48608 48718
48718 48802
48802 48899
48899 48997
48997 49092
49092 49189
49189 49286
49286 49382
49382 49479
49479 49578
49578 49675
49675 49774
49774 49871
49871 49969
49969 50066
50066 50176
50176 50260
50260 50357
50357 50453
50453 50549
50549 50643
50643 50739
50739 50836
50836 50932
50932 51027
51027 51123
51123 51218
51218 51313
51313 51409
51409 51505
51505 51602
51602 51698
51698 51796
51796 51893
51893 51992
51992 52090
52090 52189
52189 52288
52288 52386
52386 52486
52486 52585
52585 52698
52698 52785
52785 52884
52884 52983
52983 53082
53082 53181
53181 53279
53279 53377
53377 53474
53474 53570
53570 53667
53667 53764
53764 53861
53861 53958
53958 54055
54055 54153
54153 54250
54250 54348
54348 54446
54446 54517
54517 54644
54644 54742
54742 54841
54841 54952
54952 55037
55037 55135
55135 55234
55234 55333
55333 55432
55432 55531
55531 55629
55629 55728
55728 55840
55840 55925
55925 56024
56024 56121
56121 56220
56220 56319
56319 56416
56416 56514
56514 56612
56612 56711
56711 56808
56808 56904
56904 57000
57000 57096
57096 57191
57191 57299
57299 57381
57381 57477
57477 57585
57585 57667
57667 57763
57763 57860
57860 57954
57954 58049
58049 58145
58145 58240
58240 58334
58334 58429
58429 58523
58523 58618
58618 58713
58713 58808
58808 58905
58905 59001
59001 59097
59097 59194
59194 59290
59290 59387
59387 59482
59482 59580
59580 59676
59676 59774
59774 59871
59871 59967
59967 60037
60037 60135
60135 60230
60230 60327
60327 60424
60424 60520
60520 60616
60616 60712
60712 60809
60809 60905
60905 61002
61002 61138
61138 61227
61227 61328
61328 61429
61429 61528
61528 61629
61629 61728
61728 61805
61805 61904
61904 62002
62002 62101
62101 62200
62200 62297
62297 62395
62395 62493
62493 62590
62590 62689
62689 62785
62785 62881
62881 62977
62977 63072
63072 63168
63168 63265
63265 63360
63360 63456
63456 63553
63553 63649
63649 63745
63745 63842
63842 63939
63939 64037
64037 64134
64134 64233
64233 64332
64332 64430
64430 64528
64528 64627
64627 64726
64726 64825
64825 64925
64925 65025
65025 65126
65126 65226
65226 65326
65326 65427
65427 65528
65528 65628
65628 65729
65729 65830
65830 65931
65931 66030
66030 66082
66082 66181
66181 66280
66280 66378
66378 66476
66476 66574
66574 66671
66671 66768
66768 66865
66865 66963
66963 67060
67060 67156
67156 67253
67253 67362
67362 67447
67447 67544
67544 67640
67640 67738
67738 67836
67836 67933
67933 68031
68031 68130
68130 68229
68229 68328
68328 68426
68426 68524
68524 68623
68623 68721
68721 68819
68819 68916
68916 69014
69014 69111
69111 69207
69303 69399
69399 69495
