1419 1489
1489 1610
2564 2635
2635 2753
4360 4548
4548 4642
4642 4737
4737 4831
4831 4925
4925 5019
5019 5144
5144 5239
5239 5332
5332 5427
5427 5522
5522 5617
5617 5711
5711 5807
5807 5902
5902 6032
6032 6126
6126 6219
6219 6313
6313 6406
6406 6500
6500 6595
6595 6688
6688 6783
6783 6878
6878 6973
6973 7068
7068 7164
7164 7261
7261 7357
7357 7454
7454 7552
7552 7650
7650 7746
7746 7842
7842 7938
7938 8031
8031 8125
8125 8220
8220 8315
8315 8410
8410 8504
8504 8601
8601 8698
8698 8794
8794 8890
8890 8988
8988 9086
9086 9183
9183 9279
9279 9376
9376 9471
9471 9566
9566 9659
9659 9754
9754 9847
9847 9943
9943 10037
10037 10131
10131 10226
10226 10321
10321 10415
10415 10511
10511 10606
10606 10702
10702 10798
10798 10894
10894 10990
10990 11039
11039 11137
11137 11235
11235 11333
11333 11430
11430 11528
11528 11627
11627 11725
11725 11823
11823 11921
11921 12018
12018 12115
12115 12213
12213 12310
12310 12407
12407 12504
12504 12602
12602 12698
12698 12795
12795 12891
12891 12987
12987 13082
13082 13178
13178 13273
13273 13368
13368 13463
13463 13558
13558 13653
13653 13748
13748 13938
13938 14034
14034 14129
14129 14224
14224 14320
14320 14416
14416 14512
14512 14608
14608 14704
14704 14801
14801 14896
14896 14991
14991 15087
15087 15195
15195 15277
15277 15373
15373 15468
15468 15564
15564 15659
15659 15754
15754 15850
15850 15945
15945 16042
16042 16139
16139 16236
16236 16333
16333 16432
16432 16530
16530 16628
16628 16726
16726 16824
16824 16922
16922 17031
17031 17115
17115 17212
17212 17310
17310 17406
17406 17501
17501 17596
17596 17691
17691 17786
17786 17881
17881 17976
17976 18071
18071 18166
18166 18260
18260 18355
18355 18450
18450 18545
18545 18640
18640 18736
18736 18832
18832 18928
18928 19025
19025 19113
19113 19197
19197 19293
19293 19390
19390 19500
19500 19583
19583 19679
19679 19775
19775 19872
19872 19945
19945 20065
20065 20163
20163 20261
20261 20359
20359 20457
20457 20554
20554 20653
20653 20749
20749 20846
20846 20943
20943 21039
21039 21135
21135 21230
21230 21326
21326 21421
21421 21517
21517 21626
21626 21707
21707 21802
21802 21898
21898 21992
21992 22088
22088 22184
22184 22280
22280 22376
22376 22472
22472 22567
22567 22662
22662 22759
22759 22851
22851 22945
22945 23040
23040 23134
23134 23228
23228 23321
23321 23416
23416 23509
23509 23604
23604 23699
23699 23792
23792 23887
23887 23981
23981 24075
24075 24169
24169 24276
24276 24357
24357 24451
24451 24545
24545 24653
24653 24734
24734 24827
24827 24922
24922 25062
25062 25157
25157 25253
25253 25347
25347 25442
25442 25538
25538 25633
25633 25729
25729 25824
25824 25935
25935 26073
26073 26155
26155 26252
26252 26349
26349 26444
26444 26540
26540 26636
26636 26732
26732 26827
26827 26924
26924 27021
27021 27117
27117 27214
27214 27310
27310 27408
27408 27504
27504 27602
27602 27698
27698 27810
27810 27906
