355 481
6599 6674
6674 6710
6859 6933
6933 7008
7008 7082
7082 7156
7156 7229
7229 7303
7303 7377
7377 7452
7452 7527
7527 7602
7602 7676
7676 7751
7751 7826
7826 7900
7900 7973
7973 8046
8046 8119
8119 8192
8192 8265
8265 8339
8339 8412
8412 8486
8486 8559
8559 8633
8633 8706
8706 8780
8780 8853
8853 8927
8927 9002
9002 9076
9076 9150
9150 9225
9225 9299
9299 9372
9372 9445
9445 9518
9518 9592
9592 9665
9665 9739
9739 9814
9814 9890
9890 9966
9966 10044
10044 10121
10121 10196
10196 10272
10272 10347
10347 10422
10422 10497
10497 10573
10573 10649
10649 10725
10725 10801
10801 10877
10877 10954
10954 11030
11030 11105
11105 11179
11179 11253
11253 11328
11328 11402
11402 11477
11477 11552
11552 11625
11625 11700
11700 11773
11773 11846
11846 11918
11918 11991
11991 12063
12063 12135
12135 12206
12206 12277
12277 12349
12349 12420
12420 12492
12492 12564
12564 12637
12637 12710
12710 12783
12783 12857
12857 12931
12931 13005
13005 13079
13079 13152
13152 13225
13225 13298
13298 13371
13371 13445
13445 13519
13519 13592
13592 13665
13665 13738
13738 13812
13812 13885
13885 13958
13958 14030
14030 14102
14102 14175
14175 14247
14247 14320
14320 14391
14391 14463
14463 14534
14534 14606
14606 14676
14676 14749
14749 14820
14820 14892
14892 14965
14965 15037
15037 15109
15109 15182
15182 15254
15254 15327
15327 15399
15399 15473
15473 15546
15546 15620
15620 15692
15692 15815
15815 15889
15889 15963
15963 16037
16037 16110
16110 16184
16184 16257
16257 16331
16331 16405
16405 16480
16480 16555
16555 16630
16630 16703
16703 16777
16777 16850
16850 16924
16924 16998
16998 17071
17071 17144
17144 17219
17219 17292
17292 17366
17366 17441
17441 17516
17516 17589
17589 17663
17663 17737
17737 17811
17811 17885
17885 17959
17959 18033
18033 18106
18106 18179
18179 18253
18253 18326
18326 18398
18398 18469
18469 18542
18542 18613
18613 18684
18684 18756
18756 18802
18802 18873
18873 18944
18944 19016
19016 19088
19088 19163
19163 19239
19239 19315
19315 19393
19393 19472
19472 19550
19550 19629
19629 19707
19707 19786
19786 19863
19863 19942
19942 20019
20019 20097
20097 20176
20176 20254
20254 20331
20331 20409
20409 20486
20486 20562
20562 20637
20637 20710
20710 20783
20783 20856
20856 20928
20928 20999
20999 21045
21045 21117
21117 21190
21190 21262
21262 21335
21335 21408
21408 21482
21482 21555
21555 21628
21628 21702
21702 21775
21775 21848
21848 21920
21920 21992
21992 22063
22063 22134
22134 22206
22206 22278
22278 22349
22349 22421
22421 22492
22492 22564
22564 22612
22612 22684
22684 22757
22757 22830
22830 22903
22903 22977
22977 23050
23050 23124
23124 23199
23199 23274
23274 23349
23349 23425
23425 23501
23501 23576
23576 23650
23650 23724
23724 23798
23798 23922
23922 23997
23997 24062
24062 24136
24136 24211
24211 24285
24285 24359
24359 24434
24434 24510
24510 24586
24586 24662
24662 24739
24739 24815
24815 24866
24866 24943
24943 25019
25019 25095
25095 25170
25170 25246
25246 25321
25321 25395
25395 25470
25470 25546
25546 25622
25622 25699
25699 25777
25777 25855
25855 25932
25932 26010
26010 26088
26088 26165
26165 26242
26242 26319
26319 26395
26395 26471
26471 26547
26547 26622
26622 26698
26698 26774
26774 26851
26851 26930
26930 27006
27006 27092
27092 27166
27166 27239
27239 27315
27315 27389
27389 27464
27464 27539
27539 27614
27614 27688
27688 27762
27762 27834
27834 27907
27907 27980
27980 28051
28051 28123
28123 28196
28196 28268
28268 28340
28340 28412
28412 28484
28484 28556
28556 28628
28628 28700
28700 28772
28772 28844
28844 28916
28916 28987
28987 29059
29059 29131
29131 29203
29203 29276
