316 359
427 496
496 564
974 1110
1110 1228
1228 1316
1316 1386
1386 1526
1526 1596
1596 1666
1666 1736
1736 1806
1806 1964
1964 2036
2036 2107
2107 2178
2178 2249
2249 2320
2320 2392
2392 2464
2464 2536
2536 2608
2608 2752
2752 2825
2825 2897
2897 2969
2969 3041
3041 3112
3112 3184
3184 3255
3255 3321
3321 3390
3390 3460
3460 3529
3529 3598
3598 3668
3668 3737
3737 3806
3806 3875
3875 3944
3944 4013
4013 4082
4082 4151
4151 4220
4220 4289
4289 4358
4358 4479
4479 4554
4554 4626
4626 4697
4697 4839
4839 4910
4910 5052
5052 5122
5122 5193
5193 5334
5334 5405
5405 5475
5475 5546
5546 5617
5617 5687
5687 5758
5758 5899
5899 6070
6070 6142
6142 6213
6213 6329
6329 6470
6470 6540
6540 6611
6611 6681
6681 6752
6752 6864
6864 6940
6940 7010
7010 7080
7080 7150
7150 7220
7220 7290
7290 7360
7360 7430
7430 7500
7500 7570
7570 7749
7749 7820
7820 7892
7892 7963
7963 8085
8085 8155
8155 8225
8225 8365
8365 8434
8434 8504
8504 8643
8643 8713
8713 8782
8782 8852
8852 8922
8922 8993
8993 9063
9063 9134
9134 9205
9205 9277
9277 9348
9348 9420
9420 9491
9491 9563
9563 9634
9634 9706
9706 9777
9777 9848
9848 9920
9920 9991
9991 10063
10063 10177
10177 10250
10250 10321
10321 10392
10392 10534
10534 10605
10605 10676
10676 10747
10747 10861
10861 10931
10931 11001
11001 11072
11072 11212
11212 11283
11283 11353
11353 11424
11424 11494
11494 11565
11565 11636
11636 11707
11707 11778
11778 11850
11850 11923
11923 11995
11995 12068
12068 12140
12140 12213
12213 12286
12286 12358
12358 12502
12502 12574
12574 12645
12645 12717
12717 12788
12788 12860
12860 12932
12932 13004
13004 13075
13075 13147
13147 13218
13218 13290
13290 13362
13362 13434
13434 13506
13506 13578
13578 13651
13651 13723
13723 13796
13796 13941
13941 14014
14014 14086
14086 14159
14159 14231
14231 14304
14304 14376
14376 14449
14449 14521
14521 14593
14593 14737
14737 14809
14809 14880
14880 15023
15023 15092
15092 15164
15164 15236
15236 15307
15307 15379
15379 15450
15450 15522
15522 15593
15593 15664
15664 15736
15736 15807
15807 15878
15878 15949
15949 16020
16020 16092
16092 16163
16163 16234
16234 16305
16305 16376
16376 16448
16448 16519
16519 16590
16590 16661
16661 16732
16732 16802
16802 16873
