650 762
762 831
831 900
900 968
968 1036
1036 1105
1105 1174
1174 1243
1243 1312
1312 1381
1381 1450
1450 1519
1519 1588
1588 1656
1656 1725
1725 1794
1794 1863
1863 1932
1932 2001
2001 2071
2071 2140
2140 2209
2209 2279
2279 2349
2349 2419
2419 2489
2489 2558
2558 2628
2628 2698
2698 2768
2768 2837
2837 2907
2907 2977
2977 3046
3046 3116
3116 3186
3186 3255
3255 3325
3325 3394
3394 3464
3464 3533
3533 3603
3603 3672
3672 3742
3742 3811
3811 3880
3880 3948
3948 3992
4241 4312
4312 4382
4382 4453
4453 4523
4523 4593
4593 4664
4664 4734
4734 4805
4805 4876
4876 4946
4946 5017
5017 5061
5061 5130
5130 5199
5199 5268
5268 5337
5337 5406
5406 5475
5475 5544
