7918 7993
7993 8037
10942 11042
11929 12004
12004 12099
13923 13997
13997 14037
16948 17021
17021 17057
17928 18000
18000 18103
18103 18178
18178 18253
18253 18327
18327 18403
18403 18478
18478 18554
18554 18628
18628 18703
18703 18777
18777 18851
18851 18924
18924 18997
18997 19059
19059 19132
19132 19206
19206 19279
19279 19352
19352 19425
19425 19497
19497 19570
19570 19643
19643 19716
19716 19788
19788 19861
19861 19934
19934 20007
20007 20046
20046 20120
20120 20194
20194 20268
20268 20342
20342 20417
20417 20491
20491 20565
20565 20640
20640 20715
20715 20790
20790 20865
20865 20939
20939 21037
21037 21112
21112 21187
21187 21263
21263 21338
21338 21413
21413 21488
21488 21563
21563 21638
21638 21713
21713 21788
21788 21863
