83 152
152 221
221 290
426 494
494 538
538 606
606 675
675 743
743 812
812 880
880 949
949 1017
1017 1086
1086 1154
1154 1222
1222 1291
1291 1360
1360 1429
1429 1497
1497 1566
1566 1635
1635 1704
1704 1773
1773 1842
1842 1911
1911 1980
1980 2049
2049 2119
2119 2188
2188 2257
2257 2301
2301 2371
2371 2442
2442 2512
2512 2582
2582 2652
2652 2722
2722 2793
2793 2863
2863 2934
2934 3004
3004 3075
3075 3146
3146 3216
3216 3287
3287 3358
3358 3429
3429 3500
3500 3571
3571 3642
3642 3714
3714 3785
3785 3857
3857 3929
3929 4000
4000 4049
4049 4123
4123 4197
4197 4270
4270 4345
4345 4419
4419 4493
4493 4567
4567 4641
4641 4716
4716 4791
4791 4864
4864 4939
4939 5013
5013 5088
5088 5162
5162 5236
5236 5311
5311 5386
5386 5460
5460 5534
5534 5608
5608 5682
5682 5755
5755 5829
5829 5902
5902 5975
5975 6048
6048 6120
6120 6193
6193 6265
6265 6337
6337 6409
6409 6481
6481 6552
6552 6623
6623 6694
6694 6766
6766 6837
6837 6907
6907 6978
6978 7048
7048 7119
7119 7190
7190 7260
7260 7330
7330 7401
7401 7471
7471 7542
7542 7612
7612 7682
7682 7753
7753 7823
7823 7894
7894 7964
7964 8035
8035 8105
8105 8176
8176 8247
8247 8318
8318 8388
8388 8459
8459 8530
8530 8601
8601 8673
8673 8744
8744 8815
8815 8887
8887 8958
8958 9030
9030 9101
9101 9173
9173 9245
9245 9317
9317 9388
9388 9460
9460 9532
9532 9604
9604 9676
9676 9748
9748 9820
9820 9892
9892 9964
9964 10037
10037 10108
10108 10181
10181 10253
10253 10326
10326 10398
10398 10470
10470 10543
10543 10616
10616 10689
10689 10762
10762 10835
10835 10908
10908 10981
10981 11055
11055 11129
11129 11201
11201 11274
11274 11348
11348 11422
11422 11496
11496 11569
11569 11642
11642 11716
11716 11790
11790 11863
11863 11937
11937 12010
12010 12083
12083 12157
12157 12230
12230 12303
12303 12376
12376 12449
12449 12522
12522 12595
12595 12668
12668 12741
12741 12814
12814 12887
12887 12959
12959 13032
13032 13105
13105 13178
13178 13251
13251 13323
13323 13396
13396 13470
13470 13543
13543 13615
13615 13688
13688 13762
13762 13835
13835 13908
13908 13980
13980 14054
14054 14127
14127 14200
14200 14273
14273 14346
14346 14419
14419 14493
14493 14566
14566 14639
14639 14712
14712 14785
14785 14859
14859 14933
14933 15007
15007 15080
15080 15154
15154 15228
15228 15303
15303 15377
15377 15452
15452 15525
15525 15600
15600 15675
15675 15750
15750 15825
15825 15899
15899 15974
15974 16049
16049 16124
16124 16199
16199 16274
16274 16349
16349 16425
16425 16500
16500 16575
16575 16650
16650 16725
16725 16801
16801 16876
16876 16952
16952 17027
17027 17101
17101 17176
17176 17252
17252 17327
17327 17402
17402 17477
17477 17552
17552 17627
17627 17703
17703 17778
17778 17853
17853 17927
17927 18002
18002 18077
18077 18152
18152 18227
18227 18301
18301 18375
18375 18450
18450 18525
18525 18600
18600 18674
18674 18749
18749 18823
18823 18897
18897 18972
18972 19047
19047 19120
19120 19195
19195 19269
19269 19344
19344 19418
19418 19492
19492 19566
19566 19641
19641 19715
19715 19790
19790 19864
19864 19939
19939 20014
20014 20089
20089 20165
20165 20240
20240 20315
20315 20390
20390 20465
20465 20541
20541 20616
20616 20692
20692 20766
20766 20842
20842 20918
20918 20993
20993 21069
21069 21143
21143 21219
21219 21295
21295 21370
21370 21445
21445 21520
21520 21596
21596 21671
21671 21747
21747 21822
21822 21897
21897 21971
21971 22046
22046 22122
22122 22197
22197 22272
22272 22347
22347 22421
22421 22496
22496 22571
22571 22646
22646 22721
22721 22795
22795 22869
22869 22943
22943 23018
23018 23093
23093 23167
23167 23241
23241 23315
23315 23390
23390 23464
23464 23539
23539 23613
23613 23687
23687 23761
23761 23836
23836 23911
23911 23986
23986 24061
24061 24135
24135 24210
24210 24285
24285 24360
24360 24435
24435 24509
24509 24584
24584 24659
24659 24734
24734 24809
24809 24883
24883 24958
24958 25033
25033 25109
25109 25184
25184 25259
25259 25334
25334 25409
25409 25485
25485 25560
25560 25636
25636 25712
25712 25786
25786 25862
25862 25938
25938 26014
26014 26090
26090 26165
26165 26240
26240 26316
26316 26392
26392 26467
26467 26543
26543 26617
26617 26692
26692 26768
26768 26844
26844 26919
26919 26995
26995 27069
27069 27145
27145 27221
27221 27296
27296 27372
27372 27447
27447 27523
27523 27599
27599 27676
27676 27751
27751 27827
27827 27903
27903 27979
27979 28055
28055 28130
28130 28205
28205 28281
28281 28357
28357 28433
28433 28508
28508 28583
28583 28658
28658 28734
28734 28809
28809 28885
28885 28960
28960 29034
29034 29110
29110 29186
29186 29262
29262 29337
29337 29412
29412 29488
29488 29564
29564 29640
29640 29716
29716 29791
29791 29867
29867 29943
29943 30019
30019 30095
30095 30171
30171 30247
30247 30323
30323 30400
30400 30475
30475 30552
30552 30628
30628 30704
30704 30781
30781 30856
30856 30932
30932 31009
31009 31085
31085 31161
31161 31236
31236 31312
31312 31388
31388 31464
31464 31539
31539 31615
31615 31691
31691 31766
31766 31842
31842 31916
31916 31992
31992 32067
32067 32142
32142 32217
32217 32292
32292 32366
32366 32442
32442 32517
32517 32592
32592 32666
32666 32740
32740 32815
32815 32890
32890 32965
32965 33039
33039 33113
33113 33188
33188 33263
33263 33337
33337 33411
33411 33486
33486 33561
33561 33635
33635 33710
33710 33783
33783 33858
33858 33933
33933 34008
34008 34083
34083 34158
34158 34232
34232 34307
34307 34383
34383 34458
34458 34533
34533 34607
34607 34683
34683 34758
34758 34833
34833 34878
34878 34952
34952 35027
35027 35121
35121 35195
35195 35269
35269 35344
35344 35418
35418 35492
35492 35566
35566 35641
35641 35715
35715 35789
35789 35897
35897 35971
35971 36046
36046 36120
36120 36193
36193 36268
36268 36342
36342 36416
36416 36489
36489 36564
36564 36638
36638 36712
36712 36786
36786 36860
36860 36935
36935 37009
37009 37083
37083 37157
37157 37232
37232 37307
37307 37381
37381 37456
37456 37531
37531 37606
37606 37681
37681 37756
37756 37831
37831 37907
37907 37983
37983 38059
38059 38134
38134 38210
38210 38287
38287 38362
38362 38439
38439 38515
38515 38590
38590 38666
38666 38743
38743 38820
38820 38897
38897 38973
38973 39050
39050 39127
39127 39205
39205 39281
39281 39358
39358 39436
39436 39513
39513 39591
39591 39669
39669 39747
39747 39825
39825 39903
39903 39982
39982 40060
40060 40138
40138 40216
40216 40295
40295 40373
40373 40451
40451 40529
40529 40608
40608 40686
40686 40763
40763 40842
40842 40921
40921 40999
40999 41085
41085 41164
41164 41242
41242 41319
41319 41396
41396 41474
41474 41553
41553 41633
41633 41711
41711 41789
41789 41865
41865 41943
41943 42022
42022 42101
42101 42178
42178 42255
42255 42332
42332 42411
42411 42490
42490 42568
42568 42646
42646 42722
42722 42800
42800 42879
42879 42957
42957 43034
43034 43112
43112 43190
43190 43269
43269 43347
43347 43424
43424 43503
43503 43581
43581 43659
43659 43737
43737 43815
43815 43894
43894 43972
43972 44050
44050 44128
44128 44206
44206 44284
44284 44363
44363 44441
44441 44518
44518 44597
44597 44676
44676 44754
44754 44831
44831 44910
44910 44989
44989 45069
45069 45148
45148 45226
45226 45306
45306 45386
45386 45466
45466 45544
45544 45623
45623 45703
45703 45783
45783 45864
45864 45943
45943 46022
46022 46101
46101 46181
46181 46261
46261 46341
46341 46419
46419 46498
46498 46578
46578 46658
46658 46739
46739 46819
46819 46896
46896 46975
46975 47055
47055 47135
47135 47214
47214 47292
47292 47372
47372 47452
47452 47585
47585 47664
47664 47744
47744 47825
47825 47906
47906 47985
47985 48065
48065 48146
48146 48227
48227 48307
48307 48387
48387 48468
48468 48550
48550 48632
48632 48712
48712 48793
48793 48875
48875 48957
48957 49036
49036 49116
49116 49198
49198 49280
49280 49361
49361 49440
49440 49520
49520 49602
49602 49682
49682 49762
49762 49842
49842 49922
49922 50001
50001 50055
50055 50135
50135 50214
50214 50291
50291 50369
50369 50448
50448 50526
50526 50603
50603 50679
50679 50757
50757 50834
50834 50910
50910 50985
50985 51033
51033 51106
51106 51178
51178 51250
51250 51324
51324 51397
51397 51470
51470 51542
51542 51615
51615 51688
51688 51761
51761 51834
51834 51906
51906 51979
51979 52052
52052 52125
52125 52198
52198 52271
52271 52344
52344 52417
52417 52490
52490 52563
52563 52636
52636 52710
52710 52782
52782 52855
52855 52929
52929 53002
53002 53075
53075 53148
53148 53221
53221 53295
53295 53368
53368 53442
53442 53515
53515 53589
53589 53663
53663 53738
53738 53812
53812 53886
53886 53961
53961 54036
54036 54111
54111 54186
54186 54261
54261 54337
54337 54413
