38 110
110 183
183 255
255 327
327 400
400 472
472 545
545 617
617 690
690 762
762 835
980 1056
1056 1128
1128 1199
1199 1271
1271 1342
1342 1413
1413 1484
1484 1555
1555 1626
1626 1698
1698 1769
1769 1840
1840 1912
1912 1983
1983 2054
2054 2124
2124 2195
2195 2266
2266 2337
2337 2408
2408 2479
2479 2550
2550 2621
2621 2691
2691 2762
2762 2834
2834 2906
2906 2978
2978 3051
3051 3124
3124 3197
3197 3270
3270 3343
3343 3416
3416 3489
3489 3562
3562 3635
3635 3707
3707 3779
3779 3851
3851 3922
3922 3994
3994 4066
4066 4138
4138 4211
4211 4285
4285 4358
4358 4433
4433 4507
4507 4582
4582 4657
4657 4732
4732 4808
4808 4884
4884 4960
4960 5036
5036 5112
5112 5187
5187 5263
5263 5339
5339 5414
5414 5490
5490 5565
5565 5640
5640 5716
5716 5790
5790 5865
5865 5940
5940 6015
6015 6089
6089 6163
6163 6237
6237 6311
6311 6385
6385 6459
6459 6533
6533 6608
6608 6683
6683 6758
6758 6833
6833 6907
6907 6982
6982 7057
7057 7131
7131 7206
7206 7280
7280 7354
7354 7429
7429 7503
7503 7578
7578 7652
7652 7726
7726 7801
7801 7875
7875 7949
7949 8022
8022 8096
8096 8170
8170 8244
8244 8318
8318 8391
8391 8465
8465 8538
8538 8612
8612 8686
8686 8760
8760 8835
8835 8909
8909 8983
8983 9058
9058 9133
9133 9208
9208 9283
9283 9359
9359 9436
9436 9513
9513 9591
9591 9670
9670 9748
9748 9826
9826 9904
9904 9982
9982 10060
10060 10136
10136 10212
10212 10287
10287 10361
10361 10436
10436 10509
10509 10583
10583 10658
10658 10733
10733 10808
10808 10882
10882 10958
10958 11033
11033 11108
11108 11174
11174 11258
11258 11333
11333 11409
11409 11484
11484 11559
11559 11634
11634 11708
11708 11783
11783 11858
11858 11932
11932 12006
12006 12110
12110 12183
12183 12256
12256 12328
12328 12401
12401 12457
12457 12545
12545 12620
12620 12693
12693 12766
12766 12839
12839 12912
12912 12985
12985 13058
13058 13130
13130 13203
13203 13276
13276 13348
13348 13421
13421 13494
13494 13567
13567 13639
13639 13712
13712 13786
13786 13858
13858 13931
13931 14004
14004 14077
14077 14150
14150 14222
14222 14295
14295 14368
14368 14442
14442 14515
14515 14589
14589 14662
14662 14735
14735 14809
14809 14882
14882 14954
14954 15027
15027 15099
15099 15172
15172 15243
15243 15315
15315 15386
15386 15457
15457 15529
15529 15600
15600 15672
15672 15744
15744 15816
15816 15888
15888 15960
15960 16033
16033 16105
16105 16178
16178 16250
16250 16323
16323 16395
16395 16468
16468 16540
16540 16612
16612 16685
16685 16757
16757 16830
16830 16902
16902 16975
16975 17047
17047 17120
17120 17193
17193 17265
17265 17338
17338 17410
17410 17482
17482 17555
17555 17627
17627 17699
17699 17771
17771 17844
17844 17917
17917 17990
17990 18064
18064 18137
18137 18211
18211 18284
18284 18358
18358 18431
18431 18505
18505 18579
18579 18654
18654 18728
18728 18803
18803 18877
18877 18952
18952 19027
19027 19102
19102 19178
19178 19254
19254 19330
19330 19406
19406 19482
19482 19557
19557 19634
19634 19711
19711 19787
19787 19863
19863 19939
19939 20015
20015 20092
20092 20169
20169 20246
20246 20323
20323 20398
20398 20473
20473 20547
20547 20622
20622 20696
20696 20770
20770 20843
20843 20916
20916 20989
20989 21062
21062 21135
21135 21207
21207 21279
21279 21352
21352 21424
21424 21496
21496 21567
21567 21639
21639 21710
21710 21781
21781 21853
21853 21924
21924 21996
21996 22068
22068 22141
22141 22213
22213 22287
22287 22359
22359 22432
22432 22505
22505 22577
22577 22649
22649 22721
22721 22793
22793 22865
22865 22936
22936 23033
23033 23106
23106 23179
23179 23251
23251 23323
23323 23396
23396 23469
23469 23543
23543 23615
23615 23688
23688 23761
23761 23834
23834 23906
23906 23979
23979 24051
24051 24124
24124 24197
24197 24270
24270 24343
24343 24417
24417 24492
24492 24566
24566 24640
24640 24715
24715 24789
24789 24863
24863 24938
24938 25013
25013 25088
25088 25163
25163 25239
25239 25314
25314 25390
25390 25465
25465 25541
25541 25617
25617 25694
25694 25770
25770 25848
25848 25925
25925 26002
26002 26080
26080 26158
26158 26235
26235 26313
26313 26390
26390 26468
26468 26546
26546 26622
26622 26698
26698 26773
26773 26849
26849 26923
26923 26998
26998 27073
27073 27149
27149 27224
27224 27300
27300 27376
27376 27447
27447 27528
27528 27604
27604 27681
27681 27757
27757 27833
27833 27909
27909 27985
27985 28061
28061 28137
28137 28213
28213 28290
28290 28366
28366 28443
28443 28520
28520 28597
28597 28674
28674 28751
28751 28827
28827 28903
28903 28979
28979 29080
29080 29152
29152 29224
29224 29296
29296 29368
29368 29441
29441 29513
29513 29586
29586 29658
29658 29731
29731 29803
29803 29876
29876 29948
29948 30044
30044 30119
30119 30185
30185 30269
30269 30344
30344 30419
30419 30494
30494 30569
30569 30644
30644 30719
30719 30795
30795 30870
30870 30945
30945 31020
31020 31096
31096 31172
31172 31248
31248 31325
31325 31402
31402 31478
31478 31555
31555 31631
31631 31708
31708 31784
31784 31860
31860 31936
31936 32012
32012 32088
32088 32164
32164 32239
32239 32315
32315 32391
32391 32467
32467 32543
32543 32619
32619 32695
32695 32770
32770 32846
32846 32921
32921 32997
32997 33072
33072 33148
33148 33224
33224 33300
33300 33377
33377 33455
33455 33531
33531 33608
33608 33685
33685 33762
33762 33840
33840 33918
33918 33996
33996 34073
34073 34151
34151 34229
34229 34308
34308 34388
34388 34469
34469 34550
34550 34631
34631 34710
34710 34790
34790 34869
34869 34947
34947 35023
35023 35099
35099 35176
35176 35252
35252 35328
35328 35405
35405 35481
35481 35559
35559 35639
35639 35720
35720 35801
35801 35883
35883 35965
35965 36046
36046 36127
36127 36208
36208 36287
36287 36366
36366 36445
36445 36523
36523 36600
36600 36677
36677 36754
36754 36831
36831 36908
36908 36985
36985 37073
37073 37155
37155 37235
37235 37315
37315 37393
37393 37471
37471 37549
37549 37626
37626 37703
37703 37780
37780 37856
37856 37931
37931 38007
38007 38082
38082 38157
38157 38232
38232 38307
38307 38382
38382 38457
38457 38532
38532 38606
38606 38682
38682 38757
38757 38832
38832 38908
38908 38979
38979 39059
39059 39135
39135 39211
39211 39288
39288 39366
39366 39444
39444 39526
39526 39608
39608 39691
39691 39774
39774 39857
39857 39940
39940 40024
40024 40106
40106 40188
40188 40268
40268 40347
40347 40426
40426 40504
40504 40582
40582 40659
40659 40737
40737 40814
40814 40891
40891 40969
40969 41046
41046 41124
41124 41201
41201 41278
41278 41354
41354 41429
41429 41506
41506 41566
41566 41659
41659 41741
41741 41819
41819 41897
41897 41974
41974 42051
42051 42126
42126 42201
42201 42276
42276 42350
42350 42423
42423 42496
42496 42569
42569 42641
42641 42713
42713 42786
42786 42858
42858 42931
42931 43004
43004 43078
43078 43152
43152 43225
43225 43299
43299 43372
43372 43446
43446 43519
43519 43591
43591 43665
43665 43730
43730 43810
43810 43884
43884 43956
43956 44029
44029 44102
44102 44176
44176 44249
44249 44323
44323 44397
44397 44471
44471 44545
44545 44619
44619 44693
44693 44767
44767 44841
44841 44915
44915 44989
44989 45062
45062 45136
45136 45210
45210 45285
45285 45360
45360 45435
45435 45511
45511 45589
45589 45667
45667 45747
45747 45830
45830 45916
45916 46006
46006 46078
46078 46153
46153 46228
46228 46302
46302 46376
46376 46450
46450 46524
46524 46598
46598 46672
46672 46746
46746 46820
46820 46895
46895 46969
46969 47044
47044 47121
47121 47198
47198 47276
47276 47354
47354 47434
47434 47513
47513 47595
47595 47677
47677 47760
47760 47843
47843 47928
47928 48015
48015 48124
48124 48207
48207 48290
48290 48372
48372 48454
48454 48536
48536 48618
48618 48700
48700 48785
48785 48866
48866 48947
48947 49025
49025 49104
49104 49183
49183 49261
49261 49339
49339 49417
49417 49495
49495 49572
49572 49651
49651 49729
49729 49807
49807 49884
49884 49961
49961 50039
50039 50116
50116 50194
50194 50273
50273 50352
50352 50409
50409 50515
50515 50602
50602 50684
50684 50763
50763 50841
50841 50918
50918 50994
50994 51071
51071 51148
51148 51225
51225 51303
51303 51360
51360 51464
51464 51552
51552 51634
51634 51714
51714 51793
51793 51871
51871 51950
51950 52030
52030 52110
52110 52190
52190 52270
52270 52350
52350 52431
52431 52511
52511 52590
52590 52672
52672 52753
52753 52834
52834 52915
52915 52995
52995 53085
53085 53161
53161 53238
53238 53314
53314 53390
53390 53465
53465 53541
53541 53617
53617 53693
53693 53770
53770 53846
53846 53923
53923 54000
54000 54077
54077 54154
54154 54231
54231 54308
54308 54385
54385 54461
54461 54538
54538 54615
54615 54691
54691 54768
54768 54845
54845 54921
54921 54998
54998 55074
55074 55150
55150 55227
55227 55305
55305 55382
55382 55459
55459 55536
55536 55612
55612 55689
55689 55765
55765 55841
55841 55917
55917 55994
55994 56071
56071 56147
56147 56224
56224 56301
56301 56379
56379 56456
56456 56534
56534 56611
56611 56688
56688 56766
56766 56843
56843 56920
56920 56997
