821 901
2771 2854
2854 2936
8974 9094
9173 9253
10073 10152
10934 11045
15738 15815
15815 15892
15892 15970
15970 16047
16047 16124
16124 16201
16201 16280
16280 16359
16359 16439
16439 16517
16517 16595
16595 16672
16672 16732
16732 16831
16831 16914
16914 16994
16994 17073
17073 17152
17152 17231
17231 17311
17311 17391
17391 17472
17472 17553
17553 17635
17635 17717
17717 17787
17787 17885
17885 17969
17969 18052
18052 18134
18134 18216
18216 18297
18297 18370
18370 18458
18458 18538
18538 18618
18618 18699
18699 18779
18779 18859
18859 18939
18939 19040
19040 19120
19120 19199
19199 19277
19277 19354
19354 19431
19431 19507
19507 19584
19584 19660
19660 19736
19736 19813
19813 19892
19892 19971
19971 20050
20050 20128
20128 20207
20207 20286
20286 20368
20368 20452
20452 20535
20535 20619
20619 20704
20704 20789
20789 20874
20874 20961
20961 21047
21047 21133
21133 21207
21207 21299
21299 21383
21383 21468
21468 21551
21551 21636
21636 21720
21720 21803
21803 21885
21885 21966
21966 22047
22047 22130
22130 22211
22211 22291
22291 22371
22371 22450
22450 22531
22531 22610
22610 22689
22689 22768
22768 22849
22849 22983
22983 23070
23070 23149
23149 23228
23228 23306
23306 23386
23386 23444
23444 23546
23546 23630
23630 23712
23712 23792
23792 23871
23871 23951
23951 24031
24031 24110
24110 24189
24189 24267
24267 24344
24344 24421
24421 24498
24498 24576
24576 24653
24653 24731
24731 24796
24796 24887
24887 24966
24966 25045
25045 25123
25123 25202
25202 25280
25280 25358
25358 25435
25435 25511
25511 25588
25588 25665
25665 25742
25742 25820
25820 25898
25898 25978
25978 26057
26057 26137
26137 26217
26217 26299
26299 26381
26381 26463
26463 26544
26544 26627
26627 26711
26711 26793
26793 26876
26876 26958
26958 27041
27041 27124
27124 27206
27206 27288
27288 27370
27370 27450
27450 27530
27530 27609
27609 27689
27689 27768
27768 27848
27848 27928
27928 28008
28008 28088
28088 28169
28169 28250
28250 28331
28331 28413
28413 28495
28495 28576
28576 28657
28657 28737
28737 28818
28818 28897
28897 28975
28975 29055
29055 29130
29130 29205
29205 29280
29280 29355
29355 29430
29430 29505
29505 29581
29581 29657
29657 29732
29732 29808
29808 29886
29886 29965
29965 30044
30044 30125
30125 30207
30207 30291
30291 30375
30375 30459
30459 30543
30543 30628
30628 30714
30714 30793
30793 30880
30880 30963
30963 31046
31046 31129
31129 31210
31210 31291
31291 31372
31372 31451
31451 31529
31529 31608
31608 31688
31688 31768
31768 31848
31848 31928
31928 32010
32010 32092
32092 32174
32174 32257
32257 32340
32340 32422
32422 32502
32502 32583
32583 32664
32664 32745
32745 32826
32826 32905
32905 32984
32984 33062
33062 33139
33139 33216
33216 33293
33293 33370
33370 33447
33447 33524
33524 33601
33601 33677
33677 33754
33754 33830
33830 33907
33907 33983
33983 34059
34059 34135
34135 34212
34212 34289
34289 34366
34366 34444
34444 34524
34524 34603
34603 34682
34682 34761
34761 34842
34842 34923
34923 35005
35005 35115
35115 35193
35193 35271
35271 35349
35349 35427
35427 35504
35504 35582
35582 35661
35661 35739
35739 35818
35818 35898
35898 35977
35977 36057
36057 36135
36135 36213
36213 36291
36291 36368
36368 36445
36445 36522
36522 36598
36598 36668
36668 36746
36746 36826
36826 36902
36902 36979
36979 37056
37056 37133
37133 37211
37211 37289
37289 37368
37368 37447
37447 37516
37516 37603
37603 37682
37682 37759
37759 37836
37836 37913
37913 37990
37990 38068
38068 38145
38145 38222
38222 38299
38299 38375
38375 38452
38452 38528
38528 38606
38606 38687
38687 38767
38767 38847
38847 38926
38926 39031
39031 39114
39114 39196
39196 39278
39278 39362
39362 39427
39427 39528
39528 39612
39612 39697
39697 39782
39782 39866
39866 39952
39952 40037
40037 40120
40120 40203
40203 40286
40286 40370
40370 40454
40454 40539
40539 40622
40622 40703
40703 40783
40783 40864
40864 40943
40943 41023
41023 41103
41103 41182
41182 41260
41260 41338
41338 41417
41417 41495
41495 41572
41572 41649
41649 41726
41726 41802
41802 41877
41877 41953
41953 42027
42027 42103
42103 42178
42178 42255
42255 42333
42333 42411
42411 42489
42489 42567
42567 42645
42645 42723
42723 42793
42793 42878
42878 42956
42956 43033
43033 43110
43110 43188
43188 43266
43266 43344
43344 43422
43422 43501
43501 43581
43581 43661
43661 43741
43741 43820
43820 43900
43900 43980
43980 44060
44060 44140
44140 44221
44221 44301
44301 44382
44382 44464
44464 44544
44544 44624
44624 44704
44704 44784
44784 44864
44864 44945
44945 45027
45027 45111
45111 45196
45196 45281
45281 45366
45366 45450
45450 45536
45536 45621
45621 45704
45704 45786
45786 45867
45867 45946
45946 46025
46025 46102
46102 46178
46178 46255
46255 46331
46331 46406
46406 46482
46482 46558
46558 46634
46634 46710
46710 46787
46787 46864
46864 46940
46940 47017
47017 47094
47094 47171
47171 47247
47247 47322
47322 47397
47397 47472
47472 47547
47547 47623
47623 47698
47698 47774
47774 47851
47851 47928
47928 48006
48006 48065
48065 48143
48143 48222
48222 48300
48300 48379
48379 48460
48460 48540
48540 48620
48620 48700
48700 48780
48780 48858
48858 48937
48937 49014
49014 49092
49092 49161
49161 49246
49246 49323
49323 49400
49400 49479
49479 49557
49557 49634
49634 49711
49711 49788
49788 49865
49865 49943
49943 50020
50020 50097
50097 50174
50174 50251
50251 50329
50329 50406
50406 50483
50483 50561
50561 50639
50639 50718
50718 50797
50797 50878
50878 50959
50959 51043
51043 51126
51126 51207
51207 51288
51288 51368
51368 51449
51449 51529
51529 51609
51609 51689
51689 51768
51768 51847
51847 51926
51926 52004
52004 52082
52082 52159
52159 52238
52238 52315
52315 52392
52392 52469
52469 52546
52546 52622
52622 52698
52698 52774
52774 52851
52851 52928
52928 53006
53006 53083
53083 53160
53160 53238
53238 53316
53316 53393
53393 53470
53470 53547
53547 53623
53623 53699
53699 53776
53776 53854
53854 53931
53931 54009
54009 54115
54115 54194
54194 54273
54273 54352
54352 54432
54432 54513
54513 54595
54595 54676
54676 54757
54757 54838
54838 54917
54917 54995
54995 55074
55074 55152
55152 55229
55229 55307
55307 55384
55384 55463
55463 55542
55542 55621
55621 55700
55700 55779
55779 55859
55859 55939
55939 56018
56018 56098
56098 56178
56178 56257
56257 56335
56335 56413
56413 56490
56490 56568
56568 56645
56645 56722
56722 56801
56801 56880
56880 56959
56959 57038
57038 57116
57116 57195
57195 57273
57273 57350
57350 57426
57426 57504
57504 57582
57582 57659
57659 57737
57737 57813
57813 57890
57890 57966
57966 58042
58042 58118
58118 58195
58195 58271
58271 58347
58347 58423
58423 58499
58499 58575
58575 58652
58652 58730
58730 58809
58809 58888
58888 58968
58968 59050
59050 59133
59133 59215
59215 59297
59297 59363
59363 59467
59467 59553
59553 59636
59636 59719
59719 59802
59802 59883
59883 59964
59964 60043
60043 60123
60123 60201
60201 60280
60280 60359
60359 60437
60437 60515
60515 60592
60592 60669
60669 60746
60746 60823
60823 60881
60881 60980
60980 61062
61062 61141
61141 61218
61218 61295
61295 61371
61371 61447
61447 61523
61523 61599
61599 61676
61676 61753
61753 61830
61830 61908
61908 61986
61986 62065
62065 62144
62144 62222
62222 62301
62301 62381
62381 62460
62460 62539
62539 62618
62618 62697
62697 62776
62776 62854
62854 62933
62933 63012
63012 63092
