3425 3503
3503 3542
5941 6037
6037 6132
6981 7086
7776 7860
11616 11692
11692 11767
11692 11767
11996 12073
12702 12779
12856 12934
12934 13011
13011 13087
13087 13162
13162 13237
13237 13312
13312 13388
13388 13464
13695 13772
13772 13849
13849 13927
13927 14004
14004 14081
14081 14157
14157 14233
14233 14309
14309 14384
14384 14456
14456 14533
14533 14608
14608 14683
14683 14758
14758 14834
14834 14911
14911 14988
14988 15065
15065 15141
15141 15217
15217 15293
15293 15370
15370 15446
15446 15523
15523 15600
15600 15677
15677 15754
15754 15831
15831 15909
15909 15986
15986 16064
16064 16143
16143 16222
16222 16301
16301 16382
16382 16462
16462 16542
16542 16620
16620 16698
16698 16773
16773 16849
16849 16924
16924 16998
16998 17075
17075 17151
17151 17228
17228 17304
17304 17381
17381 17457
17457 17534
17534 17610
17610 17686
17686 17764
17764 17840
17840 17916
17916 17993
17993 18071
18071 18147
18147 18224
18224 18300
18300 18376
18376 18452
18452 18528
18528 18603
18603 18678
18678 18753
18753 18828
18828 18903
18903 18977
18977 19051
19051 19125
19125 19200
19200 19275
19275 19351
19351 19427
19427 19504
19504 19581
19581 19658
19658 19736
19736 19815
19815 19894
19894 19973
19973 20051
20051 20129
20129 20205
20205 20281
20281 20355
20355 20425
20425 20502
20502 20576
20576 20648
20648 20722
20722 20796
20796 20870
20870 20946
20946 21021
21021 21097
21097 21172
21172 21247
21247 21320
21320 21399
21399 21475
21475 21551
21551 21626
21626 21703
21703 21779
21779 21855
21855 21931
21931 22009
22009 22065
22065 22141
22141 22216
22216 22291
22291 22366
22366 22441
22441 22515
22515 22590
22590 22661
22661 22738
22738 22813
22813 22888
22888 22963
22963 23089
23089 23163
23163 23238
23238 23313
23313 23389
23389 23465
23465 23540
23540 23616
23616 23691
23691 23766
23766 23842
23842 23918
23918 23995
23995 24073
24073 24151
24151 24231
24231 24313
24313 24397
24397 24480
24480 24562
24562 24644
24644 24718
24718 24807
24807 24888
24888 24967
24967 25080
25080 25150
25150 25226
25226 25311
25311 25389
25389 25465
25465 25541
25541 25618
25618 25694
25694 25770
25770 25846
25846 25921
25921 25996
25996 26072
26072 26148
26148 26225
26225 26302
26302 26379
26379 26457
26457 26535
26535 26613
26613 26691
26691 26770
26770 26848
26848 26926
26926 27005
27005 27083
27083 27161
27161 27238
27238 27316
27316 27393
27393 27465
27465 27545
27545 27623
27623 27699
27699 27774
27774 27849
27849 27924
27924 27999
27999 28074
28074 28150
28150 28225
28225 28301
28301 28377
28377 28452
28452 28528
28528 28603
28603 28678
28678 28753
28753 28828
28828 28902
28902 28977
28977 29051
29051 29126
29126 29199
29199 29274
29274 29349
29349 29423
29423 29498
29498 29573
29573 29647
29647 29722
29722 29797
29797 29872
29872 29946
29946 30022
30022 30099
30099 30177
30177 30255
30255 30333
30333 30412
30412 30490
30490 30567
30567 30643
30643 30720
30720 30796
30796 30873
30873 30949
30949 31024
31024 31100
31100 31175
31175 31251
31251 31326
31326 31401
31401 31477
31477 31553
31553 31630
31630 31706
31706 31782
31782 31858
31858 31933
31933 32008
32008 32082
32082 32156
32156 32231
32231 32306
32306 32382
32382 32457
32457 32531
32531 32606
32606 32682
32682 32760
32760 32837
32837 32914
32914 32991
32991 33068
33068 33147
33147 33226
33226 33306
33306 33386
33386 33467
33467 33547
33547 33625
33625 33705
33705 33784
33784 33863
33863 33941
33941 34020
34020 34098
34098 34176
34176 34254
34254 34333
34333 34411
34411 34490
34490 34569
34569 34648
34648 34727
34727 34805
34805 34884
34884 34964
34964 35043
35043 35122
35122 35202
35202 35281
35281 35360
35360 35439
35439 35516
35516 35594
35594 35671
35671 35748
35748 35825
35825 35903
35903 35979
35979 36056
36056 36132
36132 36208
36208 36285
36285 36361
36361 36437
36437 36512
36512 36577
36577 36662
36662 36737
36737 36812
36812 36886
36886 36961
36961 37035
37035 37109
37109 37184
37184 37259
37259 37334
37334 37410
37410 37485
37485 37561
37561 37636
37636 37710
37710 37786
37786 37861
37861 37936
37936 38011
38011 38086
38086 38161
38161 38237
38237 38312
38312 38388
38388 38463
38463 38538
38538 38613
38613 38688
38688 38763
38763 38837
38837 38911
38911 38984
38984 39057
39057 39130
39130 39203
39203 39276
39276 39350
39350 39424
39424 39499
39499 39574
39574 39650
39650 39728
39728 39806
39806 39886
39886 39967
39967 40049
40049 40132
40132 40214
40214 40295
40295 40376
40376 40456
40456 40534
40534 40611
40611 40688
40688 40765
40765 40841
40841 40917
40917 40992
40992 41067
41067 41142
41142 41217
41217 41292
41292 41366
41366 41440
41440 41515
41515 41590
41590 41665
41665 41740
41740 41816
41816 41892
41892 41969
41969 42048
42048 42126
42126 42205
42205 42283
42283 42362
42362 42439
42439 42516
42516 42592
42592 42668
42668 42744
42744 42820
42820 42896
42896 42972
42972 43049
43049 43125
43125 43202
43202 43279
43279 43357
43357 43434
43434 43512
43512 43590
43590 43668
43668 43745
43745 43823
43823 43899
43899 43975
43975 44051
44051 44127
44127 44202
44202 44277
44277 44353
44353 44430
44430 44506
44506 44583
44583 44661
44661 44738
44738 44816
44816 44880
44880 44949
44949 45047
45047 45125
45125 45200
45200 45276
45276 45351
45351 45426
45426 45501
45501 45576
45576 45651
45651 45725
45725 45799
45799 45873
45873 45948
45948 46022
46022 46097
46097 46172
46172 46247
46247 46322
46322 46397
46397 46473
46473 46549
46549 46626
46626 46702
46702 46779
46779 46855
46855 46931
46931 47007
47007 47083
47083 47159
47159 47233
47233 47308
47308 47382
47382 47457
47457 47531
47531 47606
47606 47681
47681 47755
47755 47830
47830 47904
47904 47978
47978 48053
48053 48128
48128 48204
48204 48281
48281 48357
48357 48434
48434 48513
48513 48591
48591 48670
48670 48748
48748 48828
48828 48908
48908 48988
48988 49068
49068 49148
49148 49229
49229 49310
49310 49391
49391 49473
49473 49555
49555 49638
49638 49721
49721 49804
49804 49888
49888 49973
49973 50057
50057 50139
50139 50219
50219 50298
50298 50375
50375 50452
50452 50528
50528 50604
50604 50680
50680 50755
50755 50831
50831 50908
50908 50984
50984 51060
51060 51136
51136 51212
51212 51288
51288 51363
51363 51439
51439 51514
51514 51589
51589 51665
51665 51741
51741 51818
51818 51895
51895 51973
51973 52050
52050 52127
52127 52203
52203 52278
52278 52355
52355 52431
52431 52507
52507 52584
52584 52660
52660 52737
52737 52813
52813 52890
52890 52967
52967 53031
53031 53104
53104 53178
53178 53252
53252 53326
53326 53400
53400 53473
53473 53546
53546 53609
53609 53678
53678 53769
53769 53844
53844 53918
53918 53992
53992 54067
54067 54142
54142 54217
54217 54292
54292 54367
54367 54444
54444 54522
54522 54600
54600 54677
54677 54755
54755 54832
54832 54908
54908 54984
54984 55067
55067 55142
55142 55217
55217 55292
55292 55367
55367 55443
55443 55520
55520 55596
55596 55673
55673 55750
55750 55828
55828 55906
55906 55985
55985 56064
56064 56142
56142 56219
56219 56296
56296 56372
56372 56449
56449 56524
56524 56580
56580 56675
56675 56754
56754 56829
56829 56904
56904 56978
56978 57051
57051 57124
57124 57197
57197 57271
57271 57345
57345 57419
57419 57495
57495 57571
57571 57648
57648 57726
57726 57804
57804 57883
57883 57962
57962 58040
