1750 1823
1750 1823
1823 1895
1895 1967
1967 2040
2040 2112
2112 2184
2184 2256
2256 2328
2328 2401
2401 2473
2473 2546
2546 2619
2619 2688
2688 2765
2765 2838
2838 2909
2909 2982
2982 3055
3055 3127
3127 3199
3199 3272
3272 3346
3346 3419
3419 3492
3492 3565
3565 3639
3639 3712
3712 3785
3785 3858
3858 3931
3931 4003
4003 4067
4067 4137
4137 4219
4219 4291
4291 4361
4361 4434
4434 4506
4506 4579
4579 4651
4651 4725
4725 4799
4799 4873
4873 4947
4947 5020
5020 5094
5094 5168
5168 5242
5242 5315
5315 5389
5389 5462
5462 5536
5536 5610
5610 5683
5683 5757
5757 5832
5832 5903
5981 6056
6132 6208
6208 6283
6283 6359
6742 6819
7207 7283
7283 7359
7359 7434
7434 7505
7582 7657
7657 7730
