253 344
2555 2645
2909 2994
5131 5220
5866 5986
6077 6167
7208 7307
8839 8930
8930 9022
10985 11078
11921 12013
11921 12013
12013 12068
17445 17547
18718 18817
21126 21221
21221 21315
21315 21406
21406 21497
21497 21588
21588 21680
21680 21771
21771 21861
21861 21953
21953 22066
22066 22157
22157 22248
22248 22337
22337 22426
22426 22516
22516 22608
22608 22700
22700 22791
22791 22881
22881 22971
22971 23059
23059 23140
23140 23221
23221 23302
23302 23383
23383 23465
23465 23548
23548 23632
23632 23718
23718 23807
23807 23898
23898 23990
23990 24109
24109 24198
24198 24288
24288 24380
24380 24471
24471 24562
24562 24652
24652 24743
24743 24835
24835 24926
24926 25018
25018 25055
25055 25139
25139 25221
25221 25303
25303 25386
25386 25469
25469 25555
25555 25641
25641 25729
25729 25819
25819 25912
25912 26009
26123 26208
