5173 5266
6007 6098
6098 6188
6279 6370
6370 6462
6462 6553
6553 6647
6647 6741
6741 6831
6831 6919
6919 7005
7005 7090
7090 7175
7175 7257
7257 7340
7340 7421
7421 7503
7503 7586
7586 7671
7671 7759
7759 7847
7847 7934
7934 8019
8019 8105
8105 8190
8190 8273
8273 8356
8356 8438
8438 8523
8523 8608
8608 8695
8695 8781
8781 8870
8870 8959
8959 9049
9049 9137
9137 9226
9226 9318
9318 9412
9412 9504
9504 9598
9598 9695
9695 9790
9790 9884
9884 9979
9979 10072
10072 10161
10161 10250
10250 10337
10337 10424
10424 10511
10511 10598
10598 10687
10687 10774
10774 10859
10859 10944
10944 11031
11031 11118
11118 11206
11206 11298
11298 11390
11390 11481
11481 11573
11573 11661
11661 11748
11748 11836
11836 11925
11925 12015
12015 12104
12104 12195
12195 12287
12287 12378
12378 12469
12469 12563
12563 12660
12660 12757
12757 12852
12852 12946
12946 13040
13040 13131
13131 13220
13220 13306
13306 13389
13389 13469
13469 13547
13547 13624
13624 13700
13700 13777
13777 13854
13854 13931
13931 14010
14010 14091
14091 14171
14171 14253
14253 14336
14336 14418
14418 14502
14502 14587
14587 14673
14673 14758
14758 14843
14843 14930
14930 15016
15016 15099
15099 15183
15183 15265
15265 15349
15349 15433
15433 15518
15518 15667
15667 15754
15754 15840
15840 15927
15927 16013
16013 16088
16088 16182
16182 16267
16267 16350
16350 16432
16432 16512
16512 16589
16589 16666
16666 16743
16743 16821
16821 16897
16897 16973
16973 17050
17050 17126
17126 17201
17201 17277
17277 17352
17352 17428
17428 17506
17506 17585
17585 17664
17664 17743
17743 17821
17821 17900
17900 17978
17978 18106
18106 18184
18184 18263
18263 18341
18341 18419
18419 18497
18497 18574
18574 18652
18652 18730
18730 18808
18808 18887
18887 18966
18966 19046
19046 19125
19125 19206
19206 19287
19287 19368
19368 19449
19449 19530
19530 19610
19610 19691
19691 19771
19771 19852
19852 19934
19934 20016
20016 20099
20099 20182
20182 20266
20266 20349
20349 20432
20432 20515
20515 20597
20597 20678
20678 20758
20758 20837
20837 20917
20917 20998
20998 21079
21079 21160
21160 21243
21243 21327
21327 21412
21412 21497
21497 21584
21584 21671
21671 21758
21758 21847
21847 21936
21936 22025
22025 22118
22118 22211
22211 22302
22302 22395
22395 22486
22486 22578
22578 22673
22673 22743
22743 22838
22838 22934
22934 23029
23029 23123
23123 23215
23215 23308
23308 23399
23399 23491
23491 23582
23582 23671
23671 23761
23761 23849
23849 23936
23936 24023
24023 24112
24112 24202
24202 24290
24290 24378
24378 24466
24466 24554
24554 24642
24642 24730
24730 24818
24818 24908
24908 24998
24998 25091
25091 25183
25183 25278
25278 25375
25375 25461
25461 25572
25572 25671
25671 25769
25769 25868
25868 25969
25969 26069
26069 26171
26171 26271
26271 26370
26370 26466
26466 26551
26551 26650
26650 26742
26742 26834
26834 26927
26927 27021
27021 27116
27116 27209
27209 27301
27301 27392
27392 27481
27481 27571
27571 27662
27662 27753
27753 27847
27847 27943
27943 28038
28038 28135
28135 28233
28233 28331
28331 28534
28534 28637
29592 29684
29778 29875
31554 31652
31652 31748
31748 31842
31842 31933
31933 32020
32020 32105
32105 32189
32189 32271
32271 32352
32352 32435
32435 32518
32518 32600
32600 32684
32684 32768
32768 32853
32853 32939
32939 33023
33023 33109
33109 33194
33194 33279
33279 33365
33365 33452
33452 33539
33539 33627
33627 33715
33715 33805
33805 33896
33896 33988
33988 34081
34081 34174
34174 34268
34268 34364
34364 34461
34461 34558
34558 34654
34654 34750
34750 34848
34848 34948
34948 35110
35110 35199
40435 40555
40555 40648
40648 40765
40765 40881
40881 40993
40993 41102
41102 41185
41185 41268
41268 41350
41350 41431
41431 41511
41511 41592
41592 41671
41671 41751
41751 41831
41831 41912
41912 41993
41993 42074
42074 42155
42155 42237
42237 42319
42319 42401
42401 42484
42484 42567
42567 42650
42650 42734
42734 42818
42818 42903
42903 42989
42989 43077
43077 43167
43167 43258
43258 43352
43352 43446
43446 43541
43541 43636
43636 43731
43731 43829
43829 43930
43930 44046
44046 44147
44147 44222
44222 44318
44318 44414
44414 44509
44509 44603
44603 44700
44700 44797
44797 44895
44895 44993
44993 45095
45095 45198
45198 45299
45299 45402
45402 45505
45505 45606
45606 45707
45707 45808
45808 45905
45905 46000
46000 46095
46095 46188
46188 46281
46281 46374
46374 46465
46465 46555
46555 46645
46645 46732
46732 46819
46819 46907
46907 46993
46993 47080
47080 47164
47164 47249
47249 47333
47333 47415
47415 47497
47497 47577
47577 47658
47658 47738
47738 47819
47819 47901
47901 47985
47985 48070
48070 48158
48158 48248
48248 48341
48341 48436
48436 48532
48532 48628
48628 48725
48725 48822
48822 48920
49045 49141
51269 51365
51365 51435
52797 52880
52964 53087
