185 259
2074 2154
2154 2234
2234 2313
2313 2392
2392 2472
2472 2553
2553 2635
2635 2717
2717 2800
2800 2883
2883 2964
2964 3045
3045 3124
3124 3205
3205 3284
3284 3363
3363 3443
3443 3523
3523 3602
3602 3681
3681 3761
3761 3841
3841 3919
3919 3998
3998 4077
4077 4156
4156 4234
4234 4313
4313 4391
4391 4471
4471 4550
4550 4630
4630 4710
