468 539
539 610
610 725
2826 2899
2899 2972
2972 3023
3023 3083
3083 3153
3153 3224
3224 3365
3365 3436
3436 3506
3506 3576
3576 3646
3646 3716
3716 3785
3785 3855
3855 3924
3924 3993
3993 4091
4091 4162
4162 4233
4233 4304
4304 4374
4374 4445
4445 4516
4516 4587
4587 4659
4659 4730
4730 4801
4801 4872
4872 4943
4943 5014
5014 5085
5085 5155
5155 5225
5225 5295
5295 5365
5365 5436
5436 5507
5507 5578
5578 5649
5649 5721
5721 5791
5791 5863
5863 5935
5935 6006
6006 6078
6078 6126
6126 6199
6199 6272
6272 6344
6344 6417
6417 6488
6488 6560
6560 6631
6631 6703
6703 6774
6774 6845
6845 6916
6916 6987
6987 7059
7059 7129
7129 7200
7200 7270
7270 7340
7340 7411
7411 7457
7457 7528
7528 7599
7599 7670
7670 7741
7741 7811
7811 7883
7883 7955
7955 8026
8026 8091
8091 8163
8163 8234
8234 8306
8306 8376
8376 8448
8448 8520
8520 8590
8590 8663
8663 8736
8736 8807
8807 8881
8881 8954
8954 9027
9027 9099
9099 9172
9172 9245
9245 9318
9318 9390
9390 9463
9463 9536
9536 9609
9609 9681
9681 9754
9754 9826
9826 9899
9899 9971
9971 10044
10044 10117
10117 10189
10189 10263
10263 10338
10338 10412
10412 10487
10487 10560
10560 10634
10634 10707
10707 10780
10780 10852
10852 10924
10924 10997
10997 11069
11069 11142
11142 11215
11215 11287
11287 11360
11360 11434
11434 11506
11506 11579
11579 11651
11651 11724
11724 11796
11796 11869
11869 11942
11942 12014
12014 12087
12087 12160
12160 12233
12233 12307
12307 12381
12381 12457
12457 12532
12532 12606
12606 12681
12681 12755
12755 12829
12829 12902
12902 12975
12975 13049
13049 13109
13109 13196
13196 13269
13269 13341
13341 13414
13414 13486
13486 13558
13558 13630
13630 13701
13701 13773
13773 13845
13845 13917
13917 13989
13989 14062
14062 14134
14134 14207
14207 14280
14280 14351
14351 14423
14423 14494
14494 14567
14567 14614
14614 14686
14686 14757
14757 14829
14829 14900
14900 14972
14972 15060
15060 15132
15132 15203
15203 15274
15274 15345
15345 15416
15416 15488
15488 15559
15559 15630
15630 15700
15700 15770
15770 15840
15840 15909
15909 15978
15978 16022
16022 16091
16091 16160
16160 16229
16229 16299
16299 16368
16368 16438
16438 16508
16508 16578
16578 16649
16649 16720
16720 16792
16792 16863
16863 16935
16935 17035
17035 17104
17104 17174
17174 17243
17243 17312
17312 17382
17382 17450
17450 17519
17519 17588
17588 17657
17657 17726
17726 17795
17795 17865
17865 17935
17935 18006
18006 18082
18082 18154
18154 18226
18226 18298
18298 18370
18370 18442
18442 18514
18514 18585
18585 18656
18656 18727
18727 18798
18798 18869
18869 18940
18940 19012
19012 19079
19079 19151
19151 19223
19223 19295
19295 19368
19368 19440
19440 19512
19512 19584
19584 19656
19656 19728
19728 19799
19799 19871
19871 19942
19942 20013
20013 20084
20084 20154
20154 20225
20225 20295
20295 20366
20366 20437
20437 20507
20507 20577
20577 20648
20648 20719
20719 20789
20789 20860
20860 20931
20931 21002
21002 21072
21072 21143
21143 21213
21213 21284
21284 21353
21353 21424
21424 21494
21494 21564
21564 21635
21635 21705
21705 21775
21775 21846
21846 21917
21917 21988
21988 22059
22059 22130
22130 22201
22201 22272
22272 22343
22343 22413
22413 22484
22484 22553
22553 22624
22624 22694
22694 22764
22764 22835
22835 22906
22906 22977
22977 23048
23048 23120
23120 23192
23192 23263
23263 23335
23335 23406
23406 23478
23478 23550
23550 23622
23622 23694
23694 23766
23766 23838
23838 23910
23910 23982
23982 24039
24039 24109
24109 24179
24179 24249
24249 24320
24320 24391
24391 24461
24461 24532
24532 24602
24602 24673
24673 24743
24743 24814
24814 24884
24884 24955
24955 25072
25072 25143
25143 25215
25215 25286
25286 25358
25358 25430
25430 25501
25501 25572
25572 25642
25642 25713
25713 25783
25783 25852
25852 25921
25921 25991
25991 26078
26078 26148
26148 26217
26217 26287
26287 26355
26355 26425
26425 26493
26493 26562
26562 26631
26631 26699
26699 26768
26768 26837
26837 26906
26906 26976
26976 27045
27045 27114
27114 27183
27183 27252
27252 27322
27322 27391
27391 27461
27461 27531
27531 27602
27602 27672
27672 27741
27741 27811
27811 27880
27880 27950
27950 28019
28019 28078
28078 28156
28156 28226
28226 28295
28295 28365
28365 28435
28435 28504
28504 28574
28574 28643
28643 28712
28712 28781
28781 28850
28850 28919
28919 28988
28988 29068
29068 29139
29139 29210
29210 29280
29280 29351
29351 29422
29422 29493
29493 29565
29565 29635
29635 29707
29707 29778
29778 29849
29849 29921
29921 29991
29991 30063
30063 30134
30134 30206
30206 30278
30278 30351
30351 30423
30423 30497
30497 30570
30570 30642
30642 30714
30714 30786
30786 30859
30859 30931
30931 31003
31003 31074
31074 31146
31146 31217
31217 31289
31289 31360
31360 31430
31430 31501
31501 31573
31573 31644
31644 31716
31716 31788
31788 31860
31860 31933
31933 32005
32005 32077
32077 32149
32149 32221
32221 32294
32294 32366
32366 32439
32439 32510
32510 32582
32582 32654
32654 32726
32726 32798
32798 32870
32870 32942
32942 33014
33014 33086
33086 33158
33158 33230
33230 33303
33303 33375
33375 33447
33447 33518
33518 33589
33589 33660
33660 33731
33731 33802
33802 33873
33873 33944
33944 34016
34016 34088
34088 34160
34160 34233
34233 34307
34307 34380
34380 34453
34453 34525
34525 34598
34598 34669
34669 34741
34741 34813
34813 34884
34884 34955
34955 35027
35027 35098
35098 35169
35169 35240
35240 35312
35312 35384
35384 35455
35455 35527
35527 35599
35599 35670
35670 35741
35741 35812
35812 35884
35884 35955
35955 36027
36027 36099
36099 36171
36171 36244
36244 36317
36317 36390
36390 36463
36463 36536
36536 36608
36608 36681
36681 36753
36753 36825
36825 36897
