91 223
2791 2860
3000 3096
3096 3164
3164 3232
3232 3300
3300 3367
3367 3435
3435 3503
3503 3570
3570 3637
3637 3705
3705 3772
3772 3828
3828 3895
3895 3962
3962 4028
4028 4096
4096 4162
4162 4229
4229 4296
4296 4363
4363 4431
4431 4498
4498 4565
4565 4632
4632 4699
4699 4765
4765 4874
4874 4916
4916 4982
4982 5049
5049 5116
5116 5183
5183 5250
5250 5317
5317 5384
5384 5451
5451 5517
5517 5584
5584 5651
5651 5718
5718 5785
5785 5851
5851 5918
5918 5985
5985 6052
6052 6118
6118 6185
6185 6251
6251 6317
6317 6383
6383 6449
6449 6516
6516 6582
6582 6648
6648 6714
6714 6781
6781 6847
6847 6913
6913 6979
6979 7045
7045 7111
7111 7177
7177 7243
7243 7309
7309 7416
7416 7482
7482 7548
7548 7614
7614 7680
7680 7746
7746 7812
7812 7879
7879 7945
7945 8011
8011 8077
8077 8144
8144 8210
8210 8277
8277 8343
8343 8410
8410 8476
8476 8543
8543 8610
8610 8677
8677 8744
8744 8812
8812 8879
8879 8947
8947 9015
9015 9083
9083 9152
9152 9221
9221 9291
9291 9360
9360 9430
9430 9500
9500 9570
9570 9641
9641 9712
9712 9783
9783 9854
9854 9925
9925 9997
9997 10070
10070 10142
10142 10214
10214 10287
10287 10358
10358 10430
10430 10501
10501 10572
10572 10642
10642 10712
10712 10782
10782 10852
10852 10922
10922 10991
10991 11061
11061 11131
11131 11201
11201 11271
11271 11341
11341 11411
11411 11481
11481 11551
11551 11621
11621 11691
11691 11761
11761 11831
11831 11901
11901 11970
11970 12080
12080 12148
12148 12215
12215 12283
12283 12350
12350 12418
12418 12485
12485 12552
12552 12620
12620 12687
12687 12755
12755 12822
12822 12889
12889 12956
12956 13023
13023 13090
13090 13158
13158 13226
13226 13293
13293 13361
13361 13430
13430 13498
13498 13567
13567 13635
13635 13704
13704 13773
13773 13842
13842 13910
13910 13978
13978 14046
14046 14115
14115 14184
14184 14252
14252 14321
14321 14390
14390 14459
14459 14528
14528 14597
14597 14667
14667 14737
14737 14806
14806 14876
14876 14946
14946 15016
15016 15099
15099 15168
15168 15237
15237 15307
15307 15376
15376 15445
15445 15514
15514 15584
15584 15652
15652 15721
15721 15790
15790 15859
15859 15927
15927 15995
15995 16063
16063 16132
16132 16200
16200 16268
16268 16336
16336 16405
16405 16473
16473 16541
16541 16609
16609 16677
16677 16744
16744 16812
16812 16879
16879 16946
16946 17014
17014 17073
17073 17140
17140 17206
17206 17272
17272 17338
17338 17405
17405 17470
17470 17536
17536 17602
17602 17668
17668 17734
17734 17800
17800 17866
17866 17933
17933 17999
17999 18065
18065 18132
18132 18198
18198 18265
18265 18332
18332 18399
18399 18465
18465 18532
18532 18599
18599 18666
18666 18734
18734 18801
18801 18869
18869 18937
18937 19005
19005 19073
19073 19141
19141 19209
19209 19277
19277 19346
19346 19414
19414 19482
19482 19550
19550 19618
19618 19686
19686 19754
19754 19821
19821 19888
19888 19955
19955 20023
20023 20090
20090 20157
20157 20224
20224 20291
20291 20359
20359 20426
20426 20494
20494 20561
20561 20629
20629 20698
20698 20766
20766 20835
20835 20904
20904 20973
20973 21043
21043 21113
21113 21183
21183 21254
21254 21325
21325 21395
21395 21466
21466 21537
21537 21608
21608 21679
21679 21751
21751 21822
21822 21894
21894 21965
21965 22037
22037 22108
22108 22180
22180 22251
22251 22322
22322 22393
22393 22464
22464 22535
22535 22607
22607 22678
22678 22750
22750 22822
22822 22895
22895 22967
22967 23039
23039 23111
23111 23184
23184 23257
23257 23330
23330 23403
23403 23475
23475 23547
23547 23620
23620 23693
23693 23765
23765 23838
23838 23910
23910 23982
23982 24054
24054 24126
24126 24198
24198 24269
24269 24340
24340 24411
24411 24482
24482 24553
24553 24623
24623 24693
24693 24762
24762 24832
24832 24901
24901 24970
24970 25039
25039 25108
25108 25176
25176 25245
25245 25313
25313 25381
25381 25449
25449 25517
25517 25585
25585 25653
25653 25722
25722 25790
25790 25858
25858 25926
25926 25994
25994 26062
26062 26129
26129 26197
26197 26265
26265 26333
26333 26401
26401 26469
26469 26536
26536 26605
26605 26673
26673 26742
26742 26811
26811 26880
26880 26949
26949 27019
27019 27089
27089 27159
27159 27229
27229 27299
27299 27369
27369 27440
27440 27511
27511 27581
27581 27652
27652 27722
27722 27792
27792 27862
27862 27932
27932 28002
28002 28072
28072 28141
28141 28211
28211 28280
28280 28349
28349 28418
28418 28487
28487 28556
28556 28624
28624 28693
28693 28761
28761 28829
28829 28897
28897 28965
28965 29033
29033 29101
29101 29169
29169 29237
29237 29304
29304 29372
29372 29440
29440 29508
29508 29576
29576 29644
29644 29712
29712 29781
29781 29849
29849 29918
29918 29987
29987 30055
30055 30124
30124 30193
30193 30262
30262 30332
30332 30401
30401 30470
30470 30540
30540 30609
30609 30679
30679 30748
30748 30818
30818 30888
30888 30957
30957 31027
31027 31096
31096 31166
31166 31235
31235 31305
31305 31374
31374 31443
31443 31512
31512 31581
31581 31650
31650 31718
31718 31788
31788 31857
31857 31926
31926 31995
31995 32041
32041 32084
32084 32152
32152 32220
32220 32288
32288 32356
32356 32425
32425 32493
32493 32561
32561 32630
32630 32698
32698 32766
32766 32835
32835 32903
32903 32971
32971 33040
33040 33109
33109 33178
33178 33246
33246 33315
33315 33385
33385 33455
33455 33524
33524 33594
33594 33665
33665 33736
33736 33807
33807 33877
33877 33947
33947 34018
34018 34089
34089 34160
34160 34231
34231 34302
34302 34374
34374 34445
34445 34518
34518 34590
34590 34661
34661 34734
34734 34806
34806 34878
34878 34950
34950 35023
35023 35096
35096 35170
35170 35243
35243 35316
35316 35389
35389 35461
35461 35534
35534 35605
35605 35678
35678 35750
35750 35821
35821 35893
35893 35965
35965 36036
36036 36108
36108 36179
36179 36250
36250 36320
36320 36392
36392 36462
36462 36532
36532 36602
36602 36672
36672 36742
36742 36811
36811 36881
36881 36950
36950 37019
37019 37089
37089 37158
37158 37227
37227 37295
37295 37365
37365 37434
37434 37503
37503 37572
37572 37642
37642 37712
37712 37782
37782 37852
37852 37922
37922 37992
37992 38062
38062 38132
38132 38203
38203 38273
38273 38344
38344 38413
38413 38483
38483 38553
38553 38622
38622 38692
38692 38761
38761 38830
38830 38899
38899 38968
38968 39037
39037 39106
39106 39176
39176 39245
39245 39315
39315 39384
39384 39454
39454 39524
39524 39594
39594 39664
39664 39734
39734 39804
39804 39874
39874 39944
39944 40014
40014 40084
40084 40154
40154 40224
40224 40294
40294 40363
40363 40433
40433 40503
40503 40573
40573 40643
40643 40713
40713 40784
40784 40854
40854 40924
40924 40995
40995 41065
41065 41136
41136 41207
41207 41277
41277 41348
41348 41419
41419 41490
41490 41561
41561 41632
41632 41703
41703 41773
41773 41844
41844 41916
41916 41987
41987 42058
42058 42130
42130 42201
42201 42273
42273 42344
42344 42416
42416 42489
42489 42561
42561 42634
42634 42707
42707 42781
42781 42854
42854 42927
42927 43001
43001 43075
43075 43148
43148 43221
43221 43295
43295 43368
43368 43440
43440 43513
43513 43586
43586 43659
43659 43732
43732 43805
43805 43879
43879 43953
43953 44027
44027 44101
44101 44175
44175 44249
44249 44322
44322 44396
44396 44469
44469 44543
44543 44615
44615 44688
44688 44761
44761 44833
44833 44905
44905 44977
44977 45049
45049 45120
45120 45192
45192 45263
45263 45335
45335 45407
45407 45479
45479 45551
45551 45623
45623 45695
45695 45766
45766 45837
45837 45908
45908 45979
45979 46068
46068 46113
46113 46184
46184 46255
46255 46326
46326 46396
46396 46467
46467 46537
46537 46607
46607 46677
46677 46746
46746 46816
46816 46955
46955 47025
47025 47062
47062 47128
47128 47195
47195 47261
47261 47327
47327 47394
47394 47460
47460 47526
47526 47592
47592 47658
47658 47724
47724 47790
47790 47855
47855 47921
47921 47988
47988 48095
48095 48165
48165 48234
48234 48304
48304 48373
48373 48442
48442 48510
48510 48579
48579 48648
48648 48716
48716 48784
48784 48852
48852 48894
48894 48962
48962 49029
49029 49097
49097 49164
49164 49231
49231 49298
49298 49365
49365 49432
49432 49498
49498 49565
49565 49631
49631 49698
49698 49765
49765 49832
49832 49898
49898 49964
49964 50031
50031 50097
50097 50164
50164 50230
50230 50297
50297 50363
50363 50430
50430 50496
50496 50562
50562 50627
50627 50694
50694 50759
50759 50825
50825 50891
50891 50957
50957 51088
51088 51153
51153 51219
51219 51285
51285 51351
51351 51418
51418 51484
51484 51551
51551 51618
51618 51685
51685 51752
51752 51819
51819 51886
51886 51954
51954 52022
52022 52089
52089 52157
52157 52224
52224 52292
52292 52361
52361 52429
52429 52497
52497 52565
52565 52634
52634 52703
52703 52772
52772 52841
52841 52911
52911 52981
52981 53054
53054 53121
53121 53189
53189 53256
53256 53324
53324 53391
53391 53459
53459 53527
53527 53594
53594 53662
53662 53729
53729 53797
53797 53865
53865 53932
53932 54000
54000 54069
54069 54138
54138 54206
54206 54274
54274 54343
54343 54411
54411 54480
54480 54549
54549 54618
54618 54687
54687 54756
54756 54826
