16176 16391
24290 24393
24393 24497
40926 41053
41053 41157
41157 41262
41262 41368
41368 41473
41473 41579
41579 41683
41683 41788
41788 41893
41893 41998
41998 42103
42103 42207
42207 42311
42311 42414
42414 42517
42517 42619
42619 42720
42720 42822
42822 42923
42923 43025
43025 43126
43126 43227
43227 43329
43329 43430
43430 43532
43532 43635
43635 43738
43738 43842
43842 43946
43946 44052
44052 44158
44158 44264
44264 44370
44370 44476
44476 44581
44581 44686
44686 44792
44792 44897
44897 45002
45002 45106
45106 45209
45209 45312
45312 45414
45414 45516
45516 45617
45617 45719
45719 45821
45821 45923
45923 46027
46027 46130
46130 46234
46234 46338
46338 46443
46443 46547
46547 46651
46651 46756
46756 46860
46860 46965
46965 47114
47114 47220
47220 47326
47326 47432
47432 47538
47538 47644
47644 47749
47749 47854
47854 47960
47960 48064
48064 48168
48168 48272
48272 48375
48375 48477
48477 48579
48579 48681
48681 48783
48783 48886
48886 48990
48990 49093
49093 49196
49196 49299
49299 49401
49401 49502
49502 49604
49604 49704
49704 49804
49804 49904
49904 50004
50004 50104
50104 50204
50204 50305
50305 50406
50406 50507
50507 50609
50609 50711
50711 50814
50814 50918
50918 51021
51021 51115
51115 51217
51217 51319
51319 51422
51422 51526
51526 51629
51629 51734
51734 51837
51837 51941
51941 52045
52045 52148
52148 52252
52252 52356
52356 52459
52459 52563
52563 52668
52668 52772
52772 52878
52878 52983
52983 53089
53089 53195
53195 53301
53301 53406
53406 53511
53511 53615
53615 53719
53719 53823
53823 53926
53926 54031
54031 54135
54135 54239
54239 54344
54344 54450
54450 54555
54555 54660
54660 54766
54766 54872
54872 54978
54978 55086
55086 55193
55193 55300
55300 55406
55406 55514
55514 55619
55619 55725
55725 55830
55830 55934
55934 56037
56037 56141
56141 56243
56243 56345
56345 56447
56447 56548
56548 56650
56650 56752
56752 56853
56853 56955
56955 57056
57056 57158
57158 57260
57260 57362
57362 57465
57465 57567
57567 57671
57671 57774
57774 57877
57877 57980
57980 58084
58084 58188
58188 58293
58293 58397
58397 58502
58502 58608
58608 58713
58713 58819
58819 58925
58925 59064
59064 59167
59167 59271
59271 59374
59374 59479
59479 59583
59583 59687
59687 59791
59791 59896
59896 60001
60001 60106
60106 60212
60212 60317
60317 60421
60421 60526
60526 60629
60629 60732
60732 60835
60835 60937
60937 61062
61062 61167
61167 61271
61271 61376
61376 61480
61480 61584
61584 61687
61687 61791
61791 61896
61896 62000
62000 62105
62105 62211
62211 62316
62316 62421
62421 62526
62526 62630
62630 62733
62733 62837
62837 62941
62941 63045
63045 63149
63149 63254
63254 63358
63358 63463
63463 63568
63568 63648
63648 63754
63754 63860
63860 63966
63966 64072
64072 64179
64179 64287
64287 64393
64393 64500
64500 64606
64606 64713
64713 64820
