3563 3712
3712 3809
3809 3906
3906 4003
4003 4100
4100 4197
4197 4294
4294 4391
4391 4487
4487 4584
4584 4681
4681 4777
4777 4873
4873 4969
4969 5064
5064 5159
5159 5254
5254 5349
5349 5443
5443 5538
5538 5633
5633 5728
5728 5824
5824 5918
5918 6013
6013 6109
6109 6206
6206 6302
6302 6399
6399 6495
6495 6591
6591 6687
6687 6784
6784 6880
6880 6976
6976 7073
7073 7169
7169 7265
7265 7362
7362 7459
7459 7554
7554 7650
7650 7746
7746 7842
7842 7939
7939 8035
8035 8132
8132 8229
8229 8325
8325 8421
8421 8516
8516 8612
8612 8706
8706 8800
8800 8893
8893 8987
8987 9081
9081 9174
9174 9267
9267 9361
9361 9455
9455 9548
9548 9642
9642 9735
9735 9828
9828 9921
9921 10014
10014 10107
10107 10200
10200 10293
10293 10386
10386 10479
10479 10573
10573 10667
10667 10761
10761 10855
10855 10950
10950 11045
11045 11138
11138 11233
11233 11327
11327 11421
11421 11515
11515 11609
11609 11703
11703 11798
11798 11892
11892 11985
11985 12079
12079 12173
12173 12265
12265 12359
12359 12452
12452 12545
12545 12639
12639 12733
12733 12827
12827 12922
12922 13018
13018 13082
13082 13177
