906 1004
1004 1067
1548 1644
1930 2025
2025 2080
9992 10124
15142 15239
61833 61997
61997 62092
62092 62187
62187 62282
62282 62378
62378 62473
62473 62568
62568 62663
62663 62759
62759 62855
62855 62951
62951 63049
63049 63145
63145 63243
63243 63341
63341 63439
63439 63536
63536 63633
63633 63729
63729 63824
63824 63919
63919 64015
64015 64110
64110 64206
64206 64301
64301 64396
64396 64491
64491 64587
64587 64684
64684 64780
64780 64877
64877 64974
64974 65071
65071 65169
65169 65267
65267 65365
65365 65462
65462 65559
65559 65656
65656 65755
65755 65853
