656 734
734 812
734 812
812 889
889 941
1410 1489
1489 1569
1569 1622
1622 1675
1675 1727
2744 2822
2987 3034
3034 3114
3114 3169
3169 3247
3247 3327
3327 3405
3405 3485
3485 3565
3565 3645
3645 3724
3724 3803
3803 3881
3881 3960
3960 4075
4075 4154
4154 4231
4231 4308
4308 4386
4386 4464
4464 4516
4516 4596
4596 4674
4674 4728
4728 4807
4807 4885
4885 4963
4963 5041
5041 5120
5120 5198
5198 5276
5276 5355
5355 5435
5435 5513
5513 5591
5591 5670
5670 5748
5748 5826
5826 5904
5904 5983
5983 6083
6083 6159
6159 6287
6287 6363
6363 6440
6440 6516
6516 6592
6592 6669
6669 6745
6745 6822
6822 6899
6899 6976
6976 7053
7053 7131
7131 7208
7208 7286
7286 7364
7364 7444
7444 7521
7521 7599
7599 7677
7677 7757
7757 7836
7836 7889
7889 7967
7967 8031
8031 8109
8109 8188
8188 8266
8266 8343
8343 8421
8421 8500
8500 8579
8579 8658
8658 8737
8737 8816
8816 8895
8895 8975
8975 9094
9094 9174
9174 9255
9255 9334
9334 9413
9413 9495
9495 9575
9575 9655
9655 9735
9735 9817
9817 9897
9897 9977
9977 10032
10032 10109
10109 10189
10189 10267
10267 10344
10344 10423
10423 10501
10501 10579
10579 10658
10658 10735
10735 10814
10814 10892
10892 10969
10969 11047
11047 11124
11124 11201
11201 11279
11279 11356
11356 11433
11433 11509
11509 11585
11585 11661
11661 11737
11737 11811
11811 11890
11890 11966
11966 12030
12030 12119
12119 12196
12196 12273
12273 12350
12350 12427
12427 12504
12504 12580
12580 12656
12656 12732
12732 12805
12805 12886
12886 12962
12962 13047
13047 13124
13124 13202
13202 13279
13279 13358
13358 13437
13437 13515
13515 13594
13594 13673
13673 13751
13751 13829
13829 13908
13908 13985
13985 14064
14064 14141
14141 14219
14219 14299
14299 14378
14378 14456
14456 14536
14536 14615
14615 14695
14695 14773
14773 14851
14851 14903
14903 14983
14983 15063
15063 15117
15117 15195
15195 15274
15274 15354
15354 15434
15434 15513
15513 15591
15591 15670
15670 15749
15749 15828
15828 15906
15906 15985
15985 16063
16063 16141
16141 16195
16195 16274
16274 16352
16352 16432
16432 16511
16511 16591
16591 16670
16670 16749
16749 16827
16827 16905
16905 16985
16985 17064
17064 17143
17143 17223
17223 17304
17304 17383
17383 17463
17463 17542
17542 17621
17621 17701
17701 17779
17779 17858
17858 17939
17939 18019
18019 18099
18099 18179
18179 18260
18260 18341
18341 18422
18422 18501
18501 18581
18581 18660
18660 18739
18739 18818
18818 18896
18896 18976
18976 19055
19055 19130
19130 19207
19207 19283
19283 19360
19360 19437
19437 19514
19514 19591
19591 19667
19667 19742
19742 19818
19818 19896
19896 19958
19958 20033
20033 20186
20186 20265
20265 20343
20343 20576
20576 20654
20654 20888
20888 21123
21123 21202
21202 21279
21279 21436
21436 21514
21514 21594
21594 21827
