36 96
815 875
1066 1126
1126 1185
1185 1304
1304 1364
1364 1423
1423 1482
1482 1602
1602 1662
1662 1721
1721 1781
1781 1840
1840 1960
1960 2020
1960 2020
2139 2259
2259 2318
2318 2378
2378 2437
2437 2557
2557 2616
2616 2676
2676 2736
2736 2795
2795 3035
3035 3095
3095 3155
3155 3215
3215 3275
3275 3334
3334 3394
3394 3454
3454 3515
3515 3574
3574 3634
3634 3694
3694 3754
3754 3814
3814 3874
3874 3969
3969 4029
4029 4089
4089 4149
4149 4209
4209 4269
4269 4329
4329 4389
4389 4449
4449 4509
4509 4569
4569 4630
4630 4690
4690 4750
4750 4810
4810 4871
