3232 3357
5689 5938
6919 7134
7134 7258
7258 7382
7382 7506
7506 7631
7631 7756
7756 7882
7882 8010
8010 8138
8138 8266
8266 8394
8394 8523
8523 8652
8652 8911
8911 9069
9069 9456
9456 9585
9585 9715
9715 9975
9975 10105
10105 10235
10235 10365
10365 10495
10495 10624
10624 10753
10753 10883
10883 11011
11011 11149
11149 11408
11408 11538
11538 11798
11798 11928
11928 12064
12064 12189
12189 12312
12312 12436
12436 12561
12561 12684
12684 12807
12807 12931
12931 13072
13072 13199
13199 13323
13323 13449
13449 13573
13573 13699
13699 13825
13825 13951
13951 14079
14079 14206
14206 14334
14334 14463
14463 14592
14592 14719
14719 14846
14846 14973
14973 15098
15098 15220
15220 15341
15341 15463
15463 15584
15584 15707
15707 15831
15831 15955
15955 16035
16035 16159
16159 16283
16283 16408
16408 16533
16533 16660
16660 16786
16786 16912
16912 17037
17037 17161
17161 17285
17285 17408
17408 17530
17530 17652
17652 17750
17750 17873
17873 17996
17996 18120
18120 18244
18244 18369
18369 18493
18493 18617
18617 18742
18742 18867
18867 18942
18942 19001
19001 19093
19093 19223
19223 19352
19352 19611
19611 19741
19741 19871
19871 20131
20131 20262
20262 20392
20392 20652
20652 20782
20782 20913
20913 21084
21084 21212
21212 21338
21338 21466
21466 21594
21594 21722
21722 21852
21852 22267
22267 22398
22398 22528
22528 22660
22660 22792
22792 22923
22923 23080
23080 23210
23210 23603
23603 23733
23733 23862
23862 23990
23990 24082
24082 24211
24211 24340
24340 24600
24600 24730
24730 24861
24861 25122
25122 25252
25252 25382
25382 25510
25510 25638
25638 25895
25895 26022
26022 26150
26150 26277
26277 26405
26405 26532
26532 26660
26660 26786
