255 366
1068 1185
4844 4968
4968 5077
5573 5698
5573 5698
5698 5821
5946 6150
6647 6772
6772 6896
6896 7019
7019 7088
7088 7212
7212 7334
7334 7430
7430 7551
7551 7674
7674 7797
7797 7922
7922 8047
8047 8169
8169 8293
8293 8417
8417 8539
8539 8660
8660 8780
8780 8901
8901 9023
9023 9137
9137 9259
9259 9382
9382 9504
9504 9625
9625 9747
9747 9868
9868 9991
9991 10059
10059 10179
10179 10298
10298 10416
10416 10534
10534 10650
10650 10769
