1771 1893
1893 2017
2017 2083
2935 3116
5088 5210
5952 6030
6030 6107
6460 6575
6922 7103
7707 7829
7829 7951
7951 8073
8073 8196
8196 8319
8441 8563
8563 8685
9660 9783
9783 9907
9907 10137
10137 10261
10261 10384
10384 10509
10509 10633
10633 10758
10758 10884
10884 11010
11010 11094
11094 11217
11217 11339
11339 11463
11463 11585
11585 11709
11709 11805
11805 11957
14930 15041
15041 15152
