1974 2118
5582 5685
5685 5766
7942 8084
8084 8177
17110 17206
18939 19099
19099 19195
19195 19291
19291 19387
19387 19484
19484 19580
19580 19677
19677 19773
19773 19865
19865 19967
19967 20107
20107 20201
20201 20297
20297 20393
20393 20489
20489 20585
20585 20681
20681 20778
20778 20875
20875 20972
20972 21070
21070 21168
21168 21266
21266 21364
21364 21462
21462 21561
21561 21658
21658 21756
21756 21855
21855 21952
21952 22048
22048 22145
22145 22243
22243 22340
22340 22436
22436 22534
22534 22633
22633 22730
22730 22827
22827 22926
22926 23024
23024 23121
23121 23219
23219 23317
23317 23416
23416 23514
23514 23612
23612 23710
23710 23809
23809 23906
23906 24004
24004 24102
24102 24200
24200 24297
24297 24395
24395 24493
24493 24591
24591 24688
24688 24788
24788 24887
24887 24987
24987 25039
25039 25136
25136 25234
25234 25331
25331 25429
25429 25526
25526 25624
25624 25723
25723 25821
25821 25919
25919 26016
26016 26115
26115 26211
26211 26308
26308 26404
26404 26501
26501 26597
26597 26693
26693 26788
26788 26885
26885 26981
26981 27078
27078 27173
27173 27271
27271 27368
27368 27465
27465 27563
27563 27661
27661 27758
27758 27853
27853 27950
27950 28048
28048 28145
28145 28242
28242 28337
28337 28434
28434 28531
28531 28627
28627 28723
28723 28821
28821 28918
28918 29083
29083 29179
29179 29278
29278 29377
29377 29476
29476 29573
29573 29673
29673 29772
29772 29871
29871 29968
29968 30067
30067 30166
30166 30263
30263 30362
30362 30460
30460 30557
30557 30654
30654 30752
30752 30850
30850 30948
30948 31095
31095 31192
31192 31290
31290 31387
31387 31484
31484 31583
31583 31683
31683 31780
31780 31880
31880 31979
31979 32078
32078 32175
32175 32274
32274 32371
32371 32469
32469 32565
32565 32662
32662 32759
32759 32857
32857 32953
32953 33051
33051 33150
33150 33248
33248 33347
33347 33446
33446 33546
33546 33644
33644 33743
33743 33841
33841 33939
33939 34035
34035 34133
34133 34231
34231 34328
34328 34426
34426 34525
34525 34623
34623 34722
34722 34819
34819 34919
34919 35020
35020 35119
35119 35217
35217 35316
35316 35414
35414 35513
35513 35611
35611 35711
35711 35811
35811 35910
35910 36012
36012 36113
36113 36214
36214 36312
36312 36413
36413 36513
36513 36612
36612 36710
36710 36810
36810 36910
36910 37009
37009 37107
37107 37207
37207 37306
37306 37404
37404 37503
37503 37602
37602 37701
37701 37797
37797 37897
37897 37996
37996 38095
38095 38193
38193 38292
38292 38391
38391 38489
38489 38587
38587 38687
38687 38786
38786 38885
38885 38984
38984 39084
39084 39184
39184 39282
39282 39381
39381 39481
39481 39579
39579 39676
39676 39773
39773 39870
39870 39967
39967 40063
40063 40160
40160 40258
40258 40356
40356 40453
40453 40552
40552 40651
40651 40750
40750 40849
40849 40948
40948 41048
41048 41146
41146 41244
41244 41343
41343 41440
41440 41536
41536 41634
41634 41731
41731 41828
41828 41924
41924 42022
42022 42121
42121 42219
42219 42316
42316 42416
42416 42515
42515 42615
42615 42714
42714 42815
42815 42915
42915 43091
43091 43189
43189 43286
43286 43382
43382 43478
43478 43574
43574 43669
43669 43765
43765 43862
43862 43959
43959 44055
44055 44154
44154 44252
44252 44349
44349 44446
44446 44543
44543 44639
44639 44734
44734 44830
44830 44926
44926 45023
45023 45120
45120 45218
45218 45316
45316 45415
45415 45513
45513 45610
45610 45709
45709 45808
45808 45905
45905 46003
46003 46100
46100 46197
46197 46293
46293 46390
46390 46487
46487 46585
46585 46682
46682 46781
46781 46879
46879 46976
46976 47072
47072 47170
47170 47268
47268 47365
47365 47462
47462 47561
47561 47659
47659 47756
47756 47855
47855 47954
47954 48052
48052 48150
48150 48249
48249 48347
48347 48446
48446 48543
48543 48643
48643 48741
48741 48839
48839 48936
48936 49035
49035 49133
49133 49231
49231 49329
49329 49429
49429 49528
49528 49627
49627 49726
49726 49825
49825 49924
49924 50021
50021 50119
50119 50218
50218 50317
50317 50413
50413 50512
50512 50611
50611 50710
50710 50809
50809 50909
50909 51009
51009 51084
51084 51184
51184 51285
51285 51387
51387 51487
51487 51590
51590 51691
51691 51796
51796 51897
51897 52000
52000 52103
52103 52205
52205 52307
52307 52410
52410 52512
52512 52613
52613 52714
52714 52815
52815 52915
52915 53013
53013 53114
53114 53214
53214 53314
53314 53413
53413 53514
53514 53614
53614 53714
53714 53814
53814 53914
53914 54013
54013 54111
54111 54210
54210 54310
54310 54408
54408 54506
54506 54605
54605 54704
54704 54803
54803 54901
54901 55001
55001 55101
55101 55200
55200 55299
55299 55400
55400 55476
55476 55575
55575 55676
55676 55777
55777 55878
55878 55977
55977 56078
56078 56177
56177 56277
56277 56375
56375 56473
56473 56571
56571 56669
56669 56766
56766 56866
