931 1024
1024 1076
1732 1826
1826 1922
1826 1922
2015 2075
2173 2267
2267 2361
3027 3119
3951 4064
4928 5026
5069 5164
5164 5260
5260 5362
5362 5460
5460 5556
5556 5652
5652 5748
5748 5850
5850 5947
5947 6059
6059 6117
6117 6213
6213 6307
6307 6406
6406 6501
6501 6594
6594 6688
6688 6784
6784 6838
6838 6930
6930 7023
7023 7066
7066 7163
7163 7259
7259 7356
7356 7459
7459 7557
7557 7653
7653 7749
7749 7849
7849 7946
7946 8104
8104 8201
8201 8295
8295 8391
8391 8486
8486 8588
8588 8686
8686 8782
8782 8878
8878 8980
8980 9056
9056 9158
9158 9254
9254 9350
9350 9447
9447 9549
9549 9647
9647 9743
9743 9838
9838 9933
9933 10056
10056 10148
10148 10242
10242 10336
10336 10436
10436 10532
10532 10629
10629 10725
10725 10826
10826 10923
10923 11021
11021 11105
11105 11201
11201 11298
11298 11395
11395 11495
11495 11593
11593 11690
11690 11788
11788 11888
11888 11986
11986 12060
12060 12158
12158 12346
12346 12444
12444 12541
12541 12636
12636 12733
12733 12827
