737 831
2929 3028
3028 3083
3931 4023
4187 4278
4278 4375
4832 4923
5049 5144
5144 5236
5881 5977
5977 6093
10372 10466
11084 11178
11178 11271
11944 12038
12990 13044
14316 14405
14587 14668
14668 14766
14766 14857
14857 14945
14945 15035
15035 15128
15128 15218
15218 15308
15308 15398
15398 15492
15492 15582
15582 15673
15673 15763
15763 15860
15860 15950
15950 16040
16040 16131
16131 16227
16227 16319
16319 16410
16410 16501
16501 16597
16597 16688
16688 16779
16779 16870
16870 16966
16966 17036
17036 17152
17152 17245
17245 17340
17340 17433
17433 17524
17524 17615
17615 17707
17707 17802
17802 17893
17893 17984
17984 18077
18077 18170
18170 18235
18235 18328
18328 18450
18450 18546
18546 18637
18637 18729
18729 18821
18821 18918
18918 19008
19008 19094
19094 19186
19186 19277
19277 19369
19369 19463
19463 19556
19556 19648
19648 19741
19741 19838
19838 19932
19932 20048
20048 20140
20140 20229
20229 20318
20318 20408
20408 20501
20501 20592
20592 20682
20682 20772
20772 20868
20868 20959
20959 21049
21049 21140
21140 21235
21235 21327
21327 21419
21419 21511
21511 21605
21605 21699
21699 21791
21791 21884
21884 21976
21976 22073
22073 22166
22166 22259
22259 22352
22352 22449
22449 22542
22542 22635
22635 22728
22728 22822
22822 22920
22920 23014
23014 23107
23107 23199
23199 23291
23291 23388
23388 23479
23479 23571
23571 23664
23664 23757
23757 23856
23856 23949
23949 24094
24094 24187
24187 24286
24286 24379
24379 24472
24472 24564
24564 24661
24661 24754
24754 24846
24846 24937
24937 25063
25063 25159
25159 25256
25256 25349
25349 25443
25443 25537
25537 25637
25637 25732
25732 25825
25825 25919
25919 26013
26013 26113
26113 26206
26206 26299
26299 26393
26393 26485
26485 26578
26578 26672
26672 26766
26766 26858
26858 26949
26949 27040
27040 27129
27129 27221
27221 27309
27309 27398
27398 27488
27488 27581
27581 27672
27672 27762
