1692 1780
1780 1871
1959 2073
2242 2327
2327 2415
2415 2500
2500 2586
2586 2671
2671 2758
2758 2845
2845 2937
2937 3048
3048 3133
4848 4935
4935 5028
5028 5073
5073 5160
5160 5250
5250 5334
5334 5420
5420 5509
5509 5593
5593 5679
