909 995
1497 1585
1585 1672
1672 1758
1758 1845
1845 1933
1933 2019
2019 2127
2127 2211
2211 2293
2293 2375
2375 2458
2458 2539
2539 2622
2622 2704
2704 2787
2787 2869
2869 2951
2951 3033
3033 3114
3114 3197
3197 3277
3277 3358
3358 3439
3439 3521
3521 3601
3601 3682
3682 3764
3764 3847
3847 3930
4013 4129
4797 4879
4879 4961
4961 5043
5043 5126
5126 5209
5209 5292
5292 5378
5378 5461
5461 5522
5522 5629
5629 5715
5715 5799
5799 5883
5883 5970
5970 6041
6041 6128
6128 6217
