1012 1090
2093 2194
2194 2294
2294 2395
2594 2695
2695 2793
2893 3046
3046 3147
4915 5021
5021 5070
8105 8212
8949 9127
9127 9225
9923 10026
10026 10163
10163 10267
10267 10370
10370 10473
10473 10577
10577 10677
10677 10779
10779 10880
