2492 2599
5943 6125
8986 9110
9110 9217
9217 9322
9322 9429
9429 9536
9536 9644
9644 9751
9751 9859
9859 9970
9970 10096
10096 10207
10207 10319
10319 10428
10428 10539
10539 10649
10649 10758
10758 10867
