1184 1278
1278 1371
1938 2055
4980 5072
6988 7119
7920 8021
8021 8069
8021 8069
10025 10108
10108 10204
10204 10300
10300 10395
10395 10491
10491 10586
10586 10680
10680 10775
10775 10870
10870 10965
10965 11061
11061 11156
11156 11253
11253 11350
11350 11447
11447 11543
11543 11641
11641 11738
11738 11836
11836 11933
11933 12030
12030 12077
12077 12175
12175 12274
12274 12372
12372 12472
12472 12571
12571 12671
12671 12772
12772 12873
12873 12974
12974 13051
13051 13151
13151 13251
13251 13352
13352 13452
13452 13552
13552 13652
13652 13752
13752 13851
13851 13950
13950 14048
14048 14146
14146 14244
14244 14341
14341 14438
14438 14535
14535 14633
14633 14731
14731 14830
14830 14929
14929 15029
15029 15130
15130 15230
15230 15330
15330 15431
15431 15531
15531 15630
15630 15730
15730 15830
15830 15929
15929 16029
16029 16173
16173 16270
16270 16365
16365 16459
16459 16554
16554 16649
16649 16746
16746 16842
16842 16939
16939 17060
17060 17148
17148 17237
17237 17326
17326 17415
17415 17504
17504 17594
17594 17684
17684 17774
17774 17864
17864 17954
17954 18062
18062 18155
18155 18248
18248 18341
18341 18435
18435 18528
18528 18622
18622 18716
18716 18810
18810 18905
18905 18999
18999 19094
19094 19188
19188 19283
19283 19378
19378 19472
19472 19567
19567 19662
19662 19756
19756 19850
19850 19945
19945 20039
20039 20133
20133 20228
20228 20322
20322 20417
20417 20512
20512 20607
20607 20703
20703 20799
20799 20895
20895 20992
20992 21088
21088 21183
21183 21279
21279 21374
21374 21469
21469 21565
21565 21661
21661 21757
21757 21853
21853 21950
21950 22046
22046 22143
22143 22240
22240 22336
22336 22433
22433 22529
22529 22626
22626 22722
22722 22819
22819 22915
22915 23012
23012 23063
23063 23158
23158 23253
23253 23348
23348 23444
23444 23539
23539 23635
23635 23729
23729 23824
23824 23919
23919 24014
24014 24109
24109 24204
24204 24299
24299 24395
24395 24490
24490 24586
24586 24682
24682 24777
24777 24873
24873 24968
24968 25064
25064 25159
25159 25254
25254 25348
25348 25444
25444 25539
25539 25634
25634 25729
25729 25824
25824 25920
25920 26015
26015 26110
26110 26206
26206 26302
26302 26398
26398 26494
26494 26590
26590 26686
26686 26782
26782 26877
26877 26973
26973 27067
27067 27162
27162 27257
27257 27351
27351 27446
27446 27515
27515 27610
27610 27705
27705 27799
27799 27894
27894 27989
27989 28085
28085 28180
