886 964
964 1040
1040 1116
1116 1191
1343 1419
1419 1493
1493 1569
1569 1646
1646 1723
1723 1798
1798 1874
1874 1951
1951 2104
2104 2181
2181 2258
2258 2334
2334 2411
2411 2485
2485 2561
2561 2638
2638 2689
2689 2765
2765 2840
2840 2917
2917 2994
2994 3070
3070 3145
3145 3221
3221 3297
3297 3374
3374 3449
3449 3524
3524 3600
3600 3677
3677 3729
3729 3803
3803 3879
3879 3955
3955 4032
4032 4108
4108 4182
4182 4257
4257 4333
4333 4409
4409 4485
4485 4560
4560 4635
4635 4711
4711 4787
4787 4862
4862 4937
4937 5013
5013 5089
5089 5163
5163 5238
5238 5314
5314 5389
5389 5464
5464 5539
5539 5616
5616 5693
5693 5769
5769 5846
5846 5924
5924 6003
6003 6080
6080 6155
6155 6231
6231 6307
6307 6383
6383 6457
6457 6532
6532 6609
6609 6685
6685 6759
6759 6834
6834 6911
6911 6987
6987 7062
7062 7138
7138 7214
7214 7291
7291 7367
7367 7442
7442 7518
7518 7595
7595 7671
7671 7745
7745 7821
7821 7897
7897 7973
7973 8048
8048 8124
8124 8200
8200 8277
8277 8353
8353 8428
8428 8505
8505 8581
8581 8657
8657 8732
8732 8808
8808 8884
8884 9034
9034 9110
9110 9186
9186 9261
9261 9335
9335 9410
9410 9486
9486 9561
9561 9635
9635 9710
9710 9787
9787 9862
9862 9938
9938 10014
10014 10091
10091 10169
10169 10247
10247 10323
10323 10401
10401 10479
10479 10557
10557 10634
10634 10711
10711 10788
10788 10866
10866 10943
10943 11018
11018 11095
11095 11172
11172 11249
11249 11325
11325 11402
11402 11480
11480 11557
11557 11633
11633 11709
11709 11788
11788 11865
11865 11941
11941 12018
12018 12096
12096 12174
12174 12251
12251 12328
12328 12406
12406 12484
12484 12562
12562 12657
12657 12716
12716 12794
12794 12870
12870 12946
12946 13023
13023 13099
13099 13174
13174 13251
13251 13328
13328 13404
13404 13479
13479 13556
13556 13634
13634 13710
13710 13786
13786 13863
13863 13941
13941 14018
14018 14094
14094 14170
14170 14248
14248 14326
14326 14403
14403 14480
14480 14559
14559 14637
14637 14713
14713 14790
14790 14868
14868 14945
14945 15020
15020 15097
15097 15174
15174 15251
15251 15311
15311 15402
15402 15479
15479 15555
15555 15630
15630 15705
15705 15782
15782 15859
15859 15936
15936 16011
16011 16088
16088 16166
16166 16243
16243 16320
16320 16397
16397 16475
16475 16555
16555 16633
16633 16710
16710 16787
16787 16866
16866 16944
16944 17020
17020 17097
17097 17175
17175 17253
17253 17329
17329 17406
17406 17484
17484 17561
17561 17637
17637 17714
17714 17791
17791 17869
17869 17945
17945 18022
18022 18100
18100 18177
18177 18249
18249 18329
18329 18407
18407 18484
18484 18558
18558 18635
18635 18712
18712 18789
18789 18864
18864 18940
18940 19017
19017 19095
19095 19171
19171 19247
19247 19323
19323 19401
19401 19478
19478 19553
19553 19629
19629 19707
19707 19785
19785 19863
19863 19939
19939 20015
20015 20090
20090 20167
20167 20243
20243 20318
20318 20393
20393 20469
20469 20546
20546 20622
20622 20696
20696 20771
20771 20847
20847 20923
20923 20997
20997 21072
21072 21147
21147 21223
21223 21299
21299 21373
21373 21447
21447 21523
21523 21600
21600 21676
21676 21750
21750 21826
21826 21902
21902 21979
21979 22055
22055 22130
22130 22206
22206 22283
22283 22360
22360 22436
22436 22512
22512 22588
22588 22665
22665 22736
22736 22815
22815 22890
22890 22967
22967 23044
23044 23120
23120 23195
23195 23272
23272 23349
23349 23425
23425 23500
23500 23576
23576 23652
23652 23728
23728 23801
23801 23876
23876 23951
23951 24026
24026 24102
24102 24175
24175 24250
24250 24326
24326 24402
24402 24477
24477 24552
24552 24628
24628 24705
24705 24782
24782 24857
24857 24934
24934 25013
25013 25090
25090 25141
25141 25217
25217 25294
25294 25371
25371 25446
25446 25521
25521 25598
25598 25674
25674 25750
25750 25825
25825 25901
25901 25977
25977 26053
26053 26128
26128 26203
26203 26279
26279 26356
26356 26432
26432 26506
26506 26582
26582 26660
26660 26736
26736 26811
26811 26887
26887 26964
26964 27040
27040 27115
27115 27190
27190 27266
27266 27342
27342 27417
27417 27491
27491 27566
27566 27642
27642 27717
27717 27791
27791 27866
27866 27942
27942 28017
28017 28091
28091 28166
28166 28242
28242 28318
28318 28367
28367 28441
28441 28516
28516 28592
28592 28667
28667 28741
28741 28816
28816 28892
28892 28967
28967 29042
29042 29117
29117 29193
29193 29268
29268 29344
29344 29418
29418 29493
29493 29568
29568 29644
29644 29718
29718 29792
29792 29868
29868 29943
29943 30019
30019 30092
30092 30166
30166 30242
30242 30318
30318 30393
30393 30467
30467 30542
30542 30619
30619 30695
30695 30770
30770 30845
30845 30921
30921 30997
30997 31072
31072 31147
31147 31223
31223 31300
31300 31377
31377 31454
31454 31528
31528 31604
31604 31680
31680 31755
31755 31829
31829 31903
31903 31979
31979 32056
32056 32132
32132 32206
32206 32282
32282 32360
32360 32437
32437 32512
32512 32588
32588 32666
32666 32743
32743 32820
32820 32895
32895 32971
32971 33049
33049 33126
33126 33201
33201 33278
33278 33356
33356 33433
33433 33508
33508 33585
33585 33663
33663 33740
33740 33816
33816 33894
33894 33973
33973 34050
34050 34127
34127 34204
34204 34284
34284 34362
34362 34439
34439 34517
34517 34596
34596 34675
34675 34753
34753 34829
34829 34906
34906 34985
34985 35063
35063 35139
35139 35217
35217 35295
35295 35374
35374 35451
35451 35528
35528 35607
35607 35686
35686 35764
35764 35842
35842 35920
35920 36000
36000 36078
36078 36154
36154 36230
36230 36307
36307 36385
36385 36462
36462 36537
36537 36613
36613 36690
36690 36768
36768 36843
36843 36919
36919 36996
36996 37074
37074 37151
37151 37227
37227 37303
37303 37381
37381 37457
37457 37532
37532 37608
37608 37686
37686 37764
37764 37841
37841 37917
37917 37994
37994 38072
38072 38150
38150 38225
38225 38302
38302 38380
38380 38457
38457 38534
38534 38610
38610 38687
38687 38765
38765 38842
38842 38919
38919 38994
38994 39070
39070 39146
39146 39224
39224 39300
39300 39375
39375 39451
39451 39528
39528 39605
39605 39679
39679 39755
39755 39833
39833 39910
39910 39987
39987 40062
40062 40139
40139 40217
40217 40295
40295 40370
40370 40448
40448 40526
40526 40604
40604 40681
40681 40758
40758 40836
40836 40914
40914 40992
40992 41068
41068 41145
41145 41224
41224 41302
41302 41378
41378 41455
41455 41534
41534 41612
41612 41689
41689 41765
41765 41843
41843 41921
41921 41999
41999 42075
42075 42154
42154 42232
42232 42310
42310 42385
42385 42462
42462 42541
42541 42618
42618 42693
42693 42769
42769 42847
42847 42924
42924 42999
42999 43076
43076 43153
43153 43230
43230 43306
43306 43382
43382 43459
43459 43537
43537 43615
43615 43690
43690 43768
43768 43847
43847 43926
43926 44004
44004 44080
44080 44157
44157 44236
44236 44313
44313 44389
44389 44465
44465 44543
44543 44620
44620 44683
44683 44772
44772 44851
44851 44930
44930 45008
45008 45086
45086 45162
45162 45240
45240 45319
45319 45396
45396 45472
45472 45550
45550 45629
45629 45707
45707 45783
45783 45860
45860 45939
45939 46017
46017 46094
46094 46171
46171 46248
46248 46326
46326 46404
46404 46480
46480 46557
46557 46635
46635 46712
46712 46788
46788 46863
46863 46941
46941 47019
47019 47095
47095 47169
47169 47244
47244 47319
47319 47395
47395 47470
47470 47545
47545 47620
47620 47694
47694 47768
47768 47841
47841 47915
47915 47988
47988 48062
48062 48136
48136 48210
48210 48285
48285 48335
48335 48409
48409 48485
48485 48560
48560 48610
48610 48686
48686 48737
48737 48810
48810 48886
48886 48961
48961 49094
49094 49169
49169 49242
49242 49316
49316 49388
49388 49461
49461 49536
49536 49610
49610 49682
49682 49755
49755 49829
49829 49903
49903 49977
49977 50049
50049 50123
50123 50196
50196 50271
50271 50345
50345 50418
50418 50491
50491 50565
50565 50640
50640 50714
50714 50787
50787 50861
50861 50936
50936 51011
51011 51084
51084 51160
51160 51233
51233 51307
51307 51381
51381 51455
51455 51529
51529 51604
51604 51679
51679 51751
51751 51825
51825 51901
51901 51976
51976 52051
52051 52125
52125 52201
52201 52277
52277 52353
52353 52428
52428 52503
52503 52579
52579 52655
52655 52729
52729 52804
52804 52880
52880 52957
52957 53033
53033 53108
53108 53184
53184 53261
53261 53337
53337 53412
53412 53487
53487 53564
53564 53640
53640 53715
53715 53791
53791 53868
53868 53944
53944 54018
54018 54093
54093 54170
54170 54247
54247 54323
54323 54398
54398 54474
54474 54551
54551 54602
54602 54677
54677 54752
54752 54829
54829 54906
54906 54981
54981 55057
55057 55133
55133 55211
55211 55287
55287 55362
55362 55438
55438 55515
55515 55592
55592 55667
55667 55754
55754 55820
55820 55897
55897 55973
55973 56048
56048 56123
56123 56199
56199 56277
56277 56353
56353 56429
56429 56509
56509 56584
56584 56662
56662 56740
56740 56816
56816 56894
56894 56973
56973 57050
57050 57126
57126 57204
57204 57282
57282 57335
57335 57412
57412 57489
57489 57568
57568 57647
57647 57725
57725 57801
57801 57879
57879 57958
57958 58036
58036 58112
58112 58189
58189 58268
58268 58345
58345 58421
58421 58499
58499 58579
58579 58656
58656 58733
58733 58811
58811 58889
58889 58967
58967 59042
59042 59119
59119 59198
59198 59275
59275 59350
59350 59427
59427 59505
59505 59581
59581 59656
59656 59733
59733 59809
59809 59883
59883 59960
59960 60036
60036 60111
60111 60186
60186 60263
60263 60340
60340 60414
60414 60490
60490 60568
60568 60644
60644 60719
60719 60794
60794 60872
60872 60949
60949 61024
61024 61100
61100 61178
61178 61256
61256 61333
61333 61410
61410 61487
61487 61566
61566 61645
61645 61721
61721 61799
61799 61879
61879 61956
61956 62033
62033 62111
62111 62190
62190 62270
62270 62348
62348 62425
62425 62503
62503 62581
62581 62657
62657 62733
62733 62810
62810 62887
62887 62963
62963 63038
63038 63114
63114 63192
63192 63267
63267 63343
63343 63419
63419 63495
63495 63570
63570 63645
63645 63722
63722 63798
63798 63872
63872 63948
63948 64025
64025 64102
64102 64177
64177 64253
64253 64331
64331 64409
64409 64484
64484 64561
64561 64640
64640 64717
64717 64793
64793 64870
64870 64948
64948 65025
65025 65102
65102 65179
65179 65256
65256 65335
65335 65413
65413 65489
65489 65567
65567 65645
65645 65722
65722 65798
65798 65874
65874 65952
65952 66029
66029 66105
66105 66182
66182 66259
66259 66337
66337 66415
66415 66492
66492 66568
66568 66646
66646 66724
66724 66803
66803 66879
66879 66956
66956 67035
67035 67113
67113 67190
67190 67266
67266 67344
67344 67423
67423 67502
67502 67578
67578 67656
67656 67735
67735 67814
67814 67890
67890 67969
67969 68047
68047 68123
68123 68202
68202 68280
68280 68358
68358 68435
68435 68513
68513 68590
68590 68666
68666 68744
68744 68822
68822 68898
68898 68977
68977 69055
69055 69132
69132 69209
69209 69288
69288 69366
69366 69417
69417 69495
69495 69573
69573 69651
69651 69729
69729 69805
69805 69884
69884 69961
69961 70038
70038 70114
70114 70191
70191 70269
70269 70347
70347 70423
