904 998
998 1089
1089 1182
1182 1274
1274 1367
1367 1460
1460 1551
1551 1644
1644 1734
1734 1826
1826 1916
1916 2007
2007 2085
2085 2172
2172 2260
2260 2346
2346 2433
2433 2521
2521 2608
2608 2696
2696 2784
2784 2874
2874 2964
2964 3055
3055 3145
3145 3237
3237 3328
3328 3419
3419 3510
3510 3605
3605 3696
3696 3789
3789 3881
3881 3973
3973 4048
4048 4143
4143 4236
4236 4330
4330 4424
4424 4518
4518 4613
4613 4705
4705 4742
4742 4837
4837 4929
4929 5016
5016 5119
5119 5185
5185 5279
5279 5370
5370 5462
5462 5555
5555 5646
5646 5738
5738 5830
5830 5921
5921 6014
6014 6106
6106 6200
6200 6293
6293 6388
6388 6484
6484 6580
6580 6677
6677 6773
6773 6870
6870 6968
6968 7063
7063 7162
7162 7257
7257 7354
7354 7452
7452 7548
7548 7647
7647 7745
7745 7843
7843 7940
7940 8037
8037 8119
