1332 1383
1610 1686
1686 1761
1836 1910
1910 1984
1984 2057
2057 2131
2131 2206
2206 2279
2279 2353
2353 2428
2428 2503
2503 2578
2578 2653
2653 2728
2728 2803
2803 2878
2878 2952
2952 3025
3025 3100
3100 3147
3147 3220
3220 3292
3292 3364
3364 3437
3437 3509
3509 3581
3581 3653
3653 3725
3725 3796
3796 3868
3868 3992
3992 4121
4121 4192
4192 4263
4263 4334
4334 4405
4405 4476
4476 4547
4547 4617
4617 4688
4688 4759
4759 4830
4830 4902
4902 4973
4973 5045
5045 5116
5116 5189
5189 5261
5261 5333
5333 5406
5406 5479
5479 5552
5552 5626
5626 5699
5699 5773
5773 5847
5847 5921
5921 5995
5995 6070
6070 6144
6144 6218
6218 6292
6292 6366
6366 6439
