176 263
263 350
524 611
611 698
698 784
871 957
957 1081
1081 1168
1168 1253
1253 1340
1340 1426
1426 1511
1511 1597
1597 1682
1854 1939
2368 2453
2453 2540
2625 2711
2711 2797
2797 2882
2882 2968
2968 3029
3029 3094
3094 3179
3179 3265
3265 3351
3351 3437
3437 3522
3522 3607
3607 3692
3692 3752
3752 3838
3838 3924
3924 4011
4011 4097
4097 4184
4184 4270
4270 4357
4357 4444
4444 4530
4530 4617
4617 4704
4704 4791
4791 4878
4878 4964
4964 5051
5051 5138
5138 5224
5224 5311
5311 5398
5398 5484
5484 5571
5571 5658
5658 5744
5744 5832
5832 5918
5918 6005
6005 6092
6092 6179
6179 6266
6266 6353
6353 6439
6439 6527
6527 6613
6613 6700
6700 6788
6788 6874
6874 6962
6962 7049
7049 7135
7135 7222
7222 7309
7309 7396
7396 7483
7483 7570
7570 7657
7657 7744
7744 7830
7830 7918
7918 8004
8004 8066
8066 8154
8154 8240
8240 8328
8328 8415
8415 8502
8502 8564
8564 8651
8651 8738
8738 8826
8826 8913
8913 9000
9000 9087
9087 9174
9174 9262
9262 9349
9349 9436
9436 9524
9524 9611
9611 9699
9699 9786
9786 9873
9873 9961
9961 10061
10061 10146
10146 10231
10231 10317
10317 10402
10402 10487
10487 10572
10572 10657
10657 10742
10742 10827
10827 10912
10912 10998
10998 11076
11076 11161
11161 11247
11247 11332
11332 11417
11417 11502
11502 11587
11587 11672
11672 11757
11757 11842
11842 11927
11927 12012
12012 12097
12097 12183
12183 12268
12268 12353
12353 12438
12438 12523
12523 12609
12609 12694
12694 12779
12779 12865
12865 12950
12950 13035
13035 13121
13121 13206
13206 13292
13292 13377
13377 13463
13463 13548
13548 13634
13634 13719
13719 13805
13805 13891
13891 13976
13976 14054
14054 14140
14140 14225
14225 14311
14311 14396
14396 14482
14482 14568
14568 14654
14654 14740
14740 14826
14826 14912
14912 14998
14998 15084
15084 15170
15170 15257
15257 15343
15343 15429
15429 15515
15515 15601
15601 15687
15687 15773
15773 15859
15859 15945
15945 16006
16006 16092
16092 16178
16178 16264
16264 16349
16349 16436
16436 16521
16521 16607
16607 16693
16693 16779
16779 16865
16865 16951
16951 17036
17036 17123
17123 17209
17209 17295
17295 17381
17381 17467
17467 17553
17553 17639
17639 17725
17725 17811
17811 17897
17897 17983
17983 18069
18069 18155
18155 18241
18241 18327
18327 18413
18413 18499
18499 18585
18585 18671
18671 18757
18757 18843
18843 18929
18929 19015
19015 19076
19076 19162
19162 19248
19248 19334
19334 19420
19420 19505
19505 19591
19591 19677
19677 19763
19763 19848
19848 19933
19933 20019
20019 20104
20104 20190
20190 20275
20275 20361
20361 20446
20446 20532
20532 20617
20617 20703
20703 20788
20788 20873
20873 20959
20959 21044
21044 21130
21130 21216
21216 21301
21301 21387
21387 21472
21472 21557
21557 21643
21643 21729
21729 21814
21814 21900
21900 21986
21986 22071
22071 22157
22157 22242
22242 22328
22328 22414
22414 22500
22500 22586
22586 22671
22671 22757
22757 22843
22843 22929
22929 23015
23015 23100
23100 23186
23186 23272
23272 23358
23358 23444
23444 23530
23530 23616
23616 23702
23702 23788
23788 23874
23874 23960
23960 24046
24046 24132
24132 24219
24219 24305
24305 24391
24391 24477
24477 24563
24563 24649
24649 24736
24736 24822
24822 24908
24908 24995
24995 25081
25081 25167
25167 25254
25254 25340
25340 25426
25426 25513
25513 25599
25599 25686
25686 25772
25772 25859
25859 25945
25945 26060
26060 26146
26146 26232
26232 26318
26318 26404
26404 26490
26490 26576
26576 26662
26662 26748
26748 26835
26835 26921
26921 27007
27007 27093
27093 27180
27180 27266
27266 27352
27352 27439
27439 27525
27525 27611
27611 27698
27698 27784
27784 27870
27870 27957
27957 28043
28043 28105
28105 28191
28191 28278
28278 28364
28364 28451
28451 28537
28537 28624
28624 28711
28711 28797
28797 28884
28884 28970
28970 29057
29057 29144
29144 29230
29230 29317
29317 29403
29403 29490
29490 29577
29577 29663
29663 29750
29750 29836
29836 29922
29922 30009
30009 30111
30111 30198
30198 30285
30285 30372
30372 30459
30459 30545
30545 30633
30633 30719
30719 30807
30807 30894
30894 30980
30980 31067
31067 31154
31154 31241
31241 31328
31328 31414
31414 31501
31501 31588
31588 31675
31675 31762
31762 31848
31848 31935
31935 32022
32022 32108
32108 32195
32195 32282
32282 32368
32368 32455
32455 32542
32542 32628
32628 32716
32716 32802
32802 32889
32889 32976
32976 33062
33062 33149
33149 33236
33236 33322
33322 33409
33409 33496
33496 33582
33582 33669
33669 33756
33756 33843
33843 33930
33930 34016
34016 34103
34103 34190
34190 34277
34277 34364
34364 34451
34451 34537
34537 34625
34625 34711
34711 34798
34798 34885
34885 34972
34972 35059
35059 35146
35146 35232
35232 35319
35319 35406
35406 35493
35493 35580
35580 35666
35666 35754
35754 35840
35840 35927
35927 36034
