817 894
894 970
1810 1887
1887 1938
2167 2243
2243 2320
2320 2396
2396 2473
2473 2549
2549 2626
2626 2702
2702 2779
2779 2855
2855 2932
2932 3008
3008 3085
3085 3161
3161 3238
3238 3315
3315 3391
3391 3467
3467 3544
3697 3774
3774 3850
3850 3927
3927 4004
4004 4080
4080 4157
4157 4233
4233 4309
4309 4386
4386 4463
4463 4539
4539 4616
4616 4692
4692 4768
4768 4845
4845 4922
4922 4998
4998 5074
5074 5151
5151 5227
5227 5304
5304 5381
5381 5457
5457 5533
5533 5610
5610 5687
5687 5763
5763 5840
5840 5916
5916 5993
5993 6040
6040 6116
6116 6193
6193 6269
6269 6345
6345 6422
6422 6498
6498 6575
6575 6652
6652 6728
6728 6804
6804 6881
6881 6957
6957 7034
7034 7110
7110 7187
7187 7264
7264 7340
7340 7417
7417 7493
7493 7569
7569 7647
7647 7723
7723 7799
7799 7876
7876 7952
7952 8029
8029 8106
8106 8182
8182 8258
8258 8336
8336 8412
8412 8488
8488 8565
8565 8642
8642 8718
8718 8795
8795 8871
8871 8947
8947 9024
9024 9101
9101 9177
9177 9254
9254 9330
9330 9406
9406 9483
9483 9559
9559 9636
9636 9712
9712 9789
9789 9865
9865 9941
9941 10018
10018 10069
10069 10146
10146 10222
10222 10298
10298 10375
10375 10451
10451 10527
10527 10604
10604 10681
10681 10757
10757 10833
10833 10910
10910 10986
10986 11063
11063 11140
11140 11216
11216 11292
11292 11369
11369 11445
11445 11522
11522 11599
11599 11675
11675 11751
11751 11828
11828 11905
11905 11981
11981 12058
12058 12135
12135 12211
12211 12288
12288 12365
12365 12441
12441 12519
12519 12595
12595 12647
12647 12724
12724 12800
12800 12877
12877 12954
12954 13031
13031 13107
13107 13184
13184 13261
13261 13338
13338 13415
13415 13491
13491 13568
13568 13645
13645 13722
13722 13798
13798 13875
13875 13952
13952 14028
14028 14105
14105 14182
14182 14258
14258 14335
14335 14412
14412 14488
14488 14565
14565 14642
14642 14718
14718 14795
14795 14872
14872 14949
14949 15025
15025 15102
15102 15154
15154 15231
15231 15307
15307 15384
15384 15461
15461 15537
15537 15614
15614 15691
15691 15768
15768 15844
15844 15921
15921 15998
15998 16075
16075 16151
16151 16228
16228 16305
16305 16381
16381 16458
16458 16535
16535 16612
16612 16689
16689 16765
16765 16842
16842 16919
16919 16996
16996 17073
17073 17149
17149 17227
17227 17303
17303 17380
17380 17457
17457 17534
17534 17611
17611 17688
17688 17764
17764 17841
17841 17918
17918 17994
17994 18071
18071 18148
18148 18225
18225 18302
18302 18379
18379 18456
18456 18533
18533 18609
18609 18686
18686 18763
18763 18840
18840 18917
18917 18993
18993 19070
19070 19147
19147 19223
19223 19299
19299 19376
19376 19453
19453 19530
19530 19606
19606 19683
19683 19759
19759 19836
19836 19913
19913 19989
19989 20066
20066 20143
20143 20219
20219 20296
20296 20373
20373 20449
20449 20525
20525 20602
20602 20678
20678 20755
20755 20831
20831 20908
20908 20984
20984 21061
21061 21137
21137 21214
21214 21291
21291 21367
21367 21443
21443 21520
21520 21596
21596 21673
21673 21750
21750 21826
21826 21902
21902 21979
21979 22056
22056 22132
22132 22209
22209 22286
22286 22362
22362 22439
22439 22516
22516 22592
22592 22669
22669 22746
22746 22822
22822 22899
22899 22976
22976 23053
23053 23130
23130 23206
23206 23283
23283 23360
23360 23436
23436 23513
23513 23589
23589 23666
23666 23743
23743 23819
23819 23896
23896 23973
23973 24049
24049 24126
24126 24202
24202 24278
24278 24355
24355 24432
24432 24508
24508 24585
24585 24661
24661 24738
24738 24814
24814 24891
24891 24967
24967 25044
25044 25121
25121 25197
25197 25274
25274 25351
25351 25427
25427 25504
25504 25581
25581 25658
25658 25734
25734 25811
25811 25888
25888 25965
25965 26042
26042 26118
26118 26195
26195 26272
26272 26349
26349 26425
26425 26502
26502 26579
26579 26656
26656 26733
26733 26809
26809 26886
26886 26963
26963 27040
27040 27117
27117 27194
27194 27270
27270 27347
27347 27424
27424 27501
27501 27577
27577 27654
27654 27731
27731 27807
27807 27884
27884 27961
27961 28038
28038 28114
28114 28191
28191 28268
28268 28344
28344 28421
28421 28498
28498 28574
28574 28651
28651 28728
28728 28804
28804 28880
28880 28957
28957 29051
29051 29127
29127 29204
29204 29279
29279 29356
29356 29431
29431 29507
29507 29583
29583 29659
29659 29735
29735 29811
29811 29887
29887 29963
29963 30039
30039 30115
30115 30191
30191 30267
30267 30343
30343 30419
30419 30495
30495 30571
30571 30647
30647 30723
30723 30799
30799 30875
30875 30951
30951 31027
31027 31103
31103 31179
31179 31256
31256 31332
31332 31408
31408 31484
31484 31561
31561 31636
31636 31713
31713 31789
31789 31865
31865 31942
31942 32018
32018 32058
32058 32135
32135 32211
32211 32287
32287 32364
32364 32440
32440 32516
32516 32594
32594 32670
32670 32746
32746 32823
32823 32899
32899 32976
32976 33102
33102 33178
33178 33256
33256 33332
33332 33409
33409 33486
33486 33563
33563 33640
33640 33717
33717 33793
33793 33871
33871 33947
33947 34023
34023 34096
34096 34173
34173 34249
34249 34326
34326 34402
34402 34479
34479 34556
34556 34632
34632 34709
34709 34786
34786 34862
34862 34939
34939 35015
35015 35092
35092 35168
35168 35245
35245 35321
35321 35398
35398 35474
35474 35551
35551 35627
35627 35704
35704 35780
35780 35857
35857 35933
35933 36010
36010 36086
36086 36163
36163 36240
36240 36316
36316 36393
36393 36469
36469 36545
36545 36623
36623 36699
36699 36775
36775 36852
36852 36928
36928 37005
37005 37052
37052 37129
37129 37206
37206 37282
37282 37359
37359 37435
37435 37511
37511 37588
37588 37665
37665 37741
37741 37818
37818 37894
37894 37970
37970 38047
38047 38123
38123 38200
38200 38276
38276 38353
38353 38429
38429 38506
38506 38582
38582 38658
38658 38735
38735 38811
38811 38887
38887 38964
38964 39040
39040 39117
39117 39193
39193 39270
39270 39346
39346 39398
39398 39475
39475 39551
39551 39627
39627 39705
39705 39781
39781 39857
39857 39934
39934 40011
40011 40060
40060 40137
40137 40214
40214 40290
40290 40367
40367 40444
40444 40520
40520 40597
40597 40674
40674 40750
40750 40827
40827 40904
40904 40980
40980 41080
41080 41156
41156 41233
41233 41310
41310 41386
41386 41462
41462 41539
41539 41615
41615 41692
41692 41769
41769 41845
41845 41921
41921 41998
41998 42074
42074 42151
42151 42227
42227 42304
42304 42380
42380 42457
42457 42534
42534 42610
42610 42687
42687 42763
42763 42840
42840 42917
42917 42994
42994 43071
43071 43147
43147 43224
43224 43300
43300 43377
43377 43454
43454 43530
43530 43607
43607 43684
43684 43760
43760 43837
43837 43914
43914 43990
43990 44067
44067 44144
44144 44220
44220 44297
44297 44374
44374 44450
44450 44527
44527 44604
44604 44680
44680 44757
44757 44834
44834 44910
44910 44987
44987 45064
45064 45140
45140 45217
45217 45294
45294 45370
45370 45447
45447 45524
45524 45600
45600 45677
45677 45754
45754 45831
45831 45908
45908 45984
45984 46061
46061 46138
46138 46214
46214 46291
46291 46368
46368 46444
46444 46521
46521 46597
46597 46674
46674 46751
46751 46827
46827 46904
46904 46980
46980 47057
47057 47134
47134 47210
47210 47287
47287 47364
47364 47440
47440 47517
47517 47594
47594 47671
47671 47747
47747 47824
47824 47901
47901 47977
47977 48054
48054 48131
48131 48207
48207 48285
48285 48361
48361 48438
48438 48515
48515 48592
48592 48668
48668 48745
48745 48822
48822 48898
48898 48975
48975 49052
49052 49128
49128 49205
49205 49282
49282 49359
49359 49435
49435 49512
49512 49589
49589 49666
49666 49743
49743 49820
49820 49896
49896 49973
49973 50050
50050 50127
50127 50204
50204 50281
50281 50357
50357 50434
50434 50511
50511 50588
50588 50664
50664 50741
50741 50818
50818 50894
50894 50971
50971 51047
51047 51124
51124 51201
51201 51278
51278 51354
51354 51431
51431 51508
51508 51584
51584 51661
51661 51738
51738 51814
51814 51891
51891 51968
51968 52045
52045 52121
52121 52198
52198 52275
52275 52351
52351 52429
52429 52505
52505 52582
52582 52659
52659 52736
52736 52813
52813 52890
52890 52966
52966 53094
53094 53170
53170 53248
53248 53324
53324 53401
53401 53478
53478 53555
53555 53631
53631 53708
53708 53785
53785 53861
53861 53938
53938 54015
