28 71
338 402
633 708
708 775
1171 1238
1385 1459
1459 1526
1526 1597
1661 1748
1748 1818
1818 1859
1859 1924
1924 1987
1987 2062
2062 2127
2127 2189
2437 2501
2501 2571
2571 2645
2645 2716
2716 2787
2787 2836
2836 2915
2915 2979
3500 3574
3574 3645
3645 3719
3719 3790
3790 3864
3864 3959
3959 4031
4031 4096
4096 4162
4162 4241
4241 4332
4332 4412
4412 4487
4487 4552
4552 4617
4617 4687
4687 4774
4774 4840
4840 4915
4915 4988
4988 5060
5060 5126
5126 5209
5209 5289
5289 5354
5354 5471
5471 5557
5557 5626
5626 5716
5716 5779
5779 5864
5864 5970
5970 6054
6054 6136
6136 6208
6208 6287
6287 6358
6358 6444
6444 6517
6517 6598
6598 6686
6686 6743
6743 6816
6816 6898
6898 6976
6976 7056
7056 7104
7104 7170
7170 7263
7263 7332
7332 7424
7424 7516
7516 7586
7586 7663
7663 7739
7739 7811
7811 7893
7893 7964
7964 8042
8042 8150
8150 8228
8228 8323
8323 8395
8395 8466
8466 8529
8529 8606
8606 8726
8726 8795
8795 8858
8858 8924
8924 8990
8990 9057
9057 9120
9120 9191
9191 9256
9256 9338
9338 9378
9378 9479
9479 9548
9548 9617
9617 9683
9683 9748
9748 9839
9839 9906
9906 9991
9991 10071
10071 10141
10141 10229
10229 10316
10316 10390
10390 10454
10454 10515
10515 10599
10599 10665
10665 10751
10751 10819
10819 10886
10886 10962
10962 11045
11045 11134
11134 11195
11195 11258
11258 11324
11324 11392
11392 11468
11468 11535
11535 11602
11602 11674
11674 11764
11764 11833
11833 11896
11896 11962
11962 12039
12039 12111
12111 12189
12189 12256
12256 12340
12340 12405
12405 12468
12468 12534
12534 12602
12602 12675
12675 12741
12741 12816
12816 12898
12898 12965
12965 13079
13079 13142
13142 13205
13205 13273
13273 13343
13343 13429
13429 13497
13497 13565
13565 13650
13650 13754
13754 13833
13833 13916
13916 14000
14000 14072
14072 14155
14155 14200
14200 14286
14286 14364
14364 14431
14431 14499
14499 14576
14576 14666
14666 14735
14735 14814
14814 14879
14879 14942
14942 15013
15013 15089
15089 15166
15166 15243
15243 15321
15321 15416
15416 15483
15483 15561
15561 15628
15628 15710
15710 15816
15816 15885
15885 15974
15974 16057
16057 16161
16161 16236
16236 16307
16307 16379
16379 16441
16441 16523
16523 16594
16594 16689
16689 16765
16765 16848
16848 16918
16918 16986
16986 17056
17056 17120
17120 17187
17187 17249
17249 17312
17312 17386
17386 17462
17462 17537
17537 17602
17602 17669
17669 17745
17745 17816
17816 17883
17883 17951
17951 18018
18018 18087
18087 18166
18166 18242
18242 18310
18310 18391
18391 18493
18493 18564
18564 18635
18635 18700
18700 18766
18766 18837
18837 18902
18902 18994
18994 19057
19057 19121
19121 19187
19187 19252
19252 19342
19342 19408
19408 19478
19478 19569
19569 19636
19636 19712
19712 19785
19785 19851
19851 19935
19935 20007
20007 20072
20072 20141
20141 20222
20222 20287
20287 20357
20357 20435
20435 20500
20500 20569
20569 20650
20650 20719
20719 20798
20798 20861
20861 20932
20932 20998
20998 21081
21081 21156
21156 21224
21224 21312
21312 21389
21389 21455
21455 21548
21548 21625
21625 21700
21700 21801
21801 21928
21928 22006
22006 22088
22088 22156
22156 22234
22234 22301
22301 22368
22368 22434
22434 22499
22499 22601
22601 22662
22662 22728
22728 22797
22797 22868
22868 22929
22929 23030
23030 23100
23100 23178
23178 23267
23267 23346
23346 23408
23408 23500
23500 23570
23570 23664
23664 23730
23730 23797
23797 23863
23863 23926
23926 23997
23997 24067
24067 24142
24142 24237
24237 24325
24325 24395
24395 24466
24466 24544
24544 24618
24618 24681
24681 24748
24748 24811
24811 24876
24876 24936
24936 25010
25010 25064
25064 25128
25128 25195
25195 25257
25257 25361
25361 25433
25433 25499
25499 25561
25561 25628
25628 25696
25696 25769
25769 25829
25829 25921
25921 25998
25998 26060
26060 26149
26149 26216
26216 26282
26282 26390
26390 26483
26483 26556
26556 26623
26623 26700
26700 26766
26766 26888
26888 26959
26959 27021
27021 27086
27086 27160
27160 27230
27230 27296
27296 27363
27363 27446
27446 27518
27518 27609
27609 27696
27696 27763
27763 27847
27847 27945
27945 28026
28026 28129
28129 28206
28206 28277
28277 28353
28353 28422
28422 28534
28534 28614
28614 28682
28682 28746
28746 28811
28811 28873
28873 28937
28937 29065
29065 29126
29126 29226
29226 29302
29302 29365
29365 29433
29433 29504
29504 29570
29570 29638
29638 29712
29712 29775
29775 29835
29835 29900
29900 29963
29963 30027
30027 30097
30097 30170
30170 30265
30265 30346
30346 30419
30419 30479
30479 30564
30564 30635
30635 30714
30714 30789
30789 30869
30869 30930
30930 31001
31001 31116
31116 31194
31194 31260
31260 31332
31332 31407
31407 31473
31473 31531
31531 31596
31596 31657
31657 31722
31722 31785
31785 31857
31857 31927
31927 31994
31994 32074
32074 32142
32142 32225
32225 32292
32292 32354
32354 32425
32425 32496
32496 32548
32548 32616
32616 32700
32700 32761
32761 32828
32828 32924
32924 32993
32993 33046
33046 33116
33116 33205
33205 33298
33298 33361
33361 33429
33429 33498
33498 33572
33572 33642
33642 33717
33717 33777
33777 33857
33857 33923
33923 33994
33994 34094
34094 34157
34157 34240
34240 34316
34316 34393
34393 34482
34482 34548
34548 34616
34616 34687
34687 34754
34754 34830
34830 34919
34919 35020
35020 35085
35085 35151
35151 35229
35229 35293
35293 35372
35372 35435
35435 35495
35495 35571
35571 35656
35656 35722
35722 35791
35791 35853
35853 35928
35928 36002
36002 36060
36060 36120
36120 36191
36191 36236
36236 36309
36309 36379
36379 36444
36444 36511
36511 36586
36586 36658
36658 36728
36728 36776
36776 36842
36842 36918
