1992 2063
4969 5049
5729 5799
5799 5875
5875 5971
5971 6049
6049 6117
6117 6187
6187 6252
6252 6334
6334 6403
6403 6477
6477 6561
6561 6654
6654 6724
6724 6789
6789 6859
6859 6925
6925 7030
7030 7072
7072 7145
7145 7219
7219 7287
7287 7371
7371 7443
7443 7516
7516 7592
7592 7660
7660 7732
7732 7812
7812 7904
7904 7975
7975 8090
8090 8164
8164 8231
8231 8317
8317 8393
8393 8467
8467 8532
8532 8613
8613 8682
8682 8770
8770 8845
8845 8907
8907 8992
8992 9082
9082 9146
9146 9226
9226 9295
9295 9365
9365 9430
9430 9497
9497 9572
