13 51
51 130
130 208
363 443
443 522
522 600
600 677
677 756
756 836
836 916
916 995
995 1045
1045 1124
1124 1203
1203 1282
1282 1361
1361 1440
1440 1519
1519 1599
1599 1678
1678 1758
1758 1837
1837 1916
1916 1996
1996 2043
2043 2125
2125 2208
2208 2289
2289 2371
2371 2452
2452 2534
2534 2615
2615 2697
2697 2789
2789 2858
2858 2940
2940 3021
3021 3107
3107 3188
3188 3270
3270 3351
3351 3433
3433 3515
3515 3597
3597 3678
3678 3760
3760 3841
3841 3923
3923 4005
4005 4049
4049 4131
4131 4214
4214 4296
4296 4378
4378 4465
4465 4570
4570 4651
4651 4711
4711 4793
4793 4890
4890 4972
4972 5051
5051 5138
5138 5224
5224 5311
5311 5396
5396 5483
5483 5569
5569 5656
5656 5742
5742 5828
5828 5915
5915 6001
6001 6105
6105 6190
6190 6274
6274 6359
6359 6445
6445 6530
6530 6700
6700 6785
6785 6870
6870 6954
6954 7056
7056 7141
7141 7226
7226 7310
7310 7394
7394 7479
7479 7565
7565 7650
7650 7735
7735 7820
7820 7991
7991 8077
8077 8163
8163 8249
8249 8334
8334 8420
8420 8506
8506 8593
8593 8679
8679 8764
8764 8850
8850 8937
8937 9023
9023 9109
9109 9195
9195 9281
9281 9367
9367 9454
9454 9541
9541 9628
9628 9714
9714 9801
9801 9888
9888 9974
9974 10060
10060 10145
10145 10230
10230 10316
10316 10401
10401 10486
10486 10571
10571 10655
10655 10740
10740 10826
10826 10911
10911 10996
10996 11080
11080 11164
11164 11249
11249 11334
