3387 3466
3466 3544
3857 3934
3934 4034
4034 4109
4109 4186
4186 4263
4263 4339
4339 4417
4417 4493
4493 4569
4569 4646
4646 4723
4723 4801
4801 4877
4877 4954
4954 5057
5057 5136
5136 5216
5216 5296
5296 5376
5376 5455
5455 5535
