23 102
402 578
4367 4466
4466 4542
6955 7124
7124 7224
7224 7325
7325 7426
7426 7602
7602 7703
7703 7804
7804 7904
7904 8005
8005 8106
8106 8207
8207 8307
8307 8408
8408 8509
8509 8610
8610 8711
8711 8811
8811 8912
8912 9013
9013 9113
9113 9213
9213 9313
9313 9413
9413 9512
9512 9613
9613 9713
9713 9813
9813 9913
9913 10013
10013 10113
10113 10213
10213 10313
10313 10414
10414 10514
10514 10615
10615 10715
10715 10815
10815 10915
10915 11016
11016 11116
11116 11216
11216 11316
11316 11417
11417 11517
11517 11617
11617 11718
11718 11818
11818 11919
11919 12019
12019 12120
12120 12220
12220 12321
12321 12420
12420 12519
12519 12618
12618 12716
12716 12814
12814 12913
12913 13012
13012 13110
13110 13184
13184 13283
13283 13382
13382 13481
13481 13581
13581 13681
13681 13780
13780 13881
13881 13981
13981 14081
14081 14182
14182 14283
14283 14384
14384 14485
14485 14586
14586 14686
14686 14787
14787 14887
14887 14986
14986 15085
15085 15185
15185 15285
15285 15384
15384 15483
15483 15582
15582 15681
15681 15780
15780 15880
15880 15979
15979 16077
16077 16177
16177 16277
16277 16376
16376 16475
16475 16574
16574 16673
16673 16773
16773 16873
16873 16972
16972 17045
17045 17145
17145 17245
17245 17345
17345 17445
17445 17546
17546 17646
17646 17747
17747 17848
17848 17948
17948 18048
18048 18148
18148 18249
18249 18349
18349 18448
18448 18548
18548 18648
18648 18748
18748 18847
18847 18946
18946 19045
19045 19143
19143 19242
19242 19341
19341 19441
19441 19540
19540 19640
19640 19740
19740 19840
19840 19940
19940 20040
20040 20140
20140 20239
20239 20340
20340 20440
20440 20540
20540 20640
20640 20740
20740 20841
20841 20941
20941 21041
21041 21142
21142 21242
21242 21342
21342 21443
21443 21544
21544 21619
21619 21720
21720 21822
21822 21923
21923 22023
22023 22100
22100 22200
22200 22300
22300 22400
22400 22499
22499 22573
22573 22672
22672 22772
22772 22871
22871 22970
22970 23037
29543 29641
29641 29715
31306 31511
31511 31612
31612 31712
31712 31812
31812 31911
31911 32009
32009 32108
32108 32206
32206 32305
32305 32404
32404 32502
32502 32602
32602 32702
32702 32801
32801 32900
32900 33000
33000 33099
33099 33198
33198 33298
33298 33398
33398 33497
33497 33596
33596 33696
33696 33796
33796 33895
33895 33995
33995 34094
34094 34192
34192 34291
34291 34390
34390 34490
34490 34590
34590 34690
34690 34790
34790 34891
34891 34992
34992 35092
35092 35193
35193 35294
35294 35394
35394 35495
35495 35596
35596 35696
35696 35797
35797 35897
35897 35996
35996 36071
36071 36171
36171 36270
36270 36369
36369 36469
36469 36569
36569 36668
36668 36768
36768 36867
36867 36967
36967 37068
37068 37168
37168 37267
37267 37366
37366 37465
37465 37565
37565 37665
37665 37765
37765 37865
37865 37966
37966 38067
38067 38167
38167 38269
38269 38371
38371 38472
38472 38573
38573 38674
38674 38775
38775 38876
38876 38977
38977 39077
39077 39178
39178 39279
39279 39379
39379 39478
39478 39577
39577 39675
39675 39773
39773 39871
39871 39970
39970 40067
40067 40165
40165 40262
40262 40360
40360 40458
40458 40556
40556 40654
40654 40752
40752 40850
40850 40949
40949 41047
41047 41145
41145 41244
41244 41343
41343 41441
41441 41540
41540 41639
41639 41738
41738 41838
41838 41938
41938 42038
42038 42138
42138 42238
42238 42338
42338 42438
42438 42538
42538 42638
42638 42738
42738 42838
42838 42938
42938 43038
43038 43139
43139 43215
43215 43316
43316 43418
43418 43519
43519 43620
43620 43721
43721 43822
43822 43922
43922 44023
44023 44123
44123 44224
44224 44326
44326 44427
44427 44527
44527 44628
44628 44727
44727 44827
44827 44927
44927 45026
45026 45126
45126 45226
45226 45326
45326 45426
45426 45526
45526 45627
45627 45726
45726 45827
45827 45928
45928 46004
46004 46104
46104 46205
46205 46305
46305 46405
46405 46506
46506 46606
46606 46705
46705 46805
46805 46906
46906 47006
47006 47107
47107 47210
47210 47312
47312 47415
47415 47518
47518 47620
47620 47722
47722 47823
