3890 4008
4008 4085
4085 4164
4164 4240
4240 4317
4317 4396
4396 4473
4473 4548
4548 4625
4625 4701
4701 4779
4779 4853
4853 4930
4930 5006
5006 5078
5078 5152
5152 5226
5226 5298
5298 5369
5369 5438
5438 5510
18810 18881
18881 18954
18954 19024
19024 19097
19097 19213
19213 19284
19284 19355
19355 19424
19424 19497
19497 19567
19567 19638
19638 19709
19709 19781
19781 19855
19855 19926
19926 20000
20000 20072
20072 20148
20148 20221
20221 20296
20296 20374
20374 20449
20449 20527
20527 20601
20601 20677
20677 20752
20752 20827
20827 20899
20899 20972
20972 21045
21045 21116
21116 21189
21189 21259
21259 21332
21332 21377
21377 21448
21448 21520
21520 21593
21593 21663
21663 21737
21737 21807
21807 21881
21881 21952
21952 22026
22026 22099
22099 22170
22170 22245
22245 22317
22317 22393
22393 22468
22468 22543
22543 22618
22618 22693
22693 22769
22769 22845
22845 22923
22923 23000
23000 23077
23077 23152
23152 23228
23228 23304
23304 23382
23382 23457
23457 23534
23534 23608
23608 23684
23684 23761
23761 23835
23835 23911
23911 23989
23989 24064
24064 24140
24140 24218
24218 24295
24295 24370
24370 24449
24449 24525
24525 24602
24602 24682
24682 24759
24759 24836
24836 24911
24911 24988
24988 25063
25063 25137
25137 25209
25209 25281
25281 25355
25355 25425
25425 25498
25498 25570
25570 25641
25641 25711
25711 25783
25783 25855
25855 25929
25929 26002
26002 26076
26076 26149
26149 26224
26224 26302
26302 26377
26377 26453
26453 26528
26528 26603
26603 26679
26679 26757
26757 26833
26833 26909
26909 26985
26985 27060
27060 27138
27138 27213
27213 27292
27292 27371
27371 27448
27448 27527
27527 27607
27607 27682
27682 27760
27760 27833
27833 27907
27907 27982
27982 28053
28053 28126
28126 28197
28197 28270
28270 28339
28339 28412
28412 28457
28457 28528
28528 28601
28601 28671
28671 28745
28745 28865
28865 28937
28937 29013
29013 29086
29086 29163
29163 29239
29239 29315
29315 29390
29390 29467
29467 29544
29544 29623
29623 29701
29701 29779
29779 29856
29856 29934
29934 30013
30013 30091
30091 30169
30169 30247
30247 30324
30324 30403
30403 30456
30456 30534
30534 30609
30609 30686
30686 30760
30760 30837
30837 30911
30911 30987
30987 31061
31061 31134
31134 31210
31210 31282
31282 31357
31357 31431
31431 31503
31503 31578
31578 31650
31650 31725
31725 31797
31797 31872
31872 31944
31944 32016
32016 32086
32086 32159
32159 32229
32229 32301
32301 32371
32371 32443
32443 32512
32512 32585
32585 32656
32656 32725
32725 32797
32797 32869
32869 32942
32942 33017
33017 33090
33090 33165
33165 33241
33241 33315
33315 33391
33391 33464
33464 33540
33540 33612
33612 33686
33686 33759
33759 33834
33834 33907
33907 33979
33979 34053
34053 34129
34129 34204
34204 34277
34277 34354
34354 34430
34430 34506
34506 34586
34586 34662
34662 34741
34741 34823
34823 34901
34901 34984
34984 35100
35100 35178
35178 35258
35258 35334
35334 35413
35413 35490
35490 35565
35565 35642
35642 35715
35715 35791
35791 35865
35865 35936
35936 36011
36011 36082
36082 36156
36156 36227
36227 36300
36300 36372
36372 36441
36441 36512
36512 36585
36585 36654
36654 36727
36727 36798
36798 36868
36868 36941
36941 37014
37014 37089
37089 37161
37161 37238
37238 37312
37312 37387
37387 37464
37464 37539
37539 37617
37617 37693
37693 37768
37768 37846
37846 37920
37920 37998
37998 38072
38072 38147
38147 38221
38221 38294
38294 38369
38369 38441
38441 38516
38516 38589
38589 38664
38664 38740
38740 38815
38815 38892
38892 38966
38966 39044
39044 39120
39120 39197
39197 39274
39274 39352
39352 39428
39428 39503
39503 39575
39575 39650
39650 39722
39722 39795
39795 39868
39868 39938
39938 40011
40011 40081
40081 40154
40154 40225
40225 40297
40297 40369
40369 40440
40440 40515
40515 40588
40588 40661
40661 40736
40736 40814
40814 40889
40889 40967
40967 41046
41046 41123
41123 41201
41201 41278
41278 41353
41353 41429
41429 41506
41506 41582
41582 41657
41657 41732
41732 41810
41810 41884
41884 41961
41961 42036
42036 42110
42110 42184
42184 42256
42256 42329
42329 42403
42403 42474
42474 42548
42548 42621
42621 42692
42692 42765
42765 42840
42840 42914
42914 42987
42987 43073
43073 43149
43149 43227
43227 43301
43301 43377
43377 43449
43449 43524
43524 43594
43594 43668
43668 43738
43738 43810
43810 43881
43881 43955
43955 44027
44027 44100
44100 44171
44171 44245
44245 44321
44321 44395
44395 44470
44470 44546
44546 44620
44620 44697
44697 44774
44774 44853
44853 44931
44931 45009
45009 45091
45091 45169
45169 45245
45245 45318
45318 45393
45393 45468
45468 45541
45541 45614
45614 45685
45685 45757
45757 45830
45830 45904
45904 45975
45975 46049
46049 46123
46123 46195
46195 46269
46269 46344
46344 46420
46420 46496
46496 46572
46572 46648
46648 46722
46722 46800
46800 46877
46877 46952
46952 47031
47031 47105
47105 47181
47181 47255
47255 47329
47329 47402
47402 47474
47474 47548
47548 47623
47623 47695
47695 47770
47770 47843
47843 47920
47920 47993
47993 48070
48070 48146
48146 48221
48221 48300
48300 48377
48377 48455
48455 48533
48533 48610
48610 48687
48687 48762
48762 48835
48835 48906
48906 48980
48980 49051
49051 49122
49122 49193
49193 49262
49262 49334
49334 49403
49403 49473
49473 49545
49545 49614
49614 49687
49687 49756
49756 49828
49828 49897
49897 49970
49970 50092
50092 50162
50162 50233
50233 50305
50305 50377
50377 50447
50447 50520
50520 50590
50590 50663
50663 50732
50732 50805
50805 50876
50876 50946
50946 51017
51017 51088
51088 51160
51160 51233
51233 51304
51304 51376
51376 51446
51446 51519
51519 51588
51588 51661
51661 51733
51733 51805
51805 51876
51876 51949
51949 52023
52023 52096
52096 52169
52169 52243
52243 52316
52316 52392
52392 52465
52465 52542
52542 52615
52615 52691
52691 52766
52766 52841
52841 52917
52917 52990
52990 53065
53065 53142
53142 53215
53215 53292
53292 53368
53368 53442
53442 53517
53517 53594
53594 53669
53669 53745
53745 53820
53820 53895
53895 53968
53968 54045
54045 54118
54118 54195
54195 54269
54269 54342
54342 54416
54416 54492
54492 54566
54566 54641
54641 54714
54714 54790
54790 54862
54862 54939
54939 55013
55013 55069
55069 55137
55137 55207
55207 55274
55274 55345
55345 55413
55413 55481
55481 55549
55549 55619
55619 55686
55686 55756
55756 55824
55824 55891
55891 55959
55959 56029
56029 56096
56096 56165
56165 56232
56232 56302
56302 56369
56369 56440
56440 56508
56508 56578
56578 56645
56645 56717
56717 56785
56785 56856
56856 56926
56926 56995
56995 57065
57065 57137
57137 57208
57208 57278
57278 57350
57350 57419
57419 57491
57491 57564
57564 57636
57636 57708
57708 57779
57779 57854
57854 57926
57926 58000
58000 58075
58075 58149
58149 58222
58222 58298
58298 58373
58373 58447
58447 58522
58522 58599
58599 58674
58674 58749
58749 58825
58825 58900
58900 58973
58973 59050
59050 59124
59124 59201
59201 59276
59276 59351
59351 59426
59426 59502
59502 59579
59579 59656
59656 59732
59732 59809
59809 59889
59889 59966
59966 60046
60046 60124
60124 60200
60200 60277
60277 60356
60356 60432
60432 60508
60508 60583
60583 60658
60658 60731
