923 1029
1029 1078
1923 2028
2028 2071
2176 2281
2811 2917
3024 3096
3096 3201
3201 3306
3306 3411
3411 3516
3516 3621
3621 3726
3726 3831
3831 3937
3937 4042
4042 4147
4147 4252
4252 4358
4358 4463
4463 4568
4568 4672
4672 4778
4778 4884
4884 4989
4989 5127
5127 5232
5232 5338
5338 5444
5444 5550
5550 5656
5656 5762
5762 5868
5868 5973
5973 6079
6079 6185
6185 6290
6290 6396
6396 6501
6501 6606
6606 6712
6712 6817
6817 6923
6923 7029
7029 7070
7070 7151
7151 7257
7257 7363
7363 7470
7470 7575
7575 7682
7682 7788
7788 7869
7869 7976
7976 8082
8082 8189
8189 8295
8295 8401
8401 8507
8507 8613
