4930 5001
5001 5042
5275 5401
5401 5476
5476 5550
5550 5621
5621 5694
5694 5768
5768 5843
5990 6039
6039 6113
6113 6188
6188 6263
6263 6337
6337 6409
6409 6481
6481 6556
6556 6630
6630 6703
6703 6775
6775 6848
6848 6924
6924 7001
7001 7100
7100 7179
7179 7255
7255 7327
7327 7403
7403 7480
7480 7557
7557 7630
7630 7703
7703 7777
7777 7852
7852 7927
7927 7999
7999 8103
8103 8181
8260 8336
8336 8410
8410 8486
8563 8640
8640 8714
8948 9024
9024 9099
9099 9172
9172 9246
9323 9400
9400 9476
9476 9549
9549 9622
9622 9696
9696 9772
9772 9845
9845 9917
9917 9989
9989 10062
10062 10136
10136 10210
10210 10282
10282 10354
10507 10584
10584 10658
10658 10732
10889 10967
10967 11041
12254 12328
12328 12402
12402 12477
12477 12554
12554 12628
12628 12700
12700 12774
12851 12931
12931 13039
15928 16000
16000 16039
16939 17014
17014 17051
