15929 16000
16000 16072
16072 16144
16144 16264
24265 24389
25065 25137
28285 28357
28357 28478
50105 50174
50174 50243
50243 50312
50312 50383
50383 50454
50454 50526
50526 50598
50598 50669
50669 50739
50739 50809
50809 50880
50880 50951
50951 51023
51023 51094
51094 51165
51165 51238
51238 51312
51312 51386
51386 51458
51458 51530
51530 51602
51602 51674
51674 51746
51746 51817
51817 51887
51887 51959
51959 52031
52031 52105
52105 52178
52178 52249
52249 52321
52321 52396
52396 52471
52471 52545
52545 52617
52617 52690
52690 52762
52762 52835
52835 52906
52906 52976
52976 53047
53047 53118
53118 53189
53189 53261
53261 53331
53331 53402
53402 53474
53474 53545
53545 53616
53616 53686
53686 53756
53756 53827
53827 53898
53898 53970
53970 54042
54042 54113
54113 54187
54187 54261
54261 54337
54337 54411
54411 54485
54485 54560
54560 54634
54634 54709
54709 54782
54782 54853
54853 54926
54926 55001
55001 55075
55075 55149
55149 55223
55223 55296
55296 55370
55370 55443
55443 55514
55514 55586
55586 55659
55659 55733
55733 55806
55806 55877
55877 55949
55949 56021
56021 56094
56094 56165
56165 56236
56236 56307
56307 56378
56378 56449
56449 56521
56521 56593
56593 56666
56666 56739
56739 56814
56814 56887
56887 56959
56959 57031
57031 57104
57104 57177
57177 57250
57250 57321
57321 57392
57392 57464
57464 57536
57536 57609
57609 57680
57680 57751
57751 57823
57823 57895
58038 58109
58109 58181
58181 58253
58253 58325
58325 58396
58396 58467
58467 58538
58538 58610
58610 58682
58682 58752
58752 58823
58823 58895
58895 58969
58969 59041
59041 59114
59114 59188
59188 59264
59264 59341
59341 59415
59415 59488
59488 59561
59561 59634
59634 59709
59709 59782
59782 59856
59856 59930
59930 60005
60005 60078
60078 60149
60149 60220
60220 60292
60292 60364
60364 60436
60436 60506
60506 60577
60577 60647
60647 60718
60718 60789
60789 60859
60859 60930
60930 61000
61000 61071
61071 61143
61143 61214
61214 61285
61285 61355
61355 61425
61425 61496
61496 61566
61566 61636
61636 61707
61707 61781
61781 61856
61856 61930
61930 62003
62003 62075
62075 62123
62123 62195
62195 62267
62267 62337
62337 62408
62408 62480
62480 62551
62551 62623
62623 62693
62693 62763
62763 62834
62834 62906
62906 62977
62977 63049
63049 63121
63121 63193
63193 63266
63266 63340
63340 63412
63412 63484
63484 63556
63556 63629
63629 63701
63701 63773
63773 63845
63845 63916
63916 63987
63987 64058
64058 64129
64129 64199
64199 64271
64271 64344
64344 64418
64418 64491
64491 64563
64563 64636
64636 64711
64711 64786
64786 64859
64859 64931
64931 65004
65004 65078
65078 65151
65151 65223
65223 65294
65294 65366
65366 65438
65438 65510
65510 65582
65582 65653
65653 65726
65726 65800
65800 65874
65874 65946
65946 66018
66018 66091
66091 66165
66165 66240
66240 66312
66312 66384
66384 66457
66457 66529
66529 66602
66602 66674
66674 66744
66744 66816
66816 66888
66888 66962
66962 67038
67038 67112
67112 67186
67186 67262
67262 67338
67338 67413
67413 67485
67485 67558
67558 67631
67631 67707
67707 67784
67784 67858
67858 67933
67933 68010
68010 68091
68091 68172
68172 68249
68249 68327
68327 68405
68405 68482
68482 68557
68557 68630
68630 68703
68703 68777
68777 68852
68852 68925
68925 68996
68996 69068
69068 69141
69141 69214
69214 69287
69287 69359
69359 69432
69432 69509
69509 69586
69586 69662
69662 69737
69737 69813
69813 69890
69890 69967
69967 70042
70042 70115
70115 70190
70190 70266
70266 70341
70341 70416
70416 70490
70490 70563
70563 70638
70638 70714
70714 70791
70791 70868
70868 70943
70943 71018
71018 71093
71093 71171
71171 71248
71248 71322
71322 71396
71396 71473
71473 71548
71548 71622
71622 71694
71694 71768
71768 71843
71843 71919
71919 71995
71995 72068
72068 72141
72141 72215
72215 72289
72289 72364
72364 72438
72438 72512
72512 72586
72586 72662
72662 72737
72737 72811
72811 72883
72883 72955
72955 73026
73026 73098
73098 73170
73170 73241
73241 73313
73313 73384
73384 73458
