2632 2719
2719 2774
2774 2830
2830 2886
2886 2942
2942 2998
2998 3053
3053 3109
3109 3165
3165 3221
3221 3277
3277 3333
3389 3445
3501 3558
3558 3614
3614 3671
3671 3727
3727 3784
3784 3840
3840 3897
3897 3953
3953 4010
4010 4066
4066 4123
4123 4179
4179 4236
4236 4292
4292 4348
4348 4405
4405 4461
4461 4518
4518 4574
4574 4631
4631 4688
4688 4745
4745 4802
4802 4859
4859 4916
4916 4973
4973 5031
5031 5088
5088 5145
5145 5203
5203 5260
5260 5317
5317 5374
5374 5432
5432 5489
5489 5547
5547 5604
5604 5661
5661 5719
5719 5776
5776 5833
5833 5891
5891 5948
5948 6006
6006 6063
6063 6121
6121 6178
6178 6236
6236 6294
6294 6352
6352 6409
6409 6467
6467 6525
6525 6583
6583 6641
6641 6699
6699 6758
6758 6816
6816 6874
6874 6933
6933 6991
6991 7050
7050 7108
7108 7167
7167 7226
7226 7285
7285 7344
7344 7403
7403 7463
7463 7523
7523 7583
7583 7643
7643 7702
7702 7762
7762 7823
7823 7885
7885 7946
7946 8007
8007 8069
8069 8131
8131 8192
8192 8253
8253 8314
8424 8499
8499 8561
8561 8621
8621 8681
8681 8741
8741 8800
8800 8860
8860 8921
8921 8981
8981 9042
9042 9102
9102 9163
9163 9223
9223 9283
9283 9344
9344 9404
9404 9464
9464 9523
9523 9583
9583 9643
9643 9703
9703 9762
9762 9821
9821 9880
9880 9940
9940 9999
9999 10058
10058 10117
10117 10176
10176 10235
10235 10294
10294 10353
10353 10412
10412 10471
10471 10529
10529 10588
10588 10636
10636 10706
10706 10765
10765 10823
10823 10882
10882 10940
10940 10998
10998 11056
11056 11114
11114 11172
11172 11231
11231 11289
11289 11348
11348 11407
11407 11465
11465 11524
11524 11583
11583 11641
11641 11700
11700 11759
11759 11851
11851 11910
11910 11969
11969 12028
12028 12087
12087 12146
12146 12205
12205 12264
12264 12323
12323 12382
12382 12441
12441 12500
12500 12559
12559 12617
12617 12676
12676 12735
12735 12794
12794 12853
12853 12912
12912 12970
12970 13029
13029 13088
13088 13147
13147 13206
13206 13265
13265 13324
13324 13383
13383 13441
13441 13500
13500 13560
13560 13619
13619 13679
13679 13739
13739 13799
13799 13860
13860 13920
13920 13980
13980 14041
14041 14102
14102 14163
14163 14224
14224 14285
14285 14347
14347 14408
14408 14469
14469 14530
14530 14591
14591 14652
14652 14713
14713 14774
14774 14835
14835 14896
14896 14957
14957 15018
15018 15079
15079 15140
15140 15202
15202 15263
15263 15325
15325 15387
15387 15448
15448 15510
15510 15571
15571 15632
15632 15693
15693 15754
15754 15814
15814 15875
15875 15936
15936 15998
15998 16058
16058 16120
16120 16181
16181 16242
16242 16303
16303 16364
16364 16425
16425 16486
16486 16548
16548 16608
16608 16670
16670 16731
16731 16793
16793 16854
16854 16915
16915 16977
16977 17039
17039 17100
17100 17161
17161 17223
17223 17285
17285 17347
17347 17408
17408 17470
17470 17532
17532 17594
17594 17655
17655 17717
17717 17779
17779 17841
17841 17903
17903 17964
17964 18026
18026 18089
18089 18150
18150 18212
18212 18274
18274 18336
18336 18398
18398 18459
18459 18521
18521 18583
18583 18644
18644 18706
18706 18768
18768 18830
18830 18892
18892 18955
18955 19017
19017 19079
19079 19142
19142 19204
19204 19266
19266 19328
19328 19391
19391 19453
19453 19515
19515 19578
19578 19640
19640 19702
19702 19764
19764 19826
19826 19889
19889 19951
19951 20013
20013 20076
20076 20138
20138 20201
20201 20262
20262 20324
20324 20386
20386 20448
20448 20510
20510 20572
20572 20634
20634 20696
20696 20758
20758 20820
20820 20882
20882 20944
20944 21006
21006 21067
21067 21129
21129 21191
21191 21253
21253 21315
21315 21377
21377 21439
21439 21501
21501 21563
21563 21625
21625 21687
21687 21749
21749 21812
21812 21874
21874 21936
21936 21999
21999 22061
22061 22123
22123 22185
22185 22248
22248 22310
22310 22372
22372 22435
22435 22498
22498 22561
22561 22624
22624 22687
22687 22750
22750 22813
22813 22876
22876 22939
22939 23002
23002 23065
23065 23128
23128 23190
23190 23252
23252 23315
23315 23377
23377 23439
23439 23501
23501 23564
23564 23626
23626 23688
23688 23751
23751 23813
23813 23876
23876 23938
23938 24000
24000 24063
24063 24127
24127 24189
24189 24252
24252 24316
24316 24379
24379 24443
24443 24506
24506 24569
24569 24633
24633 24696
24696 24758
24758 24821
24821 24884
24884 24947
24947 25010
25010 25073
25073 25136
25136 25199
25199 25262
25262 25325
25325 25388
25388 25451
25451 25514
25514 25577
25577 25640
25640 25704
25704 25766
25766 25830
25830 25893
25893 25956
25956 26019
26019 26082
26082 26145
26145 26208
26208 26272
26272 26334
26334 26398
26398 26461
26461 26524
26524 26587
26587 26650
26650 26713
26713 26776
26776 26839
26839 26902
26902 26965
26965 27029
27029 27091
27091 27154
27154 27218
27218 27281
27281 27343
27343 27406
27406 27469
27469 27532
27532 27594
27594 27657
27657 27719
27719 27782
27782 27845
27845 27908
27908 27972
27972 28035
28035 28098
28098 28161
28161 28224
28224 28287
28287 28350
28350 28412
28412 28475
28475 28538
28538 28601
28601 28664
28664 28726
28726 28789
28789 28851
28851 28914
28914 28976
28976 29038
29038 29101
29101 29164
29164 29227
29227 29290
29290 29353
29353 29416
29416 29479
29479 29543
29543 29606
29606 29670
29670 29733
29733 29796
29796 29859
29859 29923
29923 29986
29986 30049
30049 30113
30113 30176
30176 30240
30240 30303
30303 30366
30366 30430
30430 30493
30493 30556
30556 30619
30619 30682
30682 30732
30732 30809
30809 30872
30872 30935
30935 30998
30998 31060
31060 31122
31122 31184
31184 31247
31247 31309
31309 31372
31372 31434
31434 31497
31497 31560
31560 31623
31623 31686
31686 31750
31750 31813
31813 31877
31877 31939
31939 32003
32003 32066
32066 32129
32129 32192
32192 32255
32255 32318
32318 32382
32382 32445
32445 32508
32508 32572
32572 32636
32636 32701
32701 32764
32764 32828
32828 32893
32893 32957
32957 33021
33021 33089
33089 33154
33154 33218
33218 33282
33282 33345
33345 33409
33409 33473
33473 33537
33537 33600
33600 33663
33663 33727
33727 33790
33790 33854
33854 33917
33917 33981
33981 34045
34045 34109
34109 34172
34172 34236
34236 34300
34300 34363
34363 34427
34427 34490
34490 34554
34554 34618
34618 34681
34681 34745
34745 34809
34809 34873
34873 34937
34937 35001
35001 35065
35065 35130
35130 35194
35194 35258
35258 35323
35323 35388
35388 35452
35452 35517
35517 35580
35580 35645
35645 35709
35709 35773
35773 35837
35837 35901
35901 35965
35965 36028
36028 36092
36092 36155
36155 36219
36219 36283
36283 36347
36347 36410
36410 36474
36474 36537
36537 36601
36601 36664
36664 36728
36728 36792
36792 36855
36855 36919
36919 36982
36982 37046
37046 37110
37110 37173
37173 37237
37237 37300
37300 37364
37364 37428
37428 37491
37491 37554
37554 37618
37618 37682
37682 37745
37745 37809
37809 37873
37873 37937
37937 38000
38000 38064
38064 38128
38128 38192
38192 38256
38256 38320
38320 38385
38385 38450
38450 38514
38514 38578
38578 38642
38642 38706
38706 38770
38770 38833
38833 38896
38896 38960
38960 39023
39023 39087
39087 39150
39150 39214
39214 39278
39278 39342
39342 39405
39405 39469
39469 39532
39532 39595
39595 39658
39658 39721
39721 39784
39784 39847
39847 39910
39910 39973
39973 40036
40036 40099
40099 40161
40161 40224
40224 40287
40287 40351
40351 40414
40414 40477
40477 40540
40540 40603
40603 40666
40666 40728
40728 40792
40792 40855
40855 40918
40918 40982
40982 41045
41045 41108
41108 41172
41172 41235
41235 41298
41298 41361
41361 41424
41424 41487
41487 41550
41550 41613
41613 41676
41676 41740
41740 41802
41802 41865
41865 41928
41928 41991
41991 42053
42053 42115
42115 42177
42177 42240
42240 42302
42302 42364
42364 42426
42426 42488
42488 42551
42551 42614
42614 42676
42676 42740
42740 42803
42803 42867
42867 42931
42931 42995
42995 43059
43059 43123
43123 43187
43187 43251
43251 43316
43316 43380
43380 43443
43443 43506
43506 43570
43570 43634
43634 43698
43698 43761
43761 43825
43825 43889
43889 43953
43953 44016
44016 44080
44080 44145
44145 44208
44208 44272
44272 44335
44335 44399
44399 44463
44463 44526
44526 44590
44590 44653
44653 44717
44717 44780
44780 44844
44844 44907
44907 44971
44971 45034
45034 45097
45097 45160
45160 45223
45223 45287
45287 45349
45349 45412
45412 45476
45476 45539
45539 45602
45602 45665
45665 45729
45729 45792
45792 45855
45855 45918
45918 45981
45981 46045
46045 46108
46108 46171
46171 46234
46234 46297
46297 46360
46360 46423
46423 46486
46486 46549
46549 46612
46612 46674
46674 46737
46737 46799
46799 46862
46862 46924
46924 46986
46986 47049
47049 47112
47112 47175
47175 47237
47237 47300
47300 47362
47362 47425
47425 47487
47487 47550
47550 47612
47612 47674
47674 47736
47736 47799
47799 47861
47861 47923
47923 47985
47985 48047
48047 48109
48109 48171
48171 48233
48233 48294
48294 48356
48356 48417
48417 48479
48479 48540
48540 48601
48601 48663
48663 48725
48725 48786
48786 48848
48848 48909
48909 48971
48971 49032
49032 49094
49094 49155
49155 49217
49217 49278
49278 49339
49339 49399
49399 49460
49460 49520
49520 49581
49581 49642
49642 49703
49703 49764
49764 49826
49826 49888
49888 49949
49949 50011
50011 50074
50074 50136
50136 50198
50198 50260
50260 50322
50322 50384
50384 50446
50446 50507
50507 50569
50569 50631
50631 50693
50693 50754
50754 50816
50816 50878
50878 50940
50940 51001
51001 51063
51063 51125
51125 51187
51187 51248
51248 51310
51310 51372
51372 51434
51434 51496
51496 51558
51558 51620
51620 51681
51681 51743
51743 51804
51804 51866
51866 51927
51927 51988
51988 52050
52050 52111
52111 52173
52173 52235
52235 52296
52296 52359
52359 52421
52421 52483
52483 52545
52545 52607
52607 52669
52669 52731
52731 52793
52793 52855
52855 52917
52917 52979
52979 53040
53040 53102
53102 53164
53164 53226
53226 53287
53287 53349
53349 53410
53410 53471
53471 53532
53532 53594
53594 53655
53655 53717
53717 53778
53778 53839
53839 53900
53900 53961
53961 54021
54021 54082
54082 54142
54142 54203
54203 54263
54263 54323
54323 54384
54384 54445
54445 54505
54505 54566
54566 54626
54626 54687
54687 54748
54748 54808
54808 54869
54869 54930
54930 54990
54990 55051
55051 55111
55111 55172
55172 55232
55232 55292
55292 55353
55353 55413
55413 55463
55463 55535
55535 55596
55596 55657
55657 55717
55717 55777
55777 55837
55837 55887
55887 55959
55959 56019
56019 56080
56080 56140
56140 56200
56200 56259
56259 56319
56319 56379
56379 56438
56438 56498
56498 56558
56558 56617
56617 56677
56677 56737
56737 56796
56796 56856
56856 56915
56915 56975
56975 57034
57034 57094
57094 57153
57153 57213
57213 57272
57272 57332
57332 57391
57391 57450
57450 57509
57509 57568
57568 57627
57627 57686
57686 57745
57745 57805
57805 57864
57864 57923
57923 57983
57983 58043
58043 58102
58102 58196
58196 58256
58256 58316
58316 58375
58375 58434
58434 58494
58494 58554
58554 58614
58614 58673
58673 58733
58733 58793
58793 58852
58852 58912
58912 58971
58971 59031
59031 59090
59090 59149
59149 59208
59208 59267
59267 59327
59327 59385
59385 59445
59445 59504
59504 59564
59564 59623
59623 59683
59683 59742
59742 59802
59802 59861
59861 59921
59921 59980
59980 60039
60039 60098
60098 60157
60157 60217
60217 60276
60276 60334
60334 60394
60394 60453
60453 60512
60512 60571
60571 60631
60631 60690
60690 60749
60749 60808
60808 60868
60868 60927
60927 60986
60986 61044
61044 61103
61103 61162
61162 61221
61221 61279
61279 61338
61338 61396
61396 61454
61454 61512
61512 61570
61570 61628
61628 61686
61686 61743
61743 61801
61801 61859
61859 61917
61917 61975
61975 62033
62033 62092
62092 62150
62150 62207
62207 62265
62265 62323
62323 62381
62381 62439
62439 62496
62496 62554
62554 62611
62611 62669
62669 62727
62727 62785
62785 62843
62843 62901
62901 62960
62960 63018
63018 63077
63077 63136
63136 63195
63195 63253
63253 63312
63312 63371
63371 63430
63430 63489
63489 63548
63548 63607
63607 63666
63666 63726
63726 63785
63785 63845
63845 63904
63904 63964
63964 64023
64023 64084
64084 64144
64144 64204
64204 64263
64263 64324
64324 64384
64384 64445
64445 64505
64505 64565
64565 64626
64626 64686
64686 64746
64746 64806
64806 64866
64866 64926
64926 64987
64987 65047
65047 65108
65108 65168
65168 65229
65229 65289
65289 65350
65350 65410
65410 65471
65471 65531
65531 65592
65592 65653
65653 65714
65714 65775
65775 65836
65836 65896
65896 65957
65957 66018
66018 66078
66078 66138
66138 66198
66198 66258
66258 66318
66318 66379
66379 66439
66439 66500
66500 66560
66560 66621
66621 66682
66682 66742
66742 66803
66803 66863
66863 66924
66924 66985
66985 67045
67045 67105
67105 67165
67165 67226
67226 67286
67286 67347
67347 67407
67407 67468
67468 67529
67529 67590
67590 67650
67650 67711
67711 67772
67772 67832
67832 67893
67893 67954
67954 68015
68015 68075
68075 68136
68136 68197
68197 68258
68258 68318
68318 68379
68379 68440
68440 68500
68500 68561
68561 68621
68621 68682
68682 68743
68743 68804
68804 68864
68864 68925
68925 68986
68986 69047
69047 69108
69108 69168
69168 69229
69229 69290
69290 69350
69350 69410
69410 69471
69471 69532
69532 69592
69592 69653
69653 69714
69714 69775
69775 69837
69837 69898
69898 69959
69959 70020
70020 70082
70082 70143
70143 70204
70204 70265
70265 70327
70327 70388
70388 70449
70449 70509
70509 70571
70571 70632
70632 70693
70693 70754
70754 70816
70816 70877
70877 70939
70939 71000
71000 71063
71063 71125
71125 71187
71187 71249
71249 71310
71310 71372
71372 71434
71434 71494
