717 777
1973 2056
3554 3615
3615 3676
3676 3737
3737 3799
3799 3860
3860 3920
3920 3981
3981 4042
4042 4102
4102 4162
4162 4223
4223 4284
4284 4344
4344 4404
4404 4465
4465 4525
4525 4585
4585 4644
4644 4704
4704 4764
4764 4824
4824 4884
4884 4944
4944 5004
5004 5063
5063 5123
5123 5182
5182 5241
5241 5301
5422 5482
5482 5544
5544 5606
5606 5667
5667 5729
5729 5791
5791 5851
5851 5912
5912 5974
5974 6036
6036 6097
6097 6158
6158 6220
6220 6281
6281 6342
6342 6402
6402 6462
6462 6522
6522 6583
6583 6643
6643 6702
6702 6763
6763 6823
6823 6884
6884 6944
6944 7004
7004 7065
7065 7125
7125 7185
7185 7246
7246 7307
7307 7367
7367 7427
7427 7489
7489 7549
7549 7610
7610 7671
7671 7732
7732 7794
7794 7855
7855 7917
7917 7979
7979 8042
8042 8103
8103 8166
8166 8229
8229 8293
8293 8355
8355 8418
8418 8481
8481 8543
8543 8606
8606 8669
8669 8732
8732 8794
8794 8857
8857 8921
8921 8984
8984 9046
9046 9110
9110 9173
9173 9234
9234 9297
9297 9361
9361 9424
9424 9486
9486 9549
9549 9612
9612 9674
9674 9735
9735 9797
9797 9859
9859 9922
9922 9984
9984 10047
10047 10110
10110 10172
10172 10235
10235 10298
10298 10360
10360 10422
10422 10484
10484 10547
10547 10609
10609 10671
10671 10733
10733 10796
10796 10858
10858 10921
10921 10985
10985 11048
11048 11111
11111 11174
11174 11237
11237 11299
11299 11362
11362 11425
11425 11488
11488 11549
11549 11612
11612 11675
11675 11737
11737 11799
11799 11862
11862 11925
11925 11987
11987 12050
12050 12113
12113 12175
12175 12237
12237 12299
12299 12363
12363 12424
12424 12487
12487 12549
12549 12610
12610 12670
12670 12731
12731 12792
12792 12853
12853 12914
12914 12976
12976 13040
13040 13100
13100 13160
13160 13220
13220 13281
13281 13341
13341 13401
13401 13462
13462 13523
13523 13585
13585 13645
13645 13707
13707 13769
13769 13830
13830 13891
13891 13952
13952 14014
14014 14077
14077 14138
14138 14200
14200 14261
14261 14322
14322 14382
14382 14443
14443 14505
14505 14565
14565 14626
14626 14688
14688 14749
14749 14810
14810 14871
14871 14933
14933 14995
14995 15055
15055 15117
15117 15178
15178 15239
15239 15300
15300 15360
15360 15421
15421 15481
15481 15541
15541 15602
15602 15663
15663 15724
15724 15784
15784 15845
15845 15906
15906 15967
15967 16027
16027 16102
16102 16163
16163 16224
16224 16286
16286 16347
16347 16409
16409 16471
16471 16533
16533 16594
16594 16656
16656 16718
16718 16780
16780 16841
16841 16902
16902 16964
16964 17042
17042 17104
17104 17167
17167 17228
17228 17290
17290 17352
17352 17414
17414 17476
17476 17538
17538 17600
17600 17662
17662 17724
17724 17786
17786 17848
17848 17909
17909 17970
17970 18032
18032 18092
18092 18153
18153 18214
18214 18274
18274 18335
18335 18395
18395 18456
18456 18516
18516 18577
18577 18637
18637 18698
18698 18759
18759 18818
18818 18879
18879 18940
18940 19000
19000 19060
19060 19121
19121 19192
19192 19254
19254 19316
19316 19378
19378 19440
19440 19502
19502 19565
19565 19627
19627 19689
19689 19752
19752 19815
19815 19876
19876 19938
19938 20001
20001 20038
20038 20099
20099 20161
20161 20223
20223 20284
20284 20345
20345 20407
20407 20469
20469 20530
20530 20591
20591 20653
20653 20715
20715 20776
20776 20837
20837 20899
20899 20961
20961 21021
21021 21082
21082 21143
21143 21204
21204 21264
21264 21324
21324 21385
21385 21446
21446 21507
21507 21568
21568 21629
21629 21689
21689 21750
21750 21811
21811 21872
21872 21932
21932 21993
21993 22054
22054 22116
22116 22177
22177 22238
22238 22301
22301 22364
22364 22427
22427 22489
22489 22552
22552 22614
22614 22675
22675 22737
22737 22799
22799 22860
22860 22921
22921 22983
22983 23045
23045 23106
23106 23168
23168 23231
23231 23295
23295 23356
23356 23419
23419 23482
23482 23544
23544 23606
23606 23668
23668 23730
23730 23792
23792 23853
23853 23915
23915 23977
23977 24038
24038 24100
24100 24161
24161 24223
24223 24283
24283 24344
24344 24406
24406 24467
24467 24528
24528 24589
24589 24651
24651 24713
24713 24774
24774 24836
24836 24899
24899 24960
24960 25022
25022 25083
25083 25145
25145 25206
25206 25267
25267 25328
25328 25390
25390 25451
25451 25512
25512 25575
25575 25637
25637 25699
25699 25761
25761 25824
25824 25887
25887 25949
25949 26011
26011 26074
26074 26137
26137 26199
26199 26261
26261 26324
26324 26386
26386 26448
26448 26510
26510 26573
