5343 5407
5407 5471
5471 5535
5535 5598
5598 5662
5662 5726
5726 5789
5789 5853
5853 5916
5916 5980
5980 6033
6033 6097
6097 6160
6160 6224
6224 6287
6287 6351
6351 6414
6414 6478
6478 6542
6542 6605
6605 6668
6668 6731
6731 6795
6795 6858
6858 6921
6921 6984
6984 7048
7048 7111
7111 7175
7175 7238
7238 7302
7302 7365
7365 7428
7428 7491
7491 7555
7555 7618
7618 7682
7682 7745
7745 7808
7808 7871
7871 7935
7935 7998
7998 8062
8062 8125
8125 8188
8188 8251
8251 8315
8315 8378
8378 8441
8441 8504
8504 8568
8568 8631
8631 8694
8694 8758
8758 8821
8821 8884
8884 8948
8948 9011
9011 9075
9075 9138
9138 9201
9201 9264
9264 9328
9328 9391
9391 9454
9454 9517
9517 9580
9580 9643
9643 9681
9681 9744
9744 9808
9808 9871
9997 10060
10060 10123
10123 10186
10186 10249
10249 10312
10312 10375
10375 10438
10438 10501
10501 10564
10564 10628
10628 10691
10691 10754
10754 10817
10817 10881
10881 10944
10944 11007
11007 11071
11071 11134
11134 11198
11198 11261
11261 11324
11324 11388
11388 11451
11451 11515
11515 11578
11578 11642
11642 11705
11705 11769
11769 11832
11832 11896
11896 11959
11959 12022
12022 12086
12086 12149
12149 12212
12212 12276
12276 12339
12339 12402
12402 12466
12466 12529
12529 12592
12592 12655
12655 12718
12718 12781
12781 12844
12844 12907
12907 12969
12969 13032
13032 13095
13095 13158
13158 13221
13221 13284
13284 13347
13347 13410
13410 13473
13473 13536
13536 13598
13598 13661
13661 13724
13724 13787
13787 13850
13850 13913
13913 13976
13976 14039
14039 14102
14102 14165
14165 14228
14228 14291
14291 14354
14354 14417
14417 14480
14480 14543
14543 14606
14606 14669
14669 14732
14732 14794
14794 14857
14857 14920
14920 14983
14983 15046
15046 15109
15109 15172
15172 15235
15235 15298
15298 15361
15361 15424
15424 15487
15487 15551
15551 15614
15614 15678
15678 15741
15741 15805
15805 15869
15869 15933
15933 15996
15996 16060
16060 16123
16123 16187
16187 16250
16250 16313
16313 16376
16376 16439
16439 16502
16502 16565
16565 16628
16628 16691
16691 16754
16754 16818
16818 16881
16881 16945
16945 17009
17009 17072
17072 17136
17136 17200
17200 17264
17264 17328
17328 17391
17391 17455
17455 17519
17519 17583
17583 17647
17647 17711
17711 17775
17775 17839
17839 17903
17903 17966
17966 18030
18030 18093
18093 18157
18157 18220
18220 18283
18283 18346
18346 18410
18410 18473
18473 18536
18536 18599
18599 18663
18663 18726
18726 18789
18789 18853
18853 18916
18916 18979
18979 19043
19043 19106
19106 19169
19169 19233
19233 19296
19296 19360
19360 19423
19423 19487
19487 19550
19550 19613
19613 19677
19677 19740
19740 19803
19803 19866
19866 19929
19929 19992
19992 20055
20055 20118
20118 20180
20180 20243
20243 20306
20306 20369
20369 20432
20432 20495
20495 20558
20558 20621
20621 20685
20685 20748
20748 20812
20812 20875
20875 20914
20914 20978
20978 21041
21041 21105
21105 21169
21169 21232
21232 21296
21296 21359
21359 21423
21423 21486
21486 21549
21549 21613
21613 21676
21676 21740
21740 21803
21803 21867
21867 21930
21930 21993
21993 22057
22057 22120
22120 22183
22183 22247
22247 22310
22310 22373
22373 22437
22437 22500
22500 22563
22563 22626
22626 22690
22690 22753
22753 22815
22815 22878
22878 22941
22941 23004
23004 23067
23067 23130
23130 23193
23193 23256
23256 23319
23319 23382
23382 23445
23445 23508
23508 23571
23571 23635
23635 23698
23698 23761
23761 23825
23825 23888
23888 23952
23952 24015
24015 24079
24079 24142
24142 24206
24206 24269
24269 24333
24333 24396
24396 24460
24460 24523
24523 24587
24587 24650
24650 24714
24714 24778
24778 24841
24841 24905
24905 24969
24969 25032
25032 25096
25096 25160
25160 25224
25224 25287
25287 25351
25351 25415
25415 25480
25480 25544
25544 25608
25608 25672
25672 25736
25736 25800
25800 25865
25865 25928
25928 25992
25992 26056
26056 26121
26121 26185
26185 26249
26249 26313
26313 26377
26377 26441
26441 26506
26506 26570
26570 26634
26634 26698
26698 26762
26762 26826
26826 26890
26890 26953
26953 27017
27017 27080
27080 27144
27144 27208
27208 27272
27272 27335
27335 27399
27399 27462
27462 27526
27526 27590
27590 27654
27654 27717
27717 27781
27781 27845
27845 27908
27908 27972
27972 28036
28036 28100
28100 28163
28163 28227
28227 28291
28291 28355
28355 28418
28418 28482
28482 28546
28546 28610
28610 28674
28674 28737
28737 28801
28801 28865
28865 28929
28929 28993
28993 29057
29057 29121
29121 29185
29185 29249
29249 29312
29312 29376
29376 29440
29440 29503
29503 29567
29567 29630
29630 29694
29694 29757
29757 29820
29820 29884
29884 29947
29947 30011
30011 30074
30074 30138
30138 30201
30201 30264
30264 30328
30328 30391
30391 30454
30454 30518
30518 30581
30581 30645
30645 30708
30708 30772
30772 30835
30835 30898
30898 30962
30962 31025
31025 31089
31089 31153
31153 31217
31217 31281
31281 31344
31344 31383
31383 31447
31447 31511
31511 31574
31574 31638
31638 31702
31702 31766
31766 31829
31829 31893
31893 31956
31956 32020
32020 32083
32083 32147
32147 32211
32211 32275
32275 32338
32338 32402
32402 32466
32466 32529
32529 32593
32593 32656
32656 32719
32719 32783
32783 32846
32846 32910
32910 32973
32973 33036
33036 33100
33100 33163
33163 33226
33226 33289
33289 33352
33352 33416
33416 33479
33479 33542
33542 33605
33605 33668
33668 33730
33730 33793
33793 33857
33857 33920
33920 33983
33983 34046
34046 34110
34110 34173
34173 34236
34236 34300
34300 34363
34363 34425
34425 34488
34488 34551
34551 34614
34614 34677
34677 34740
34740 34802
34802 34865
34865 34928
34928 34990
34990 35053
35053 35115
35115 35178
35178 35241
35241 35303
35303 35366
35366 35429
35429 35492
35492 35555
35555 35618
35618 35681
35681 35744
35744 35807
35807 35870
35870 35933
35933 35997
35997 36060
36060 36124
36124 36188
36188 36252
36252 36316
36316 36380
36380 36445
36445 36509
36509 36574
36574 36638
36638 36703
36703 36768
36768 36833
36833 36897
36897 36962
36962 37026
37026 37090
37090 37155
37155 37219
37219 37283
37283 37347
37347 37411
37411 37475
37475 37538
37538 37602
37602 37666
37666 37729
37729 37793
37793 37857
37857 37921
37921 37984
37984 38048
38048 38112
38112 38175
38175 38239
38239 38303
38303 38366
38366 38430
38430 38493
38493 38557
38557 38621
38621 38684
38684 38748
38748 38812
38812 38876
38876 38940
38940 39003
39003 39068
39068 39132
39132 39196
39196 39260
39260 39325
39325 39389
39389 39454
39454 39518
39518 39582
39582 39647
39647 39711
39711 39775
39775 39839
39839 39903
39903 39966
39966 40030
40030 40093
40093 40157
40157 40220
40220 40283
40283 40346
40346 40410
40410 40473
40473 40536
40536 40600
40600 40664
40664 40728
40728 40791
40791 40855
40855 40918
40918 40982
40982 41046
41046 41109
41109 41173
41173 41236
41236 41300
41300 41364
41364 41427
41427 41491
41491 41555
41555 41619
41619 41682
41682 41746
41746 41810
41810 41873
41873 41937
41937 42001
42001 42064
42064 42128
42128 42192
42192 42256
42256 42320
42320 42384
42384 42448
42448 42512
42512 42576
42576 42640
42640 42704
42704 42768
42768 42832
42832 42896
42896 42959
42959 43023
43023 43087
43087 43150
43150 43214
43214 43277
43277 43341
43341 43404
43404 43468
43468 43532
43532 43595
43595 43635
43635 43699
43699 43763
43763 43827
43827 43891
43891 43954
43954 44018
44018 44082
44082 44146
44146 44209
44209 44273
44273 44336
44336 44400
44400 44463
44463 44527
44527 44590
44590 44628
44628 44691
44691 44755
44755 44818
44818 44881
44881 44944
44944 45007
45007 45070
45070 45133
45133 45196
45196 45258
45258 45321
45321 45384
45384 45447
45447 45510
45510 45572
45572 45635
45635 45698
45698 45761
45761 45824
45824 45887
45887 45950
45950 46013
46013 46076
46076 46139
46139 46203
46203 46266
46266 46329
46329 46392
46392 46455
46455 46519
46519 46582
46582 46645
46645 46708
46708 46771
46771 46835
46835 46898
46898 46961
46961 47024
47024 47087
47087 47150
47150 47213
47213 47276
47276 47339
47339 47402
47402 47465
47465 47528
47528 47591
47591 47654
47654 47717
47717 47780
47780 47843
47843 47907
47907 47970
47970 48033
48033 48097
48097 48160
48160 48198
48198 48261
48261 48324
48324 48388
48388 48451
48451 48514
48514 48577
48577 48641
48641 48704
48704 48767
48767 48831
48831 48894
48894 48958
48958 49022
49022 49086
49086 49149
49149 49213
49213 49276
49276 49340
49340 49404
49404 49468
49468 49531
49531 49594
49594 49658
49658 49721
49721 49785
49785 49848
49848 49911
49911 49975
49975 50038
50038 50102
50102 50165
50165 50229
50229 50292
50292 50356
50356 50420
50420 50483
50483 50547
50547 50611
50611 50674
50674 50738
50738 50802
50802 50866
50866 50930
50930 50993
50993 51049
51049 51112
51112 51175
51175 51238
51238 51301
51301 51365
51365 51428
51428 51491
51491 51554
51554 51617
51617 51680
51680 51743
51743 51807
51807 51870
51870 51933
51933 51997
51997 52060
52060 52124
52124 52188
52188 52251
52251 52315
52315 52378
52378 52441
52441 52504
52504 52568
52568 52631
52631 52694
52694 52748
52748 52817
52817 52882
52882 52946
52946 53010
53010 53074
53074 53139
53139 53203
53203 53268
53268 53332
53332 53397
53397 53461
53461 53526
53526 53590
53590 53654
53654 53718
53718 53782
53782 53846
53846 53910
53910 53974
53974 54038
54038 54102
54102 54166
54166 54230
54230 54294
54294 54358
54358 54422
54422 54486
54486 54550
54550 54589
54589 54653
54653 54717
54717 54781
54781 54845
54845 54909
54909 54973
54973 55037
55037 55102
55102 55165
55165 55229
55229 55293
55293 55357
55357 55421
55421 55484
55484 55548
55548 55612
55612 55675
55675 55739
55739 55802
55802 55866
55866 55929
55929 55992
55992 56056
56056 56119
56119 56182
56182 56246
56246 56309
56309 56372
56372 56436
56436 56499
56499 56563
56563 56626
56626 56690
56690 56753
56753 56817
56817 56881
56881 56944
56944 57008
57008 57072
57072 57136
57136 57199
57199 57263
57263 57327
57327 57391
57391 57455
57455 57519
57519 57582
57582 57646
57646 57710
57710 57774
57774 57837
57837 57901
57901 57965
57965 58030
58030 58094
58094 58158
58158 58223
58223 58287
58287 58352
58352 58416
58416 58480
58480 58544
58544 58608
58608 58672
58672 58735
58735 58799
58799 58863
58863 58928
58928 58992
58992 59056
59056 59121
59121 59185
59185 59249
59249 59313
59313 59377
59377 59441
59441 59505
59505 59569
59569 59633
59633 59696
59696 59760
59760 59823
59823 59886
59886 59950
59950 60014
60014 60077
60077 60141
60141 60204
60204 60267
60267 60331
60331 60394
60394 60458
60458 60521
60521 60585
60585 60648
60648 60712
60712 60775
60775 60839
60839 60902
60902 60965
60965 61029
61029 61092
61092 61155
61155 61219
61219 61282
61282 61345
61345 61409
61409 61472
61472 61536
61536 61599
61599 61662
61662 61726
61726 61789
61789 61852
61852 61916
61916 61979
61979 62042
62042 62106
62106 62169
62169 62271
62271 62335
62335 62398
62398 62437
62437 62500
62500 62564
62564 62627
62627 62691
62691 62754
62754 62817
62817 62881
62881 62944
62944 63007
63007 63070
63070 63134
63134 63197
63197 63260
63260 63322
63322 63385
63385 63448
63448 63511
63511 63574
63574 63637
63637 63700
63700 63764
63764 63827
63827 63890
63890 63954
63954 64017
64017 64080
64080 64144
64144 64207
64207 64271
64271 64334
64334 64398
64398 64461
64461 64524
64524 64587
64587 64651
64651 64714
64714 64777
64777 64840
64840 64903
64903 64967
64967 65030
65030 65093
65093 65156
65156 65220
65220 65283
65283 65347
65347 65411
65411 65474
65474 65538
65538 65601
65601 65665
65665 65729
65729 65792
65792 65856
65856 65920
65920 65984
65984 66048
66048 66112
66112 66175
66175 66239
66239 66303
66303 66367
66367 66431
66431 66495
66495 66559
66559 66623
66623 66687
66687 66750
66750 66814
66814 66878
66878 66941
66941 67005
67005 67068
67068 67132
67132 67195
67195 67258
67258 67322
67322 67385
67385 67449
67449 67513
67513 67576
67576 67640
67640 67704
67704 67768
67768 67832
67832 67896
67896 67959
67959 68023
68023 68087
68087 68151
68151 68214
68214 68278
68278 68342
68342 68405
68405 68469
68469 68533
68533 68597
68597 68661
68661 68725
68725 68789
68789 68853
68853 68917
68917 68981
68981 69044
69044 69108
69108 69172
69172 69236
69236 69300
69300 69364
69364 69428
69428 69492
69492 69556
69556 69620
69620 69683
69683 69747
69747 69810
69810 69874
69874 69937
69937 70000
70000 70063
70063 70126
70126 70189
70189 70252
70252 70316
70316 70379
70379 70442
70442 70505
70505 70568
70568 70607
