291 366
366 441
441 516
516 591
591 667
667 742
742 817
817 892
892 967
967 1042
1042 1117
1117 1192
1192 1267
1267 1343
1343 1418
1418 1493
1493 1568
1568 1644
1644 1719
1719 1795
1795 1870
1870 1945
1945 2021
2021 2097
2097 2172
2172 2247
2247 2323
2323 2399
2399 2474
2474 2550
2550 2625
2625 2701
2701 2777
2777 2852
2852 2927
2927 3003
3003 3079
3079 3154
3154 3229
3229 3305
3305 3380
3380 3455
3455 3605
3605 3681
3681 3781
3781 3838
