118 312
312 407
407 521
521 626
626 731
731 1154
1154 1260
1260 1367
1367 1899
1899 2006
2006 2114
2114 2220
2220 2535
2535 2638
2638 2742
2742 2948
2948 3258
3258 3361
3361 3994
3994 4101
4101 4421
4421 4847
4847 4953
4953 5693
5693 5902
5902 6007
6007 7598
7598 8161
8161 9096
9096 9485
9485 9898
9898 10209
10209 11275
11275 12449
12449 13182
13182 14262
14262 14368
14368 15115
15115 15747
15747 15956
15956 16166
16166 16374
16374 17219
17219 17431
17431 18271
18271 19306
19306 19410
19410 19513
19513 21383
21383 21593
21593 22657
22657 22765
22765 24473
24473 24995
24995 25205
25205 26255
26255 26362
26362 26470
26470 27116
27116 27436
27436 28278
28278 29011
29011 29325
29325 29429
29429 29534
29534 30375
30375 30481
30481 30588
30588 30694
30694 31539
31539 32599
32599 32706
32706 32920
32920 33641
33641 34163
34163 34371
34371 34476
34476 34686
34686 35001
35001 35106
35106 35210
35210 35314
35314 35417
35417 36239
36239 36343
36343 36446
36446 36551
36551 36864
36864 36968
36968 37281
37281 37385
37385 37489
37489 38211
38211 38314
38314 38417
38417 38624
38624 39039
39039 39142
39142 39658
39658 39761
39761 39967
39967 40173
40173 40379
40379 41379
41379 43697
43697 43797
43797 43898
43898 44401
44401 44500
44500 44601
44601 46019
46019 47088
47088 47190
47190 47391
47391 47886
47886 48781
48781 49794
49794 51565
51565 52650
52650 53046
53046 55315
55315 56387
56387 56680
56680 57559
