236 356
356 476
476 2026
2026 2388
2388 2629
2629 2750
2750 2870
2870 3455
3455 4052
4052 4172
4172 4413
4413 4652
4652 4772
4772 4893
4893 5530
5530 5651
5651 5771
5771 5894
5894 5993
5993 6086
6086 6570
6570 6812
6812 6933
6933 7173
7173 7294
7294 7415
7415 7536
7536 7982
7982 8104
8104 8225
8225 8348
8348 8470
8470 8711
8711 8832
8832 9094
9094 9215
9215 9458
9458 9579
9579 10078
10078 10319
10319 10679
10679 11160
11160 11402
11402 11774
11774 12015
12015 12136
12136 12379
12379 12500
12500 12621
12621 12863
12863 13104
13104 13587
13587 13826
13826 14185
14185 14638
14638 14758
14758 14855
14855 14977
14977 15099
15099 15221
15221 15465
15465 15587
15587 15638
15638 15760
15760 15880
15880 16002
16002 16078
16078 16198
16198 16437
16437 16557
16557 16676
16676 16795
16795 16915
16915 17587
17587 17710
17710 17835
17835 17937
17937 18233
18233 18355
18355 18598
18598 18719
18719 18963
18963 19085
19085 19326
19326 19545
19545 19889
19889 20011
20011 20093
20093 20214
20214 20457
20457 20580
20580 20824
20824 20946
20946 21735
21735 21854
21854 21974
21974 22461
22461 22582
22582 22947
22947 23229
23229 23348
23348 23584
23584 23703
23703 23941
23941 24139
24139 24383
24383 24506
24506 24628
24628 24752
24752 24874
24874 24996
24996 25084
25084 25324
25324 25444
25444 25565
25565 25685
25685 26046
26046 26166
26166 26408
26408 26529
26529 26648
26648 26769
26769 27009
27009 27161
27161 27281
27281 27401
27401 27520
27520 27640
27640 27760
27760 28002
28002 28123
28123 28364
28364 29087
29087 29207
29207 29447
29447 29687
29687 29805
29805 29924
29924 30103
30103 30462
