525 644
697 773
773 890
890 1007
1007 1101
1101 1218
1218 1332
1332 1446
1446 1560
1560 1677
1677 1794
1794 1911
1911 2030
2030 2093
2093 2213
2213 2332
2332 2451
2451 2567
2567 2685
2685 2803
2803 2921
2921 3134
3134 3229
3229 3347
3347 3465
3465 3583
3583 3698
3698 3816
3816 3935
3935 4108
4108 4225
4461 4576
5924 6098
6098 6215
6422 6538
6538 6634
7897 8048
16945 17121
17121 17238
17238 17333
17333 17452
17452 17570
17570 17689
17689 17808
17808 17900
17900 18018
18018 18111
18111 18230
18230 18349
18349 18466
18466 18583
18583 18700
18700 18818
18818 18936
18936 19131
19131 19251
19251 19372
19372 19493
19493 19613
19613 19732
19732 19849
19849 19967
19967 20145
20145 20262
20262 20378
20378 20472
20472 20588
20588 20704
20704 20822
20822 20939
20939 21055
21055 21172
21172 21290
21290 21409
21409 21530
21530 21649
21649 21770
21770 21893
21893 22014
22014 22200
22200 22321
22321 22442
22442 22563
22563 22681
22681 22800
22800 22919
22919 23075
23075 23193
23193 23310
23310 23427
23427 23544
23544 23663
23663 23782
23782 23901
23901 23971
23971 24090
24090 24210
24210 24329
24329 24447
24447 24563
24563 24681
24681 24799
24799 24915
24915 25008
25008 25124
25124 25240
25240 25356
25356 25472
25472 25566
25566 25681
25681 25798
25798 25914
25914 26033
26033 26150
26150 26267
26267 26387
26387 26507
26507 26627
26627 26748
26748 26867
