4103 4230
8312 8436
8436 8558
10641 10766
10766 10892
10892 10928
10928 11016
11609 11852
13465 13583
13583 13701
14988 15033
17619 17742
17742 17861
17861 17981
17981 18060
21819 21945
21945 22135
22751 22873
22873 22996
22996 23071
23310 23431
23916 24071
28686 28803
