1899 2018
2018 2078
5992 6120
6120 6241
6577 6698
6698 6821
6945 7070
7070 7167
8696 8809
8809 8901
10870 10992
10992 11116
11116 11216
11926 12111
12111 12228
12228 12343
12343 12436
13750 13868
13868 13990
13990 14080
14530 14650
14650 14766
15484 15607
17805 17926
17926 18116
19428 19538
19650 19765
19765 19855
21095 21212
21212 21327
21327 21441
23774 23896
23896 24016
24016 24107
24782 24902
24902 25022
25022 25117
26826 26950
27196 27319
27319 27415
28970 29093
29093 29215
29215 29336
29336 29431
29915 30083
30083 30205
30205 30327
30327 30449
30449 30545
30545 30663
30663 30778
30778 30890
30890 31000
31000 31065
31065 31176
31176 31287
31287 31396
31396 31506
31506 31617
31617 31732
31732 31846
31846 31960
31960 32079
32079 32202
32202 32328
32328 32449
32449 32546
32546 32669
32669 32794
32794 32918
32918 33013
33013 33128
33128 33252
33252 33377
33377 33478
33478 33599
33599 33722
33722 33844
33844 33968
33968 34090
34090 34211
34211 34335
34335 34461
34461 34585
34585 34709
34709 34807
34807 34926
34926 35056
35056 35165
35165 35272
35272 35381
35381 35491
35491 35601
35601 35685
35685 35793
35793 35904
35904 36012
36012 36137
36137 36233
36233 36329
