30 107
353 478
478 606
606 703
826 954
954 1081
1081 1203
8066 8194
8194 8288
8288 8408
8857 8955
8955 9144
9389 9512
9512 9633
9633 9755
9755 9880
9880 9983
10955 11096
11096 11202
11202 11308
11308 11413
11413 11518
11518 11624
11624 11732
11732 11839
11839 11947
11947 12100
12100 12222
12222 12348
12348 12471
12471 12594
12594 12711
12711 12828
12828 12941
12941 13120
13120 13233
13233 13348
13348 13465
13465 13582
13582 13675
13675 13792
13792 13913
13913 14099
14099 14215
14215 14331
14331 14448
14448 14567
14567 14686
14686 14802
14802 14923
14923 15045
15045 15169
15169 15292
15292 15411
15411 15532
15532 15653
15653 15773
15773 15890
15890 16010
16010 16103
16103 16205
16205 16329
16329 16451
16451 16576
16576 16701
16701 16801
16801 16924
16924 17069
17069 17198
17198 17326
17326 17452
17452 17582
17582 17710
17710 17812
17812 17935
17935 18053
18053 18166
18166 18279
18279 18390
18390 18500
18500 18610
18610 18719
18719 18829
18829 18939
18939 19049
19049 19158
19158 19268
19268 19379
19379 19491
19491 19604
19604 19713
19713 19825
19825 19939
19939 20054
20054 20166
20166 20281
20281 20398
20398 20516
20516 20634
20634 20725
20725 20821
20821 20947
20947 21072
21072 21193
21193 21318
21318 21445
21445 21574
21574 21697
21697 21795
21795 21918
21918 22041
22041 22172
22172 22298
22298 22424
22424 22550
22550 22676
22676 22803
22803 22926
22926 23053
23053 23177
23177 23302
23302 23429
23429 23552
23552 23678
23678 23808
23808 23937
23937 24061
24061 24187
24187 24315
24315 24441
24441 24564
24564 24687
24687 24787
24787 24912
24912 25030
25030 25099
25099 25230
25230 25360
25360 25488
25488 25611
25611 25737
25737 25865
25865 25992
25992 26129
26129 26221
26221 26341
26341 26464
26464 26587
26587 26681
26681 26804
26804 26928
26928 27023
27023 27112
27112 27240
27240 27370
27370 27499
27499 27623
27623 27744
27744 27861
27861 27976
27976 28087
28087 28199
28199 28310
28310 28421
28421 28530
28530 28641
28641 28753
28753 28864
28864 28978
28978 29089
29089 29201
29201 29316
29316 29434
29434 29548
29548 29641
29641 29763
29763 29866
29866 29995
29995 30119
30119 30246
30246 30376
30376 30505
30505 30630
30630 30753
30753 30879
30879 31006
31006 31130
31130 31252
31252 31375
31375 31501
31501 31626
31626 31749
31749 31875
31875 32004
32004 32130
32130 32228
32228 32352
32352 32478
32478 32600
32600 32698
32698 32825
32825 32954
32954 33081
33081 33180
33180 33282
33282 33406
33406 33525
33525 33615
33615 33729
33729 33841
33841 33952
33952 34061
34061 34170
34170 34281
34281 34392
34392 34503
34503 34613
34613 34726
34726 34813
34813 34927
34927 35078
35078 35200
35200 35326
35326 35432
35432 35537
35537 35661
35661 35782
35782 35900
35900 36015
36015 36126
36126 36236
36236 36346
36346 36455
36455 36565
36565 36675
36675 36786
36786 36903
36903 37023
37023 37117
37117 37245
37245 37369
37369 37496
37496 37624
37624 37753
37753 37849
37849 37967
37967 38083
38083 38196
38196 38308
38308 38417
38417 38527
38527 38638
38638 38750
38750 38862
38862 38972
38972 39083
39083 39197
39197 39312
39312 39430
39430 39547
39547 39642
39642 39741
39741 39870
39870 40000
40000 40125
40125 40229
40229 40362
40362 40469
40469 40592
40592 40715
40715 40836
40836 40955
40955 41086
41086 41212
41212 41339
41339 41467
41467 41595
41595 41720
41720 41847
41847 41976
41976 42099
42099 42218
42218 42310
42310 42425
42425 42537
42537 42648
42648 42759
42759 42870
42870 42983
42983 43099
43099 43214
43214 43333
43333 43456
43456 43582
43582 43704
43704 43831
43831 43964
43964 44097
44097 44226
44226 44360
44360 44496
44496 44631
44631 44763
