1134 1201
1201 1269
1269 1337
1337 1406
1406 1473
1473 1540
1540 1608
1608 1677
1677 1745
1745 1812
1812 1881
1881 1950
1950 2018
2018 2083
2083 2153
2153 2220
2220 2287
2287 2353
2353 2422
2422 2490
2490 2558
2558 2624
2624 2692
2692 2760
2760 2829
2829 2897
2897 2964
2964 3054
3054 3123
3123 3191
3191 3260
3260 3327
3327 3394
3394 3462
3462 3530
3530 3595
3595 3664
3664 3731
3731 3800
3800 3843
3843 3909
3909 3977
3977 4044
4044 4113
4113 4180
4180 4247
4247 4315
4315 4383
4383 4451
4451 4517
4517 4585
4585 4653
4653 4722
4722 4788
4788 4857
4857 4925
4925 4993
4993 5035
5035 5101
5101 5168
5168 5236
5236 5305
5305 5372
5372 5439
5439 5507
5507 5575
5575 5643
5643 5709
5709 5778
5778 5846
5846 5914
5914 5980
5980 6081
6081 6150
6150 6219
6219 6288
6288 6357
6357 6424
6424 6493
6493 6561
6561 6629
6629 6695
6695 6764
6764 6833
6833 6900
6900 6967
6967 7035
7035 7102
7102 7171
7171 7239
7239 7305
7305 7374
7374 7441
7441 7510
7510 7578
7578 7644
7644 7712
7712 7780
7780 7848
7848 7914
7914 7982
7982 8041
8041 8109
8109 8176
8176 8242
8242 8309
8309 8375
8375 8443
8443 8508
8508 8575
8575 8640
8640 8708
8708 8774
8774 8839
8839 8905
8905 8972
8972 9056
9056 9122
9122 9186
9186 9251
9251 9316
9316 9381
9381 9445
9445 9510
9510 9575
9575 9640
9640 9703
9703 9769
9769 9834
9834 9899
9899 9964
9964 10030
10030 10073
10073 10138
10138 10204
10204 10268
10268 10333
10333 10398
10398 10464
10464 10530
10530 10593
10593 10659
10659 10725
10725 10791
10791 10855
10855 10921
10921 10987
10987 11036
11036 11102
11102 11166
11166 11232
11232 11298
11298 11364
11364 11428
11428 11494
11494 11560
11560 11625
11625 11691
11691 11756
11756 11822
11822 11887
11887 11953
11953 12018
12018 12072
12072 12136
12136 12201
12201 12266
12266 12333
12333 12399
12399 12464
12464 12530
12530 12597
12597 12663
12663 12727
12727 12794
12794 12861
12861 12927
12927 12992
12992 13058
13058 13124
13124 13191
13191 13256
13256 13364
13364 13431
13431 13497
13497 13564
13564 13630
13630 13697
13697 13762
13762 13829
13829 13895
13895 13962
13962 14029
14029 14093
14093 14161
14161 14229
14229 14296
14296 14362
14362 14430
14430 14497
14497 14563
14563 14630
14630 14698
14698 14764
14764 14831
14831 14897
14897 14965
14965 15032
15032 15097
15097 15164
15164 15231
15231 15300
15300 15368
15368 15434
15434 15502
15502 15570
15570 15636
15636 15703
15703 15770
15770 15838
15838 15905
15905 15972
15972 16039
16039 16108
16108 16174
16174 16242
16242 16308
16308 16377
16377 16445
16445 16511
16511 16579
16579 16647
16647 16713
16713 16782
16782 16849
16849 16918
16918 16984
16984 17052
17052 17120
17120 17188
17188 17255
17255 17322
17322 17389
17389 17456
17456 17522
17522 17589
17589 17656
17656 17723
17723 17788
17788 17855
17855 17921
17921 17989
17989 18054
18054 18120
18120 18186
18186 18252
18252 18319
18319 18385
18385 18450
18450 18517
18517 18583
18583 18649
18649 18714
18714 18780
18780 18846
18846 18912
18912 18981
18981 19050
19050 19117
19117 19185
19185 19253
19253 19320
19320 19388
19388 19456
19456 19525
19525 19594
19594 19661
19661 19730
19730 19798
19798 19865
19865 19934
19934 20002
20002 20068
20068 20137
20137 20204
20204 20272
20272 20339
20339 20407
20407 20474
20474 20541
20541 20609
20609 20678
20678 20746
20746 20814
20814 20882
20882 20950
20950 21018
21018 21086
21086 21155
21155 21222
21222 21291
21291 21359
21359 21428
21428 21497
21497 21564
21564 21633
21633 21703
21703 21752
21752 21840
21840 21914
21914 21982
21982 22054
22054 22123
22123 22191
22191 22261
22261 22331
22331 22402
22402 22448
22448 22516
22516 22585
22585 22655
22655 22724
22724 22791
22791 22861
22861 22930
22930 23001
23001 23070
23070 23138
23138 23208
23208 23278
23278 23348
23348 23417
23417 23487
23487 23557
23557 23629
23629 23699
23699 23768
23768 23839
23839 23909
23909 23980
23980 24049
24049 24120
24120 24190
24190 24262
24262 24332
24332 24401
24401 24471
24471 24541
24541 24611
24611 24679
24679 24748
24748 24818
24818 24888
24888 24956
24956 25025
25025 25094
25094 25163
25163 25232
25232 25301
25301 25368
25368 25438
25438 25506
25506 25576
25576 25645
25645 25712
25712 25782
25782 25852
25852 25922
25922 25990
25990 26061
26061 26131
26131 26202
26202 26272
26272 26343
26343 26414
26414 26486
26486 26557
26557 26628
26628 26699
26699 26771
26771 26843
26843 26913
26913 26984
26984 27055
27055 27126
27126 27196
27196 27267
27267 27337
27337 27409
27409 27480
27480 27549
27549 27621
27621 27691
27691 27763
27763 27833
27833 27904
27904 27976
27976 28048
28048 28118
28118 28188
28188 28258
28258 28330
28330 28400
28400 28469
28469 28539
28539 28609
28609 28679
28679 28750
28750 28820
28820 28889
28889 28960
28960 29030
29030 29100
29100 29170
29170 29240
29240 29309
29309 29380
29380 29449
29449 29518
29518 29588
29588 29658
29658 29731
29731 29802
29802 29871
29871 29942
29942 30014
30014 30059
30059 30128
30128 30199
30199 30270
30270 30341
30341 30410
30410 30479
30479 30549
30549 30619
30619 30691
30691 30761
30761 30830
30830 30900
30900 30971
30971 31087
31087 31156
31156 31227
31227 31297
31297 31369
31369 31438
31438 31507
31507 31577
31577 31646
31646 31715
31715 31783
31783 31852
31852 31920
31920 31990
31990 32097
32097 32165
32165 32235
32235 32304
32304 32374
32374 32435
32435 32504
32504 32573
32573 32642
32642 32711
32711 32780
32780 32848
32848 32916
32916 32985
32985 33064
33064 33134
33134 33203
33203 33273
33273 33343
33343 33411
33411 33481
