1940 2015
2015 2051
5960 6063
6063 6136
6063 6136
6136 6209
6356 6429
6429 6503
6503 6577
6577 6650
6650 6723
6723 6798
6798 6872
6872 6945
6945 7021
7021 7095
7095 7169
7169 7243
7243 7317
7317 7390
7390 7465
7465 7539
7539 7612
7612 7686
7686 7759
7759 7832
7832 7906
7906 7949
7949 8023
8023 8065
8065 8138
8138 8211
8211 8284
8284 8356
8356 8430
8430 8504
8504 8578
8578 8652
8652 8726
8726 8799
8799 8874
8874 8947
8947 9021
9021 9099
9099 9172
9172 9246
9246 9319
9319 9394
9394 9467
9467 9542
9542 9616
9616 9691
9691 9765
9765 9839
9839 9913
9913 9987
9987 10062
10062 10136
10136 10209
10209 10283
10283 10356
10356 10430
10430 10503
10503 10577
10577 10650
10650 10723
10723 10795
10795 10868
10868 10941
10941 11014
11014 11086
11086 11159
11159 11232
11232 11305
11305 11378
11378 11450
11450 11522
11522 11597
11597 11671
11671 11744
11744 11818
11818 11892
11892 11965
11965 12031
12031 12104
12104 12177
12177 12251
12251 12324
12324 12397
12397 12470
12470 12543
12543 12617
12617 12690
12690 12763
12763 12837
12837 12910
12910 12984
12984 13057
13057 13130
13130 13204
13204 13277
13277 13350
13350 13423
13423 13496
13496 13569
13569 13643
13643 13716
13716 13790
13790 13863
13863 13937
13937 14012
14012 14115
14115 14189
14189 14263
14263 14336
14336 14411
14411 14484
14484 14558
14558 14632
14632 14706
14706 14780
14780 14854
14854 14928
14928 15001
15001 15102
15102 15175
15175 15248
15248 15321
15321 15394
15394 15467
15467 15540
15540 15613
15613 15686
15686 15760
15760 15833
15833 15905
15905 15979
15979 16052
16052 16125
16125 16198
16198 16270
16270 16342
16342 16414
16414 16486
16486 16559
16559 16631
16631 16703
16703 16776
16776 16848
16848 16920
16920 16993
16993 17101
17101 17175
17175 17250
17250 17324
17324 17398
17398 17470
17470 17545
17545 17618
17618 17692
17692 17765
17765 17838
17838 17911
17911 17984
17984 18057
18057 18130
18130 18203
18203 18276
18276 18349
18349 18422
18422 18495
18495 18568
18568 18641
18641 18715
18715 18788
18788 18860
18860 18934
18934 19008
19008 19106
19106 19179
19179 19251
19251 19324
19324 19397
19397 19469
19469 19542
19542 19614
19614 19687
19687 19759
19759 19832
19832 19905
19905 19978
19978 20038
20038 20111
20111 20185
20185 20259
20259 20333
20333 20406
20406 20480
20480 20553
20553 20627
20627 20701
20701 20775
20775 20848
20848 20922
20922 20995
20995 21095
21095 21169
21169 21242
21242 21316
21316 21389
21389 21463
21463 21537
21537 21611
21611 21687
21687 21762
21762 21837
21837 21912
21912 21987
21987 22067
22067 22140
22140 22213
22213 22286
22286 22359
22359 22432
22432 22504
22504 22578
22578 22651
22651 22725
22725 22798
22798 22872
22872 22945
22945 23019
23019 23083
23083 23157
23157 23231
23231 23305
23305 23379
23379 23453
23453 23527
23527 23601
23601 23675
23675 23749
23749 23823
23823 23896
23896 23971
23971 24045
24045 24119
24119 24193
24193 24267
24267 24341
24341 24415
24415 24489
24489 24563
24563 24637
24637 24712
24712 24785
24785 24860
24860 24933
24933 25007
25007 25081
25081 25155
25155 25229
25229 25302
25302 25376
25376 25449
25449 25523
25523 25596
25596 25670
25670 25743
25743 25816
25816 25890
25890 25964
25964 26076
26076 26150
26150 26227
26227 26302
26302 26378
26378 26453
26453 26528
26528 26602
26602 26678
26678 26753
26753 26829
26829 26904
26904 26979
26979 27053
27053 27129
27129 27204
27204 27279
27279 27354
27354 27428
27428 27502
27502 27577
27577 27651
27651 27725
27725 27799
27799 27873
27873 27947
27947 28021
28021 28095
28095 28169
28169 28243
28243 28316
28316 28390
28390 28463
28463 28537
28537 28611
28611 28684
28684 28758
28758 28831
28831 28905
28905 28978
28978 29052
29052 29124
29124 29199
29199 29273
29273 29346
29346 29420
29420 29493
29493 29567
29567 29640
29640 29714
29714 29787
29787 29861
29861 29935
29935 30009
30009 30099
30099 30173
30173 30248
30248 30322
30322 30396
30396 30470
30470 30544
30544 30618
30618 30692
30692 30765
30765 30841
30841 30915
30915 30990
30990 31064
31064 31138
31138 31213
31213 31287
31287 31362
31362 31436
31436 31510
31510 31585
31585 31659
31659 31733
31733 31808
31808 31883
31883 31957
31957 32032
32032 32106
32106 32180
32180 32254
32254 32329
32329 32403
32403 32477
32477 32552
32552 32626
32626 32701
32701 32776
32776 32851
32851 32927
32927 33002
33002 33077
33077 33152
33152 33227
33227 33301
33301 33376
33376 33450
33450 33525
33525 33599
33599 33673
33673 33747
33747 33822
33822 33896
33896 33970
33970 34044
34044 34118
34118 34192
34192 34266
34266 34340
34340 34415
34415 34489
34489 34562
34562 34636
34636 34710
34710 34784
34784 34857
34857 34931
34931 35005
35005 35079
35079 35152
35152 35226
35226 35300
35300 35375
35375 35449
35449 35523
35523 35596
