26468 26599
26599 26676
26676 26754
26754 26831
26831 26908
26908 26985
26985 27063
27063 27140
27140 27217
27217 27294
27294 27372
27372 27449
27449 27526
27526 27604
27604 27681
27681 27758
27758 27835
27835 27913
27913 27990
27990 28066
28066 28143
28143 28221
28221 28298
28298 28375
28375 28451
28451 28527
28527 28604
28604 28680
28680 28756
28756 28832
28832 28909
28909 28984
28984 29061
29061 29137
29137 29213
29213 29289
29289 29365
29365 29441
29441 29518
29518 29594
29594 29671
29671 29748
29748 29824
29824 29900
29900 29977
29977 30054
30054 30131
30131 30208
30208 30285
30285 30362
30362 30440
30440 30517
30517 30595
30595 30672
30672 30749
30749 30827
30827 30904
30904 30981
30981 31058
31058 31135
31135 31212
31212 31289
31289 31366
31366 31442
31442 31519
31519 31595
31595 31671
31671 31749
31749 31825
31825 31903
31903 31980
31980 32058
32058 32135
32135 32212
32212 32288
32288 32367
32367 32444
32444 32521
32521 32598
32598 32676
32676 32752
32752 32830
32830 32907
32907 32985
32985 33062
33062 33139
33139 33216
33216 33294
33294 33371
33371 33448
33448 33525
33525 33602
33602 33679
33679 33757
33757 33834
33834 33911
33911 33988
33988 34065
34065 34142
34142 34220
34220 34297
34297 34373
34373 34452
34452 34530
34530 34608
34608 34686
34686 34764
34764 34842
34842 34922
34922 35001
35001 35080
35080 35160
35160 35239
35239 35318
35318 35397
35397 35476
35476 35555
35555 35634
35634 35713
35713 35792
35792 35871
35871 35949
35949 36030
36030 36108
36108 36188
36188 36266
36266 36345
36345 36423
36423 36502
36502 36579
36579 36658
36658 36737
36737 36815
36815 36893
36893 36972
36972 37049
37049 37129
37129 37207
37207 37286
37286 37364
37364 37442
37442 37520
37520 37598
37598 37676
37676 37755
37755 37833
37833 37911
37911 37989
37989 38068
38068 38147
38147 38225
38225 38304
38304 38382
38382 38459
38459 38537
38537 38615
38615 38693
38693 38771
38771 38849
38849 38926
38926 39004
39004 39082
39082 39159
39159 39237
39237 39314
39314 39392
39392 39470
39470 39548
39548 39626
39626 39704
39704 39782
39782 39860
39860 39938
39938 40015
40015 40095
40095 40174
40174 40253
40253 40332
40332 40410
40410 40488
40488 40568
40568 40647
40647 40726
40726 40805
40805 40884
40884 40963
40963 41044
41044 41123
41123 41202
41202 41281
41281 41360
41360 41438
41438 41517
41517 41595
41595 41673
41673 41751
41751 41829
41829 41907
41907 41985
41985 42063
42063 42118
42118 42196
42196 42275
42275 42353
42353 42431
42431 42509
42509 42589
42589 42667
42667 42745
42745 42823
42823 42901
42901 42978
42978 43056
43056 43134
43134 43212
43212 43290
43290 43368
43368 43446
43446 43523
43523 43600
43600 43679
43679 43757
43757 43835
43835 43914
43914 43993
43993 44071
44071 44205
44205 44285
44285 44364
44364 44443
44443 44522
44522 44602
44602 44681
44681 44760
44760 44839
44839 44918
44918 44996
44996 45075
45075 45154
45154 45232
45232 45311
45311 45390
45390 45468
45468 45547
45547 45625
45625 45703
45703 45782
45782 45860
45860 45938
45938 46016
46016 46094
46094 46172
46172 46250
46250 46328
46328 46406
46406 46483
46483 46561
46561 46639
46639 46717
46717 46794
46794 46873
46873 46952
46952 47045
47045 47123
47123 47201
47201 47279
47279 47358
47358 47437
47437 47515
47515 47593
47593 47671
47671 47749
47749 47827
47827 47905
47905 47983
47983 48061
48061 48139
48139 48216
48216 48294
48294 48371
48371 48449
48449 48526
48526 48603
48603 48680
48680 48757
48757 48835
48835 48912
48912 48989
48989 49068
49068 49146
49146 49223
49223 49301
49301 49378
49378 49455
49455 49533
49533 49611
49611 49689
49689 49766
49766 49844
49844 49922
49922 50001
50001 50079
50079 50158
50158 50237
50237 50316
50316 50395
50395 50475
50475 50555
50555 50634
50634 50713
50713 50793
50793 50871
50871 50951
50951 51031
51031 51110
51110 51189
51189 51268
51268 51348
51348 51427
51427 51505
51505 51584
51584 51664
51664 51742
51742 51821
51821 51899
51899 51978
51978 52057
52057 52135
52135 52214
52214 52293
52293 52371
52371 52449
52449 52528
52528 52606
52606 52685
52685 52763
52763 52841
52841 52920
52920 52999
52999 53078
53078 53157
53157 53236
53236 53315
53315 53394
53394 53472
53472 53551
53551 53629
53629 53707
53707 53785
53785 53863
53863 53941
53941 54019
54019 54097
54097 54175
54175 54252
54252 54329
54329 54408
54408 54485
54485 54562
54562 54641
54641 54718
54718 54796
54796 54874
54874 54952
54952 55030
55030 55108
55108 55187
55187 55265
55265 55343
55343 55421
55421 55499
55499 55577
55577 55656
55656 55734
55734 55813
55813 55892
55892 55970
55970 56050
56050 56130
56130 56210
56210 56290
56290 56370
56370 56450
56450 56530
56530 56611
56611 56690
56690 56771
56771 56850
56850 56930
56930 57009
57009 57089
57089 57168
57168 57247
57247 57326
57326 57406
57406 57486
57486 57565
57565 57644
57644 57723
57723 57802
57802 57881
57881 57960
57960 58039
58039 58117
58117 58196
58196 58275
58275 58354
58354 58433
58433 58512
58512 58591
58591 58670
58670 58749
58749 58828
58828 58907
58907 58986
58986 59065
59065 59143
59143 59222
59222 59301
59301 59379
59379 59459
59459 59538
59538 59618
59618 59698
59698 59777
59777 59857
59857 59938
59938 60018
60018 60097
60097 60176
60176 60255
60255 60335
60335 60414
60414 60493
60493 60572
60572 60651
60651 60729
60729 60808
60808 60887
60887 60966
60966 61045
61045 61124
61124 61203
61203 61283
61283 61363
61363 61442
61442 61520
61520 61599
61599 61677
61677 61756
61756 61834
61834 61912
61912 61990
61990 62067
62067 62145
62145 62223
62223 62301
62301 62379
62379 62458
62458 62536
62536 62615
62615 62693
62693 62772
62772 62850
62850 62929
62929 63007
63007 63086
63086 63165
63165 63244
63244 63323
63323 63401
63401 63480
63480 63558
63558 63637
63637 63715
63715 63793
63793 63872
63872 63950
63950 64029
64029 64108
64108 64187
64187 64266
64266 64345
64345 64423
64423 64503
64503 64582
64582 64661
64661 64739
64739 64818
64818 64895
64895 64974
64974 65052
65052 65130
65130 65207
65207 65285
65285 65362
65362 65441
65441 65518
65518 65596
65596 65673
65673 65750
65750 65826
65826 65905
65905 65982
65982 66059
66059 66136
66136 66213
66213 66290
66290 66369
66369 66447
66447 66524
66524 66602
66602 66679
66679 66756
66756 66834
66834 66912
66912 66989
66989 67119
67119 67197
67197 67274
67274 67350
67350 67428
67428 67506
67506 67583
67583 67660
67660 67738
67738 67815
67815 67893
67893 67971
67971 68049
68049 68127
68127 68206
68206 68283
68283 68363
68363 68442
68442 68522
68522 68601
68601 68680
68680 68759
68759 68838
68838 68917
68917 68996
68996 69074
69074 69153
69153 69232
69232 69312
69312 69391
69391 69469
69469 69548
69548 69626
69626 69704
69704 69783
69783 69861
69861 69940
69940 70018
70018 70096
70096 70175
70175 70254
70254 70333
70333 70411
70411 70490
70490 70568
70568 70646
70646 70725
70725 70804
70804 70882
70882 70961
70961 71039
71039 71118
71118 71197
71197 71276
71276 71354
71354 71433
71433 71511
71511 71589
71589 71667
71667 71746
71746 71825
71825 71903
