5978 6099
9964 10065
14952 15030
15030 15136
15136 15211
15211 15286
15286 15361
15361 15435
15435 15509
15509 15584
15584 15707
15707 15782
15782 15856
15856 15930
15930 16005
16005 16080
16080 16154
16154 16228
16228 16302
16302 16376
16376 16451
16451 16525
16525 16599
16599 16673
16673 16748
16748 16821
16821 16897
16897 16971
16971 17087
17087 17160
17160 17233
17233 17308
17308 17381
17381 17454
17454 17528
17528 17601
17601 17674
17674 17748
17748 17821
17821 17893
17893 17969
17969 18043
18043 18117
18117 18191
18191 18266
18266 18340
18340 18415
18415 18490
18490 18564
18564 18639
18639 18713
18713 18788
18788 18862
18862 18937
18937 19011
19011 19086
19086 19161
19161 19236
19236 19311
19311 19385
19385 19460
19460 19535
19535 19609
19609 19682
19682 19758
19758 19833
19833 19907
19907 19982
19982 20056
20056 20130
20130 20205
20205 20279
20279 20353
20353 20427
20427 20502
20502 20576
20576 20650
20650 20725
20725 20799
20799 20873
20873 20948
20948 21023
21023 21097
21097 21173
21173 21248
21248 21323
21323 21399
21399 21474
21474 21549
21549 21624
21624 21699
21699 21774
21774 21850
21850 21925
21925 22000
22000 22058
22058 22132
22132 22206
22206 22279
22279 22353
22353 22426
22426 22500
22500 22574
22574 22647
22647 22721
22721 22794
22794 22868
22868 22942
22942 23016
23016 23125
23125 23198
23198 23272
23272 23346
23346 23419
23419 23493
23493 23567
23567 23641
23641 23714
23714 23788
23788 23862
23862 23935
23935 24009
24009 24083
24083 24157
24157 24230
24230 24305
24305 24378
24378 24452
24452 24526
24526 24599
24599 24672
24672 24747
24747 24821
24821 24893
24893 24969
24969 25076
25076 25149
25149 25222
25222 25295
25295 25369
25369 25442
25442 25516
25516 25589
25589 25663
25663 25737
25737 25812
25812 25886
25886 25961
25961 26062
26062 26136
26136 26211
26211 26285
26285 26360
26360 26435
26435 26509
26509 26584
26584 26659
26659 26733
26733 26809
26809 26884
26884 26959
26959 27049
27049 27123
27123 27197
27197 27271
27271 27345
27345 27419
27419 27493
27493 27567
27567 27642
27642 27716
27716 27790
27790 27864
27864 27939
27939 28012
28012 28087
28087 28162
28162 28236
28236 28311
28311 28386
28386 28460
28460 28535
28535 28610
28610 28684
28684 28759
28759 28834
28834 28909
28909 28984
28984 29086
29086 29161
29161 29236
29236 29311
29311 29386
29386 29461
29461 29536
29536 29612
29612 29687
29687 29762
29762 29837
29837 29912
29912 29986
29986 30062
30062 30136
30136 30211
30211 30285
30285 30359
30359 30433
30433 30508
30508 30581
30581 30656
30656 30730
30730 30804
30804 30878
30878 30953
30953 31028
31028 31074
31074 31150
31150 31224
31224 31299
31299 31374
31374 31449
31449 31523
31523 31599
31599 31673
31673 31748
31748 31823
31823 31897
31897 31971
31971 32046
32046 32121
32121 32194
32194 32269
32269 32343
32343 32418
32418 32492
32492 32566
32566 32639
32639 32714
32714 32788
32788 32862
32862 32935
32935 33009
33009 33083
33083 33156
33156 33231
33231 33305
33305 33379
33379 33454
33454 33528
33528 33603
33603 33679
33679 33755
33755 33831
33831 33906
33906 33982
33982 34042
34042 34116
34116 34190
34190 34264
34264 34338
34338 34412
34412 34486
34486 34560
34560 34634
34634 34707
34707 34782
34782 34856
34856 34930
34930 35040
35040 35113
35113 35187
35187 35261
35261 35334
35334 35410
35410 35484
35484 35558
35558 35633
35633 35707
35707 35781
35781 35856
