22 70
2983 3054
3054 3125
3125 3196
3196 3267
3267 3339
3339 3410
3410 3481
3481 3552
3552 3623
3623 3694
3694 3765
3765 3836
3836 3907
3907 3978
3978 4049
4049 4120
4120 4191
4191 4263
4263 4334
4334 4405
4405 4476
4476 4547
4547 4618
4618 4689
4689 4760
4760 4831
4831 4902
4902 4973
4973 5044
5044 5114
5114 5186
5186 5257
5257 5327
5327 5399
5399 5470
5470 5541
5541 5612
5612 5683
5683 5754
5754 5825
5825 5896
5896 5966
5966 6037
6037 6108
6108 6178
6178 6249
6249 6320
6320 6391
6391 6462
6462 6534
6534 6580
6580 6651
6651 6722
6722 6793
6793 6864
6864 6936
6936 7007
7007 7077
7077 7150
7150 7221
7221 7292
7292 7363
7363 7434
7434 7505
7505 7577
7577 7648
7648 7719
7719 7790
7790 7861
7861 7932
7932 8003
8003 8075
8075 8146
8146 8217
8217 8288
8288 8359
8359 8430
8430 8501
8501 8573
8573 8643
8643 8715
8715 8786
8786 8857
8857 8928
8928 8998
8998 9069
9069 9141
9141 9212
9212 9257
9257 9329
9329 9400
9400 9471
9471 9542
9542 9613
9613 9684
9684 9755
9755 9826
9826 9897
9897 9968
9968 10039
10039 10111
10111 10181
10181 10253
10253 10324
10324 10395
10395 10465
10465 10536
10536 10607
10607 10678
10678 10749
10749 10820
10820 10891
10891 10961
10961 11032
11032 11102
11102 11173
11173 11244
11244 11315
11315 11386
11386 11456
11456 11527
11527 11597
11597 11668
11668 11739
11739 11809
11809 11880
11880 11950
11950 12021
12021 12091
12091 12162
12162 12233
12233 12303
12303 12374
12374 12445
12445 12515
12515 12586
12586 12657
12657 12729
12729 12799
12799 12870
12870 12942
12942 13013
13013 13084
13084 13156
13156 13227
13227 13299
13299 13370
13370 13441
13441 13513
13513 13585
13585 13656
13656 13728
13728 13800
13800 13871
13871 13943
13943 14014
14014 14086
14086 14157
14157 14228
14228 14299
14299 14370
14370 14441
14441 14512
14512 14582
14582 14654
14654 14725
14725 14796
14796 14868
14868 14940
14940 15011
15011 15083
15083 15154
15154 15226
15226 15298
15298 15369
15369 15441
15441 15487
15487 15559
15559 15630
15630 15701
15701 15773
15773 15844
15844 15916
15916 15988
15988 16059
16059 16130
16130 16202
16202 16272
16272 16344
16344 16415
16415 16486
16486 16557
16557 16628
16628 16699
16699 16769
16769 16841
16841 16912
16912 16982
16982 17054
17054 17125
17125 17196
17196 17268
17268 17339
17339 17410
17410 17482
17482 17554
17554 17625
17625 17697
17697 17768
17768 17839
17839 17910
17910 17982
17982 18054
18054 18125
18125 18196
18196 18267
18267 18338
18338 18410
18410 18481
18481 18552
18552 18624
18624 18695
18695 18766
18766 18836
18836 18908
18908 18979
18979 19050
19050 19120
19120 19191
19191 19262
19262 19333
19333 19404
19404 19475
19475 19545
19545 19616
19616 19687
19687 19758
19758 19830
19830 19901
19901 19971
19971 20044
20044 20116
20116 20187
20187 20258
20258 20330
20330 20401
20401 20473
20473 20544
20544 20615
20615 20686
20686 20757
20757 20828
20828 20899
20899 20971
20971 21042
21042 21113
21113 21185
21185 21256
21256 21327
21327 21398
21398 21469
21469 21540
21540 21612
21612 21683
21683 21754
21754 21825
21825 21896
21896 21967
21967 22037
22037 22108
22108 22179
22179 22249
22249 22319
22319 22389
22389 22460
22460 22530
22530 22600
22600 22671
22671 22741
22741 22811
22811 22882
22882 22952
22952 23023
23023 23093
23093 23165
23165 23237
23237 23308
23308 23379
23379 23451
23451 23522
23522 23594
23594 23666
23666 23737
23737 23809
23809 23881
23881 23952
23952 24023
24023 24096
24096 24167
24167 24239
24239 24310
24310 24361
24361 24432
24432 24503
24503 24575
24575 24646
24646 24717
24717 24789
24789 24860
24860 24930
24930 25002
25002 25073
25073 25145
25145 25216
25216 25287
25287 25358
25358 25429
25429 25501
25501 25572
25572 25643
25643 25715
25715 25786
25786 25857
25857 25929
25929 26000
26000 26071
26071 26143
26143 26215
26215 26286
26286 26358
26358 26430
26430 26501
26501 26573
26573 26645
26645 26716
26716 26788
26788 26859
26859 26931
26931 27002
27002 27074
27074 27145
27145 27216
27216 27287
27287 27359
27359 27429
27429 27501
27501 27572
27572 27643
27643 27714
27714 27785
27785 27856
27856 27926
27926 27998
27998 28068
28068 28140
28140 28212
28212 28283
28283 28354
28354 28426
28426 28497
28497 28568
28568 28640
28640 28711
28711 28782
28782 28853
28853 28924
28924 28994
28994 29065
29065 29136
29136 29207
29207 29277
29277 29348
29348 29418
29418 29489
29489 29560
29560 29630
29630 29701
29701 29771
29771 29842
29842 29912
29912 29982
29982 30053
30053 30123
30123 30194
30194 30264
30264 30334
30334 30404
30404 30474
30474 30545
30545 30615
30615 30686
30686 30756
30756 30826
30826 30897
30897 30967
30967 31037
31037 31109
31109 31180
31180 31251
31251 31322
31322 31394
31394 31465
31465 31537
31537 31608
31608 31679
31679 31752
31752 31823
31823 31895
31895 31966
31966 32038
32038 32109
32109 32180
32180 32252
32252 32323
32323 32395
32395 32466
32466 32537
32537 32607
32607 32679
32679 32750
32750 32820
32820 32893
32893 32964
32964 33036
33036 33107
33107 33179
33179 33249
33249 33321
33321 33393
33393 33463
33463 33536
33536 33607
33607 33678
33678 33750
33750 33821
33821 33892
33892 33964
33964 34036
34036 34107
34107 34178
34178 34250
34250 34321
34321 34393
34393 34465
34465 34536
34536 34608
34608 34679
34679 34750
34750 34821
34821 34893
34893 34964
34964 35035
35035 35107
35107 35178
35178 35249
35249 35320
35320 35391
35391 35462
35462 35533
35533 35605
35605 35676
35676 35746
35746 35817
35817 35888
35888 35958
35958 36030
36030 36101
36101 36172
36172 36243
36243 36314
36314 36384
36384 36455
36455 36526
36526 36597
36597 36668
36668 36739
36739 36809
36809 36880
36880 36952
36952 37023
37023 37094
37094 37165
37165 37236
37236 37306
37306 37377
37377 37449
37449 37519
37519 37590
37590 37661
37661 37732
37732 37802
37802 37874
37874 37945
37945 38015
38015 38087
38087 38158
38158 38229
38229 38300
38300 38371
38371 38442
38442 38513
38513 38584
38584 38655
38655 38726
38726 38797
38797 38868
38868 38938
38938 39010
39010 39080
39080 39150
39150 39222
39222 39293
39293 39364
39364 39435
39435 39506
39506 39576
39576 39648
39648 39719
39719 39789
39789 39862
39862 39933
39933 40004
40004 40076
40076 40147
40147 40218
40218 40290
40290 40361
40361 40432
40432 40505
40505 40576
40576 40647
40647 40719
40719 40790
40790 40861
40861 40933
40933 41004
41004 41076
41076 41147
41147 41218
41218 41290
41290 41361
41361 41433
41433 41504
41504 41576
41576 41647
41647 41718
41718 41789
41789 41860
41860 41932
41932 42002
42002 42049
42049 42120
42120 42191
42191 42261
42261 42333
42333 42404
42404 42474
42474 42545
42545 42616
42616 42686
42686 42757
42757 42828
42828 42898
42898 42971
42971 43042
43042 43114
43114 43185
43185 43256
43256 43327
43327 43398
43398 43470
43470 43541
43541 43613
43613 43684
43684 43755
43755 43825
43825 43897
43897 43968
43968 44038
44038 44110
44110 44182
44182 44253
44253 44324
44324 44395
44395 44466
44466 44537
44537 44609
44609 44680
44680 44750
44750 44821
44821 44892
44892 44962
44962 45034
45034 45105
45105 45176
45176 45246
45246 45317
45317 45388
45388 45458
45458 45529
45529 45600
45600 45671
45671 45741
45741 45812
45812 45882
45882 45953
45953 46024
46024 46095
46095 46165
46165 46236
46236 46306
46306 46376
46376 46448
46448 46517
46517 46589
46589 46660
46660 46731
46731 46801
46801 46872
46872 46943
46943 47014
47014 47085
47085 47156
47156 47227
47227 47297
47297 47368
47368 47439
47439 47510
47510 47582
47582 47652
47652 47725
47725 47796
47796 47868
47868 47939
47939 48011
48011 48082
48082 48154
48154 48226
48226 48297
48297 48369
48369 48441
48441 48512
48512 48584
48584 48656
48656 48728
48728 48799
48799 48871
48871 48942
48942 49013
49013 49085
49085 49156
49156 49227
49227 49298
49298 49369
49369 49440
49440 49511
49511 49582
49582 49653
49653 49723
49723 49794
49794 49865
49865 49935
49935 50006
50006 50077
50077 50148
50148 50218
50218 50289
50289 50360
50360 50430
50430 50501
50501 50572
50572 50643
50643 50714
50714 50785
50785 50856
50856 50927
50927 50998
50998 51069
51069 51141
51141 51212
51212 51283
51283 51354
51354 51425
51425 51496
51496 51568
51568 51639
51639 51710
51710 51782
51782 51853
51853 51924
51924 51994
51994 52066
52066 52137
52137 52209
52209 52280
52280 52351
52351 52422
52422 52494
52494 52565
52565 52635
52635 52707
52707 52779
52779 52850
52850 52921
52921 52993
52993 53064
53064 53135
53135 53207
53207 53278
53278 53350
53350 53421
53421 53492
53492 53563
53563 53635
53635 53707
53707 53778
53778 53850
53850 53922
53922 53994
53994 54065
54065 54136
54136 54207
54207 54280
54280 54351
54351 54422
54422 54494
54494 54565
54565 54636
54636 54708
54708 54779
54779 54850
54850 54922
54922 54993
54993 55063
55063 55134
55134 55206
55206 55277
55277 55348
55348 55419
55419 55490
55490 55561
55561 55632
55632 55703
55703 55774
55774 55846
55846 55917
55917 55988
55988 56059
56059 56130
56130 56202
56202 56272
56272 56345
56345 56416
56416 56487
56487 56559
56559 56630
56630 56676
56676 56747
56747 56818
56818 56889
56889 56960
56960 57031
57031 57102
57102 57172
57172 57244
57244 57316
57316 57386
57386 57459
57459 57530
57530 57648
57648 57720
57720 57791
57791 57863
57863 57934
57934 58006
58006 58077
58077 58148
58148 58220
58220 58291
58291 58363
58363 58434
58434 58506
58506 58577
58577 58648
58648 58719
58719 58791
58791 58863
58863 58934
58934 59005
59005 59076
59076 59148
59148 59219
59219 59291
59291 59362
59362 59433
59433 59504
59504 59575
59575 59646
59646 59717
59717 59789
59789 59859
59859 59930
59930 60001
60001 60072
60072 60142
60142 60214
60214 60284
60284 60355
60355 60426
60426 60497
60497 60567
60567 60638
60638 60710
60710 60780
60780 60852
60852 60923
60923 60994
60994 61040
61040 61111
61111 61183
61183 61254
61254 61326
61326 61397
61397 61469
61469 61540
61540 61612
61612 61683
61683 61755
61755 61826
61826 61898
61898 61969
61969 62040
62040 62112
62112 62183
62183 62255
62255 62326
62326 62397
62397 62468
62468 62540
62540 62611
62611 62682
62682 62753
62753 62824
62824 62894
62894 62965
62965 63036
63036 63107
63107 63178
63178 63248
63248 63319
63319 63390
63390 63461
63461 63531
63531 63602
63602 63673
63673 63744
63744 63814
63814 63885
63885 63957
63957 64028
64028 64099
64099 64170
64170 64241
64241 64311
64311 64383
64383 64454
64454 64525
64525 64596
64596 64668
64668 64739
64739 64810
64810 64881
64881 64952
64952 65023
65023 65094
65094 65166
65166 65237
65237 65308
65308 65379
65379 65450
65450 65522
65522 65594
65594 65665
65665 65737
65737 65809
65809 65880
65880 65952
65952 66024
66024 66094
66094 66167
66167 66239
66239 66311
66311 66383
66383 66455
66455 66526
66526 66599
66599 66671
66671 66742
66742 66814
66814 66885
66885 66956
66956 67027
67027 67099
67099 67170
67170 67241
67241 67312
67312 67383
67383 67454
67454 67526
67526 67597
67597 67668
67668 67739
67739 67810
67810 67881
67881 67952
67952 68023
68023 68094
68094 68166
68166 68237
68237 68308
68308 68380
68380 68451
68451 68522
68522 68593
68593 68665
68665 68736
68736 68807
68807 68879
68879 68950
68950 69021
69021 69093
69093 69164
69164 69236
69236 69307
69307 69378
69378 69449
69449 69520
69520 69591
69591 69663
69663 69734
69734 69805
69805 69876
69876 69947
69947 70019
70019 70090
70090 70161
70161 70233
70233 70304
70304 70375
70375 70446
70446 70518
70518 70589
70589 70661
70661 70732
70732 70803
70803 70874
70874 70945
70945 71017
71017 71087
71087 71159
71159 71231
71231 71302
71302 71374
71374 71445
71445 71516
71516 71588
71588 71659
71659 71730
71730 71802
71802 71874
71874 71946
71946 72018
72018 72089
72089 72161
72161 72233
72233 72306
72306 72376
72376 72450
72450 72522
72522 72594
72594 72666
72666 72738
72738 72810
72810 72882
72882 72954
72954 73025
73025 73097
73097 73168
73168 73239
73239 73311
73311 73382
73382 73453
73453 73525
