6611 6728
6728 6799
6799 6869
6869 6942
6942 7013
7013 7084
7084 7155
7155 7225
7225 7296
7296 7367
7367 7438
7438 7508
7508 7579
7579 7650
7650 7720
7720 7790
7790 7861
7861 7931
7931 8002
8002 8072
8072 8142
8142 8212
8212 8282
8282 8353
8353 8422
8422 8494
8494 8564
8564 8634
8634 8705
8705 8775
8775 8845
8845 8915
8915 8985
8985 9056
9056 9126
9126 9196
9196 9266
9266 9336
9336 9406
9406 9476
9476 9546
9546 9616
9616 9685
9685 9755
9755 9824
9824 9895
9895 9965
9965 10034
10034 10104
10104 10174
10174 10243
10243 10313
10313 10383
10383 10452
10452 10522
10522 10592
10592 10661
10661 10730
10730 10800
10800 10870
10870 10939
10939 11010
11010 11080
11080 11149
11149 11219
11219 11289
11289 11359
11359 11428
11428 11499
11499 11568
11568 11639
11639 11709
11709 11779
11779 11849
11849 11919
11919 11990
11990 12059
12059 12130
12130 12201
12201 12271
12271 12341
12341 12412
12412 12482
12482 12552
12552 12623
12623 12693
12693 12763
12763 12834
12834 12904
12904 12973
12973 13044
13044 13114
13114 13183
13183 13254
13254 13325
13325 13395
13395 13465
13465 13535
13535 13605
13605 13675
13675 13746
13746 13816
13816 13886
13886 13956
13956 14026
14026 14096
14096 14166
14166 14236
14236 14306
14306 14376
14376 14446
14446 14516
14516 14585
14585 14656
14656 14726
14726 14795
14795 14866
14866 14937
14937 15007
15007 15077
15077 15147
15147 15218
15218 15288
15288 15359
15359 15429
15429 15500
15500 15570
15570 15640
15640 15710
15710 15782
15782 15852
15852 15923
15923 15993
15993 16063
16063 16133
16133 16203
16203 16274
16274 16344
16344 16414
16414 16484
16484 16555
16555 16624
16624 16695
16695 16766
16766 16836
16836 16907
16907 16978
16978 17048
17048 17119
17119 17189
17189 17259
17259 17330
17330 17401
17401 17471
17471 17542
17542 17612
17612 17682
17682 17752
17752 17823
17823 17893
17893 17939
17939 18009
18009 18079
18079 18150
18150 18220
18220 18290
18290 18361
18361 18431
18431 18500
18500 18570
18570 18640
18640 18710
18710 18780
18780 18849
18849 18919
18919 18989
18989 19058
19058 19127
19127 19197
19197 19267
19267 19336
19336 19405
19405 19475
19475 19544
19544 19614
19614 19683
19683 19752
19752 19822
19822 19891
19891 19960
19960 20029
20029 20099
20099 20143
20143 20213
20213 20283
20283 20353
20353 20423
20423 20492
20492 20562
20562 20631
20631 20702
20702 20771
20771 20841
20841 20910
20910 20980
20980 21049
21049 21119
21119 21190
21190 21260
21260 21330
21330 21400
21400 21470
21470 21540
21540 21611
21611 21681
21681 21751
21751 21821
21821 21891
21891 21961
21961 22031
22031 22102
22102 22171
22171 22242
22242 22311
22311 22381
22381 22451
22451 22521
22521 22591
22591 22660
22660 22732
22732 22802
22802 22872
22872 22943
22943 23013
23013 23083
23083 23153
23153 23224
23224 23294
23294 23365
23365 23435
23435 23505
23505 23575
23575 23646
23646 23716
23716 23762
23762 23832
23832 23903
23903 23973
23973 24043
24043 24115
24115 24185
24185 24256
24256 24326
24326 24397
24397 24467
24467 24538
24538 24609
24609 24680
24680 24750
24750 24821
24821 24891
24891 24961
24961 25032
25032 25103
25103 25173
25173 25245
25245 25315
25315 25386
25386 25456
25456 25527
25527 25597
25597 25668
25668 25739
25739 25809
25809 25881
25881 25952
25952 26023
26023 26093
26093 26164
26164 26235
26235 26306
26306 26377
26377 26447
26447 26518
26518 26588
26588 26659
26659 26729
26729 26800
26800 26871
26871 26941
26941 27012
27012 27057
27057 27127
27127 27198
27198 27268
27268 27338
27338 27408
27408 27477
27477 27547
27547 27616
27616 27686
27686 27755
27755 27825
27825 27894
27894 27964
27964 28033
28033 28103
28103 28173
28173 28243
28243 28312
28312 28383
28383 28453
28453 28523
28523 28593
28593 28663
28663 28732
28732 28803
28803 28873
28873 28942
28942 29013
29013 29083
29083 29154
29154 29224
29224 29294
29294 29364
29364 29434
29434 29504
29504 29574
29574 29644
29644 29714
29714 29784
29784 29853
29853 29924
29924 29994
29994 30064
30064 30133
30133 30203
30203 30273
30273 30342
30342 30413
30413 30483
30483 30553
30553 30623
30623 30693
30693 30762
30762 30832
30832 30902
30902 30972
30972 31042
31042 31111
31111 31181
31181 31251
31251 31321
31321 31391
31391 31461
31461 31531
31531 31601
31601 31671
31671 31741
31741 31811
31811 31880
31880 31952
31952 32022
32022 32093
32093 32163
32163 32234
32234 32304
32304 32374
32374 32445
32445 32516
32516 32586
32586 32657
32657 32727
32727 32797
32797 32867
32867 32938
32938 33008
33008 33078
33078 33148
33148 33218
33218 33287
33287 33357
33357 33427
33427 33497
33497 33567
33567 33636
33636 33706
33706 33775
33775 33845
33845 33915
33915 33984
33984 34054
34054 34123
34123 34193
34193 34262
34262 34332
34332 34401
34401 34471
34471 34540
34540 34609
34609 34678
34678 34748
34748 34817
34817 34886
34886 34955
34955 35024
35024 35094
35094 35163
35163 35232
35232 35301
35301 35371
35371 35440
35440 35509
35509 35579
35579 35648
35648 35718
35718 35787
35787 35857
35857 35927
35927 35997
35997 36066
36066 36137
36137 36206
36206 36276
36276 36347
36347 36417
36417 36532
36532 36602
36602 36672
36672 36743
36743 36813
36813 36884
36884 36954
36954 37024
37024 37094
37094 37164
37164 37235
37235 37304
37304 37376
37376 37447
37447 37492
37492 37563
37563 37633
37633 37704
37704 37774
37774 37845
37845 37915
37915 37987
37987 38058
38058 38128
38128 38199
38199 38269
38269 38340
38340 38410
38410 38481
38481 38552
38552 38622
38622 38693
38693 38763
38763 38834
38834 38904
38904 38975
38975 39045
39045 39115
39115 39185
39185 39255
39255 39325
39325 39396
39396 39465
39465 39535
39535 39605
39605 39675
39675 39744
39744 39814
39814 39884
39884 39953
39953 40023
40023 40093
40093 40162
40162 40231
40231 40301
40301 40370
40370 40439
40439 40509
40509 40579
40579 40648
40648 40718
40718 40787
40787 40857
40857 40927
40927 40996
40996 41066
41066 41137
41137 41207
41207 41277
41277 41348
41348 41418
41418 41488
41488 41559
41559 41604
41604 41674
41674 41746
41746 41816
41816 41887
41887 41957
41957 42027
42027 42097
42097 42168
42168 42238
42238 42307
42307 42379
42379 42449
42449 42520
42520 42565
42565 42635
42635 42704
42704 42775
42775 42845
42845 42916
42916 42986
42986 43056
43056 43126
43126 43195
43195 43266
43266 43336
43336 43405
43405 43477
43477 43547
43547 43617
43617 43688
43688 43758
43758 43827
43827 43898
43898 43968
43968 44038
44038 44108
44108 44178
44178 44248
44248 44317
44317 44387
44387 44457
44457 44526
44526 44596
44596 44665
44665 44735
44735 44804
44804 44874
44874 44943
44943 45013
45013 45084
45084 45154
45154 45224
45224 45294
45294 45364
45364 45434
45434 45505
45505 45575
45575 45646
45646 45716
45716 45786
45786 45856
45856 45926
45926 45997
45997 46067
46067 46137
46137 46207
46207 46276
46276 46346
46346 46416
46416 46486
46486 46555
46555 46625
46625 46694
46694 46764
46764 46833
46833 46903
46903 46973
46973 47042
47042 47112
47112 47181
47181 47251
47251 47320
47320 47390
47390 47460
47460 47529
47529 47599
47599 47713
47713 47783
47783 47853
47853 47922
47922 47993
47993 48063
48063 48133
48133 48203
48203 48274
48274 48344
48344 48414
48414 48484
48484 48554
48554 48624
48624 48695
48695 48765
48765 48835
48835 48906
48906 48976
48976 49046
49046 49116
49116 49186
49186 49257
49257 49326
49326 49397
49397 49467
49467 49537
49537 49607
49607 49677
49677 49747
49747 49817
49817 49888
49888 49958
49958 50028
50028 50098
50098 50168
50168 50237
50237 50307
50307 50377
50377 50447
50447 50517
50517 50587
50587 50656
50656 50725
50725 50796
50796 50865
50865 50935
50935 51004
51004 51074
51074 51144
51144 51213
51213 51284
51284 51353
51353 51424
51424 51494
51494 51564
51564 51634
51634 51704
51704 51774
51774 51844
51844 51914
51914 51984
51984 52054
52054 52123
52123 52193
52193 52262
52262 52332
52332 52402
52402 52471
52471 52541
52541 52610
52610 52680
52680 52749
52749 52819
52819 52889
52889 52958
52958 53029
53029 53099
53099 53169
53169 53239
53239 53309
53309 53379
53379 53449
53449 53519
53519 53589
53589 53658
53658 53728
53728 53798
53798 53867
53867 53938
53938 54007
54007 54077
54077 54147
54147 54216
54216 54285
54285 54354
54354 54424
54424 54493
54493 54563
54563 54632
54632 54701
54701 54770
54770 54839
54839 54909
54909 54978
54978 55048
55048 55118
55118 55188
55188 55257
55257 55327
55327 55396
55396 55465
55465 55536
55536 55605
55605 55675
55675 55744
55744 55814
55814 55884
55884 55953
55953 56024
56024 56093
56093 56164
56164 56234
56234 56305
56305 56375
56375 56445
56445 56515
56515 56585
56585 56656
56656 56726
56726 56796
56796 56866
56866 56936
56936 57006
57006 57076
57076 57146
57146 57216
57216 57285
57285 57355
57355 57425
57425 57494
57494 57564
57564 57634
57634 57702
57702 57773
57773 57843
57843 57913
57913 57982
57982 58052
58052 58121
58121 58190
58190 58260
58260 58329
58329 58398
58398 58468
58468 58537
58537 58607
58607 58676
58676 58746
58746 58815
58815 58885
58885 58955
58955 59025
59025 59094
59094 59165
59165 59235
59235 59305
59305 59376
59376 59447
59447 59517
59517 59587
59587 59657
59657 59727
59727 59798
59798 59868
59868 59939
59939 60009
60009 60079
60079 60149
60149 60219
60219 60289
60289 60360
60360 60430
60430 60500
60500 60570
60570 60640
60640 60710
60710 60781
60781 60851
60851 60922
60922 60992
60992 61062
61062 61132
61132 61202
61202 61273
61273 61343
61343 61413
61413 61483
61483 61553
61553 61623
61623 61694
61694 61764
61764 61835
61835 61905
61905 61976
61976 62046
62046 62116
62116 62187
62187 62258
62258 62328
62328 62399
62399 62470
62470 62540
62540 62610
62610 62681
62681 62750
62750 62822
62822 62892
62892 62962
62962 63032
63032 63102
63102 63172
63172 63242
63242 63313
63313 63383
63383 63453
63453 63523
63523 63593
63593 63663
63663 63734
63734 63804
63804 63875
63875 63945
63945 64015
64015 64085
64085 64155
64155 64226
64226 64296
64296 64366
64366 64436
64436 64550
64550 64620
64620 64690
64690 64760
64760 64830
64830 64900
64900 64970
64970 65040
65040 65110
65110 65180
65180 65249
65249 65319
65319 65389
65389 65459
65459 65573
65573 65643
65643 65713
65713 65783
65783 65853
65853 65924
65924 65994
65994 66064
66064 66134
66134 66204
66204 66275
66275 66344
66344 66416
66416 66486
66486 66556
66556 66626
66626 66696
66696 66766
66766 66835
66835 66905
66905 66975
66975 67045
67045 67114
67114 67184
67184 67253
67253 67322
67322 67392
67392 67462
67462 67531
67531 67600
67600 67670
67670 67739
67739 67809
67809 67878
67878 67947
67947 68016
68016 68086
68086 68155
68155 68223
68223 68293
68293 68363
68363 68432
68432 68502
68502 68572
68572 68642
68642 68711
68711 68781
68781 68850
68850 68920
68920 68990
68990 69060
69060 69130
69130 69200
69200 69269
69269 69340
69340 69410
69410 69479
69479 69551
69551 69621
69621 69692
69692 69762
69762 69833
69833 69903
69903 69973
69973 70044
70044 70115
70115 70185
70185 70255
70255 70326
70326 70396
70396 70467
70467 70537
70537 70607
70607 70678
70678 70748
70748 70818
70818 70888
70888 70959
70959 71029
71029 71099
71099 71169
71169 71239
71239 71310
71310 71380
71380 71451
71451 71521
71521 71592
71592 71662
71662 71732
71732 71802
71802 71873
71873 71943
71943 72012
72012 72084
72084 72154
72154 72224
72224 72295
72295 72365
72365 72435
72435 72505
72505 72575
72575 72645
72645 72715
72715 72785
72785 72855
72855 72924
72924 72994
72994 73063
73063 73133
73133 73203
73203 73273
73273 73342
73342 73412
73412 73481
73481 73551
73551 73621
73621 73690
73690 73760
73760 73829
73829 73899
