17379 17444
17444 17531
17661 17727
17727 17792
17792 17857
17857 17922
17922 17987
17987 18052
18052 18117
18117 18181
18181 18246
18246 18311
18311 18376
18376 18440
18440 18505
18505 18569
18569 18634
18634 18699
18699 18764
18764 18829
18829 18895
18895 18960
18960 19025
19025 19091
19091 19156
19156 19220
19220 19286
19286 19351
19351 19416
19416 19480
19480 19545
19545 19610
19610 19674
19674 19738
19738 19803
19803 19867
19867 19932
19932 19996
19996 20060
20060 20124
20124 20189
20189 20253
20253 20318
20318 20383
20383 20447
20447 20512
20512 20577
20577 20641
20641 20707
20707 20772
20772 20837
20837 20902
20902 20967
20967 21032
21032 21097
21097 21163
21163 21228
21228 21293
21293 21359
21359 21425
21425 21491
21491 21557
21557 21622
21622 21688
21688 21753
21753 21819
21819 21885
21885 21951
21951 22017
22017 22082
22082 22148
22148 22213
22213 22279
22279 22345
22345 22411
22411 22477
22477 22543
22543 22609
22609 22675
22675 22741
22741 22808
22808 22874
22874 22941
22941 23007
23007 23073
23073 23139
23139 23206
23206 23273
23273 23339
23339 23405
23405 23472
23472 23538
23538 23604
23604 23671
23671 23738
23738 23803
23803 23871
23871 23937
23937 24004
24004 24070
24070 24137
24137 24203
24203 24269
24269 24335
24335 24401
24401 24467
24467 24533
24533 24599
24599 24664
24664 24729
24729 24794
24794 24859
24859 24924
24924 24988
24988 25053
25053 25117
25117 25182
25182 25286
25286 25350
25286 25350
25350 25416
25416 25481
25481 25546
25546 25610
25610 25675
25675 25740
25740 25804
25804 25870
25870 25935
25935 26000
26000 26065
26065 26130
26130 26195
26195 26260
26260 26325
26325 26390
26390 26455
26455 26518
26518 26583
26583 26648
26648 26712
26712 26777
26777 26841
26841 26905
26905 26969
26969 27034
27034 27099
27099 27164
27164 27229
27229 27293
27293 27358
27358 27423
27423 27488
27488 27553
27553 27618
27618 27684
27684 27749
27749 27813
27813 27878
27878 27943
27943 28008
28008 28073
28073 28138
28138 28203
28203 28267
28267 28331
28331 28395
28395 28460
28460 28524
28524 28589
28589 28653
28653 28717
28717 28780
28780 28844
28844 28908
28908 28973
28973 29037
29037 29102
29102 29167
29167 29232
29232 29297
29297 29362
29362 29427
29427 29492
29492 29558
29558 29623
29623 29688
29688 29754
29754 29819
29819 29885
29885 29950
29950 30016
30016 30081
30081 30146
30146 30212
30212 30278
30278 30344
30344 30409
30409 30475
30475 30540
30540 30606
30606 30671
30671 30738
30738 30802
30802 30869
30869 30935
30935 31001
31001 31067
31067 31133
31133 31198
31198 31263
31263 31330
31330 31396
31396 31462
31462 31528
31528 31594
31594 31660
31660 31726
31726 31792
31792 31858
31858 31923
31923 31990
31990 32057
32057 32123
32123 32189
32189 32255
32255 32321
32321 32387
32387 32454
32454 32520
32520 32586
32586 32653
32653 32719
32719 32785
32785 32851
32851 32918
32918 32984
32984 33051
33051 33117
33117 33183
33183 33249
33249 33315
33315 33382
33382 33448
33448 33515
33515 33581
33581 33647
33647 33713
33713 33779
33779 33846
33846 33912
33912 33978
33978 34045
34045 34111
34111 34177
34177 34243
34243 34310
34310 34377
34377 34443
34443 34510
34510 34577
34577 34644
34644 34711
34711 34777
34777 34844
34844 34910
34910 34977
34977 35044
35044 35111
35111 35177
35177 35244
35244 35310
35310 35376
35376 35443
35443 35510
35510 35577
35577 35643
35643 35710
35710 35776
35776 35842
35967 36041
36041 36108
36108 36174
36174 36241
36241 36307
36307 36374
36374 36441
36441 36508
36508 36574
36574 36641
36641 36708
36708 36774
36774 36842
36842 36909
36909 36976
36976 37043
37043 37110
37110 37177
37177 37243
37243 37311
37311 37378
37378 37445
37445 37511
37511 37578
37578 37645
37645 37711
37711 37779
37779 37846
37846 37913
37913 37980
37980 38046
38046 38113
38113 38179
38179 38247
38247 38314
38314 38381
38381 38447
38447 38514
38514 38580
38580 38646
38646 38713
38713 38780
38780 38846
38846 38913
38913 38980
38980 39047
39047 39114
39114 39180
39180 39247
39247 39313
39313 39380
39380 39447
39447 39513
39513 39580
39580 39647
39647 39714
39714 39781
39781 39847
39847 39914
39914 39980
39980 40047
40047 40114
40114 40180
40180 40247
40247 40314
40314 40380
40380 40446
40446 40513
40513 40580
40580 40647
40647 40714
40714 40780
40780 40847
40847 40913
40913 40981
40981 41048
41048 41114
41114 41181
41181 41248
41248 41315
41315 41381
41381 41448
41448 41515
41515 41582
41582 41648
41648 41715
41715 41781
41781 41847
41847 41914
41914 41981
41981 42048
42048 42115
42115 42182
42182 42248
42248 42315
42315 42382
42382 42450
42450 42517
42517 42584
42584 42651
42651 42719
42719 42785
42785 42853
42853 42921
42921 42988
42988 43056
43056 43123
43123 43190
43190 43257
43257 43325
43325 43392
43392 43460
43460 43527
43527 43594
43594 43661
43661 43728
43728 43795
43795 43863
43863 43930
43930 43997
43997 44064
44064 44131
44131 44198
44198 44265
44265 44333
44333 44399
44399 44467
44467 44535
44535 44602
44602 44669
44669 44737
44737 44804
44804 44871
44871 44939
44939 45006
45006 45074
45074 45141
45141 45209
45209 45276
45276 45342
45342 45411
45411 45478
45478 45545
45545 45612
45612 45680
45680 45747
45747 45814
45814 45882
45882 45949
45949 46017
46017 46084
46084 46151
46151 46218
46218 46285
46285 46353
46353 46421
46421 46488
46488 46556
46556 46623
46623 46691
46691 46757
46757 46826
46826 46893
46893 46961
46961 47028
47028 47095
47095 47163
47163 47229
47229 47297
47297 47365
47365 47432
47432 47499
47499 47567
47567 47634
47634 47701
47701 47769
47769 47837
47837 47904
47904 47972
47972 48039
48039 48107
48107 48173
48173 48242
48242 48309
48309 48376
48376 48444
48444 48511
48511 48578
48578 48645
48645 48712
48712 48780
48780 48847
48847 48914
48914 48981
48981 49048
49048 49115
49115 49183
49183 49250
49250 49318
49318 49385
49385 49453
49453 49520
49520 49587
49587 49655
49655 49723
49723 49791
49791 49859
49859 49927
49927 49994
49994 50062
50062 50131
50131 50198
50198 50266
50266 50334
50334 50402
50402 50470
50470 50537
50537 50606
50606 50674
50674 50742
50742 50810
50810 50878
50878 50945
50945 51013
51013 51082
51082 51150
51150 51218
51218 51286
51286 51354
51354 51421
51421 51489
51489 51558
51558 51626
51626 51694
51694 51761
51761 51829
51829 51897
51897 51965
51965 52033
52033 52100
52100 52169
52169 52237
52237 52305
52305 52373
52373 52441
52441 52508
52508 52575
52575 52644
52644 52712
52712 52780
52780 52847
52847 52915
52915 52982
52982 53049
53049 53118
53118 53185
53185 53253
53253 53321
53321 53388
53388 53456
53456 53523
53523 53591
53591 53659
53659 53726
53726 53794
53794 53861
53861 53929
53929 53996
53996 54064
54064 54132
54132 54199
54199 54267
54267 54334
54334 54402
54402 54469
54469 54537
54537 54605
54605 54672
54672 54740
54740 54808
54808 54875
54875 54943
54943 55011
55011 55078
55078 55146
55146 55214
55214 55281
55281 55348
55348 55416
55416 55484
55484 55552
55552 55619
55619 55686
55686 55754
55754 55821
55821 55889
55889 55957
55957 56024
56024 56092
56092 56159
56159 56227
56227 56294
56294 56362
56362 56430
56430 56498
56498 56566
56566 56634
56634 56701
56701 56769
56769 56837
56837 56905
56905 56973
56973 57041
57041 57109
57109 57177
57177 57244
57244 57313
57313 57381
57381 57449
57449 57516
57516 57584
57584 57652
57652 57718
57718 57787
57787 57855
57855 57922
57922 57991
57991 58059
58059 58128
58128 58196
58196 58264
58264 58331
58331 58398
58398 58467
58467 58535
58535 58603
58603 58671
58671 58738
58738 58806
58806 58873
58873 58941
58941 59009
59009 59077
59077 59144
59144 59211
59211 59279
59279 59345
59345 59414
59414 59481
59481 59548
59548 59616
59616 59683
59683 59751
59751 59818
59818 59886
59886 59954
59954 60021
60021 60089
60089 60157
60157 60224
60224 60292
60292 60360
60360 60428
60428 60496
60496 60564
60564 60631
60631 60699
60699 60767
60767 60835
60835 60903
60903 60971
60971 61038
61038 61106
61106 61173
61173 61241
61241 61309
61309 61376
61376 61444
61444 61511
61511 61579
61579 61647
61647 61714
61714 61782
61782 61850
61850 61918
61918 61986
61986 62053
62053 62121
62121 62189
62189 62232
62232 62300
62300 62368
62368 62435
62435 62503
62503 62613
62613 62681
62681 62749
62749 62816
62816 62884
62884 62952
62952 63019
63019 63087
63087 63155
63155 63223
63223 63291
63291 63359
63359 63427
63427 63494
63494 63563
63563 63631
63631 63698
63698 63767
63767 63835
63835 63903
63903 63971
63971 64039
64039 64107
64107 64174
64174 64243
64243 64311
64311 64378
64378 64446
64446 64514
64514 64581
64581 64648
64648 64717
64717 64785
64785 64853
64853 64920
64920 64988
64988 65056
65056 65123
65123 65191
65191 65259
65259 65326
65326 65394
65394 65461
65461 65528
65528 65596
65596 65663
65663 65730
65730 65797
65797 65864
65864 65930
65930 65998
65998 66066
66066 66132
66132 66201
66201 66268
66268 66336
66336 66403
66403 66470
66470 66537
66537 66603
66603 66671
66671 66738
66738 66805
66805 66872
66872 66939
66939 67005
67005 67071
67071 67138
67138 67204
67204 67270
67270 67336
67336 67402
67402 67467
67467 67532
67532 67599
67599 67665
67665 67731
67731 67796
67796 67862
67862 67928
67928 67993
67993 68059
68059 68125
68125 68191
68191 68258
68258 68324
68324 68390
68390 68455
68455 68522
68522 68588
68588 68655
68655 68721
68721 68787
68787 68853
68853 68919
68919 68986
68986 69052
69052 69118
69118 69184
69184 69250
69250 69315
69315 69381
69381 69446
69446 69512
69512 69577
69577 69642
69642 69708
69708 69772
69772 69838
69838 69904
69904 69970
69970 70035
70035 70101
70101 70167
70167 70232
70232 70298
70298 70364
70364 70429
70429 70496
70496 70562
70562 70628
70628 70694
70694 70760
70760 70826
70826 70892
70892 70958
70958 71025
71025 71091
71091 71157
71157 71223
71223 71289
71289 71354
71354 71420
71420 71486
71486 71552
71552 71618
71618 71684
71684 71749
71749 71815
71815 71880
71880 71946
71946 72011
72011 72077
72077 72142
72142 72207
72207 72272
72272 72337
72337 72403
72403 72467
72467 72533
72533 72599
72599 72665
72665 72731
72731 72796
72796 72862
72862 72927
72927 72994
72994 73060
73060 73126
73126 73192
73192 73257
73257 73323
73323 73389
73389 73455
73455 73522
73522 73588
