99 173
173 248
248 323
323 398
398 475
475 550
550 626
626 701
701 776
776 851
851 925
925 1001
1001 1097
1097 1174
1174 1253
1253 1330
1330 1408
1408 1485
1485 1564
1564 1642
1642 1720
1720 1799
1799 1878
1878 1958
1958 2096
2096 2174
2174 2252
2252 2331
2331 2411
2411 2491
2491 2571
2571 2650
2650 2730
2730 2811
2811 2892
2892 2972
2972 3053
3053 3133
3133 3214
3214 3296
3296 3378
3378 3458
3458 3540
3540 3621
3621 3703
3703 3783
3783 3862
3862 3942
3942 4021
4021 4100
4100 4179
4179 4260
4260 4342
4342 4425
4425 4509
4509 4593
4593 4676
4676 4760
4760 4844
4844 4927
4927 5009
5009 5091
5091 5173
5173 5254
5254 5334
5334 5415
5415 5496
5496 5578
5578 5661
5661 5744
5744 5825
5825 5908
5908 5990
5990 6034
6034 6117
6117 6198
6198 6280
6280 6362
6362 6444
6444 6527
6527 6609
6609 6691
6691 6774
6774 6858
6858 6942
6942 7026
7026 7111
7111 7194
7194 7277
7277 7362
7362 7446
7446 7529
7529 7612
7612 7695
7695 7776
7776 7857
7857 7939
7939 8020
8020 8114
8114 8191
8191 8270
8270 8349
8349 8430
8430 8512
8512 8594
8594 8675
8675 8756
8756 8836
8836 8915
8915 8994
8994 9071
9071 9149
9149 9226
9226 9303
9303 9379
9379 9455
9455 9531
9531 9608
9608 9685
9685 9764
9764 9843
9843 9922
9922 10002
10002 10052
10052 10133
10133 10213
