2003 2040
2040 2105
2105 2179
2179 2320
2320 2386
2386 2459
2459 2525
2525 2599
2599 2665
2665 2738
2738 2804
2804 2879
2879 2944
2944 3018
3018 3084
3084 3159
3159 3224
3224 3298
3298 3364
3364 3438
3438 3503
3503 3577
3577 3643
3643 3718
3718 3783
3783 3856
3856 3922
3922 3997
3997 4062
4062 4137
4137 4202
4202 4277
4277 4342
4342 4416
4416 4482
4482 4556
4556 4621
4621 4696
4696 4762
4762 4836
4836 4901
4901 4975
4975 5041
5041 5114
5114 5181
5181 5254
5254 5320
5320 5394
5394 5460
5460 5534
5534 5599
5599 5673
5673 5739
5739 5813
5813 5878
5878 5952
5952 6013
6013 6069
6069 6135
6135 6208
6208 6275
6275 6349
6349 6415
6415 6488
6488 6555
6555 6628
6628 6694
6694 6767
6767 6834
6834 6908
6908 6973
6973 7047
7047 7113
7113 7189
7189 7253
7253 7326
7326 7392
7392 7466
7466 7532
7532 7605
7605 7671
7671 7745
7745 7812
7812 7885
7885 7951
7951 8024
8024 8095
8095 8164
8164 8230
8230 8304
8304 8370
8370 8443
8443 8509
8509 8583
8583 8649
8649 8723
8723 8789
8789 8862
8862 8928
8928 9002
9002 9045
9045 9119
9119 9185
9185 9259
9259 9325
9325 9398
9398 9464
9464 9539
9539 9605
9605 9678
9678 9744
9744 9818
9818 9884
9884 9958
9958 10023
10023 10096
10096 10162
10162 10235
10235 10301
10301 10375
10375 10441
10441 10515
10515 10580
10580 10655
10655 10721
10721 10794
10794 10860
10860 10935
10935 11001
11001 11074
11074 11140
11140 11214
11214 11281
11281 11354
11354 11420
11420 11494
11494 11560
11560 11634
11634 11700
11700 11774
11774 11840
11840 11914
11914 11980
11980 12074
12074 12144
12144 12215
12215 12286
12286 12353
12353 12417
12417 12488
12488 12563
12563 12636
12636 12701
12701 12774
12774 12841
12841 12914
12914 12981
12981 13053
13053 13120
13120 13193
13193 13259
13259 13333
13333 13399
13399 13472
13472 13538
13538 13612
13612 13678
13678 13752
13752 13818
13818 13891
13891 13957
13957 14031
14031 14097
14097 14171
14171 14236
14236 14311
14311 14376
14376 14449
14449 14515
14515 14589
14589 14654
14654 14730
14730 14795
14795 14868
14868 14934
14934 15007
15007 15073
15073 15146
15146 15212
15212 15286
15286 15352
15352 15426
15426 15492
15492 15565
15565 15632
15632 15706
15706 15771
15771 15844
15844 15910
15910 15984
15984 16050
16050 16123
16123 16189
16189 16263
16263 16329
16329 16402
16402 16468
16468 16542
16542 16607
16607 16680
16680 16746
16746 16820
16820 16886
16886 16958
16958 17025
17025 17099
17099 17165
17165 17238
17238 17303
17303 17378
17378 17444
17444 17517
17517 17582
17582 17656
17656 17722
17722 17795
17795 17861
17861 17934
17934 18000
18000 18052
18052 18118
18118 18191
18191 18258
18258 18331
18331 18397
18397 18471
18471 18536
18536 18611
18611 18677
18677 18751
18751 18817
18817 18890
18890 18956
18956 19030
19030 19096
19096 19169
19169 19236
19236 19309
19309 19374
19374 19448
19448 19514
19514 19588
19588 19654
19654 19727
19727 19793
19793 19866
19866 19932
19932 20006
20006 20072
20072 20146
20146 20211
20211 20285
20285 20351
20351 20424
20424 20490
20490 20564
20564 20630
20630 20703
20703 20769
20769 20842
20842 20908
20908 20982
20982 21071
21071 21137
21137 21211
21211 21277
21277 21350
21350 21416
21416 21490
21490 21556
21556 21628
21628 21694
21694 21768
21768 21908
21908 21975
21975 22037
22037 22110
22110 22176
22176 22249
22249 22316
22316 22389
22389 22455
22455 22528
22528 22594
22594 22668
22668 22733
22733 22807
22807 22872
22872 22946
22946 23012
23012 23086
23086 23152
23152 23225
23225 23291
23291 23359
23359 23429
23429 23503
23503 23569
23569 23644
23644 23709
23709 23782
23782 23848
23848 23922
23922 23985
23985 24095
24095 24170
24170 24235
24235 24308
24308 24374
24374 24447
24447 24513
24513 24587
24587 24652
24652 24727
24727 24792
24792 24866
24866 24931
24931 25005
25005 25071
25071 25144
25144 25210
25210 25284
25284 25350
25350 25425
25425 25490
25490 25563
25563 25629
25629 25702
25702 25768
25768 25844
25844 25909
25909 25986
25986 26048
26048 26124
26124 26188
26188 26263
26263 26327
26327 26401
26401 26461
26461 26520
26520 26606
26606 26673
26673 26740
26740 26809
26809 26884
26884 26956
26956 27027
27027 27107
27107 27181
27181 27246
27246 27321
27321 27386
27386 27460
27460 27526
