1937 2036
2036 2110
2110 2174
2174 2248
2248 2313
2313 2386
2386 2525
2525 2590
2590 2663
2663 2728
2728 2801
2801 2867
2867 2940
2940 3004
3004 3049
3049 3114
3114 3189
3189 3253
3253 3327
3327 3391
3391 3464
3464 3530
3530 3604
3604 3669
3669 3743
3743 3808
3808 3882
3882 3946
3946 4020
4020 4100
4100 4165
4165 4238
4238 4303
4303 4377
4377 4438
4438 4515
4515 4581
4581 4655
4655 4720
4720 4793
4793 4859
4859 4932
4932 4997
4997 5094
5094 5168
5168 5229
5229 5306
5306 5372
5372 5446
5446 5512
5512 5585
5585 5650
5650 5724
5724 5784
5784 5861
5861 5927
5927 6037
6037 6110
6110 6175
6175 6248
6248 6313
6313 6387
6387 6452
6452 6525
6525 6590
6590 6665
6665 6729
6729 6803
6803 6868
6868 6942
6942 7007
7007 7071
7071 7143
7143 7209
7209 7284
7284 7349
7349 7422
7422 7487
7487 7562
7562 7627
7627 7699
7699 7765
7765 7840
7840 7904
7904 7978
7978 8043
8043 8117
8117 8182
8182 8256
8256 8321
8321 8395
8395 8460
8460 8534
8534 8599
8599 8673
8673 8738
8738 8811
8811 8877
8877 8951
8951 9016
9016 9090
9090 9155
9155 9229
9229 9294
9294 9368
9368 9433
9433 9507
9507 9573
9573 9648
9648 9712
9712 9786
9786 9851
9851 9926
9926 9991
9991 10037
10037 10103
10103 10177
10177 10242
10242 10316
10316 10380
10380 10455
10455 10520
10520 10593
10593 10659
10659 10732
10732 10793
10793 10871
10871 10937
10937 11011
11011 11096
11096 11161
11161 11234
11234 11300
11300 11373
11373 11438
11438 11512
11512 11577
11577 11649
11649 11714
11714 11789
11789 11854
11854 11926
11926 11992
11992 12035
12035 12100
12100 12174
12174 12235
12235 12313
12313 12378
12378 12452
12452 12518
12518 12591
12591 12656
12656 12730
12730 12790
12790 12868
12868 12933
12933 13007
13007 13092
13092 13157
13157 13231
13231 13297
13297 13370
13370 13436
13436 13510
13510 13575
13575 13649
13649 13714
13714 13787
13787 13853
13853 13927
