116 194
194 261
261 337
337 405
405 485
485 551
551 634
634 696
696 778
778 841
841 921
921 986
986 1039
1039 1097
1097 1170
1170 1234
1234 1313
1313 1378
1378 1454
1454 1522
1522 1599
1599 1666
1666 1744
