984 1079
3005 3145
4119 4202
4202 4284
4284 4367
4367 4449
4449 4530
4530 4611
4611 4693
4693 4774
4774 4855
4855 4936
4936 5017
5017 5099
5099 5180
5180 5261
5261 5340
5340 5419
5419 5498
5498 5575
5575 5651
5651 5727
5727 5802
5802 5877
5877 5953
5953 6030
6030 6098
6098 6179
6179 6262
6262 6344
6344 6426
6426 6508
6508 6590
6590 6673
6673 6753
6753 6833
6833 6913
6913 6993
6993 7052
7052 7128
7128 7205
7205 7282
7282 7359
7359 7438
7438 7516
7516 7593
7593 7671
7671 7749
7749 7828
7828 7908
7908 7987
7987 8066
8066 8145
8145 8224
8224 8302
8302 8381
8381 8459
8459 8537
8537 8615
8615 8693
