1070 1164
1164 1232
1232 1315
1315 1413
1413 1497
1497 1587
1587 1669
1669 1753
1753 1882
1882 1932
1932 2039
2039 2123
2123 2215
2215 2303
2303 2373
2552 2638
4893 5016
5016 5070
5016 5070
5527 5657
5527 5657
6420 6487
6487 6566
7332 7407
8008 8046
8046 8130
8130 8251
8251 8321
8321 8413
8413 8491
8491 8584
8584 8666
8666 8765
8765 8862
8862 8943
8943 9046
9046 9137
9137 9229
9229 9327
9327 9394
9394 9481
9481 9563
9563 9673
9673 9768
9768 9851
9851 9923
9923 10014
10014 10123
10123 10186
10186 10274
10274 10379
10379 10464
10464 10560
10560 10634
10634 10722
10722 10824
10824 10926
10926 11030
11030 11161
11850 11921
11921 11981
12068 12141
12141 12215
12215 12279
12582 12739
12739 12826
12826 12940
12940 12982
12982 13074
13074 13142
13142 13248
13248 13324
13324 13430
13430 13519
13519 13575
13575 13713
13713 13782
13782 13878
13878 13982
13982 14059
14059 14144
14144 14250
14250 14364
14364 14439
14439 14538
14538 14647
14647 14735
14735 14835
14835 14901
14901 14981
14981 15070
15070 15159
15159 15259
15259 15363
15363 15443
15443 15520
15520 15624
15624 15706
