242 323
323 567
567 648
648 810
810 891
891 1217
1217 1298
1298 1380
1380 1543
1543 1624
1624 1706
1706 1950
1950 2031
2031 2113
2113 2358
2358 2440
2440 2603
2603 2685
2685 2767
2767 3012
3012 3094
3094 3337
3337 3418
3418 3662
3662 3742
3742 3985
3985 4065
4065 4145
4145 4226
4226 4307
4307 4468
4468 4549
4549 4630
4630 4711
4711 4792
4792 4873
4873 4955
4955 5036
5036 5199
5199 5281
5281 5444
5444 5525
5525 5606
5606 5688
5688 5769
5769 5850
5850 5931
5931 6176
6176 6338
6338 6420
6420 6582
6582 6663
6663 6745
6745 6827
6827 7070
7070 7395
7395 7476
7476 7558
7558 7719
7719 7800
7800 7882
7882 8043
8043 8125
8125 8369
8369 8450
8450 8695
8695 8777
8777 9022
9022 9103
9103 9429
9429 9753
9753 9834
9834 9915
9915 10077
10077 10158
10158 10239
10239 10401
10401 10482
10482 10807
10807 11051
11051 11132
11132 11214
11214 11458
11458 11539
11539 11863
11863 11944
11944 12025
12025 12267
12267 12510
12510 12591
12591 12672
12672 12915
12915 12996
12996 13320
13320 13401
13401 13643
13643 13724
13724 13804
13804 13965
13965 14046
14046 14367
14367 14607
14607 14687
14687 14847
14847 15006
15006 15087
15087 15407
15407 15488
15488 15648
15648 15728
15728 15970
15970 16051
16051 16132
16132 16373
16373 16454
16454 16535
16535 16615
16615 16696
16696 16777
16777 16939
16939 17100
17100 17343
17343 17423
17423 17665
17665 17745
17745 17826
17826 17907
17907 18068
18068 18148
18148 18390
18390 18471
18471 18552
18552 18874
18874 18956
18956 19116
19116 19197
19197 19440
19440 19521
19521 19845
19845 20168
20168 20491
20491 20896
20896 21221
21221 21637
21637 22732
22732 22982
22982 23065
23065 23395
23395 23635
23635 23715
23715 23955
23955 24034
24034 24275
24275 24356
24356 24436
24436 24516
24516 24595
24595 24676
24676 24757
24757 24838
24838 24918
24918 24999
24999 25080
25080 25240
25240 25321
25321 25402
25402 25483
25483 25563
25563 25643
25643 25724
25724 25805
25805 25885
25885 25966
25966 26047
26047 26128
26128 26209
26209 26290
26290 26371
26371 26534
26534 26616
26616 26697
26697 26940
26940 27020
27020 27342
27342 27423
27423 27504
27504 27664
27664 27745
27745 28042
28042 28123
28123 28203
28203 28364
28364 28444
28444 28524
28524 28685
28685 28765
28765 28845
28845 29086
29086 29166
29166 29733
29733 29815
29815 30059
30059 30140
30140 30384
30384 30465
30465 30706
30706 30787
30787 31029
31029 31110
31110 31352
31352 31433
31433 31677
31677 31758
31758 32001
32001 32082
32082 32323
32323 32404
32404 32646
32646 32726
32726 32808
32808 33049
33049 33130
33130 33291
33291 33371
33371 33691
33691 33772
33772 34011
34011 34091
34091 34330
34330 34410
34410 34651
34651 34732
34732 34974
34974 35054
35054 35353
35353 35676
35676 35757
35757 35999
35999 36080
36080 36321
36321 36402
36402 36643
36643 36724
36724 36966
36966 37046
37046 37369
37369 37449
37449 37691
37691 37771
37771 38012
38012 38092
38092 38173
38173 38334
38334 38414
38414 38655
38655 38737
38737 38818
38818 38978
38978 39059
39059 39139
39139 39380
39380 39460
39460 39540
39540 39700
39700 39780
39780 40100
40100 40180
40180 40260
40260 40421
40421 40501
40501 40743
40743 40824
40824 41147
41147 41471
41471 41553
41553 41795
41795 41876
41876 41956
41956 42037
42037 42117
42117 42197
42197 42278
42278 42438
42438 42519
42519 42680
42680 42759
42759 42840
42840 42920
42920 43080
43080 43160
43160 43399
43399 43479
43479 43719
43719 43799
43799 44039
44039 44119
44119 44358
44358 44438
44438 44598
44598 44677
44677 44757
44757 44994
44994 45074
45074 45153
45153 45311
45311 45390
45390 45629
45629 45708
45708 45947
45947 46026
46026 46186
46186 46265
46265 46345
46345 46425
46425 46505
46505 46584
46584 46664
46664 46745
46745 46825
46825 46905
46905 46985
46985 47225
47225 47305
47305 47385
47385 47545
47545 47625
47625 47706
47706 47785
47785 47945
47945 48025
48025 48265
48265 48344
48344 48425
48425 48584
48584 48664
48664 48744
48744 48825
48825 49065
49065 49146
49146 49307
49307 49388
49388 49468
49468 49710
49710 49791
49791 49952
49952 50113
50113 50194
50194 50516
50516 50597
50597 50921
50921 51163
51163 51244
51244 51485
51485 51565
51565 51804
51804 51884
51884 52123
52123 52202
52202 52441
52441 52520
52520 52760
52760 52840
52840 53080
53080 53160
53160 53401
53401 53481
53481 53801
53801 53881
53881 54041
54041 54120
54120 54201
54201 54281
54281 54520
54520 54760
54760 54840
54840 54920
54920 55080
55080 55159
55159 55399
55399 55478
55478 55718
55718 55797
55797 55877
55877 56117
56117 56197
56197 56277
56277 56357
56357 56517
56517 56598
56598 56918
56918 56998
56998 57113
57113 57428
57428 57507
57507 57664
57664 57743
57743 57821
57821 57900
57900 57979
57979 58137
58137 58216
58216 58613
58613 58693
58693 58932
58932 59012
59012 59251
59251 59331
59331 59571
59571 59651
59651 59890
59890 59970
59970 60050
60050 60209
60209 60288
60288 60367
60367 60685
60685 60923
60923 61003
61003 61241
61241 61320
61320 61399
61399 61478
61478 61636
61636 61715
61715 61874
61874 62112
62112 62191
62191 62429
62429 62508
62508 62746
62746 62825
62825 62904
62904 62983
62983 63141
63141 63220
63220 63299
63299 63378
63378 63457
63457 63535
63535 63615
63615 63694
63694 63773
63773 63852
63852 63931
63931 64089
64089 64168
64168 64326
64326 64484
64484 64563
64563 64642
64642 64800
64800 64958
64958 65161
65161 65316
65316 65394
65394 65549
65549 65627
65627 65782
65782 65859
65859 65936
65936 66014
66014 66324
66324 66556
66556 66634
66634 66867
66867 67177
67177 67255
67255 67411
67411 67488
67488 67566
67566 67799
67799 67876
67876 68262
68262 68340
68340 68650
68650 68728
68728 68884
68884 68961
68961 69040
69040 69274
69274 69666
69666 69980
69980 70058
70058 70293
70293 70371
70371 70605
70605 70836
