3933 4015
4015 4054
4546 4709
4709 4791
4791 4873
4873 4955
4955 5037
5037 5119
5119 5201
5201 5283
5283 5364
5364 5446
5446 5527
5527 5608
5608 5691
5691 5772
5772 5854
5854 5936
5936 6064
6064 6147
6147 6229
6229 6312
6312 6393
6393 6476
6476 6641
6641 6722
6722 6804
6804 6886
6886 6968
6968 7049
7049 7130
7130 7211
7211 7292
7292 7374
7374 7455
7455 7536
7536 7618
7618 7700
7700 7781
7781 7862
7862 7943
7943 8024
8024 8105
8105 8186
8186 8267
8267 8347
8347 8427
8427 8508
8508 8588
8588 8668
8668 8748
8748 8828
8828 8908
8908 8988
8988 9068
9068 9148
9148 9227
9227 9308
9308 9388
9388 9469
9469 9549
9549 9630
9630 9710
9710 9791
9791 9872
9872 9953
9953 10034
10034 10115
10115 10172
10172 10253
10253 10334
10334 10416
10416 10498
10498 10580
10580 10662
10662 10743
10743 10826
10826 10909
10909 10992
10992 11081
11081 11164
11164 11246
11246 11328
11328 11409
11409 11491
11491 11574
11574 11656
11656 11738
11738 11821
11821 11903
11903 11986
11986 12069
12069 12151
12151 12234
12234 12317
12317 12400
12400 12482
12482 12565
12565 12647
12647 12731
12731 12813
12813 12896
12896 12978
12978 13060
13060 13143
13143 13226
13226 13308
13308 13391
13391 13473
13473 13555
13555 13638
13638 13721
13721 13803
13803 13886
13886 13969
13969 14051
14051 14133
14133 14215
14215 14298
14298 14380
14380 14463
14463 14545
14545 14626
14626 14708
14708 14791
14791 14872
14872 14954
14954 15036
15036 15118
15118 15200
15200 15282
15282 15364
15364 15446
15446 15528
15528 15610
15610 15692
15692 15773
15773 15855
15855 15937
15937 16101
16101 16182
16182 16264
16264 16347
16347 16430
16430 16512
16512 16594
16594 16677
16677 16759
16759 16841
16841 16922
16922 17004
17004 17086
17086 17168
17168 17249
17249 17331
17331 17412
17412 17495
17495 17576
17576 17658
17658 17739
17739 17821
17821 17903
17903 17984
17984 18047
18047 18129
18129 18211
18211 18293
18293 18376
18376 18458
18458 18539
18539 18621
18621 18703
18703 18786
18786 18867
18867 18949
18949 19031
19031 19113
19113 19195
19195 19276
19276 19358
19358 19439
19439 19521
19521 19603
19603 19685
19685 19766
19766 19848
19848 19930
19930 20012
20012 20094
20094 20175
20175 20258
20258 20340
20340 20422
20422 20504
20504 20586
20586 20669
20669 20751
20751 20833
20833 20915
20915 20997
20997 21080
21080 21162
21162 21244
21244 21326
21326 21409
21409 21491
21491 21573
21573 21655
21655 21738
21738 21820
21820 21902
21902 21984
21984 22066
22066 22147
22147 22230
22230 22311
22311 22393
22393 22475
22475 22556
22556 22639
22639 22720
22720 22802
22802 22884
22884 22967
22967 23049
23049 23131
23131 23212
23212 23294
23294 23376
23376 23458
23458 23540
23540 23621
23621 23702
23702 23784
23784 23865
23865 23946
23946 24027
24027 24108
24108 24189
24189 24270
24270 24351
24351 24432
24432 24513
24513 24595
24595 24676
24676 24758
24758 24839
24839 24921
24921 25003
25003 25086
25086 25168
25168 25250
25250 25333
25333 25416
25416 25581
25581 25663
25663 25746
25746 25829
25829 25912
25912 25995
25995 26077
26077 26160
26160 26243
26243 26325
26325 26408
26408 26490
26490 26573
26573 26656
26656 26738
26738 26820
26820 26903
26903 26985
26985 27067
27067 27230
27230 27313
27313 27395
27395 27477
27477 27558
27558 27641
27641 27723
27723 27806
27806 27888
27888 27970
27970 28053
28053 28218
28218 28300
28300 28382
28382 28464
28464 28546
28546 28628
28628 28709
28709 28791
28791 28872
28872 28953
28953 29034
29034 29114
29114 29195
29195 29276
29276 29357
29357 29438
29438 29519
29519 29601
29601 29682
29682 29763
29763 29845
29845 29926
29926 30008
30008 30090
30090 30253
30253 30335
30335 30417
30417 30499
30499 30581
30581 30663
30663 30745
30745 30827
30827 30909
30909 30991
30991 31072
31072 31154
31154 31235
31235 31317
31317 31398
31398 31479
31479 31561
31561 31642
31642 31723
31723 31804
31804 31884
31884 31965
31965 32046
32046 32126
32126 32206
32206 32287
32287 32448
32448 32529
32529 32610
32610 32691
32691 32771
32771 32852
32852 32933
32933 33014
33014 33095
33095 33176
33176 33256
33256 33338
33338 33419
33419 33500
33500 33580
33580 33662
33662 33743
33743 33825
33825 33906
33906 33988
33988 34071
34071 34153
34153 34235
34235 34318
34318 34401
34401 34483
34483 34566
34566 34648
34648 34732
34732 34815
34815 34897
34897 34980
34980 35062
35062 35145
35145 35227
35227 35310
35310 35391
35391 35473
35473 35556
35556 35638
35638 35719
35719 35801
35801 35882
35882 35964
35964 36045
36045 36126
36126 36207
36207 36288
36288 36370
36370 36451
36451 36531
36531 36612
36612 36693
36693 36774
36774 36855
36855 36936
36936 37017
37017 37098
37098 37180
37180 37261
37261 37343
37343 37424
37424 37505
37505 37587
37587 37669
37669 37750
37750 37831
37831 37913
37913 37995
37995 38077
38077 38159
38159 38242
38242 38322
38322 38404
38404 38486
38486 38568
38568 38649
38649 38731
38731 38813
38813 38877
38877 38976
38976 39058
39058 39140
39140 39222
39222 39304
39304 39385
39385 39467
39467 39548
39548 39630
39630 39710
39710 39791
39791 39827
39827 39872
39872 39953
39953 40034
40034 40115
40115 40196
40196 40277
40277 40358
40358 40439
40439 40601
40601 40682
40682 40764
40764 40845
40845 40927
40927 41009
41009 41091
41091 41173
41173 41256
41256 41339
41339 41422
41422 41506
41506 41673
41673 41757
41757 41841
41841 41925
41925 42008
42008 42093
42093 42176
42176 42259
42259 42343
42343 42426
42426 42509
42509 42592
42592 42675
42675 42757
42757 42840
42840 42922
42922 43004
43004 43087
43087 43170
43170 43252
43252 43335
43335 43419
43419 43502
43502 43585
43585 43668
43668 43752
43752 43835
43835 43918
43918 44001
44001 44083
44083 44167
44167 44250
44250 44365
44365 44415
44415 44499
44499 44582
44582 44665
44665 44748
44748 44832
44832 44916
44916 45000
45000 45083
45083 45167
45167 45251
45251 45335
45335 45419
45419 45502
45502 45586
45586 45669
45669 45753
45753 45836
45836 45920
45920 46003
46003 46085
46085 46169
46169 46252
46252 46335
46335 46417
46417 46500
46500 46584
46584 46667
46667 46750
46750 46833
46833 46916
46916 46999
46999 47165
47165 47247
47247 47330
47330 47412
47412 47495
47495 47577
47577 47659
47659 47741
47741 47823
47823 47905
47905 47987
47987 48069
48069 48151
48151 48233
48233 48315
48315 48398
48398 48479
48479 48562
48562 48644
48644 48726
48726 48808
48808 48890
48890 48972
48972 49052
49052 49135
49135 49217
49217 49300
49300 49381
49381 49463
49463 49545
49545 49628
49628 49709
49709 49791
49791 49873
49873 49955
49955 50038
50038 50120
50120 50202
50202 50284
50284 50366
50366 50448
50448 50529
50529 50610
50610 50692
50692 50774
50774 50855
50855 50936
50936 51017
51017 51098
51098 51179
51179 51260
51260 51341
51341 51422
51422 51504
51504 51666
51666 51747
51747 51828
51828 51910
51910 51991
51991 52072
52072 52153
52153 52235
52235 52317
52317 52398
52398 52479
52479 52560
52560 52641
52641 52723
52723 52804
52804 52884
52884 52965
52965 53046
53046 53128
53128 53209
53209 53290
53290 53371
53371 53453
53453 53535
53535 53617
53617 53699
53699 53780
53780 53862
53862 53944
53944 54026
54026 54108
54108 54189
54189 54271
54271 54354
54354 54436
54436 54517
54517 54600
54600 54682
54682 54764
54764 54847
54847 54929
54929 55011
55011 55106
55106 55188
55188 55270
55270 55352
55352 55434
55434 55516
55516 55598
55598 55680
55680 55843
55843 55926
55926 56007
56007 56085
56085 56168
56168 56252
56252 56335
56335 56418
56418 56501
56501 56583
56583 56667
56667 56749
56749 56832
56832 56914
56914 56997
56997 57080
57080 57162
57162 57244
57244 57326
57326 57408
57408 57490
57490 57572
57572 57653
57653 57735
57735 57816
57816 57898
57898 57979
57979 58060
58060 58142
58142 58223
58223 58305
58305 58386
58386 58468
58468 58550
58550 58632
58632 58713
58713 58795
58795 58876
58876 58957
58957 59039
59039 59121
59121 59202
59202 59284
59284 59365
59365 59448
59448 59529
59529 59611
59611 59694
59694 59777
59777 59860
59860 59943
59943 60027
60027 60110
60110 60193
60193 60275
60275 60358
60358 60442
60442 60524
60524 60607
60607 60689
60689 60771
60771 60853
60853 60935
60935 61017
61017 61099
61099 61181
61181 61263
61263 61344
61344 61426
61426 61507
61507 61589
61589 61671
61671 61753
61753 61835
61835 61916
