16 186
432 595
595 676
676 758
758 840
840 1085
1085 1167
1167 1249
1249 1331
1331 1413
1413 1494
1494 1576
1576 1658
1658 1739
1739 1902
1902 1984
1984 2066
2066 2147
2147 2228
2228 2310
2310 2391
2391 2636
2636 2717
2717 2799
2799 2881
2881 2962
2962 3044
3044 3125
3125 3206
3206 3288
3288 3370
3370 3451
3451 3533
3533 3614
3614 3696
3696 3779
3779 3861
3861 3942
3942 4024
4024 4107
4107 4189
4189 4271
4271 4353
4353 4436
4436 4684
4684 4767
4767 4934
4934 5016
5016 5099
5099 5183
5183 5347
5347 5429
5429 5512
5512 5595
5595 5677
5677 5840
5840 5922
5922 6004
6004 6248
6248 6330
6330 6411
6411 6493
6493 6574
6574 6656
6656 6738
6738 6820
6820 6901
6901 6983
6983 7065
7065 7147
7147 7311
7311 7393
7393 7458
7458 7557
7557 7640
7640 7722
7722 7804
7804 7886
7886 8049
8049 8131
8131 8213
8213 8294
8294 8375
8375 8457
8457 8620
8620 8701
8701 8784
8784 8863
8863 8944
8944 9026
9026 9107
9107 9188
9188 9270
9270 9433
9433 9515
9515 9596
9596 9678
9678 9841
9841 9923
9923 10005
10005 10086
10086 10167
10167 10248
10248 10330
10330 10411
10411 10573
10573 10654
10654 10735
10735 10817
10817 10898
10898 10979
10979 11060
11060 11142
11142 11306
11306 11387
11387 11469
11469 11551
11551 11714
11714 11795
11795 11877
11877 11959
11959 12040
12040 12122
12122 12204
12204 12286
12286 12369
12369 12533
12533 12615
12615 12697
12697 12780
12780 12862
12862 12944
12944 13026
13026 13109
13109 13192
13192 13274
13274 13357
13357 13439
13439 13521
13521 13604
13604 13687
13687 13769
13769 13851
