5551 5717
8299 8465
8465 8547
8547 8630
8630 8713
8713 8878
8878 8961
8961 9044
9044 9127
9127 9209
9209 9291
9291 9374
9374 9457
9457 9540
9540 9622
9622 9704
9704 9787
9787 9953
9953 10035
10035 10118
10118 10201
10201 10285
10285 10368
10368 10451
10451 10533
10533 10616
10616 10700
10700 10783
10783 10866
10866 10948
10948 11031
11031 11114
11114 11196
11196 11279
11279 11361
11361 11444
11444 11527
11527 11610
11610 11692
11692 11776
11776 11860
11860 11943
11943 12026
12026 12110
12110 12194
12194 12278
12278 12361
12361 12445
12445 12529
12529 12612
12612 12696
12696 12779
12779 12862
12862 12946
12946 13029
13029 13112
13112 13195
13195 13279
13279 13361
13361 13444
13444 13526
13526 13609
13609 13692
13692 13775
13775 13857
13857 13940
13940 14023
14023 14106
14106 14188
14188 14271
14271 14353
14353 14437
14437 14519
14519 14602
14602 14685
14685 14767
14767 14850
14850 14933
14933 15016
15016 15098
15098 15181
15181 15248
15248 15347
15347 15431
15431 15514
15514 15597
15597 15681
15681 15765
15765 15932
15932 16016
16016 16100
16100 16184
16184 16268
16268 16351
16351 16435
16435 16519
16519 16603
16603 16686
16686 16769
16769 16853
16853 16937
16937 17020
17020 17103
17103 17185
17185 17268
17268 17351
17351 17516
17516 17598
17598 17681
17681 17764
17764 17846
17846 17928
17928 18010
18010 18093
18093 18176
18176 18340
18340 18422
18422 18505
18505 18588
18588 18670
18670 18752
18752 18835
18835 19000
19000 19082
19082 19164
19164 19247
19247 19329
19329 19411
19411 19494
19494 19576
19576 19660
19660 19742
19742 19825
19825 19908
19908 19992
19992 20075
20075 20157
20157 20240
20240 20323
20323 20406
20406 20489
20489 20571
20571 20655
20655 20738
20738 20820
20820 20903
20903 20986
20986 21069
21069 21151
21151 21233
21233 21316
21316 21399
21399 21482
21482 21564
21564 21647
21647 21730
21730 21812
21812 21895
21895 21978
21978 22062
22062 22145
22145 22228
22228 22311
22311 22394
22394 22478
22478 22561
22561 22644
22644 22727
22727 22811
22811 22976
22976 23059
23059 23141
23141 23224
23224 23306
23306 23388
23388 23471
23471 23553
23553 23636
23636 23718
23718 23800
23800 23882
23882 23965
23965 24047
24047 24129
24129 24211
24211 24294
24294 24376
24376 24458
24458 24540
24540 24622
24622 24705
24705 24787
24787 24869
24869 24950
24950 25032
25032 25115
25115 25197
25197 25280
25280 25362
25362 25446
25446 25529
25529 25612
25612 25695
25695 25779
25779 25863
25863 25947
25947 26030
26030 26113
26113 26197
26197 26281
26281 26363
26363 26447
26447 26530
26530 26613
26613 26696
26696 26779
26779 26861
26861 26944
26944 27026
27026 27109
27109 27192
27192 27274
27274 27357
27357 27439
27439 27523
27523 27606
27606 27688
27688 27771
27771 27854
27854 27937
27937 28020
28020 28103
28103 28186
28186 28268
28268 28352
28352 28434
28434 28516
28516 28681
28681 28764
28764 28847
28847 28929
28929 29012
29012 29094
29094 29177
29177 29262
29262 29343
29343 29426
29426 29509
29509 29592
29592 29676
29676 29759
29759 29842
29842 29925
29925 30009
30009 30175
30175 30258
30258 30341
30341 30425
30425 30509
30509 30592
30592 30676
30676 30759
30759 30843
30843 30927
30927 31010
31010 31093
31093 31176
31176 31260
31260 31343
31343 31426
31426 31508
31508 31592
31592 31675
31675 31758
31758 31841
31841 31924
31924 32007
32007 32091
32091 32174
32174 32257
32257 32340
32340 32423
32423 32506
32506 32589
32589 32671
32671 32754
32754 32837
32837 33002
33002 33085
33085 33169
33169 33252
33252 33334
33334 33417
33417 33500
33500 33583
33583 33666
33666 33748
33748 33831
33831 33914
33914 33997
33997 34079
34079 34162
34162 34244
34244 34327
34327 34410
34410 34493
34493 34575
34575 34658
34658 34742
34742 34825
34825 34908
34908 34991
34991 35158
35158 35324
35324 35408
35408 35492
35492 35658
35658 35743
35743 35827
35827 35911
35911 35995
35995 36079
36079 36164
36164 36247
36247 36331
36331 36415
36415 36499
36499 36583
36583 36666
36666 36750
36750 36833
36833 36916
36916 36999
36999 37082
37082 37165
37165 37248
37248 37331
37331 37414
37414 37497
37497 37580
37580 37663
37663 37746
37746 37829
37829 37912
37912 37995
37995 38078
38078 38161
38161 38244
38244 38326
38326 38409
38409 38491
38491 38656
38656 38739
38739 38820
38820 38903
38903 38986
38986 39068
39068 39150
39150 39233
39233 39316
39316 39399
39399 39481
39481 39564
39564 39647
39647 39730
39730 39812
39812 39895
39895 39978
39978 40061
40061 40144
40144 40227
40227 40309
40309 40378
40378 40475
40475 40559
40559 40642
40642 40725
40725 40808
40808 40892
40892 40975
40975 41058
41058 41141
41141 41225
41225 41308
41308 41391
41391 41474
41474 41557
41557 41640
41640 41723
41723 41806
41806 41889
41889 41973
41973 42056
42056 42139
42139 42222
42222 42305
42305 42388
42388 42472
42472 42554
42554 42637
42637 42720
42720 42804
42804 42886
42886 42969
42969 43052
43052 43135
43135 43218
43218 43300
43300 43384
43384 43467
43467 43549
43549 43632
43632 43715
43715 43798
43798 43963
43963 44045
44045 44127
44127 44210
44210 44292
44292 44374
44374 44456
44456 44538
44538 44621
44621 44703
44703 44785
44785 44867
44867 44950
44950 45033
45033 45115
45115 45198
45198 45280
45280 45364
45364 45447
45447 45529
45529 45612
45612 45695
45695 45777
45777 45860
45860 45943
45943 46025
46025 46108
46108 46190
46190 46272
46272 46355
46355 46437
46437 46518
46518 46600
46600 46682
46682 46764
46764 46846
46846 46928
46928 47010
47010 47093
47093 47175
47175 47257
47257 47340
47340 47422
47422 47505
47505 47588
47588 47670
47670 47753
47753 47835
47835 47918
47918 48001
48001 48083
48083 48166
48166 48249
48249 48331
48331 48413
48413 48496
48496 48579
48579 48662
48662 48744
48744 48827
48827 48910
48910 49076
49076 49159
49159 49242
49242 49326
49326 49409
49409 49492
49492 49575
49575 49658
49658 49742
49742 49825
49825 49908
49908 49991
49991 50075
50075 50159
50159 50243
50243 50326
50326 50410
50410 50493
50493 50577
50577 50661
50661 50744
50744 50827
50827 50911
50911 50995
50995 51078
51078 51161
51161 51244
51244 51327
51327 51411
51411 51494
51494 51576
51576 51659
51659 51741
51741 51825
51825 51907
51907 51990
51990 52072
52072 52156
52156 52239
52239 52321
52321 52404
52404 52487
52487 52570
52570 52652
52652 52735
52735 52817
52817 52900
52900 52984
52984 53066
53066 53149
53149 53232
53232 53315
53315 53399
53399 53482
53482 53565
53565 53648
53648 53731
53731 53815
53815 53898
53898 53981
53981 54064
54064 54148
54148 54231
54231 54314
54314 54397
54397 54480
54480 54564
54564 54647
54647 54729
54729 54840
54840 54896
54896 54980
54980 55063
55063 55146
55146 55230
55230 55314
55314 55398
55398 55481
55481 55565
55565 55648
55648 55732
55732 55816
55816 55900
55900 55983
55983 56066
56066 56150
56150 56233
56233 56317
56317 56399
56399 56482
56482 56565
56565 56649
56649 56731
56731 56814
56814 56896
56896 56979
56979 57062
57062 57144
57144 57226
57226 57309
57309 57392
57392 57475
57475 57558
57558 57641
57641 57724
57724 57808
57808 57891
57891 57974
57974 58058
58058 58140
58140 58223
58223 58306
58306 58389
58389 58472
58472 58540
58540 58638
58638 58721
58721 58804
58804 58887
58887 58969
58969 59052
59052 59134
59134 59218
59218 59300
59300 59382
59382 59465
59465 59548
59548 59631
59631 59713
59713 59796
59796 59878
59878 59961
59961 60043
60043 60126
60126 60208
60208 60290
60290 60372
60372 60455
60455 60537
60537 60619
60619 60703
60703 60786
60786 60869
60869 60952
60952 61035
61035 61119
61119 61202
61202 61286
61286 61370
61370 61453
61453 61537
61537 61621
61621 61705
61705 61790
61790 61874
61874 61958
61958 62042
62042 62126
62126 62211
62211 62295
62295 62379
62379 62462
62462 62546
62546 62630
62630 62714
62714 62797
62797 62881
62881 62964
62964 63047
63047 63130
63130 63213
63213 63296
63296 63378
63378 63461
63461 63544
63544 63626
63626 63709
63709 63792
63792 63874
63874 63956
63956 64039
64039 64121
64121 64203
64203 64286
64286 64369
64369 64451
64451 64533
64533 64616
64616 64699
64699 64781
64781 64863
64863 64945
64945 65028
65028 65111
65111 65193
65193 65276
65276 65359
65359 65442
65442 65526
65526 65609
65609 65776
65776 65859
65859 65942
65942 66026
66026 66079
66079 66161
66161 66244
66244 66326
66326 66410
66410 66493
66493 66576
66576 66659
66659 66742
66742 66825
66825 66910
66910 66993
66993 67077
67077 67161
67161 67245
67245 67329
67329 67413
67413 67497
67497 67581
67581 67665
67665 67749
67749 67833
67833 67917
67917 68001
68001 68084
68084 68167
68167 68251
68251 68335
68335 68418
68418 68502
68502 68585
68585 68669
68669 68754
68754 68837
68837 68921
68921 69004
69004 69088
69088 69172
69172 69255
69255 69338
69338 69421
69421 69504
69504 69588
69588 69671
69671 69753
69753 69836
69836 69919
69919 70002
70002 70084
70084 70167
70167 70250
70250 70332
70332 70415
70415 70497
70497 70581
70581 70663
70663 70746
70746 70829
70829 70912
70912 70995
70995 71078
71078 71161
71161 71244
71244 71327
71327 71410
71410 71493
71493 71575
71575 71657
71657 71740
71740 71822
71822 71905
71905 72069
72069 72151
72151 72233
72233 72315
72315 72392
72392 72479
72479 72562
72562 72644
72644 72726
72726 72808
72808 72891
