14173 14256
14256 14292
18086 18169
18835 18991
25281 25362
33955 34037
34037 34120
34120 34202
34202 34285
34285 34367
34367 34449
34449 34532
34532 34615
34615 34697
34697 34780
34780 34863
34863 34946
34946 35029
35029 35112
35112 35196
35196 35279
35279 35363
35363 35445
35445 35529
35529 35612
