70 236
236 487
487 738
738 821
821 904
904 1153
1153 1237
1237 1320
1320 1487
1487 1570
1570 1738
1738 1821
1821 2071
2071 2154
2154 2320
2320 2570
2570 2737
2737 2821
2821 2905
2905 3406
3406 3489
3489 3739
3739 3822
3822 4155
4155 4239
4239 4656
4656 4739
4739 4822
4822 5154
5154 5790
5790 5955
5955 6148
6148 6230
6230 6561
6561 6645
6645 6811
6811 6978
6978 7111
7111 7442
7442 7774
7774 7844
7844 7940
7940 8193
8193 8277
8277 8444
8444 8611
8611 8695
8695 8778
8778 8945
8945 9112
9112 9362
9362 9445
9445 9694
9694 9943
9943 10025
10025 10109
10109 10357
10357 10687
10687 10935
10935 11101
11101 11267
11267 11350
11350 11433
11433 11517
11517 11766
11766 12100
12100 12266
12266 12433
12433 12764
12764 13178
13178 13261
13261 13425
13425 13508
13508 13754
13754 13836
13836 14083
14083 14165
14165 14412
14412 14742
14742 14989
14989 15071
15071 15154
15154 15401
15401 15566
15566 16221
16221 16303
16303 16384
16384 16547
16547 16792
16792 16873
16873 17282
17282 17446
17446 17611
17611 17693
17693 17775
17775 17857
17857 18104
18104 18186
18186 18337
18337 18501
18501 18666
18666 18911
18911 18993
18993 19237
19237 19319
19319 19400
19400 19563
19563 19645
19645 19727
19727 19809
19809 20032
20032 20112
20112 20192
20192 20351
20351 20511
20511 20590
20590 20670
20670 20988
20988 21148
21148 21387
21387 21466
21466 21546
21546 21626
21626 21706
21706 21865
21865 21944
21944 22037
22037 22117
22117 22196
22196 22275
22275 22354
22354 22434
22434 22513
22513 22592
22592 22671
22671 22751
22751 22830
22830 22910
22910 22989
22989 23068
23068 23149
23149 23228
23228 23309
23309 23389
23389 23470
23470 23551
23551 23633
23633 23715
23715 23798
23798 23879
23879 23960
23960 24041
24041 24122
24122 24202
24202 24283
24283 24364
24364 24445
24445 24525
24525 24606
24606 24687
24687 24767
24767 24848
24848 24929
24929 25075
25075 25154
25154 25313
25313 25392
25392 25472
25472 25632
25632 25711
25711 25791
25791 25950
25950 26029
26029 26117
26117 26194
26194 26273
26273 26427
26427 26505
26505 26583
26583 26661
26661 26738
26738 26816
26816 26894
26894 26972
26972 27049
27049 27126
27126 27205
27205 27283
27283 27361
27361 27438
27438 27516
27516 27594
27594 27672
27672 27749
27749 27827
27827 27905
27905 27983
27983 28137
28137 28215
28215 28293
28293 28525
28525 28603
28603 28680
28680 28759
28759 28837
28837 28915
28915 28993
28993 29071
29071 29149
29149 29226
29226 29304
29304 29382
29382 29460
29460 29539
29539 29617
29617 29696
29696 29775
29775 29855
29855 30015
30015 30065
30065 30223
30223 30302
30302 30381
30381 30539
30539 30618
30618 30776
30776 30854
30854 30932
30932 31011
31011 31122
31122 31200
31200 31280
31280 31358
31358 31436
31436 31515
31515 31594
31594 31673
31673 31751
31751 31830
31830 31910
31910 32075
32075 32154
32154 32232
32232 32311
32311 32390
32390 32547
32547 32704
32704 32782
32782 32860
