29 69
3732 3813
3976 4059
4059 4142
4142 4225
4225 4308
4308 4391
4391 4474
4474 4557
4557 4639
4639 4722
4722 4804
4804 4886
4886 4968
4968 5050
5050 5132
5132 5214
5214 5296
5296 5379
5379 5461
5461 5543
5543 5626
5626 5707
5707 5790
5790 5873
5873 5956
5956 6039
6039 6123
6123 6206
6206 6290
6290 6373
6373 6457
6457 6541
6541 6624
6624 6708
6708 6791
6791 6875
6875 6958
6958 7042
7042 7124
7124 7208
7208 7291
7291 7374
7374 7455
7455 7539
7539 7622
7622 7704
7704 7786
7786 7869
7869 7952
7952 8035
8035 8117
8117 8199
8199 8283
8283 8365
8365 8448
8448 8530
8530 8613
8613 8696
8696 8778
8778 8861
8861 8943
8943 9026
9026 9109
9109 9191
9191 9274
9274 9356
9356 9439
9439 9522
9522 9605
9605 9689
9689 9772
9772 9855
9855 9938
9938 10021
10021 10104
10104 10188
10188 10270
10270 10353
10353 10436
10436 10518
10518 10601
10601 10684
10684 10766
10766 10848
10848 10930
10930 11013
11013 11094
11094 11176
11176 11258
11258 11340
11340 11422
11422 11504
11504 11586
11586 11668
11668 11749
11749 11831
11831 11913
11913 11995
11995 12076
12076 12159
12159 12241
12241 12322
12322 12404
12404 12486
12486 12568
12568 12649
12649 12731
12731 12814
12814 12896
12896 12978
12978 13058
13058 13141
13141 13222
13222 13303
13303 13384
13384 13466
13466 13547
13547 13627
13627 13709
13709 13790
13790 13871
13871 13953
13953 14035
14035 14116
14116 14197
14197 14278
14278 14360
14360 14442
14442 14523
14523 14605
14605 14687
14687 14768
14768 14849
14849 14931
14931 15012
15012 15094
15094 15175
15175 15256
15256 15338
15338 15420
15420 15501
15501 15584
15584 15666
15666 15748
15748 15829
15829 15911
15911 15993
15993 16045
16045 16128
16128 16211
16211 16294
16294 16377
16377 16461
16461 16544
16544 16628
16628 16711
16711 16795
16795 16878
16878 16961
16961 17046
17046 17129
17129 17212
17212 17295
17295 17377
17377 17459
17459 17542
17542 17625
17625 17708
17708 17790
17790 17872
17872 17955
17955 18037
18037 18120
18120 18203
18203 18285
18285 18368
18368 18451
18451 18533
