1840 1976
1976 2056
2056 2137
2137 2217
2217 2298
2298 2378
2378 2459
2459 2539
2539 2620
2620 2700
2700 2781
2781 2862
2862 2943
2943 3019
3019 3104
3104 3186
3186 3267
3267 3348
3348 3429
3429 3510
3510 3591
3591 3672
3672 3753
3753 3834
3834 3916
3916 3997
3997 4078
4078 4158
4158 4239
4239 4320
4320 4400
4400 4481
4481 4562
4562 4643
4643 4724
4724 4805
4805 4886
4886 4967
4967 5047
5047 5128
5128 5209
5209 5290
5290 5371
5371 5452
5452 5533
5533 5615
5615 5696
5696 5778
5778 5859
5859 5940
5940 6022
6022 6103
6103 6185
6185 6266
6266 6348
6348 6429
6429 6511
6511 6592
6592 6674
6674 6755
6755 6837
6837 6919
6919 7000
7000 7081
7081 7163
7163 7244
7244 7326
7326 7407
7407 7488
7488 7569
7569 7650
7650 7731
7731 7811
7811 7892
7892 7972
7972 8052
8052 8133
8133 8213
8213 8294
8294 8374
8374 8454
8454 8535
8535 8615
8615 8695
8695 8775
8775 8855
8855 8935
8935 9015
9015 9095
9095 9176
9176 9256
9256 9336
9336 9416
9416 9497
9497 9577
9577 9658
9658 9739
9739 9820
9820 9902
9902 9983
9983 10065
10065 10147
10147 10229
10229 10311
10311 10392
10392 10474
10474 10555
10555 10637
10637 10719
10719 10800
10800 10881
10881 10963
10963 11044
11044 11124
11124 11205
11205 11286
11286 11366
11366 11447
11447 11527
11527 11608
11608 11688
11688 11769
11769 11850
11850 11930
11930 12011
12011 12091
12091 12172
12172 12253
12253 12334
12334 12414
12414 12496
12496 12577
12577 12659
12659 12741
12741 12822
12822 12905
12905 12987
12987 13045
13045 13126
13126 13207
13207 13288
13288 13369
13369 13450
13450 13530
13530 13611
13611 13692
13692 13773
13773 13853
13853 13934
13934 14049
14049 14131
14131 14213
14213 14294
14294 14376
14376 14457
14457 14538
14538 14619
14619 14700
14700 14782
14782 14864
14864 14945
14945 15027
15027 15127
15127 15208
15208 15289
15289 15370
15370 15450
15450 15531
15531 15611
15611 15692
15692 15772
15772 15853
15853 15933
15933 16014
16014 16059
16059 16140
16140 16220
16220 16300
16300 16381
16381 16462
16462 16542
16542 16622
16622 16703
16703 16783
16783 16863
16863 16943
16943 17023
17023 17104
17104 17185
17185 17265
17265 17346
17346 17427
17427 17508
17508 17589
17589 17669
17669 17750
17750 17831
17831 17912
17912 17992
17992 18038
18038 18118
18118 18177
18177 18279
18279 18359
18359 18440
18440 18520
18520 18601
18601 18681
18681 18762
18762 18842
18842 18923
18923 19005
19005 19086
19086 19168
19168 19250
19250 19331
19331 19414
19414 19496
19496 19579
19579 19661
19661 19744
19744 19826
19826 19909
19909 19992
19992 20075
20075 20157
20157 20240
20240 20322
20322 20405
20405 20487
20487 20570
20570 20652
20652 20734
20734 20816
20816 20898
20898 20979
20979 21032
21032 21113
21113 21194
21194 21275
21275 21355
21355 21436
21436 21517
21517 21598
21598 21678
21678 21759
21759 21840
21840 21921
21921 22002
22002 22083
22083 22164
22164 22246
22246 22327
22327 22408
22408 22490
22490 22571
22571 22652
22652 22734
22734 22815
22815 22896
22896 22976
22976 23058
23058 23139
23139 23219
23219 23300
23300 23381
23381 23462
23462 23542
23542 23623
23623 23704
23704 23785
23785 23866
23866 23947
23947 24053
24053 24134
24134 24215
24215 24297
24297 24378
24378 24459
24459 24540
24540 24621
24621 24703
24703 24783
24783 24864
24864 24946
24946 25026
25026 25107
25107 25188
25188 25268
25268 25350
25350 25431
25431 25512
25512 25593
25593 25675
25675 25757
25757 25838
25838 25919
25919 26001
26001 26083
26083 26164
26164 26246
26246 26327
26327 26408
26408 26489
26489 26570
26570 26651
26651 26732
26732 26813
26813 26894
26894 26975
26975 27055
27055 27136
27136 27217
27217 27297
27297 27378
27378 27458
27458 27539
27539 27619
27619 27700
27700 27780
27780 27860
27860 27940
27940 28020
28020 28101
28101 28181
28181 28261
28261 28341
28341 28422
28422 28502
28502 28582
28582 28663
28663 28744
28744 28825
28825 28905
28905 28985
28985 29066
29066 29146
29146 29227
29227 29307
29307 29387
29387 29468
29468 29548
29548 29629
29629 29709
29709 29790
29790 29871
29871 29952
29952 30033
30033 30114
30114 30195
30195 30276
30276 30357
30357 30438
30438 30519
30519 30600
30600 30681
30681 30762
30762 30843
30843 30924
30924 31005
31005 31114
31114 31195
31195 31276
31276 31357
31357 31438
31438 31519
31519 31600
31600 31666
31666 31763
31763 31844
31844 31926
31926 32007
32007 32088
32088 32170
32170 32252
32252 32333
32333 32414
32414 32496
32496 32577
32577 32658
32658 32740
32740 32822
32822 32903
32903 32985
32985 33078
33078 33160
33160 33242
33242 33325
33325 33407
33407 33489
33489 33570
33570 33652
33652 33733
33733 33815
33815 33896
33896 33977
33977 34058
34058 34139
34139 34219
34219 34300
34300 34380
34380 34461
34461 34541
34541 34622
34622 34703
34703 34784
34784 34865
34865 34945
34945 35026
35026 35106
35106 35187
35187 35267
35267 35348
35348 35429
35429 35510
35510 35590
35590 35671
35671 35751
35751 35832
35832 35912
35912 35992
35992 36073
36073 36153
36153 36234
36234 36315
36315 36396
36396 36476
36476 36557
36557 36638
36638 36719
36719 36800
36800 36881
36881 36962
36962 37043
37043 37123
37123 37204
37204 37284
37284 37365
37365 37446
37446 37527
37527 37608
37608 37689
37689 37770
37770 37851
37851 37932
37932 38013
38013 38094
38094 38175
38175 38256
38256 38337
38337 38418
38418 38499
38499 38580
38580 38662
38662 38744
38744 38826
38826 38887
38887 38989
38989 39051
39051 39132
39132 39213
39213 39295
39295 39376
39376 39458
39458 39539
39539 39620
39620 39702
39702 39783
39783 39863
39863 39944
39944 40025
40025 40106
40106 40187
40187 40267
40267 40348
40348 40428
40428 40509
40509 40589
40589 40670
40670 40750
40750 40830
40830 40911
40911 40991
40991 41072
41072 41152
41152 41232
41232 41313
41313 41393
41393 41473
41473 41553
41553 41634
41634 41715
41715 41795
41795 41876
41876 41956
41956 42037
42037 42117
42117 42198
42198 42278
42278 42359
42359 42439
42439 42520
42520 42600
42600 42680
42680 42761
42761 42842
42842 42923
42923 43004
43004 43085
43085 43166
43166 43247
43247 43327
43327 43408
43408 43489
43489 43570
43570 43650
43650 43731
43731 43812
43812 43892
43892 43973
43973 44054
44054 44135
44135 44216
44216 44297
44297 44378
44378 44459
44459 44541
44541 44622
44622 44703
44703 44784
44784 44865
44865 44946
44946 45027
45027 45108
45108 45189
45189 45270
45270 45351
45351 45431
45431 45512
45512 45593
45593 45673
45673 45754
45754 45834
45834 45916
45916 45996
45996 46077
46077 46158
46158 46240
46240 46321
46321 46402
46402 46484
46484 46565
46565 46647
46647 46729
46729 46812
46812 46894
46894 46976
46976 47058
47058 47141
47141 47224
47224 47306
47306 47388
47388 47471
47471 47553
47553 47636
47636 47718
47718 47801
47801 47883
