230 554
554 960
960 1204
1204 1531
1531 2789
2789 4750
4750 5075
5075 5402
5402 7754
7754 8486
8486 10510
10510 13723
13723 19119
19119 22388
22388 29559
29559 29803
29803 30127
30127 30451
30451 31183
31183 31917
31917 33460
33460 35093
35093 35421
35421 37304
37304 37709
37709 39584
39584 39993
39993 40563
40563 41547
41547 45265
45265 45512
45512 47367
47367 48544
48544 48953
48953 49610
49610 49835
49835 51085
51085 51411
51411 53300
53300 53629
53629 53958
53958 55758
55758 56495
56495 56905
