1978 2073
5973 6061
8927 9006
9006 9048
11994 12068
16939 17037
17037 17117
17595 17674
17674 17754
17754 17833
17833 17913
17913 17992
17992 18107
18107 18186
18186 18266
18266 18345
18345 18425
18425 18503
18503 18583
18583 18662
18662 18741
18741 18820
18820 18899
18899 18978
18978 19057
19057 19136
19136 19215
19215 19294
19294 19373
19373 19452
19452 19531
19531 19611
19611 19690
19690 19769
19769 19848
19848 19929
19929 20008
20008 20118
20118 20197
20197 20276
20276 20355
20355 20434
20434 20514
20514 20592
20592 20671
20671 20750
20750 20829
20829 20908
20908 20987
20987 21066
21066 21146
21146 21225
21225 21304
21304 21383
21383 21462
21462 21541
21541 21619
21619 21698
21698 21777
21777 21856
21856 21935
21935 22013
22013 22052
22052 22132
22132 22212
22212 22292
22292 22372
22372 22453
22453 22532
22532 22613
22613 22693
22693 22773
22773 22853
22853 22932
22932 23012
23012 23050
23050 23130
23130 23210
23210 23289
23289 23369
23369 23448
23448 23528
23528 23608
23608 23687
23687 23766
23766 23846
23846 23925
23925 24004
24004 24110
24110 24189
24189 24268
24268 24347
24347 24427
24427 24506
24506 24585
24585 24665
24665 24744
24744 24823
24823 24902
24902 24981
24981 25061
25061 25140
25140 25219
25219 25298
25298 25378
25378 25457
25457 25537
25537 25616
25616 25696
25696 25775
25775 25854
25854 25933
25933 26013
26013 26117
26117 26196
26196 26275
26275 26353
26353 26432
26432 26511
26511 26590
26590 26669
26669 26747
26747 26826
26826 26905
26905 26984
26984 27063
27063 27142
27142 27221
27221 27300
27300 27379
27379 27457
27457 27537
27537 27616
27616 27696
27696 27775
27775 27855
27855 27934
27934 28015
28015 28055
28055 28135
28135 28215
28215 28294
28294 28375
28375 28455
28455 28535
28535 28614
28614 28694
28694 28774
28774 28854
28854 28933
28933 29013
29013 29051
29051 29132
29132 29212
29212 29293
29293 29374
29374 29454
29454 29534
29534 29614
29614 29695
29695 29775
29775 29855
29855 29935
29935 30016
30016 30096
30096 30177
30177 30257
30257 30337
30337 30417
30417 30497
30497 30577
30577 30657
30657 30738
30738 30818
30818 30898
30898 30978
30978 31058
31058 31139
31139 31220
31220 31300
31300 31380
31380 31461
31461 31541
31541 31621
31621 31701
31701 31781
31781 31862
31862 31942
31942 32058
32058 32138
32138 32217
32217 32297
32297 32377
32377 32456
32456 32536
32536 32616
32616 32695
32695 32775
32775 32854
32854 32934
32934 33014
33014 33093
33093 33173
33173 33253
33253 33333
33333 33413
33413 33492
33492 33572
33572 33652
33652 33733
33733 33812
33812 33892
33892 33972
33972 34052
34052 34132
34132 34211
34211 34291
34291 34371
34371 34450
34450 34531
34531 34610
34610 34691
34691 34770
34770 34850
34850 34930
34930 35010
35010 35089
35089 35249
35249 35329
35329 35408
35408 35488
35488 35567
35567 35648
35648 35727
35727 35807
35807 35887
35887 35967
35967 36047
36047 36115
36115 36204
36204 36285
36285 36365
36365 36445
36445 36525
36525 36605
36605 36685
36685 36765
36765 36844
36844 36924
36924 37005
37005 37051
37051 37131
37131 37212
37212 37292
37292 37372
37372 37453
37453 37534
37534 37614
37614 37695
37695 37775
37775 37856
37856 37936
37936 38015
38015 38058
38058 38139
38139 38219
38219 38300
38300 38379
38379 38460
38460 38540
38540 38621
38621 38701
38701 38781
38781 38861
38861 38942
38942 39021
39021 39102
39102 39182
39182 39262
39262 39342
39342 39422
39422 39502
39502 39582
39582 39662
39662 39742
39742 39822
39822 39902
39902 39982
39982 40062
40062 40142
40142 40222
40222 40301
40301 40382
40382 40462
40462 40542
40542 40621
40621 40702
40702 40782
40782 40861
40861 40941
40941 41056
41056 41136
41136 41216
41216 41295
41295 41375
41375 41455
41455 41535
41535 41614
41614 41694
41694 41773
41773 41852
41852 41932
41932 42011
42011 42120
42120 42199
42199 42279
42279 42358
42358 42438
42438 42517
42517 42597
42597 42676
42676 42756
42756 42835
42835 42914
42914 42994
42994 43073
43073 43152
43152 43232
43232 43311
43311 43390
43390 43470
43470 43549
43549 43629
43629 43707
43707 43787
43787 43866
43866 43946
43946 44025
44025 44104
44104 44183
44183 44263
44263 44342
44342 44421
44421 44501
44501 44581
44581 44660
44660 44739
44739 44819
44819 44898
44898 44978
44978 45057
45057 45136
45136 45216
45216 45296
45296 45375
45375 45454
45454 45534
45534 45614
45614 45694
45694 45774
45774 45854
45854 45934
45934 46014
46014 46093
46093 46173
46173 46253
46253 46334
46334 46413
46413 46493
46493 46573
46573 46653
46653 46732
46732 46811
46811 46891
46891 46970
46970 47050
47050 47129
47129 47208
47208 47288
47288 47367
47367 47447
47447 47526
