76 139
139 202
202 265
265 328
328 391
391 454
454 517
517 579
579 642
642 705
705 768
768 831
831 894
894 958
958 1021
1021 1085
1085 1149
1149 1214
1214 1278
1278 1342
1342 1407
1407 1471
1471 1535
1535 1599
1599 1664
1664 1729
1729 1794
1794 1859
1859 1925
1925 1989
1989 2053
2053 2117
2117 2181
2181 2245
2245 2309
2309 2373
2373 2437
2437 2499
2499 2564
2564 2627
2627 2690
2690 2752
2752 2816
2816 2879
2879 2942
2942 3005
3005 3075
3075 3152
3152 3216
3216 3280
3280 3343
3343 3406
3406 3469
3469 3532
3532 3595
3595 3658
3658 3722
3722 3786
3786 3851
3851 3915
3915 3979
3979 4079
4079 4145
4145 4256
4256 4324
4324 4392
4392 4458
4458 4525
4525 4592
4592 4658
4658 4723
4723 4788
4788 4853
4853 4918
4918 4983
4983 5049
5049 5114
5114 5179
5179 5244
5244 5308
5308 5374
5374 5438
5438 5504
5504 5569
5569 5634
5634 5699
5699 5764
5764 5828
5828 5893
5893 5958
5958 6023
6023 6067
6067 6132
6132 6198
6198 6263
6263 6327
6327 6392
6392 6456
6456 6520
6520 6585
6585 6649
6649 6714
6714 6779
6779 6843
6843 6907
6907 6971
6971 7035
7035 7100
7100 7164
7164 7228
7228 7293
7293 7356
7356 7421
7421 7485
7485 7549
7549 7614
7614 7678
7678 7741
7741 7806
7806 7871
7871 7936
7936 8001
8001 8049
8049 8114
8114 8179
8179 8245
8245 8312
8312 8378
8378 8446
8446 8512
8512 8579
8579 8644
8644 8710
8710 8776
8776 8841
8841 8906
8906 8971
8971 9035
9035 9098
9098 9163
9163 9226
9226 9290
9290 9353
9353 9417
9417 9480
9480 9543
9543 9607
9607 9669
9669 9733
9733 9796
9796 9859
9859 9922
9922 9985
9985 10048
10048 10112
10112 10175
10175 10238
10238 10302
10302 10366
10366 10430
10430 10494
10494 10558
10558 10622
10622 10687
10687 10752
10752 10815
10815 10880
10880 10944
10944 11010
11010 11074
11074 11139
11139 11192
11192 11268
11268 11334
11334 11398
11398 11462
11462 11526
11526 11591
11591 11655
11655 11720
11720 11785
11785 11850
11850 11914
11914 11979
11979 12043
12043 12108
12108 12172
12172 12236
12236 12300
12300 12365
12365 12430
12430 12495
12495 12561
12561 12627
12627 12691
12691 12757
12757 12821
12821 12885
12885 12949
12949 13014
13014 13078
13078 13143
13143 13208
13208 13273
13273 13338
13338 13404
13404 13469
13469 13534
13534 13599
13599 13665
13665 13731
13731 13796
13796 13861
13861 13911
13911 13993
13993 14066
14066 14130
14130 14195
14195 14259
14259 14324
14324 14388
14388 14452
14452 14516
14516 14579
14579 14642
14642 14706
14706 14769
14769 14833
14833 14897
14897 14961
14961 15025
15025 15089
15089 15154
15154 15219
15219 15283
15283 15347
15347 15411
