234 400
400 566
566 649
649 731
731 815
815 898
898 981
981 1064
1064 1147
1147 1230
1230 1397
1397 1481
1481 1565
1565 1648
1648 1731
1731 1814
1814 1897
1897 1980
1980 2063
2063 2146
2146 2229
2229 2312
2312 2395
2395 2561
2561 2643
2643 2892
2892 2974
2974 3057
3057 3140
3140 3222
3222 3305
3305 3388
3388 3471
3471 3554
3554 3638
3638 3721
3721 3805
3805 3888
3888 3971
3971 4055
4055 4139
4139 4223
4223 4306
4306 4391
4391 4475
4475 4559
4559 4642
4642 4726
4726 4810
4810 4893
4893 5060
5060 5143
5143 5226
5226 5309
5309 5392
5392 5475
5475 5557
5557 5641
5641 5724
5724 5807
5807 5890
5890 5973
5973 6057
6057 6140
6140 6223
6223 6306
6306 6389
6389 6473
6473 6556
6556 6639
6639 6722
6722 6806
6806 6889
6889 6973
6973 7056
7056 7140
7140 7224
7224 7391
7391 7475
7475 7559
7559 7726
7726 7809
7809 7893
7893 7977
7977 8144
8144 8228
8228 8311
8311 8395
8395 8478
8478 8562
8562 8645
8645 8728
8728 8812
8812 8895
8895 8979
8979 9063
9063 9146
9146 9230
9230 9314
9314 9398
9398 9481
9481 9565
9565 9649
9649 9817
9817 9901
9901 9985
9985 10069
10069 10153
10153 10237
10237 10321
10321 10404
10404 10488
10488 10655
10655 10738
10738 10821
10821 10904
10904 11071
11071 11154
11154 11237
11237 11321
11321 11404
11404 11571
11571 11653
11653 11736
11736 11820
11820 11903
11903 11986
11986 12070
12070 12153
12153 12237
12237 12320
12320 12404
12404 12487
12487 12571
12571 12654
12654 12738
12738 12821
12821 12905
12905 12988
12988 13072
13072 13156
13156 13240
13240 13323
13323 13406
13406 13490
13490 13574
13574 13741
13741 13824
13824 13908
13908 14056
14056 14139
14139 14223
14223 14307
14307 14390
14390 14474
14474 14557
14557 14640
14640 14724
14724 14807
14807 14890
14890 14974
14974 15057
15057 15141
15141 15225
15225 15308
15308 15392
15392 15476
15476 15559
15559 15643
15643 15727
15727 15811
15811 15894
