341 497
497 652
652 730
730 807
807 885
885 963
963 1047
1201 1433
1433 1588
1588 1665
1665 2064
2064 2141
2141 2218
2218 2373
2373 2450
2450 2527
2527 2681
2681 2757
2757 2834
2834 2912
2912 2989
2989 3066
3066 3143
3143 3220
3220 3375
3375 3452
3452 3529
3529 3607
3607 3684
3684 3761
3761 3838
3838 4148
4148 4225
4225 4303
4303 4458
4458 4535
4535 4767
4767 4844
4844 4921
4921 5076
5076 5230
5230 5307
5307 5461
5461 5538
5538 5615
5615 5846
5846 6001
6001 6155
6155 6232
6232 6309
6309 6386
6386 6463
6463 6540
6540 6695
6695 6772
6772 6849
6849 7084
7084 7161
7161 7238
7238 7316
7316 7393
7393 7470
7470 7547
7547 7624
7624 7702
7702 7779
7779 7856
7856 7933
7933 8010
8010 8088
8088 8165
8165 8242
8242 8319
8319 8397
8397 8474
8474 8552
8552 8630
8630 8708
8708 8786
8786 8864
8864 8942
8942 9020
9020 9097
9097 9331
9331 9408
9408 9486
9486 9641
9641 9718
9718 9796
9796 9874
9874 9951
9951 10028
10028 10077
10077 10153
10153 10230
10230 10307
10307 10383
10383 10460
10460 10537
10537 10613
10613 10690
10690 10843
10843 10997
10997 11065
11065 11141
11141 11218
11218 11294
11294 11370
11370 11522
11522 11599
11599 11829
11829 11904
11904 11981
11981 12108
12108 12184
12184 12261
12261 12337
12337 12413
12413 12489
12489 12565
12565 12795
12795 12872
12872 13024
13024 13101
13101 13407
13407 13484
13484 13561
13561 13637
13637 13714
13714 13791
13791 13867
13867 13944
13944 14021
14021 14119
14119 14196
14196 14352
14352 14430
14430 14586
14586 14665
14665 14744
14744 14822
14822 14900
14900 14979
14979 15073
15073 15150
15150 15227
15227 15304
15304 15382
15382 15459
15459 15537
15537 15614
15614 15691
15691 15768
15768 15845
15845 15922
15922 15999
15999 16076
16076 16153
16153 16231
16231 16308
16308 16385
16385 16462
16462 16540
16540 16694
16694 16771
16771 16848
16848 16925
16925 17002
17002 17079
17079 17156
17156 17232
17232 17309
17309 17386
17386 17463
17463 17540
17540 17693
17693 17770
17770 17846
17846 17923
17923 18071
18071 18148
18148 18224
18224 18300
18300 18377
18377 18453
18453 18529
18529 18606
18606 18682
18682 18759
18759 18835
18835 18911
18911 19064
19064 19140
19140 19217
19217 19293
19293 19370
19370 19446
19446 19522
19522 19599
19599 19675
19675 19752
19752 19828
19828 19905
19905 19981
19981 20057
20057 20210
20210 20287
20287 20363
20363 20440
20440 20593
20593 20670
20670 20746
20746 20823
20823 20900
20900 20976
20976 21053
21053 21207
21207 21283
21283 21360
21360 21436
21436 21590
21590 21666
21666 21743
21743 21896
21896 21972
21972 22048
22048 22124
22124 22201
22201 22277
22277 22353
22353 22430
22430 22506
22506 22582
22582 22659
22659 22736
22736 22812
22812 22889
22889 22965
22965 23042
23042 23195
23195 23271
23271 23341
23341 23423
23423 23500
23500 23577
23577 23654
23654 23731
23731 23808
23808 23884
23884 23961
23961 24038
24038 24115
24115 24192
24192 24269
24269 24346
24346 24423
24423 24500
24500 24654
24654 24731
24731 24808
24808 24884
24884 24961
24961 25037
25037 25113
25113 25190
25190 25267
25267 25344
25344 25421
25421 25498
25498 25575
25575 25652
25652 25729
25729 25805
25805 25882
25882 25959
25959 26036
26036 26112
26112 26189
26189 26266
26266 26343
26343 26419
26419 26496
26496 26573
26573 26726
26726 26803
26803 26879
26879 26956
26956 27109
27109 27186
27186 27262
27262 27339
27339 27415
27415 27492
27492 27568
27568 27644
27644 27721
27721 27798
27798 27874
27874 27950
27950 28027
28027 28104
28104 28180
28180 28256
28256 28333
28333 28410
28410 28486
28486 28562
28562 28639
28639 28716
28716 28792
28792 28868
28868 28945
28945 29021
29021 29098
29098 29173
29173 29249
29249 29325
29325 29401
29401 29477
29477 29553
29553 29629
29629 29706
29706 29782
29782 29858
29858 29934
29934 30011
30011 30087
30087 30163
30163 30239
30239 30316
30316 30392
30392 30468
30468 30544
30544 30620
30620 30697
30697 30850
30850 30926
30926 31003
31003 31079
31079 31155
31155 31231
31231 31308
31308 31385
31385 31461
31461 31537
31537 31613
31613 31690
31690 31766
31766 31842
31842 31919
31919 31995
31995 32036
32036 32113
32113 32189
32189 32265
32265 32341
32341 32418
32418 32494
32494 32571
32571 32647
32647 32723
32723 32800
