166 242
546 622
546 622
697 773
924 1000
1000 1046
1046 1128
1128 1210
1210 1292
1292 1375
1375 1457
1457 1539
1539 1620
1620 1734
1734 1814
1814 1892
1892 1970
1970 2035
2035 2114
2114 2193
2193 2271
2271 2349
2349 2427
2427 2506
2506 2585
2585 2663
2663 2741
2741 2819
2819 2897
2897 2976
2976 3053
3053 3131
3131 3209
3209 3288
3288 3367
3367 3445
3445 3522
3522 3601
3601 3679
3679 3757
3757 3835
3835 3913
3913 3990
3990 4068
4068 4145
4145 4222
4222 4300
4300 4377
4377 4455
4455 4533
4533 4611
4611 4689
4689 4768
4768 4846
4846 4923
4923 5002
5002 5081
5081 5160
5160 5238
5238 5316
5316 5395
5395 5474
5474 5552
5552 5630
5630 5708
5708 5786
5786 5864
5864 5943
5943 6021
6021 6099
6099 6178
6178 6256
6256 6334
6334 6412
6412 6491
6491 6570
6570 6649
6649 6728
6728 6807
6807 6887
6887 6967
6967 7047
7047 7126
7126 7205
7205 7284
7284 7364
7364 7443
7443 7521
7521 7600
7600 7680
7680 7760
7760 7840
7840 7919
7919 7999
7999 8079
8079 8158
8158 8238
8238 8317
8317 8396
8396 8476
8476 8555
8555 8636
8636 8715
8715 8795
8795 8875
8875 8955
8955 9036
9036 9116
9116 9196
