137 209
209 283
283 356
356 429
429 502
502 575
575 649
649 722
722 796
796 868
868 942
942 1015
1015 1137
1137 1209
1137 1209
1209 1283
1283 1356
1356 1428
1428 1501
1501 1575
1575 1648
1648 1721
1721 1794
1794 1867
1867 1940
1940 2013
2013 2086
2086 2159
2159 2232
2232 2305
2305 2378
2378 2451
2451 2525
2525 2597
2597 2670
2670 2743
2743 2817
2817 2890
2890 2962
2962 3036
3036 3109
3109 3182
3182 3255
3255 3328
3328 3402
3402 3475
3475 3547
3547 3621
3621 3694
3694 3767
3767 3840
3840 3913
3913 3986
3986 4060
4060 4133
4133 4206
4206 4279
4279 4352
4352 4425
4425 4498
4498 4571
4571 4644
4644 4717
4717 4790
4790 4863
4863 4936
4936 5010
5010 5082
5082 5155
5155 5228
5228 5375
5960 6054
10949 11096
11610 11757
11757 11831
11831 11904
