1698 1788
1788 1864
14810 14887
14887 14964
14964 15040
15040 15117
15117 15194
15194 15272
15272 15349
15349 15427
15427 15505
15505 15583
15583 15660
15660 15738
15738 15816
15816 15893
15893 15971
15971 16047
16047 16124
16124 16202
16202 16279
16279 16356
16356 16433
16433 16511
16511 16588
16588 16666
16666 16743
16743 16820
16820 16897
16897 16975
16975 17051
17051 17128
17128 17205
17205 17282
17282 17358
17358 17434
17434 17511
17511 17588
17588 17664
17664 17740
17740 17817
17817 17894
17894 17970
17970 18046
18046 18122
18122 18199
18199 18275
18275 18351
18351 18427
18427 18505
18505 18583
18583 18660
18660 18737
18737 18815
18815 18892
18892 18969
18969 19047
19047 19124
19124 19202
19202 19279
19279 19357
19357 19435
19435 19512
19512 19589
19589 19666
19666 19744
19744 19821
19821 19898
19898 19974
19974 20052
20052 20129
20129 20207
20207 20284
20284 20361
20361 20439
20439 20517
20517 20595
