72 169
169 269
269 367
367 466
466 565
565 665
665 764
764 860
860 958
958 1055
1055 1154
1154 1255
1255 1352
1448 1546
1546 1646
1646 1748
1748 1844
1844 1942
1942 2038
2038 2136
2136 2236
2236 2335
2335 2432
2432 2530
2530 2628
2628 2727
2727 2827
2827 2924
2924 3021
3021 3118
3118 3215
3215 3311
3311 3409
3409 3507
3507 3608
3608 3708
3708 3805
3805 3904
3904 4004
4004 4104
4104 4205
4205 4301
4301 4400
4400 4498
4498 4597
4597 4694
4694 4792
4792 4890
4890 4990
4990 5090
5090 5189
5189 5261
5261 5359
5359 5458
5458 5557
5557 5657
5657 5755
5755 5855
5855 5957
5957 6058
6058 6158
6158 6259
6259 6358
6358 6458
6458 6557
6557 6657
6657 6757
6757 6857
6857 6958
6958 7055
7055 7154
7154 7252
7252 7351
7351 7451
7451 7548
7548 7645
7645 7743
7743 7842
7842 7942
7942 8042
8042 8141
8141 8241
8241 8342
8342 8443
8443 8544
8544 8643
8643 8742
8742 8841
8841 8940
8940 9041
9041 9141
9141 9238
9238 9339
9339 9439
9439 9538
9538 9639
9639 9735
9735 9832
9832 9931
9931 10031
10031 10131
10131 10228
10228 10327
10327 10426
10426 10529
10529 10629
10629 10728
10728 10827
10827 10926
10926 11025
11025 11124
11124 11222
11222 11320
11320 11418
11418 11518
11518 11619
11619 11718
11718 11816
11816 11915
11915 12015
12015 12114
12114 12211
12211 12309
12309 12407
12407 12507
12507 12603
12603 12703
12703 12803
12803 12903
12903 13003
13003 13103
13103 13201
13201 13301
13301 13401
13401 13501
13501 13597
13597 13696
13696 13795
13795 13895
13895 13994
13994 14094
14094 14191
14191 14290
14290 14391
14391 14492
14492 14592
14592 14690
14690 14789
14789 14891
14891 14990
14990 15088
15088 15187
15187 15288
15288 15390
15390 15491
15491 15592
15592 15690
15690 15789
15789 15887
15887 15987
15987 16089
16089 16188
16188 16285
16285 16384
16384 16483
16483 16583
16583 16684
16684 16782
16782 16880
16880 16979
16979 17055
17055 17157
17157 17259
17259 17363
17363 17466
17466 17539
17539 17639
17639 17740
17740 17841
17841 17942
17942 18040
18040 18138
18138 18237
18237 18337
18337 18437
18437 18534
18534 18633
18633 18733
18733 18835
18835 18936
18936 19037
19037 19136
19136 19237
19237 19337
19337 19437
19437 19538
19538 19635
19635 19736
19736 19836
19836 19938
19938 20042
20042 20143
20143 20243
20243 20347
20347 20450
20450 20553
20553 20656
20656 20758
20758 20855
20855 20953
20953 21053
21053 21153
21153 21253
21253 21352
21352 21450
21450 21548
21548 21647
21647 21746
21746 21844
21844 21941
21941 22039
22039 22138
22138 22239
22239 22339
22339 22437
22437 22537
22537 22637
22637 22737
22737 22837
22837 22939
22939 23039
23039 23137
23137 23238
23238 23338
23338 23440
23440 23538
23538 23638
23638 23738
23738 23838
23838 23941
23941 24042
24042 24141
24141 24242
24242 24343
24343 24445
24445 24544
24544 24642
24642 24741
24741 24841
24841 24939
24939 25039
25039 25140
25140 25242
25242 25343
25343 25445
25445 25546
25546 25648
25648 25748
25748 25849
25849 25949
25949 26048
26048 26147
26147 26246
26246 26344
26344 26443
26443 26542
26542 26643
26643 26744
26744 26846
26846 26942
26942 27039
27039 27138
27138 27239
27239 27335
27335 27435
27435 27535
27535 27636
27636 27737
27737 27837
27837 27937
27937 28039
28039 28141
28141 28242
28242 28342
28342 28445
28445 28519
28519 28620
28620 28721
28721 28823
28823 28926
28926 29029
29029 29129
29129 29230
29230 29331
29331 29432
29432 29534
29534 29636
29636 29739
29739 29840
29840 29941
29941 30042
30042 30143
30143 30240
30240 30340
30340 30438
30438 30538
30538 30636
30636 30732
30732 30828
30828 30925
30925 31024
31024 31121
31121 31220
31220 31323
31323 31421
31421 31521
31521 31618
31618 31717
31717 31813
31813 31913
31913 32043
32043 32124
32124 32206
32206 32287
32287 32370
32370 32453
32453 32536
32536 32619
32619 32700
32700 32785
32785 32868
32868 32952
32952 33036
33036 33118
33118 33207
33207 33292
33292 33378
33378 33463
33463 33551
33551 33636
33636 33724
33724 33812
33812 33900
33900 33988
33988 34076
34076 34166
34166 34255
34255 34345
34345 34434
34434 34521
34521 34613
34613 34703
34703 34794
34794 34886
34886 34975
34975 35070
35070 35163
35163 35255
35255 35348
35348 35440
35440 35533
35533 35627
35627 35718
35718 35813
35813 35907
35907 36002
36002 36097
36097 36194
36194 36290
36290 36385
36385 36481
36481 36576
36576 36671
36671 36766
36766 36861
36861 36955
36955 37048
37048 37140
37140 37233
37233 37328
37328 37421
37421 37514
37514 37608
37608 37703
37703 37799
37799 37896
37896 37993
37993 38084
38084 38180
38180 38274
38274 38370
38370 38464
38464 38562
38562 38657
38657 38755
38755 38848
38848 38944
38944 39039
39039 39135
39135 39227
39227 39321
39321 39414
39414 39508
39508 39602
39602 39695
39695 39789
39789 39885
39885 39976
39976 40070
40070 40166
40166 40265
40265 40360
40360 40455
40455 40553
40553 40650
40650 40746
40746 40842
40842 40937
40937 41034
41034 41128
41128 41225
41225 41321
41321 41417
41417 41514
41514 41612
41612 41709
41709 41805
41805 41902
41902 41999
41999 42094
42094 42191
42191 42289
42289 42387
42387 42482
42482 42577
42577 42672
42672 42768
42768 42865
42865 42960
42960 43093
43093 43191
43191 43289
43289 43387
43387 43486
43486 43584
43584 43681
43681 43778
43778 43876
43876 43975
43975 44070
44070 44168
44168 44267
44267 44366
44366 44464
44464 44561
44561 44657
44657 44753
44753 44848
44848 44938
44938 45031
45031 45125
45125 45218
45218 45313
45313 45408
45408 45505
45505 45605
45605 45696
45696 45790
45790 45888
45888 45985
45985 46078
46078 46174
46174 46271
46271 46369
46369 46463
46463 46558
46558 46653
46653 46752
46752 46847
46847 46942
46942 47037
47037 47135
47135 47236
47236 47332
47332 47429
47429 47526
47526 47623
47623 47721
47721 47816
47816 47912
47912 48007
48007 48102
48102 48199
48199 48288
48288 48382
48382 48480
48480 48582
48582 48677
48677 48752
48752 48851
48851 48951
48951 49048
49048 49147
49147 49246
49246 49344
49344 49443
49443 49540
49540 49637
49637 49736
49736 49835
49835 49933
49933 50031
50031 50129
50129 50228
50228 50327
50327 50424
50424 50521
50521 50620
50620 50718
50718 50814
50814 50911
50911 51009
51009 51109
51109 51205
51205 51301
51301 51398
51398 51498
51498 51589
51589 51686
51686 51785
51785 51886
51886 51988
51988 52082
52082 52180
52180 52280
52280 52383
52383 52484
52484 52582
52582 52681
52681 52780
52780 52877
52877 52976
52976 53075
53075 53176
53176 53269
53269 53365
53365 53463
53463 53562
53562 53661
53661 53759
53759 53859
53859 53959
53959 54058
54058 54156
54156 54254
54254 54354
54354 54455
54455 54552
54552 54650
54650 54749
54749 54848
54848 54945
54945 55044
55044 55143
55143 55243
55243 55343
55343 55443
55443 55541
55541 55639
55639 55737
55737 55834
55834 55932
55932 56030
56030 56079
56079 56177
56177 56274
56274 56371
56371 56469
56469 56564
56564 56662
56662 56760
56760 56858
56858 56956
56956 57052
57052 57150
57150 57248
57248 57345
57345 57444
57444 57541
57541 57639
57639 57735
57735 57832
57832 57928
57928 58025
58025 58121
58121 58220
58220 58318
58318 58414
58414 58512
58512 58611
58611 58710
58710 58810
58810 58884
58884 59000
59000 59099
59099 59200
59200 59302
59302 59402
59402 59500
59500 59598
59598 59697
59697 59797
59797 59893
59893 59991
59991 60090
60090 60188
60188 60288
60288 60385
60385 60485
60485 60583
60583 60683
60683 60782
60782 60880
60880 60980
60980 61079
61079 61180
61180 61281
61281 61383
61383 61481
61481 61580
61580 61679
61679 61780
61780 61878
61878 61976
61976 62075
62075 62174
62174 62272
62272 62344
62344 62443
62443 62543
62543 62643
62643 62741
62741 62840
62840 62938
62938 63035
63035 63134
63134 63234
63234 63332
63332 63431
63431 63529
63529 63628
63628 63723
63723 63820
63820 63918
63918 64017
64017 64115
64115 64213
64213 64312
64312 64410
64410 64508
64508 64607
64607 64706
64706 64806
64806 64907
64907 65007
65007 65106
65106 65205
65205 65304
65304 65403
65403 65501
65501 65599
65599 65698
65698 65796
65796 65896
65896 65998
65998 66095
66095 66193
66193 66291
66291 66391
66391 66491
66491 66589
66589 66688
66688 66788
66788 66888
66888 66988
66988 67061
