6 56
56 136
136 216
216 297
297 380
380 463
463 546
546 627
627 713
713 798
798 881
881 963
963 1052
1052 1132
1132 1221
1221 1301
1301 1383
1383 1464
1464 1548
1548 1629
1629 1712
1712 1793
1793 1874
1874 1957
1957 2044
2044 2207
2207 2288
2288 2368
2448 2534
2860 2941
2941 3048
3048 3131
3131 3296
3296 3378
3378 3459
3459 3542
3542 3633
3633 3803
3803 3885
3885 3966
3966 4047
4047 4127
4127 4208
4208 4369
4369 4450
4450 4530
4530 4614
4614 4704
4704 4794
4794 4882
4882 4964
4964 5031
5031 5108
5108 5197
5197 5288
5288 5376
5376 5458
5458 5542
5542 5623
5623 5706
5706 5792
5792 5961
5961 6044
6044 6122
6122 6201
6201 6280
6280 6440
6440 6519
6519 6597
6597 6677
6677 6757
6757 6837
6837 6920
6920 7055
7055 7133
7133 7213
7213 7293
7293 7452
7452 7531
7531 7609
7609 7689
7689 7774
7774 7859
7859 7940
7940 8163
8163 8241
8241 8318
8318 8395
8395 8473
8473 8626
8626 8703
8703 8781
8781 8858
8858 8936
8936 9094
9094 9174
9174 9252
9252 9330
9330 9408
9408 9564
9564 9643
9643 9720
9720 9798
9798 9875
9875 9955
9955 10027
10027 10086
10086 10156
10156 10298
10298 10371
10371 10444
10444 10517
10517 10594
10594 10825
10825 10901
10901 10979
10979 11057
11057 11137
11137 11294
11294 11371
11371 11448
11448 11525
11525 11604
11604 11762
11762 11839
11839 11917
11917 11994
11994 12074
12074 12153
12153 12309
12309 12383
12383 12459
12459 12535
12535 12611
12611 12687
12687 12840
12840 12919
12919 12996
12996 13074
13074 13155
13155 13234
13234 13316
13316 13397
13397 13474
13474 13553
13553 13639
13639 13726
13726 13811
13811 13899
13899 13977
13977 14059
14059 14141
14141 14307
14307 14385
14385 14463
14463 14538
14538 14614
14614 14690
14690 14767
14767 14843
14843 14920
14920 14999
14999 15078
15078 15157
15157 15236
15236 15317
15317 15397
15397 15476
15476 15556
15556 15637
15637 15720
15720 15803
15803 15887
15887 15970
15970 16049
16049 16130
16130 16216
16216 16304
16304 16396
16396 16486
16486 16567
16567 16651
16651 16740
16740 16827
16827 16917
16917 17004
17004 17089
17089 17178
17178 17269
17269 17360
17360 17448
17448 17506
17506 17592
17592 17675
17675 17759
17759 17846
17846 17927
17927 18009
18009 18092
18092 18172
18172 18254
18254 18345
18345 18437
18437 18529
18529 18618
18618 18708
18708 18798
18798 18888
18888 18953
18953 19040
19040 19128
19128 19214
19214 19299
19299 19388
19388 19477
19477 19565
19565 19654
19654 19736
19736 19819
19819 19903
19903 19994
19994 20137
20137 20218
20218 20298
20298 20381
20381 20468
20468 20552
20552 20635
20635 20716
20716 20799
20799 20884
20884 20974
20974 21055
21055 21140
21140 21220
21220 21300
21300 21382
21382 21465
21465 21549
21549 21632
21632 21711
21711 21792
21792 21876
21876 21960
21960 22044
22044 22127
22127 22209
22209 22291
22291 22381
22381 22475
22475 22568
22568 22658
22658 22747
22747 22836
22836 22925
22925 23014
23014 23185
23185 23268
23268 23349
23349 23431
23431 23521
23521 23608
23608 23690
23690 23777
23777 23859
23859 23943
23943 24033
24033 24121
24121 24204
24204 24288
24288 24370
24370 24452
24452 24534
24534 24615
24615 24778
24778 24856
24856 24936
24936 25017
25017 25121
25121 25203
25203 25287
25287 25368
25368 25448
25448 25527
25527 25604
25604 25682
25682 25760
25760 25836
25836 25912
25912 25988
25988 26090
26090 26163
26163 26234
26234 26306
26306 26377
26377 26450
26450 26663
26663 26736
26736 26808
26808 26881
26881 26954
26954 27026
27026 27093
27093 27166
27166 27242
27242 27317
27317 27394
27394 27472
27472 27547
27547 27622
27622 27696
27696 27771
27771 27845
27845 27919
27919 27993
27993 28064
28064 28142
28142 28214
28214 28287
28287 28362
28362 28432
28432 28507
28507 28579
28579 28652
28652 28726
28726 28799
28799 28873
28873 28945
28945 29020
29020 29097
29097 29173
29173 29248
29248 29324
29324 29401
29401 29480
29480 29558
29558 29639
29639 29716
29716 29794
29794 29874
29874 29957
29957 30077
30077 30163
30163 30250
30250 30332
30332 30414
30414 30494
30494 30576
30576 30666
30666 30755
30755 30844
30844 30929
30929 31011
31011 31086
31086 31164
31164 31245
31245 31324
31324 31402
31402 31481
31481 31561
31561 31643
31643 31723
31723 31775
31775 31853
31853 31931
31931 32005
32005 32080
32080 32157
32157 32233
32233 32305
32305 32381
32381 32458
32458 32607
32607 32683
32683 32757
32757 32836
32836 32911
32911 32989
32989 33066
33066 33142
33142 33221
33221 33297
33297 33373
33373 33524
33524 33599
33599 33675
33675 33753
33753 33831
33831 33911
33911 33992
33992 34073
34073 34152
34152 34234
34234 34318
34318 34398
34398 34481
34481 34560
34560 34638
34638 34716
34716 34796
34796 34951
34951 35028
35028 35108
35108 35195
35195 35280
35280 35363
35363 35442
35442 35525
35525 35612
35612 35700
35700 35788
35788 35870
35870 35952
35952 36054
36054 36145
36145 36242
36242 36332
36332 36417
36417 36505
36505 36593
36593 36683
36683 36772
