1644 1730
2248 2334
5413 5497
5497 5582
7954 8039
8039 8124
8124 8209
8209 8294
8294 8379
8379 8464
8464 8550
8550 8636
8636 8721
8721 8808
8808 8894
8894 8980
8980 9065
9065 9151
9151 9236
9236 9322
9322 9407
9407 9492
9492 9578
9578 9663
9663 9747
9747 9833
9833 9918
9918 10003
10003 10089
10089 10175
10175 10261
10261 10346
10346 10431
10431 10516
10516 10601
10601 10686
10686 10773
10773 10859
10859 10944
10944 11043
11043 11127
11127 11211
11211 11296
11296 11380
11380 11464
11464 11548
11548 11632
11632 11717
11717 11801
11801 11885
11885 11970
11970 12055
12055 12140
12140 12225
12225 12309
12309 12394
12394 12479
12479 12563
12563 12648
12648 12733
12733 12818
12818 12902
12902 12987
12987 13073
13073 13157
13157 13241
13241 13325
13325 13409
13409 13493
13493 13577
13577 13661
13661 13745
13745 13829
13829 13913
13913 13998
13998 14074
14074 14159
14159 14244
14244 14328
14328 14412
14412 14496
14496 14580
14580 14664
14664 14747
14747 14832
14832 14917
14917 15002
15002 15087
15087 15171
15171 15256
15256 15341
15341 15425
15425 15510
15510 15595
15595 15679
15679 15763
15763 15847
15847 15931
15931 16014
16014 16099
16099 16183
16183 16267
16267 16352
16352 16437
16437 16521
16521 16606
16606 16690
16690 16775
16775 16857
16857 16941
16941 17024
17024 17106
17106 17190
17190 17274
17274 17359
17359 17443
17443 17527
17527 17611
17611 17696
17696 17781
17781 17864
17864 17949
17949 18033
18033 18116
18116 18200
18200 18285
18285 18370
18370 18455
18455 18541
18541 18626
18626 18711
18711 18796
18796 18881
18881 18965
18965 19095
19095 19181
19181 19267
19267 19352
19352 19437
19437 19523
19523 19608
19608 19694
19694 19780
19780 19866
19866 19953
19953 20041
20041 20128
20128 20216
20216 20303
20303 20391
20391 20480
20480 20569
20569 20659
20659 20749
20749 20838
20838 20928
20928 21017
21017 21073
21073 21169
21169 21256
21256 21343
21343 21407
21407 21507
21507 21597
21597 21685
21685 21771
21771 21858
21858 21944
21944 22031
22031 22118
22118 22204
22204 22290
22290 22375
22375 22451
22451 22546
22546 22632
22632 22717
22717 22793
22793 22887
22887 22974
22974 23060
23060 23145
23145 23229
23229 23314
23314 23399
23399 23483
23483 23568
23568 23653
23653 23738
23738 23822
23822 23906
23906 23991
23991 24093
24093 24177
24177 24262
24262 24347
24347 24432
24432 24517
24517 24602
24602 24687
24687 24772
24772 24857
24857 24942
24942 25026
25026 25110
25110 25195
25195 25280
25280 25365
25365 25449
25449 25533
25533 25618
25618 25702
25702 25786
25786 25871
25871 25955
25955 26038
26038 26122
26122 26207
26207 26291
26291 26374
26374 26458
26458 26542
26542 26626
26626 26710
26710 26794
26794 26878
26878 26962
26962 27046
27046 27131
27131 27215
27215 27300
27300 27385
27385 27470
27470 27555
27555 27640
27640 27725
27725 27810
27810 27895
27895 27980
27980 28064
28064 28148
28148 28232
28232 28316
28316 28400
28400 28485
28485 28569
28569 28654
28654 28739
28739 28825
28825 28910
28910 28995
28995 29080
29080 29165
29165 29250
29250 29335
29335 29420
29420 29504
29504 29589
29589 29673
29673 29757
29757 29841
29841 29926
29926 30010
30010 30094
30094 30178
30178 30263
30263 30347
30347 30431
30431 30515
30515 30600
30600 30684
30684 30768
30768 30853
30853 30937
30937 31022
31022 31107
31107 31191
31191 31275
31275 31360
31360 31445
31445 31529
31529 31614
31614 31698
31698 31783
31783 31867
31867 31952
31952 32036
32036 32121
32121 32205
32205 32290
32290 32375
32375 32460
32460 32544
32544 32629
32629 32714
32714 32800
32800 32885
32885 32970
32970 33056
33056 33141
33141 33227
33227 33313
33313 33399
33399 33485
33485 33571
33571 33657
33657 33744
33744 33830
33830 33917
33917 34003
34003 34089
34089 34176
34176 34263
34263 34349
34349 34435
34435 34521
34521 34608
34608 34694
34694 34779
34779 34865
34865 34950
34950 35036
35036 35120
35120 35205
35205 35290
35290 35375
35375 35460
35460 35545
35545 35630
35630 35715
35715 35800
35800 35885
35885 35971
35971 36112
36112 36196
36196 36281
36281 36365
36365 36450
36450 36535
36535 36621
36621 36706
36706 36790
36790 36874
36874 36960
36960 37045
37045 37130
37130 37215
37215 37300
37300 37385
37385 37469
37469 37555
37555 37640
37640 37725
37725 37810
37810 37895
37895 37980
37980 38064
38064 38150
38150 38235
38235 38320
38320 38405
38405 38491
38491 38575
38575 38660
38660 38744
38744 38829
38829 38914
38914 38998
38998 39118
39118 39204
39204 39289
39289 39374
39374 39459
39459 39544
39544 39629
39629 39714
39714 39799
39799 39883
39883 39968
39968 40048
40048 40133
40133 40217
40217 40301
40301 40386
40386 40471
40471 40555
40555 40640
40640 40724
40724 40809
40809 40894
40894 40980
40980 41065
41065 41151
41151 41237
41237 41323
41323 41408
41408 41494
41494 41579
41579 41664
41664 41750
41750 41835
41835 41920
41920 42004
42004 42098
42098 42182
42182 42267
42267 42352
42352 42437
42437 42522
42522 42607
42607 42693
42693 42778
42778 42863
42863 42949
42949 43113
43113 43198
43198 43283
43283 43369
43369 43454
43454 43539
43539 43623
43623 43708
43708 43792
43792 43876
43876 43959
43959 44043
44043 44127
44127 44211
44211 44295
44295 44380
44380 44465
44465 44549
44549 44633
44633 44718
44718 44802
44802 44885
44885 44969
44969 45054
45054 45138
45138 45223
45223 45307
45307 45392
45392 45475
45475 45560
45560 45645
45645 45730
45730 45815
45815 45900
45900 45986
45986 46071
46071 46156
46156 46241
46241 46326
46326 46412
46412 46497
46497 46583
46583 46667
46667 46753
46753 46837
46837 46922
46922 47007
47007 47091
47091 47176
47176 47261
47261 47345
47345 47429
47429 47513
47513 47597
47597 47681
47681 47765
47765 47849
47849 47933
47933 48018
48018 48102
48102 48186
48186 48270
48270 48354
48354 48439
48439 48523
48523 48609
48609 48694
48694 48778
48778 48863
48863 48948
48948 49034
49034 49118
49118 49203
49203 49288
49288 49373
49373 49457
49457 49542
49542 49627
49627 49711
49711 49795
49795 49879
49879 49965
49965 50049
50049 50133
50133 50218
50218 50303
50303 50387
50387 50472
50472 50557
50557 50641
50641 50726
50726 50811
50811 50895
50895 50980
50980 51065
51065 51150
51150 51234
51234 51320
51320 51405
51405 51490
51490 51575
51575 51661
51661 51746
51746 51831
51831 51916
51916 52000
52000 52086
52086 52171
52171 52255
52255 52341
52341 52427
52427 52513
52513 52598
52598 52684
52684 52769
52769 52854
52854 52939
52939 53025
53025 53110
53110 53196
53196 53366
53366 53451
53451 53536
53536 53622
53622 53708
53708 53793
53793 53879
53879 53965
53965 54050
54050 54136
54136 54221
54221 54306
54306 54391
54391 54475
54475 54560
54560 54644
54644 54727
54727 54811
54811 54895
54895 54979
54979 55061
55061 55145
55145 55229
55229 55313
55313 55397
55397 55482
55482 55566
55566 55651
55651 55736
55736 55821
55821 55906
55906 55990
55990 56075
56075 56161
56161 56246
56246 56330
56330 56415
56415 56500
56500 56584
56584 56669
56669 56753
56753 56837
56837 56922
