1050 1137
1137 1225
1225 1313
1313 1401
1401 1489
1489 1577
1577 1666
1666 1754
1754 1842
1842 1931
1931 2020
2020 2108
2108 2196
2196 2285
2285 2373
2373 2462
2462 2550
2550 2637
2637 2725
2725 2813
2813 2901
2901 2989
2989 3079
3079 3165
3165 3251
3251 3337
3337 3422
3422 3509
3509 3595
3595 3681
3681 3767
3767 3853
3853 3940
3940 4026
4026 4112
4112 4198
4198 4285
4285 4372
4372 4458
4458 4545
4545 4632
4632 4719
4719 4806
4806 4893
4893 4980
4980 5067
5067 5154
5154 5242
5242 5329
5329 5417
5417 5504
5504 5591
5591 5679
5679 5766
5766 5854
5854 5941
5941 6029
6029 6116
6116 6203
6203 6291
6291 6379
6379 6466
6466 6554
6554 6641
6641 6729
6729 6816
6816 6903
6903 6991
6991 7053
7053 7140
7140 7228
7228 7315
7315 7403
7403 7491
7491 7579
7579 7667
7667 7756
7756 7844
7844 7932
7932 8019
8019 8107
8107 8195
8195 8283
8283 8371
8371 8459
8459 8547
8547 8635
8635 8723
8723 8810
8810 8898
8898 8986
8986 9073
9073 9161
9161 9249
9249 9337
9337 9424
9424 9512
9512 9599
9599 9687
9687 9774
9774 9862
9862 9949
9949 10121
10121 10208
10208 10295
10295 10357
10357 10445
10445 10533
10533 10622
10622 10710
10710 10777
10777 10865
10865 10953
10953 11061
11061 11147
11147 11234
11234 11319
11319 11406
11406 11492
11492 11578
11578 11663
11663 11750
11750 11836
11836 11921
11921 12007
12007 12093
12093 12179
12179 12265
12265 12351
12351 12438
12438 12524
12524 12610
12610 12696
12696 12783
12783 12869
12869 12955
12955 13040
13040 13127
13127 13212
13212 13298
13298 13384
13384 13469
13469 13555
13555 13641
13641 13727
13727 13813
13813 13898
13898 13984
13984 14070
14070 14156
14156 14242
14242 14329
14329 14415
14415 14501
14501 14587
14587 14673
14673 14759
14759 14845
14845 14931
14931 15017
15017 15104
15104 15190
15190 15277
15277 15364
15364 15450
15450 15537
15537 15623
15623 15710
15710 15797
15797 15883
15883 15969
15969 16056
16056 16142
16142 16228
16228 16314
16314 16401
16401 16462
16462 16549
16549 16635
16635 16722
16722 16808
16808 16895
16895 16982
16982 17069
17069 17156
17156 17242
17242 17329
17329 17416
17416 17504
17504 17591
17591 17678
17678 17766
17766 17853
17853 17940
17940 18027
18027 18114
18114 18201
18201 18288
18288 18375
18375 18461
18461 18549
18549 18636
18636 18722
18722 18809
18809 18897
18897 18984
18984 19036
19036 19124
19124 19211
19211 19299
19299 19387
19387 19474
19474 19562
19562 19650
19650 19737
19737 19824
19824 19912
19912 20000
20000 20087
20087 20174
20174 20262
20262 20350
20350 20437
20437 20525
20525 20613
20613 20701
20701 20789
20789 20877
20877 20964
20964 21052
21052 21140
21140 21227
21227 21315
21315 21403
21403 21491
21491 21579
21579 21666
21666 21754
21754 21841
21841 21929
21929 22016
22016 22104
22104 22192
22192 22280
22280 22367
22367 22455
22455 22543
22543 22631
22631 22719
22719 22807
22807 22895
22895 22984
22984 23072
23072 23160
23160 23248
23248 23336
23336 23424
23424 23513
23513 23601
23601 23690
23690 23778
23778 23867
23867 23955
23955 24044
24044 24133
24133 24221
24221 24310
24310 24400
24400 24488
24488 24577
24577 24666
24666 24755
24755 24818
24818 24908
24908 24996
24996 25085
25085 25173
25173 25262
25262 25350
25350 25439
25439 25527
25527 25616
25616 25705
25705 25793
25793 25882
25882 25971
25971 26059
26059 26147
26147 26237
26237 26325
26325 26414
26414 26502
26502 26591
26591 26679
26679 26767
26767 26856
26856 26944
26944 27032
27032 27121
27121 27209
27209 27297
27297 27385
27385 27474
27474 27562
27562 27650
27650 27739
27739 27827
27827 27916
27916 28005
28005 28094
28094 28182
28182 28271
28271 28360
28360 28449
28449 28539
28539 28628
28628 28717
28717 28807
28807 28896
28896 28985
28985 29074
29074 29163
29163 29253
29253 29342
29342 29431
29431 29521
29521 29610
29610 29700
29700 29789
29789 29879
29879 29969
29969 30058
30058 30147
30147 30237
30237 30326
30326 30415
30415 30505
30505 30594
30594 30683
30683 30747
30747 30837
30837 30926
30926 31015
31015 31105
31105 31194
31194 31282
31282 31372
31372 31461
31461 31549
31549 31638
31638 31727
31727 31815
31815 31904
31904 31994
31994 32082
32082 32171
32171 32260
32260 32349
32349 32438
32438 32527
32527 32616
32616 32705
32705 32794
32794 32883
32883 32972
32972 33060
33060 33149
33149 33237
33237 33326
33326 33415
33415 33503
33503 33593
33593 33681
33681 33770
33770 33859
33859 33947
33947 34036
34036 34124
34124 34212
34212 34301
34301 34388
34388 34477
34477 34565
34565 34654
34654 34742
34742 34831
34831 34919
34919 35008
35008 35096
35096 35185
35185 35274
35274 35362
35362 35451
35451 35539
35539 35628
35628 35716
35716 35805
35805 35893
35893 35982
35982 36070
36070 36159
36159 36247
36247 36336
36336 36424
36424 36513
36513 36601
36601 36690
36690 36778
36778 36867
36867 36955
36955 37044
37044 37133
37133 37221
37221 37310
37310 37400
37400 37488
37488 37577
37577 37666
37666 37756
37756 37845
37845 37933
37933 38023
38023 38112
38112 38202
38202 38291
38291 38380
38380 38470
38470 38558
38558 38647
38647 38736
38736 38824
38824 38914
38914 39003
39003 39092
39092 39181
39181 39270
39270 39359
39359 39450
39450 39540
39540 39630
39630 39721
39721 39811
39811 39900
39900 39992
39992 40081
40081 40171
40171 40262
40262 40352
40352 40442
40442 40533
40533 40623
40623 40714
40714 40803
40803 40893
40893 40984
40984 41074
41074 41164
41164 41255
41255 41345
41345 41435
41435 41526
41526 41615
41615 41705
41705 41795
41795 41886
41886 41976
41976 42065
42065 42156
42156 42246
42246 42336
42336 42427
42427 42517
42517 42608
42608 42698
42698 42789
42789 42879
42879 42969
42969 43060
43060 43150
43150 43239
43239 43329
43329 43420
43420 43510
43510 43600
43600 43690
43690 43780
43780 43870
43870 43960
43960 44051
44051 44141
44141 44231
44231 44322
44322 44412
44412 44501
44501 44592
44592 44682
44682 44772
44772 44861
44861 44952
44952 45042
45042 45132
45132 45221
45221 45311
45311 45402
45402 45491
45491 45581
45581 45671
45671 45761
45761 45851
45851 45941
45941 46031
46031 46122
46122 46212
46212 46302
46302 46393
46393 46483
46483 46573
46573 46663
46663 46753
46753 46843
46843 46933
46933 47022
47022 47112
47112 47203
47203 47292
47292 47382
47382 47471
47471 47561
47561 47651
47651 47740
47740 47830
47830 47919
47919 48008
48008 48098
48098 48186
48186 48275
48275 48365
48365 48454
48454 48544
48544 48634
48634 48758
48758 48814
48814 48904
48904 48993
48993 49083
49083 49173
49173 49263
49263 49353
49353 49418
49418 49508
49508 49597
49597 49687
49687 49778
49778 49868
49868 49958
49958 50049
50049 50139
50139 50230
50230 50320
50320 50411
50411 50502
50502 50592
50592 50683
50683 50773
50773 50864
50864 50954
50954 51044
51044 51135
51135 51225
51225 51314
51314 51405
51405 51495
51495 51585
51585 51675
51675 51764
51764 51854
51854 51945
51945 52034
52034 52124
52124 52214
52214 52305
52305 52394
52394 52484
52484 52575
52575 52665
52665 52755
52755 52844
52844 52934
52934 53025
53025 53114
53114 53204
53204 53295
53295 53385
53385 53475
53475 53566
53566 53655
53655 53745
53745 53836
53836 53926
53926 54016
54016 54106
54106 54197
54197 54287
54287 54377
54377 54468
54468 54558
54558 54648
54648 54738
54738 54829
54829 54919
54919 55009
55009 55099
55099 55190
55190 55279
55279 55370
55370 55460
55460 55550
55550 55640
55640 55731
55731 55821
55821 55912
55912 56002
56002 56093
56093 56183
56183 56274
56274 56365
56365 56456
56456 56546
56546 56637
56637 56728
56728 56819
56819 56910
56910 57001
57001 57092
57092 57183
57183 57274
57274 57365
57365 57455
57455 57546
57546 57637
57637 57727
57727 57818
57818 57909
57909 57999
57999 58089
58089 58181
