1043 1123
1123 1202
1837 1916
1996 2109
2190 2270
2270 2350
2350 2429
2429 2510
2510 2590
2590 2670
2670 2750
2750 2831
2831 2912
2912 2992
2992 3035
3035 3115
3115 3194
3194 3275
3275 3355
3355 3435
3435 3514
3514 3594
3594 3675
3675 3754
3754 3834
3834 3914
3914 3994
3994 4034
4034 4113
4113 4192
4192 4273
4273 4353
4353 4433
4433 4512
4512 4593
4593 4674
4674 4753
4753 4833
4833 4914
4914 4994
4994 5036
5036 5116
5116 5196
