191 277
494 625
625 712
712 760
760 833
833 905
905 978
978 1039
1039 1111
1111 1183
1183 1255
1255 1327
1327 1388
1388 1472
1472 1544
1544 1616
1616 1688
1688 1759
1759 1832
1832 1899
1899 1977
1977 2050
2050 2123
2123 2196
2196 2269
2269 2343
2343 2417
2417 2490
2490 2565
2565 2638
2638 2712
2712 2785
2785 2859
2859 2932
2932 2990
2990 3046
3046 3185
3185 3262
3262 3333
3333 3406
3406 3478
3478 3550
3550 3623
3623 3696
3696 3768
3768 3841
3841 3914
3914 3987
3987 4099
4099 4172
4172 4231
4231 4318
4318 4392
4392 4465
4465 4539
4539 4612
4612 4671
4671 4734
4734 4807
4807 4880
4880 4953
4953 5026
5026 5084
5084 5172
5172 5245
5245 5317
5317 5390
5390 5463
5463 5522
5522 5608
5608 5681
5681 5753
5753 5825
5825 5897
5897 5956
5956 6042
6042 6115
6115 6187
6187 6259
6259 6330
6330 6403
6403 6466
6466 6547
6547 6620
6620 6692
6692 6764
6764 6837
6837 6909
6909 6982
6982 7144
7144 7274
7274 7412
7412 7484
7484 7557
7557 7630
7630 7702
7702 7762
7762 7849
7849 7922
7922 7995
7995 8048
8048 8118
8118 8187
8187 8256
8256 8325
8325 8393
8393 8455
8455 8531
8531 8670
8670 8739
8739 8809
8809 8878
8878 8948
8948 9018
9018 9154
9154 9235
9235 9307
9307 9576
9576 9660
9660 10001
10001 10083
10083 10154
10154 10224
10224 10284
10284 10366
10366 10436
10436 10506
10506 10576
10576 10705
10705 10785
10785 10855
10855 10925
10925 11098
11098 11181
11181 11252
11252 11321
11321 11391
11391 11520
11520 11601
11601 11672
11672 11812
11812 11883
11883 11940
11940 12024
12024 12070
12070 12140
12140 12211
12211 12282
12282 12353
12353 12415
12415 12495
12495 12566
12566 12636
12636 12707
12707 12778
12778 12849
12849 12912
12912 12992
12992 13134
13134 13205
13205 13276
13276 13321
13321 13392
13392 13463
13463 13522
13522 13607
13607 13679
13679 13752
13752 13823
13823 13895
13895 13966
13966 14037
14037 14166
14166 14250
14250 14321
14321 14392
14392 14463
14463 14534
14534 14605
14605 14669
14669 14747
14747 14819
14819 14889
14889 14961
14961 15027
15027 15105
15105 15177
15177 15247
15247 15319
15319 15462
15462 15605
15605 15676
15676 15747
15747 15818
15818 15877
15877 15960
15960 16064
16064 16111
16111 16182
16182 16254
16254 16325
16325 16397
16397 16469
16469 16541
16541 16612
16612 16684
16684 16755
16755 16825
16825 16896
16896 16966
16966 17070
17070 17141
17141 17213
17213 17283
17283 17356
17356 17427
17427 17500
17500 17571
17571 17643
17643 17715
17715 17786
17786 17859
17859 17931
17931 18004
18004 18040
18040 18109
18109 18178
18178 18248
18248 18317
18317 18377
18377 18456
18456 18525
18525 18639
18639 18709
18709 18778
18778 18848
18848 18917
18917 18987
18987 19045
19045 19126
19126 19240
19240 19310
19310 19380
19380 19450
19450 19520
19520 19590
19590 19718
19718 19916
19916 19986
19986 20057
20057 20127
20127 20198
20198 20268
20268 20328
20328 20410
20410 20481
20481 20552
20552 20623
20623 20694
20694 20765
20765 20825
20825 20908
20908 20980
20980 21051
21051 21122
21122 21193
21193 21264
21264 21335
21335 21406
21406 21465
21465 21550
21550 21596
21596 21668
21668 21739
21739 21810
21810 21881
21881 21952
21952 22024
22024 22095
22095 22166
22166 22237
22237 22308
22308 22379
22379 22449
22449 22520
22520 22592
22592 22725
22725 22806
22806 22949
22949 23021
23021 23093
23093 23235
23235 23309
23309 23453
23453 23525
23525 23597
23597 23669
23669 23742
23742 23814
23814 23886
23886 23958
23958 24090
24090 24174
24174 24246
24246 24317
24317 24388
24388 24459
24459 24530
24530 24601
24601 24672
24672 24742
24742 24803
24803 24885
24885 24956
24956 25027
25027 25098
25098 25241
25241 25312
25312 25450
25450 25525
25525 25597
25597 25715
25715 25787
25787 25851
25851 25929
25929 26062
26062 26144
26144 26278
26278 26358
26358 26489
26489 26570
26570 26702
26702 26784
26784 26916
26916 26997
26997 27127
27127 27209
27209 27342
27342 27422
27422 27553
27553 27635
27635 27767
27767 27848
27848 27979
27979 28061
28061 28193
28193 28274
28274 28405
28405 28485
28485 28616
28616 28696
28696 28828
28828 28909
28909 29040
29040 29122
29122 29255
29255 29336
29336 29468
29468 29550
29550 29683
29683 29765
29765 29897
29897 29979
29979 30112
30112 30193
30193 30326
30326 30408
30408 30541
30541 30622
