372 557
557 832
832 921
921 1015
1015 1060
1060 1245
1245 1460
1460 1526
1526 1716
1716 1812
1812 1999
1999 2193
2193 2287
2287 2380
2380 2474
2474 2568
2568 2755
2755 2941
2941 3092
3092 3276
3276 3372
3372 3559
3559 3726
3726 3840
3840 4040
4040 4132
4132 4222
4222 4403
4403 4495
4495 4680
4680 4938
4938 5101
5101 5190
5190 5369
5369 5442
5442 5640
5640 5732
5732 5982
5982 6032
6032 6140
6140 6232
6232 6323
6323 6392
6392 6602
6602 6692
6692 6873
6873 7056
7056 7234
7234 7323
7323 7502
7502 7594
7594 7777
7777 7844
7844 8025
8025 8206
8206 8300
8300 8485
8485 8577
8577 8667
8667 8758
8758 8942
8942 9219
9219 9310
9310 9400
9400 9581
9581 9673
9673 9948
9948 10133
10133 10314
10314 10404
10404 10496
10496 10677
10677 10864
10864 10956
10956 11029
11029 11111
11111 11203
11203 11293
11293 11384
11384 11474
11474 11655
11655 11747
11747 11836
