1948 2108
2108 2208
2208 2307
2307 2406
2406 2506
2506 2606
2606 2705
2705 2807
2807 2906
2906 3006
3006 3106
3106 3207
3207 3308
3308 3409
3409 3511
3511 3613
3613 3716
3716 3822
3822 3926
3926 4030
4030 4139
4139 4244
4244 4348
4348 4453
4453 4556
4556 4654
4654 4750
4750 4846
4846 4944
4944 5040
5040 5135
5135 5231
5231 5326
5326 5420
5420 5513
5513 5605
5605 5697
5697 5789
5789 5883
5883 5977
5977 6073
6073 6170
6170 6268
6268 6365
6365 6464
6464 6566
6566 6666
6666 6766
6766 6866
6866 6964
6964 7063
7063 7161
7161 7260
7260 7360
7360 7459
7459 7558
7558 7658
7658 7756
7756 7855
7855 7954
7954 8063
8063 8169
8169 8273
8273 8378
8378 8484
8484 8587
8587 8692
8692 8797
8797 8900
8900 9004
9004 9105
9105 9206
9206 9309
9309 9409
9409 9511
9511 9613
9613 9712
9712 9813
9813 9914
9914 10013
10013 10115
10115 10217
10217 10315
10315 10414
10414 10513
10513 10611
10611 10708
10708 10805
10805 10900
10900 10995
10995 11090
11090 11184
11184 11278
11278 11373
11373 11467
11467 11561
11561 11656
11656 11751
11751 11845
11845 11940
11940 12035
12035 12130
12130 12227
12227 12325
12325 12422
12422 12521
12521 12619
12619 12718
12718 12818
12818 12920
12920 13021
13021 13122
13122 13224
13224 13324
13324 13426
13426 13528
13528 13628
13628 13729
13729 13829
13829 13928
13928 14028
14028 14126
14126 14224
14224 14323
14323 14422
14422 14520
14520 14619
14619 14717
14717 14815
14815 14914
14914 15013
15013 15112
15112 15211
15211 15312
15312 15411
15411 15510
15510 15610
15610 15708
15708 15807
15807 15907
15907 16005
16005 16102
16102 16201
16201 16303
16303 16400
16400 16495
16495 16591
16591 16686
16686 16780
16780 16876
16876 16973
16973 17070
17070 17166
17166 17262
17262 17358
17358 17454
17454 17549
17549 17644
17644 17739
17739 17835
17835 17931
17931 18025
18025 18119
18119 18213
18213 18306
18306 18396
18396 18487
18487 18576
18576 18666
18666 18757
18757 18846
18846 18936
18936 19025
19025 19115
19115 19204
19204 19555
19555 19641
19641 19726
19726 20065
20065 20148
20148 20232
20232 20316
20316 20567
20567 20651
20651 20736
20736 20989
20989 21074
21074 21330
21330 21416
21416 21673
21673 21759
21759 21845
21845 21932
21932 22369
22369 22630
22630 22717
22717 22805
22805 22984
22984 23074
23074 23164
23164 23254
23254 23344
23344 23434
23434 23526
23526 23617
23617 23707
23707 23798
23798 23887
23887 23976
23976 24066
24066 24158
24158 24248
24248 24338
24338 24427
24427 24517
24517 24608
24608 24699
24699 24789
24789 24879
24879 24968
24968 25058
25058 25147
25147 25237
25237 25329
25329 25420
25420 25512
25512 25603
25603 25696
25696 25787
25787 25879
25879 25973
25973 26070
26070 26165
26165 26259
26259 26352
26352 26444
26444 26535
26535 26627
26627 26720
26720 26812
26812 26903
26903 26995
26995 27087
27087 27181
27181 27275
27275 27561
27561 27654
27654 27747
27747 27842
27842 27938
27938 28037
28037 28132
28132 28230
28230 28330
28330 28531
28531 28625
28625 28718
28718 28809
28809 28898
28898 28988
28988 29078
29078 29168
29168 29349
29349 29527
29527 29615
29615 29702
29702 29790
29790 29880
29880 29970
29970 30241
30241 30332
30332 30423
30423 30516
30516 30608
30608 30700
30700 30792
30792 30882
30882 30972
30972 31062
31062 31151
31151 31241
31241 31332
31332 31608
31608 31698
31698 31786
31786 31874
31874 31962
31962 32049
32049 32136
32136 32224
32224 32311
32311 32399
32399 32486
32486 32574
32574 32661
32661 32749
32749 32837
32837 32924
32924 33011
33011 33186
33186 33273
33273 33361
33361 33449
33449 33536
33536 33623
33623 33710
33710 33798
33798 33885
33885 33973
33973 34060
34060 34148
34148 34234
34234 34320
34320 34406
34406 34747
34747 34832
34832 34917
34917 35264
35264 35351
35351 35439
35439 35783
35783 36037
36037 36122
36122 36207
36207 36378
36378 36549
36549 36636
36636 36723
36723 36809
36809 36895
36895 37010
37010 37067
37067 37156
37156 37246
37246 37336
37336 37425
37425 37692
37692 37780
37780 38043
38043 38130
38130 38218
38218 38484
38484 38576
38576 38669
38669 38856
38856 38950
38950 39046
39046 39239
39239 39331
39331 39606
39606 39696
39696 39784
39784 39962
39962 40139
40139 40228
40228 40317
40317 40405
40405 40807
40807 41075
41075 41165
41165 41256
41256 41441
41441 41626
41626 41718
41718 41809
41809 41901
41901 41992
41992 42177
42177 42268
42268 42358
42358 42448
42448 42538
42538 42716
42716 42805
42805 42894
42894 42983
42983 43072
43072 43159
43159 43333
43333 43419
43419 43505
43505 43593
43593 43683
43683 43862
43862 44070
44070 44158
44158 44398
44398 44486
44486 44573
44573 44660
44660 44924
44924 45012
45012 45278
45278 45366
45366 45454
45454 45629
45629 45717
45717 45804
45804 46067
46067 46155
46155 46243
46243 46419
46419 46507
46507 46595
46595 46683
46683 47038
47038 47314
47314 47406
47406 47689
47689 47781
47781 47873
47873 47963
47963 48052
48052 48140
48140 48229
48229 48317
48317 48405
48405 48582
48582 48670
48670 48758
48758 48847
48847 48934
48934 49022
49022 49110
49110 49286
49286 49373
49373 49547
49547 49608
49608 49783
49783 49870
49870 49957
49957 50084
50084 50171
50171 50258
50258 50436
50436 50524
50524 50797
