12993 13060
13060 13101
20903 20969
20969 21009
22641 22707
22707 22747
26737 26803
26972 27037
27037 27101
27101 27166
27166 27231
27231 27296
27296 27361
27361 27426
27426 27491
27491 27556
27556 27621
27621 27686
27686 27751
27751 27817
27817 27882
27882 27947
27947 28012
28012 28078
28078 28143
28143 28209
28209 28274
28274 28340
28340 28405
28405 28470
28470 28536
28536 28601
28601 28666
28666 28731
28731 28797
28797 28862
28862 28927
28927 28992
28992 29058
29058 29124
29124 29189
29189 29254
29254 29320
29320 29386
29386 29451
29451 29516
29516 29582
29582 29647
29647 29713
29713 29778
29778 29844
29844 29884
29884 29950
29950 30015
30015 30080
30080 30145
30145 30210
30210 30275
30275 30340
30340 30405
30405 30470
30470 30536
30536 30601
30601 30665
30665 30730
30730 30796
30796 30861
30861 30926
30926 30991
30991 31056
31056 31121
31121 31186
31186 31251
31251 31316
31316 31382
31382 31446
31446 31511
31511 31577
31577 31642
31642 31707
31707 31773
31773 31839
31839 31904
31904 31970
31970 32035
32035 32101
32101 32166
32166 32232
32232 32298
32298 32364
32364 32430
32430 32495
32495 32561
32561 32626
32626 32692
32692 32757
32757 32822
32822 32888
32888 32953
32953 33018
33018 33084
33084 33149
33149 33214
33214 33279
33279 33344
33344 33409
33409 33474
33474 33539
33539 33605
33605 33670
33670 33736
33736 33801
33801 33866
33866 33933
33933 33999
33999 34064
34064 34130
34130 34196
34196 34261
34261 34327
34327 34392
34392 34458
34458 34524
34524 34589
34589 34655
34655 34721
34721 34787
34787 34853
34853 34918
34918 34984
34984 35050
35050 35116
35116 35181
35181 35247
35247 35313
35313 35378
35378 35443
35443 35509
35509 35574
35574 35639
35639 35705
35705 35770
35770 35836
35836 35901
35901 35967
35967 36032
36032 36098
36098 36163
36163 36229
36229 36294
36294 36360
36360 36425
36425 36491
36491 36557
36557 36623
36623 36689
36689 36755
36755 36821
36821 36888
36888 36954
36954 37020
37020 37086
37086 37152
37152 37218
37218 37283
37283 37349
37349 37415
37415 37481
37481 37546
37546 37612
37612 37677
37677 37743
37743 37808
37808 37874
37874 37939
37939 38005
38005 38070
38070 38136
38136 38201
38201 38267
38267 38332
38332 38398
38398 38464
38464 38529
38529 38595
38595 38660
38660 38726
38726 38792
38792 38857
38857 38923
38923 38989
38989 39055
39055 39120
39120 39186
39186 39251
39251 39317
39317 39382
39382 39449
39449 39515
39515 39581
39581 39647
39647 39713
39713 39778
39778 39844
39844 39910
39910 39976
39976 40041
40041 40107
40107 40173
40173 40238
40238 40304
40304 40369
40369 40435
40435 40501
40501 40566
40566 40632
40632 40698
40698 40764
40764 40830
40830 40896
40896 40964
40964 41031
41031 41097
41097 41163
41163 41228
41228 41294
41294 41359
41359 41425
41425 41490
41490 41556
41556 41621
41621 41686
41686 41752
41752 41818
41818 41883
41883 41948
41948 42014
42014 42078
42078 42144
42144 42209
42209 42274
42274 42338
42338 42403
42403 42468
42468 42533
42533 42598
42598 42663
42663 42728
42728 42793
42793 42859
42859 42923
42923 42988
42988 43054
43054 43119
43119 43184
43184 43249
43249 43314
43314 43380
43380 43445
43445 43510
43510 43576
43576 43641
43641 43707
43707 43773
43773 43838
43838 43904
43904 43969
43969 44035
44035 44100
44100 44166
44166 44231
44231 44297
44297 44362
44362 44427
44427 44492
44492 44558
44558 44623
44623 44688
44688 44753
44753 44819
44819 44884
44884 44949
44949 45015
45015 45080
45080 45145
45145 45210
45210 45275
45275 45341
45341 45406
45406 45471
45471 45536
45536 45602
45602 45667
45667 45732
45732 45798
45798 45863
45863 45929
45929 45994
45994 46059
46059 46125
46125 46190
46190 46256
46256 46321
46321 46386
46386 46451
46451 46516
46516 46582
46582 46648
46648 46713
46713 46778
46778 46844
46844 46910
46910 46976
46976 47041
47041 47107
47107 47173
47173 47239
47239 47305
47305 47371
47371 47437
47437 47504
47504 47571
47571 47637
47637 47702
47702 47768
47768 47834
47834 47900
47900 47965
47965 48031
48031 48097
48097 48163
48163 48228
48228 48294
48294 48360
48360 48425
48425 48490
48490 48556
48556 48622
48622 48687
48687 48752
48752 48818
48818 48884
48884 48949
48949 49015
49015 49081
49081 49147
49147 49214
49214 49280
49280 49346
49346 49412
49412 49479
49479 49545
49545 49611
49611 49677
49677 49744
49744 49810
49810 49876
49876 49942
49942 50008
50008 50074
50074 50140
50140 50206
50206 50272
50272 50337
50337 50402
50402 50468
50468 50534
50534 50600
50600 50665
50665 50731
50731 50797
50797 50863
50863 50929
50929 50995
50995 51061
51061 51127
51127 51193
51193 51259
51259 51325
51325 51391
51391 51456
51456 51522
51522 51588
51588 51654
51654 51720
51720 51786
51786 51852
51852 51919
51919 51985
51985 52051
52051 52116
52116 52182
52182 52246
52246 52311
52311 52376
52376 52441
52441 52506
52506 52570
52570 52636
52636 52701
52701 52767
52767 52833
52833 52898
52898 52964
52964 53030
53030 53097
53097 53163
53163 53229
53229 53296
53296 53363
53363 53430
53430 53496
53496 53562
53562 53629
53629 53696
53696 53762
53762 53829
53829 53896
53896 53962
53962 54029
54029 54095
54095 54161
54161 54228
54228 54294
54294 54360
54360 54426
54426 54492
54492 54558
54558 54623
54623 54689
54689 54755
54755 54821
54821 54887
54887 54953
54953 55019
55019 55084
55084 55150
55150 55216
55216 55281
55281 55346
55346 55412
55412 55477
55477 55543
55543 55608
55608 55673
55673 55739
55739 55805
55805 55870
55870 55935
55935 56000
56000 56066
56066 56131
56131 56196
56196 56261
56261 56327
56327 56392
56392 56457
56457 56523
56523 56588
56588 56654
56654 56719
56719 56784
56784 56850
56850 56916
56916 56981
56981 57047
57047 57113
57113 57178
57178 57244
57244 57309
57309 57376
57376 57441
57441 57507
57507 57573
57573 57639
57639 57705
57705 57770
57770 57836
57836 57902
57902 57968
57968 58075
58140 58205
58205 58245
