8000 8065
8065 8170
25035 25100
29465 29531
29531 29570
68085 68149
68149 68189
68317 68381
68381 68445
72965 73028
73028 73092
73092 73155
73155 73218
73218 73281
73281 73345
73345 73408
73408 73472
73472 73535
73535 73599
73599 73663
73663 73726
73726 73790
