11072 11142
11072 11142
11142 11213
11213 11284
11284 11354
11354 11425
11425 11495
11495 11566
11566 11636
11636 11706
11706 11777
11777 11847
11847 11918
11918 11989
11989 12048
12048 12119
12119 12190
12190 12260
12260 12331
12331 12401
12401 12472
12472 12542
12542 12613
12613 12683
12683 12753
12753 12824
12824 12894
12894 12965
12965 13035
13035 13105
13105 13176
13176 13246
13246 13316
13316 13386
13386 13456
13456 13526
13526 13596
13596 13667
13667 13737
13737 13807
13948 14019
14019 14066
14066 14136
14136 14207
14207 14277
14277 14348
14348 14418
14418 14488
14488 14558
14558 14629
14629 14699
14699 14769
14769 14839
14839 14910
14910 14980
14980 15051
15051 15121
15121 15192
15192 15263
15263 15334
15334 15405
15405 15476
15476 15546
15546 15617
15617 15688
15688 15759
15759 15830
15830 15901
15901 15972
15972 16043
16043 16113
16113 16184
16184 16254
16254 16325
16325 16396
16396 16466
16466 16537
16537 16607
16607 16677
16677 16748
16748 16818
16818 16888
16888 16959
16959 17029
17029 17100
17100 17170
17170 17241
17241 17311
17311 17382
17382 17452
17452 17523
17523 17594
17594 17665
17665 17736
17736 17807
17807 17879
17879 17950
17950 18022
18022 18094
18094 18166
18166 18239
18239 18311
18311 18384
18384 18457
18457 18531
18531 18605
18605 18678
18678 18752
18752 18826
18826 18901
18901 18976
18976 19093
19093 19166
19166 19238
19238 19310
19310 19382
19382 19453
19453 19524
19524 19595
19595 19666
19666 19738
19738 19809
19809 19880
19880 19951
19951 20021
20021 20092
20092 20162
20162 20233
20233 20303
20303 20374
20374 20444
20444 20514
20514 20585
20585 20655
20655 20725
20725 20795
20795 20865
20865 20935
20935 21006
21006 21076
21076 21146
21146 21216
21216 21286
21286 21356
21356 21426
21426 21496
21496 21566
21566 21636
21636 21705
21705 21775
21775 21845
21845 21915
21915 21985
21985 22055
22055 22125
22125 22196
22196 22266
22266 22336
22336 22406
22406 22477
22477 22547
22547 22617
22617 22687
22687 22757
22757 22827
22827 22897
22897 22967
22967 23037
23037 23107
23107 23178
23178 23248
23248 23318
23318 23388
23388 23459
23459 23529
23529 23599
23599 23670
23670 23740
23740 23811
23811 23881
23881 23952
23952 24022
24022 24093
24093 24163
24163 24234
24234 24304
24304 24374
24374 24445
24445 24515
24515 24585
24585 24655
24655 24725
24725 24795
24795 24865
24865 24936
24936 25007
25007 25058
25058 25127
25127 25195
25195 25263
25263 25331
25331 25399
25399 25467
25467 25535
25535 25603
25603 25671
25671 25739
25739 25807
25807 25875
25875 25942
25942 26010
26010 26071
26071 26137
26137 26204
26204 26271
26271 26339
26339 26406
26406 26474
26474 26543
26543 26611
26611 26680
26680 26748
26748 26818
26818 26887
26887 26956
26956 27025
27025 27093
27093 27162
27162 27231
27231 27300
27300 27369
27369 27437
27437 27506
27506 27575
27575 27643
27643 27712
27712 27780
27780 27848
27848 27916
27916 27984
27984 28053
28053 28121
28121 28189
28189 28257
28257 28325
28325 28394
28394 28462
28462 28530
28530 28598
28598 28666
28666 28734
28734 28802
28802 28871
28871 28939
28939 29007
29007 29076
29076 29144
29144 29213
29213 29281
29281 29349
29349 29418
29418 29486
29486 29555
29555 29623
29623 29692
29692 29761
29761 29829
29829 29898
29898 29967
29967 30035
30035 30104
30104 30173
30173 30242
30242 30310
30310 30379
30379 30448
30448 30517
30517 30586
30586 30654
30654 30724
30724 30793
30793 30861
30861 30930
30930 30999
30999 31068
31068 31137
31137 31206
31206 31275
31275 31344
31344 31413
31413 31482
31482 31551
31551 31620
31620 31688
31688 31757
31757 31826
31826 31895
31895 31964
31964 32033
32033 32102
32102 32171
32171 32240
32240 32309
32309 32378
32378 32447
32447 32516
32516 32585
32585 32654
32654 32722
32722 32791
32791 32860
32860 32929
32929 32998
32998 33066
33066 33135
33135 33204
33204 33273
33273 33342
33342 33410
33410 33479
33479 33548
33548 33617
33617 33686
33686 33755
33755 33824
33824 33893
33893 33962
33962 34031
34031 34100
34100 34169
34169 34239
34239 34308
34308 34377
34377 34447
34447 34516
