624 750
750 876
1104 1230
1230 1355
1355 1455
1835 2077
2077 2202
2202 2326
2326 2451
2451 2574
2574 2699
2699 2823
2823 2946
2946 3070
3070 3194
3194 3319
3319 3444
3444 3569
3569 3693
3693 3817
3817 3942
3942 4066
4066 4165
4165 4290
4290 4414
4414 4539
4539 4665
4665 4790
4790 4917
4917 5045
5045 5174
5174 5301
5301 5430
5430 5560
5560 5691
5691 5820
5820 5950
5950 6079
6079 6209
6209 6336
6336 6463
6463 6590
6590 6717
6717 6817
6817 6942
6942 7036
7036 7162
7162 7288
7288 7416
7416 7543
7543 7671
7671 7799
7799 7901
7901 8029
8029 8157
8157 8286
8286 8413
8413 8541
8541 8670
8670 8798
8798 8926
8926 9055
9055 9156
9156 9283
9283 9411
9411 9538
9538 9663
9663 9791
9791 9917
9917 10044
10044 10171
10171 10297
10297 10425
10425 10551
10551 10654
10654 10781
10781 10909
10909 11070
11070 11195
11195 11320
11320 11446
11446 11573
11573 11700
11700 11827
11827 11953
11953 12081
12081 12210
12210 12337
12337 12466
12466 12594
12594 12723
12723 12850
12850 12978
12978 13103
13103 13228
13228 13354
13354 13479
13479 13606
13606 13733
13733 13860
13860 13988
13988 14116
14116 14243
14243 14371
14371 14498
14498 14625
14625 14752
14752 14880
14880 15008
15008 15136
15136 15264
15264 15368
15368 15495
15495 15625
15625 15750
15750 15878
15878 16005
16005 16131
16131 16257
16257 16385
16385 16511
16511 16637
16637 16765
16765 16895
16895 16998
16998 17127
17127 17255
17255 17382
17382 17484
17484 17612
17612 17739
17739 17867
17867 17994
17994 18120
18120 18247
18247 18374
18374 18503
18503 18631
18631 18758
18758 18885
18885 19014
19014 19142
19142 19269
19269 19397
19397 19523
19523 19650
19650 19777
19777 19905
19905 20032
20032 20161
20161 20289
20289 20418
20418 20545
20545 20674
20674 20803
20803 20931
20931 21093
21093 21222
21222 21350
21350 21481
21481 21609
21609 21738
21738 21866
21866 21992
21992 22121
22121 22250
22250 22353
22353 22481
22481 22609
22609 22737
22737 22865
22865 22992
22992 23099
23099 23227
23227 23357
23357 23488
23488 23617
23617 23746
23746 23851
23851 23979
23979 24107
24107 24235
24235 24363
24363 24489
24489 24617
24617 24746
24746 24874
24874 25002
25002 25131
25131 25259
25259 25388
25388 25516
25516 25645
25645 25773
25773 25902
25902 26030
26030 26158
26158 26288
26288 26393
26393 26523
26523 26653
26653 26783
26783 26913
26913 27147
27147 27272
27272 27399
27399 27526
27526 27653
27653 27782
27782 27911
27911 28037
28037 28167
28167 28295
28295 28423
28423 28552
28552 28680
28680 28806
28806 28934
28934 29063
29063 29190
29190 29319
29319 29446
29446 29573
29573 29701
29701 29830
29830 29957
29957 30138
30138 30264
30264 30392
30392 30518
30518 30647
30647 30775
30775 30877
30877 31006
31006 31135
31135 31265
31265 31369
31369 31498
31498 31624
31624 31748
31748 31871
31871 31995
31995 32143
32143 32271
32271 32397
32397 32501
32501 32629
32629 32757
32757 32885
32885 33012
33012 33138
33138 33265
33265 33392
33392 33519
33519 33646
33646 33776
33776 33903
33903 34033
34033 34161
34161 34265
34265 34393
34393 34523
34523 34653
34653 34780
34780 34910
34910 34961
34961 35031
35031 35160
35160 35286
35286 35414
35414 35544
35544 35673
35673 35800
35800 35928
35928 36056
36056 36159
36159 36286
36286 36415
36415 36544
36544 36672
36672 36801
36801 36929
36929 37056
37056 37184
37184 37312
37312 37438
37438 37565
37565 37692
37692 37795
37795 37897
37897 38025
38025 38152
38152 38278
38278 38405
38405 38533
38533 38661
38661 38791
38791 38924
38924 39054
39054 39162
39162 39291
39291 39420
39420 39548
39548 39674
39674 39802
39802 39929
39929 40090
40090 40217
40217 40344
40344 40473
40473 40575
40575 40704
40704 40831
40831 40959
40959 41056
41056 41184
41184 41312
41312 41439
41439 41564
41564 41693
41693 41818
41818 41942
41942 42067
42067 42191
42191 42316
42316 42415
42415 42541
42541 42644
42644 42746
42746 42874
42874 43003
43003 43129
43129 43258
43258 43387
43387 43515
43515 43642
43642 43770
43770 43899
43899 44025
44025 44153
44153 44281
44281 44409
44409 44538
44538 44668
44668 44796
44796 44924
44924 45085
45085 45212
45212 45341
45341 45471
45471 45600
45600 45729
45729 45858
45858 45987
45987 46117
46117 46247
46247 46377
46377 46506
46506 46634
46634 46763
46763 46891
46891 47020
47020 47148
47148 47276
47276 47405
47405 47535
47535 47664
47664 47794
47794 47925
47925 48054
48054 48181
48181 48309
48309 48436
48436 48562
48562 48690
48690 48815
