886 996
996 1059
1328 1432
1729 1831
1729 1831
2683 2788
2788 2891
3591 3695
4471 4578
4985 5091
5688 5795
7170 7279
7809 7862
7862 8069
8157 8266
8660 8759
9127 9226
9672 9815
9916 9988
10244 10351
10528 10631
10631 10742
