255 358
358 462
1329 1517
1517 1598
1921 2028
2028 2069
3452 3624
4389 4585
4585 4626
4626 4690
5632 5743
5743 5833
5933 6081
6081 6199
6199 6312
6312 6419
6419 6524
6524 6604
6604 6709
6709 6814
6814 6920
6920 7026
7026 7133
7133 7240
7240 7346
7346 7453
7453 7559
7559 7664
7664 7814
7814 7932
7932 8041
8041 8147
8147 8251
8251 8355
8355 8539
8539 8579
8579 8645
8645 8750
8750 8854
8854 8958
8958 9062
9062 9166
9166 9270
9270 9448
9448 9555
9555 9660
9660 9764
9764 9869
9869 9974
9974 10078
10078 10183
10183 10288
10288 10392
10392 10497
10497 10687
10687 10727
10727 10793
10793 10901
10901 10982
10982 11106
11106 11187
11187 11272
11272 11393
11393 11499
11499 11608
11608 11691
11691 11797
11797 11905
11905 12012
12012 12134
12134 12242
12242 12349
12349 12455
12455 12563
12563 12669
12669 12776
12776 12883
12883 12989
12989 13096
13096 13202
13202 13308
13308 13415
13415 13521
13521 13628
13628 13735
13735 13778
13778 13902
13902 14018
14018 14126
14126 14234
14234 14342
14342 14448
14448 14554
14554 14660
14660 14740
14740 14846
14846 14950
14950 15039
15039 15119
15119 15224
15224 15329
15329 15434
15434 15540
15540 15646
15646 15752
15752 15858
15858 15964
15964 16071
16071 16177
16177 16283
16283 16389
16389 16494
16494 16599
16599 16704
16704 16808
16808 16913
16913 16998
16998 17043
17043 17152
17152 17260
17260 17369
17369 17478
17478 17560
17560 17667
17667 17754
17754 17861
17861 17969
17969 18108
18108 18228
18228 18416
18416 18525
18525 18608
18608 18717
18717 18826
18826 18935
18935 19041
19041 19150
19150 19260
19260 19368
19368 19475
19475 19581
19581 19662
19662 19769
19769 19875
19875 19982
19982 20096
20096 20205
20205 20314
20314 20424
20424 20613
20613 20654
20654 20725
20725 20834
20834 20945
20945 21067
21067 21177
21177 21287
21287 21397
21397 21585
21585 21692
21692 21875
21875 21987
21987 22098
22098 22209
22209 22319
22319 22428
22428 22535
22535 22643
22643 22751
22751 22858
22858 22966
22966 23095
23095 23202
23202 23311
23311 23420
23420 23529
23529 23638
23638 23747
23747 23856
23856 23965
23965 24074
24074 24269
24269 24373
24373 24483
24483 24592
24592 24702
24702 24811
24811 24921
24921 25031
25031 25115
25115 25224
25224 25334
25334 25444
25444 25552
25552 25636
25636 25744
25744 25853
25853 25962
25962 26071
26071 26180
26180 26290
26290 26399
26399 26509
26509 26619
26619 26729
26729 26839
26839 26997
26997 27168
27168 27272
27272 27384
27384 27495
27495 27581
27581 27693
27693 27806
27806 27917
27917 28057
28057 28163
28163 28274
28274 28384
28384 28493
28493 28601
28601 28709
28709 28817
