3152 3188
4722 4783
4783 4844
4844 4906
4906 4967
4967 5029
5029 5090
5090 5151
5151 5213
5213 5274
5274 5335
5335 5397
5397 5458
5458 5520
5520 5581
5581 5643
5643 5705
5705 5766
5766 5828
5828 5889
5889 5951
5951 6012
6012 6073
6073 6110
6110 6171
6171 6232
6232 6294
6294 6355
6355 6416
6416 6477
6477 6539
6539 6600
6600 6662
6662 6723
6723 6784
6784 6846
6846 6907
6907 6968
6968 7030
7030 7091
7091 7153
7153 7214
7214 7276
7276 7337
7337 7398
7398 7460
7460 7521
7521 7583
7583 7644
7644 7706
7706 7767
7767 7828
7828 7889
7889 7951
7951 8012
8012 8073
8073 8134
8134 8195
8195 8257
8257 8318
8318 8380
8380 8442
8442 8503
8503 8564
8564 8626
8626 8688
8688 8749
8749 8811
8811 8848
8848 8909
8909 8971
8971 9033
9033 9095
9095 9156
