48 118
118 187
187 257
257 326
326 396
396 465
603 672
672 742
742 812
812 881
881 951
951 1020
1020 1065
1065 1138
1138 1209
1209 1282
1282 1354
1354 1425
1425 1496
1496 1567
1567 1638
1638 1709
1709 1781
1781 1850
1850 1923
1923 1996
1996 2067
2067 2140
2140 2213
2213 2284
2284 2356
2356 2429
2429 2502
2502 2573
2573 2646
2646 2721
2721 2794
2794 2868
2868 2943
2943 3017
3017 3092
3092 3167
3167 3242
3242 3316
3316 3391
3391 3466
3466 3540
3540 3613
3613 3687
3687 3762
3762 3836
3836 3910
3910 3984
3984 4060
4060 4134
4134 4208
4208 4282
4282 4357
4357 4431
4431 4505
4505 4580
4580 4655
4655 4730
4730 4804
4804 4879
4879 4955
4955 5082
5082 5154
5154 5228
5228 5302
5302 5375
5375 5450
5450 5525
5525 5598
5598 5673
5673 5747
5747 5820
5820 5894
5894 5968
5968 6043
6043 6116
6116 6190
6190 6264
6264 6336
6336 6410
6410 6484
6484 6558
6558 6630
6630 6705
6705 6780
6780 6855
6855 6928
6928 7003
7003 7079
7079 7153
7153 7229
7229 7305
7305 7381
7381 7455
7455 7531
7531 7607
7607 7683
7683 7757
7757 7833
7833 7909
7909 7984
7984 8059
8059 8136
8136 8210
8210 8286
8286 8361
8361 8437
8437 8510
8510 8586
8586 8660
8660 8735
8735 8809
8809 8882
8882 8958
8958 9034
9034 9110
9110 9185
9185 9259
9259 9335
