657 749
749 841
841 933
933 1025
1025 1146
1146 1241
1241 1335
1335 1430
1430 1525
1525 1620
1620 1715
1715 1811
1811 1907
1907 2003
2003 2099
2099 2196
2196 2292
2292 2389
2389 2485
2485 2582
2582 2679
2679 2776
2776 2874
2874 2971
2971 3069
3069 3167
3167 3265
3265 3363
3363 3461
3461 3560
3560 3658
3658 3757
3757 3856
3856 3954
3954 4106
4106 4205
4205 4302
4302 4400
4400 4497
4497 4594
4594 4690
4690 4786
4786 4881
4881 4975
4975 5070
5070 5166
5166 5262
5262 5358
5358 5453
5453 5550
5550 5645
5645 5741
5741 5837
5837 5932
5932 6027
6027 6122
6122 6217
6217 6312
6312 6406
6406 6501
6501 6596
6596 6690
6690 6785
6785 6879
6879 6973
6973 7068
7068 7162
7162 7256
7256 7350
7350 7444
7444 7538
7538 7632
7632 7725
7725 7819
7819 7913
7913 8007
8007 8101
8101 8195
8195 8289
8289 8383
8383 8477
8477 8572
8572 8666
8666 8761
8761 8855
8855 8950
8950 9045
9045 9139
9139 9233
9233 9327
9327 9422
9422 9516
9516 9609
9609 9703
9703 9797
9797 9891
9891 9984
9984 10078
10078 10172
10172 10265
10265 10358
10358 10452
10452 10546
10546 10639
10639 10733
10733 10827
10827 10922
11016 11125
11125 11221
11221 11317
11317 11413
11413 11509
11509 11605
11605 11701
11701 11797
11797 11893
11893 11989
11989 12050
12050 12145
12145 12241
12241 12336
12336 12431
12431 12526
12526 12620
12620 12715
12715 12810
12810 12904
12904 12999
12999 13093
13093 13188
13188 13283
13283 13378
13378 13473
13473 13568
13568 13663
13663 13759
13759 13854
13854 13950
13950 14046
14046 14143
14143 14239
14239 14336
14336 14433
14433 14531
14531 14628
14628 14725
14725 14822
14822 14920
14920 15017
15017 15114
15114 15211
15211 15309
15309 15406
15406 15503
15503 15600
15600 15697
15697 15795
15795 15892
15892 15989
15989 16087
16087 16184
16184 16282
16282 16380
16380 16478
16478 16576
16576 16675
16675 16774
16774 16872
16872 16971
16971 17070
17070 17170
17170 17269
17269 17369
17369 17469
17469 17569
17569 17669
17669 17769
17769 17869
17869 17970
17970 18071
18071 18172
18172 18273
18273 18374
18374 18475
18475 18576
18576 18676
18676 18776
18776 18876
18876 18974
18974 19085
19085 19179
19179 19273
19273 19367
19367 19460
19460 19554
19554 19647
19647 19741
19741 19834
19834 19928
19928 20021
20021 20115
20115 20208
20208 20302
20302 20396
20396 20490
20490 20584
20584 20677
20677 20771
20771 20865
20865 20959
20959 21084
21084 21179
21179 21274
21274 21369
21369 21464
21464 21560
21560 21656
21656 21752
21752 21848
21848 21945
21945 22105
22105 22201
22201 22297
22297 22394
22394 22489
22489 22585
22585 22681
22681 22776
22776 22872
22872 22967
22967 23063
23063 23158
23158 23254
23254 23349
23349 23444
23444 23540
23540 23635
23635 23730
23730 23825
23825 23920
23920 24016
24016 24061
24061 24156
24156 24250
24250 24345
24345 24440
24440 24535
24535 24631
24631 24727
24727 24822
24822 24918
24918 25014
25014 25111
25111 25207
25207 25303
25303 25398
25398 25494
25494 25589
25589 25684
25684 25779
25779 25875
25875 25970
25970 26065
26065 26161
26161 26256
26256 26352
26352 26446
26446 26542
26542 26637
26637 26732
26732 26826
26826 26921
26921 27017
27017 27069
27069 27165
27165 27260
27260 27356
27356 27451
27451 27546
27546 27641
27641 27736
27736 27832
27832 27928
27928 28024
28024 28120
28120 28216
28216 28312
28312 28408
28408 28504
28504 28600
28600 28697
28697 28792
28792 28888
28888 28984
28984 29081
29081 29176
29176 29273
29273 29369
29369 29466
29466 29562
29562 29658
29658 29755
29755 29851
29851 29947
29947 30043
30043 30139
30139 30235
30235 30331
30331 30427
30427 30522
30522 30618
30618 30715
30715 30811
30811 30908
30908 31004
31004 31087
31087 31183
31183 31279
31279 31375
31375 31471
31471 31566
31566 31662
31662 31758
31758 31854
31854 31950
31950 32047
32047 32143
32143 32240
32240 32335
32335 32431
32431 32527
32527 32623
32623 32719
32719 32814
32814 32910
32910 33005
33005 33097
33097 33192
33192 33287
33287 33381
33381 33476
33476 33571
33571 33666
33666 33760
33760 33854
33854 33949
33949 34063
34063 34160
34160 34256
34256 34352
34352 34448
34448 34543
34543 34638
34638 34733
34733 34828
34828 34923
34923 35018
35018 35112
35112 35206
35206 35300
35300 35394
35394 35488
35488 35581
35581 35674
35674 35768
35768 35861
35861 35954
35954 36047
36047 36140
36140 36233
36233 36326
36326 36419
36419 36511
36511 36604
36604 36697
36697 36789
36789 36882
36882 36974
36974 37094
37094 37189
37189 37284
37284 37379
37379 37474
37474 37569
37569 37664
37664 37759
37759 37855
37855 37949
37949 38044
38044 38139
38139 38234
38234 38328
38328 38423
38423 38517
38517 38611
38611 38705
38705 38799
38799 38893
38893 38986
38986 39080
39080 39174
39174 39267
39267 39361
39361 39454
39454 39548
39548 39641
39641 39734
39734 39802
39802 39894
39894 39986
39986 40079
40079 40171
40171 40263
40263 40356
40356 40448
40448 40540
40540 40632
40632 40725
40725 40817
40817 40909
40909 41001
41001 41094
41094 41187
41187 41279
41279 41372
41372 41465
41465 41558
41558 41650
