61 291
493 595
595 918
918 1018
1018 1165
1165 1267
1267 1368
1368 1470
1470 1572
1572 1675
1675 1778
1778 1882
1882 2030
2030 2166
2166 2269
2269 2372
2372 2476
2476 2579
2579 2682
2682 2785
2785 2889
2889 2993
2993 3085
3085 3191
3191 3296
3296 3402
3402 3506
3506 3612
3612 3717
3717 3822
3822 3927
3927 4031
4031 4136
4136 4241
4241 4346
4346 4452
4452 4556
4556 4661
4661 4767
4767 4873
4873 4979
4979 5067
5067 5170
5170 5272
5272 5376
5376 5479
5479 5580
5580 5682
5682 5785
5785 5887
5887 5989
5989 6090
6090 6193
6193 6294
6294 6395
6395 6497
6497 6600
6600 6702
6702 6804
6804 6906
6906 7009
7009 7111
7111 7213
7213 7315
7315 7418
7418 7520
7520 7623
7623 7725
7725 7829
7829 7934
7934 8038
8038 8143
8143 8246
8246 8350
8350 8454
8454 8558
8558 8662
8662 8767
8767 8872
8872 8978
8978 9083
9083 9189
9189 9293
9293 9398
9398 9504
9504 9609
9609 9714
9714 9820
9820 9925
9925 10032
10032 10138
10138 10244
10244 10349
10349 10455
10455 10561
10561 10667
10667 10773
10773 10879
10879 10986
10986 11093
11093 11199
11199 11305
11305 11411
11411 11518
11518 11624
11624 11730
11730 11836
11836 11940
11940 12045
12045 12150
12150 12253
12253 12357
12357 12461
12461 12565
12565 12667
12667 12770
12770 12872
12872 12975
12975 13071
13071 13172
13172 13274
13274 13375
13375 13477
13477 13579
13579 13681
13681 13783
13783 13885
13885 13987
13987 14117
14117 14220
14220 14324
14324 14427
14427 14530
14530 14634
14634 14738
14738 14842
14842 14945
14945 15049
15049 15154
15154 15258
15258 15362
15362 15466
15466 15570
15570 15675
15675 15780
15780 15886
15886 15990
15990 16096
16096 16201
16201 16307
16307 16413
16413 16518
16518 16624
16624 16730
16730 16835
16835 16942
16942 17047
17047 17153
17153 17260
17260 17367
17367 17473
17473 17579
17579 17685
17685 17790
17790 17895
17895 18000
18000 18103
18103 18208
18208 18311
18311 18414
18414 18517
18517 18620
18620 18723
18723 18825
18825 18928
18928 19032
19032 19134
19134 19236
19236 19339
19339 19443
19443 19545
19545 19648
19648 19751
19751 19854
19854 19957
19957 20083
20083 20184
20184 20285
20285 20387
20387 20489
20489 20591
20591 20693
20693 20795
20795 20897
20897 20999
20999 21104
21104 21206
21206 21307
21307 21408
21408 21510
21510 21612
21612 21714
21714 21816
21816 21918
21918 22020
22020 22079
22079 22182
22182 22284
22284 22386
22386 22489
22489 22592
22592 22695
22695 22797
22797 22900
22900 23003
23003 23102
23102 23203
23203 23304
23304 23405
23405 23506
23506 23607
23607 23709
23709 23810
