15 61
817 880
880 953
953 1015
1015 1097
1097 1161
1288 1352
1352 1415
1415 1479
1479 1542
1542 1606
1606 1670
1670 1733
1733 1797
1797 1860
1860 1924
1924 1987
1987 2050
2050 2114
2114 2177
2177 2240
2240 2304
2304 2367
2367 2430
2430 2494
2494 2557
2557 2620
2620 2683
2683 2746
2746 2810
2810 2873
2873 2936
2936 2999
2999 3063
3063 3126
3126 3189
3189 3253
3253 3316
3316 3380
3380 3443
3443 3507
3507 3570
3570 3633
3633 3697
