7746 7814
7814 7857
19737 19805
19805 19874
31935 32003
32003 32047
37115 37183
37183 37227
37364 37432
37432 37475
41939 42008
48880 48949
48949 49018
49979 50048
50048 50117
53969 54038
54038 54082
59637 59705
61351 61420
61420 61489
61489 61559
61559 61628
61628 61697
67527 67595
67595 67662
67863 67930
67930 67997
67997 68099
68099 68166
68166 68233
68233 68300
68300 68367
68367 68434
68434 68501
68501 68568
68568 68635
68635 68702
68702 68769
68769 68836
68836 68902
68902 68969
68969 69036
69036 69102
69102 69169
69169 69235
69235 69302
69302 69368
69368 69435
69435 69502
69502 69569
69569 69636
69636 69703
69703 69770
69770 69837
69837 69904
69904 69971
69971 70037
70037 70104
70104 70170
70170 70237
70237 70304
70304 70370
70370 70437
70437 70504
70504 70570
70570 70637
70637 70704
70704 70770
70770 70837
70837 70903
70903 70970
70970 71036
71036 71103
71103 71169
71169 71235
71235 71302
71302 71367
71367 71433
71433 71499
71499 71565
71565 71630
71630 71696
71696 71762
71762 71827
71827 71893
71893 71959
71959 72025
72025 72090
72090 72156
72156 72221
72221 72287
72287 72353
