936 1033
1033 1112
1659 1737
1737 1816
2102 2182
2182 2263
2263 2342
2342 2422
2422 2501
2501 2580
2580 2661
2661 2718
2718 2763
2763 2843
2843 2922
2922 3004
3004 3056
3056 3136
3136 3216
3216 3296
3296 3377
3377 3457
3457 3537
3537 3617
3617 3697
3697 3778
3778 3858
3858 3938
3938 4018
4018 4098
4098 4178
4178 4259
4259 4340
4340 4421
4421 4501
4501 4582
4582 4663
4663 4743
4743 4823
4823 4903
4903 4984
4984 5057
5057 5138
5138 5219
5219 5300
5300 5381
5381 5461
5461 5542
5542 5624
5624 5704
5704 5785
5785 5866
5866 5947
5947 6029
6029 6111
6111 6193
6193 6274
6274 6356
6356 6438
6438 6520
6520 6604
6604 6686
6686 6767
6767 6849
6849 6930
6930 7013
7013 7058
7058 7141
7141 7222
7222 7303
7303 7384
