95 165
95 165
165 234
234 304
304 373
373 443
582 652
652 722
722 791
791 861
861 931
931 1001
1085 1154
1085 1154
1154 1223
1223 1293
1293 1363
1363 1433
1433 1503
1503 1571
1571 1640
1640 1710
1710 1778
1917 1986
1986 2091
2091 2161
2161 2230
2230 2299
2299 2368
2368 2438
2438 2506
2506 2576
2576 2645
2645 2714
2714 2783
2783 2853
2853 2922
2922 2992
2992 3099
3099 3168
3168 3237
3237 3306
3306 3376
3376 3445
3445 3514
3514 3583
3583 3652
3652 3721
3721 3791
3791 3860
3860 3929
3929 3998
3998 4036
4036 4105
4105 4174
4174 4243
4243 4313
4313 4382
