31 73
73 145
145 215
355 425
425 495
495 564
564 633
633 701
701 769
769 838
838 905
905 974
974 1042
1042 1111
1111 1182
1182 1252
1252 1321
1321 1391
1391 1462
1462 1534
1534 1603
1603 1675
1675 1746
1746 1818
1818 1889
1889 1960
1960 2032
2032 2140
2140 2246
2246 2317
2317 2386
2386 2455
2455 2523
2523 2593
2593 2691
2691 2762
2762 2833
2833 2904
2904 2976
2976 3048
3048 3119
3119 3192
3192 3265
