1908 1989
2112 2194
2687 2769
2769 2852
2852 2960
2960 3054
3535 3613
3771 3849
3849 3926
3849 3926
3926 4003
4003 4101
5620 5700
5700 5780
5858 5936
5936 6013
6013 6091
6091 6171
6171 6251
6251 6332
6332 6414
6414 6496
6496 6578
6578 6660
6660 6742
6742 6825
6825 6907
6907 6988
6988 7069
7069 7149
7149 7227
7227 7305
7305 7382
7382 7457
7457 7533
7533 7608
7608 7683
7683 7757
7757 7833
7833 7910
7910 7986
7986 8082
8082 8161
8161 8240
8240 8319
8319 8398
8398 8476
8476 8555
8555 8633
8633 8710
8710 8787
8787 8863
8863 8939
8939 9016
9016 9094
9094 9170
9170 9248
9248 9327
9327 9407
9407 9487
9487 9567
9567 9648
9648 9729
9729 9810
9810 9890
9890 9970
9970 10048
10048 10128
10128 10208
10208 10288
10288 10368
10368 10447
10447 10526
10526 10606
10606 10686
10686 10765
10765 10842
10842 10920
10920 10998
10998 11073
11073 11152
11152 11232
11232 11311
11311 11391
11391 11470
11470 11549
11549 11627
11627 11705
11705 11783
11783 11861
11861 11937
11937 12016
12016 12095
12095 12173
12173 12252
12252 12332
12332 12403
12403 12492
12492 12573
12573 12653
12653 12732
12732 12810
12810 12889
12889 12969
12969 13047
13047 13125
13125 13204
13204 13281
13281 13360
13360 13439
13439 13519
13519 13598
13598 13678
13678 13758
13758 13839
13839 13918
13918 13998
13998 14051
14051 14131
14131 14210
14210 14290
14290 14369
14369 14449
14449 14527
14527 14606
14606 14686
14686 14764
14764 14843
14843 14923
14923 15002
15002 15038
15038 15111
15111 15184
15184 15258
15258 15329
15329 15403
15403 15477
15477 15552
15552 15625
15625 15701
15701 15777
15777 15854
15854 15931
15931 16008
16008 16084
16084 16159
16159 16235
16235 16312
16312 16388
16388 16464
16464 16541
16541 16617
16617 16693
16693 16771
16771 16848
16848 16926
16926 17004
17004 17082
17082 17160
17160 17238
17238 17315
17315 17392
17392 17468
17468 17544
17544 17619
17619 17694
17694 17769
17769 17844
17844 17918
17918 17992
17992 18066
18066 18140
18140 18214
18214 18288
18288 18361
