35 90
90 191
328 424
506 563
563 662
662 743
743 802
802 882
882 962
1031 1084
1084 1171
1171 1244
1244 1346
1346 1410
1410 1500
1500 1571
1571 1649
1649 1729
1729 1804
1804 1884
1884 1964
1964 2044
2044 2129
2129 2209
2209 2304
2304 2364
2364 2456
2456 2527
2527 2609
2609 2689
2689 2771
2771 2865
2865 2928
2928 3003
3003 3106
3106 3163
3163 3243
3243 3322
3322 3402
3402 3483
3483 3570
3570 3648
3648 3722
3722 3807
3807 3901
3901 3967
3967 4046
4046 4128
4128 4215
4215 4287
4287 4367
4367 4442
4442 4536
4536 4629
4629 4686
4686 4766
4766 4841
4841 4926
4926 5000
5000 5080
5080 5164
5164 5260
5260 5321
5321 5401
