24 63
1314 1389
1389 1463
1463 1539
1539 1613
1613 1687
1687 1762
1909 1982
1982 2058
2058 2130
2130 2207
2207 2281
2281 2354
2354 2428
2428 2502
2502 2576
2576 2652
2652 2726
2726 2799
2799 2875
2875 2947
2947 3069
3069 3145
3145 3217
3217 3293
3293 3367
3367 3440
3440 3515
3515 3589
3589 3662
3662 3735
3735 3811
3811 3883
3883 3959
3959 4031
4031 4104
4104 4180
4180 4253
4253 4328
4328 4401
4401 4476
4476 4548
4548 4624
4624 4698
4698 4772
4772 4844
4844 4920
4920 4992
4992 5068
5068 5140
5140 5215
5215 5289
5289 5362
5362 5437
5437 5511
5511 5584
5584 5659
5659 5732
5732 5808
5808 5880
5880 5955
5955 6028
6028 6103
6103 6175
6175 6251
6251 6323
6323 6397
6397 6472
6472 6545
6545 6592
6592 6667
6667 6740
6740 6815
6815 6887
6887 6962
6962 7034
7034 7107
7107 7183
7183 7257
7257 7330
7330 7406
7406 7478
7478 7552
7552 7624
7624 7697
7697 7773
7773 7846
7846 7920
7920 7992
7992 8065
8065 8141
8141 8213
8213 8287
8287 8361
8361 8436
8436 8509
8509 8581
8581 8655
8655 8731
8731 8804
8804 8879
8879 8951
8951 9027
9027 9101
9101 9175
9175 9250
9250 9324
9324 9400
9400 9475
9475 9547
9547 9624
9624 9698
9698 9772
9772 9845
9845 9920
9920 9997
9997 10104
10104 10180
10180 10259
10259 10333
10333 10409
10409 10488
10488 10563
10563 10637
10637 10716
10716 10790
10790 10869
10869 10942
10942 11021
11021 11091
11091 11171
11171 11247
11247 11321
11321 11399
11399 11474
11474 11552
11552 11632
11632 11706
11706 11786
11786 11861
11861 11941
11941 12031
12031 12107
12107 12187
12187 12263
12263 12342
12342 12421
12421 12498
12498 12576
12576 12652
12652 12733
12733 12808
12808 12886
12886 12963
12963 13095
13095 13170
13170 13244
13244 13316
13316 13393
13393 13468
13468 13542
13542 13614
13614 13688
13688 13786
13786 13860
13860 13934
13934 14008
14008 14082
14082 14156
14156 14228
14228 14303
14303 14376
14376 14448
14448 14522
14522 14597
14597 14671
14671 14743
14743 14818
14818 14892
14892 14964
14964 15038
15038 15112
15112 15186
15186 15262
15262 15335
15335 15409
15409 15485
15485 15558
15558 15634
15634 15708
15708 15782
15782 15855
15855 15930
15930 16005
16005 16081
16081 16206
16206 16281
16281 16358
16358 16431
16431 16508
16508 16584
16584 16657
16657 16735
16735 16808
16808 16885
16885 16958
16958 17035
17035 17109
17109 17186
17186 17260
17260 17337
17337 17412
17412 17487
17487 17560
17560 17637
17637 17711
17711 17786
17786 17864
17864 17937
17937 18015
18015 18065
18065 18136
18136 18209
18209 18281
18281 18356
18356 18429
18429 18505
18505 18579
18579 18654
18654 18729
18729 18803
18803 18878
18878 18954
18954 19032
19032 19107
19107 19185
19185 19262
19262 19336
19336 19413
19413 19489
19489 19564
19564 19642
19642 19716
19716 19793
19793 19868
19868 19943
19943 20016
20016 20092
20092 20167
20167 20242
20242 20318
20318 20392
20392 20467
20467 20544
20544 20617
20617 20693
20693 20769
20769 20843
20843 20920
20920 20993
20993 21069
21069 21144
21144 21217
21217 21292
21292 21368
21368 21443
21443 21519
21519 21595
21595 21668
21668 21744
21744 21821
21821 21895
21895 21971
21971 22045
22045 22120
22120 22197
22197 22271
22271 22347
22347 22422
22422 22495
22495 22570
22570 22648
22648 22721
22721 22797
22797 22873
22873 22948
22948 23023
23023 23099
23099 23177
23177 23251
23251 23327
23327 23403
23403 23476
23476 23551
23551 23629
23629 23703
23703 23778
23778 23854
23854 23928
23928 24005
24005 24079
24079 24156
24156 24229
24229 24305
24305 24380
24380 24455
24455 24528
24528 24605
24605 24678
24678 24755
24755 24829
24829 24902
24902 24978
24978 25053
25053 25128
25128 25204
25204 25279
25279 25352
25352 25427
25427 25504
25504 25577
25577 25652
25652 25726
25726 25801
25801 25876
25876 25951
25951 26026
26026 26102
26102 26175
26175 26252
26252 26326
26326 26401
26401 26476
26476 26552
26552 26627
26627 26701
26701 26776
26776 26853
26853 26927
26927 27004
27004 27079
27079 27153
27153 27230
27230 27306
27306 27380
27380 27457
27457 27532
27532 27605
27605 27681
27681 27759
27759 27833
27833 27909
27909 27984
27984 28058
28058 28135
28135 28209
28209 28285
28285 28362
28362 28436
28436 28511
28511 28588
28588 28662
28662 28739
28739 28813
28813 28889
28889 28963
28963 29060
29060 29133
29133 29210
29210 29284
29284 29360
29360 29433
29433 29510
29510 29583
29583 29660
29660 29733
29733 29809
29809 29882
29882 29959
29959 30034
30034 30107
30107 30182
30182 30258
30258 30333
30333 30408
30408 30481
30481 30554
30554 30631
30631 30703
30703 30780
30780 30851
30851 30928
30928 30999
30999 31073
31073 31148
31148 31222
31222 31293
31293 31366
31366 31440
31440 31516
31516 31590
31590 31664
31664 31738
31738 31812
31812 31886
31886 31963
31963 32036
32036 32111
32111 32186
32186 32263
32263 32336
32336 32412
32412 32486
32486 32562
32562 32637
32637 32712
32712 32788
32788 32864
32864 32939
32939 33012
33012 33087
33087 33162
33162 33235
33235 33312
33312 33385
33385 33461
33461 33534
33534 33606
33606 33680
33680 33755
33755 33831
33831 33904
33904 33979
33979 34051
34051 34124
34124 34201
34201 34274
34274 34348
34348 34423
34423 34496
34496 34573
34573 34646
34646 34720
34720 34795
34795 34871
34871 34945
34945 35018
35018 35090
35090 35166
35166 35239
35239 35316
35316 35391
35391 35464
35464 35539
35539 35615
35615 35689
35689 35766
35766 35839
35839 35917
35917 35990
35990 36066
36066 36140
36140 36215
36215 36293
36293 36366
36366 36441
36441 36518
36518 36591
36591 36668
36668 36741
36741 36818
36818 36893
36893 36966
36966 37041
37041 37115
37115 37188
37188 37263
37263 37339
37339 37412
37412 37487
37487 37560
37560 37636
37636 37709
37709 37786
37786 37858
37858 37934
37934 38007
38007 38082
38082 38159
38159 38232
38232 38309
38309 38383
38383 38456
38456 38534
38534 38607
38607 38682
38682 38757
38757 38833
38833 38907
38907 38982
38982 39059
39059 39132
39132 39208
39208 39282
39282 39358
39358 39433
39433 39505
39505 39582
39582 39654
39654 39730
39730 39803
39803 39877
39877 39954
39954 40026
40026 40077
40077 40150
40150 40224
40224 40296
40296 40370
40370 40446
40446 40519
40519 40593
40593 40667
40667 40739
40739 40814
40814 40887
40887 40959
40959 41034
41034 41107
41107 41183
41183 41256
41256 41328
41328 41404
41404 41476
41476 41550
41550 41625
41625 41698
41698 41774
41774 41846
41846 41922
41922 41994
41994 42069
42069 42142
42142 42216
42216 42288
42288 42363
42363 42436
42436 42511
42511 42583
42583 42659
42659 42733
42733 42805
42805 42881
42881 42953
42953 43028
43028 43100
43100 43174
43174 43250
43250 43322
43322 43398
43398 43471
43471 43545
43545 43617
43617 43693
43693 43765
43765 43839
43839 43913
43913 43989
43989 44063
44063 44135
44135 44211
44211 44284
44284 44358
44358 44431
44431 44508
44508 44580
44580 44655
44655 44730
44730 44804
44804 44880
44880 44953
44953 45029
45029 45102
45102 45178
45178 45253
45253 45326
45326 45402
45402 45475
45475 45549
45549 45624
45624 45697
45697 45773
45773 45846
45846 45920
45920 45994
45994 46069
46069 46144
46144 46218
46218 46290
46290 46365
46365 46440
46440 46513
46513 46586
46586 46660
46660 46735
46735 46810
46810 46884
46884 46957
46957 47033
47033 47106
47106 47179
47179 47255
47255 47328
47328 47404
47404 47477
47477 47552
47552 47626
