1896 2029
2029 2095
4906 5132
5132 5253
5253 5377
5377 5503
5503 5629
5629 5751
5751 5879
5879 6002
6002 6140
6140 6268
6268 6398
6398 6524
6524 6649
6649 6776
6776 6900
6900 7075
7075 7215
7215 7344
7344 7469
7469 7594
7594 7735
7735 7846
7846 7989
7989 8083
8083 8221
8221 8330
8330 8470
8470 8572
8572 8695
8695 8823
8823 8947
8947 9072
9072 9208
9208 9333
9333 9457
9457 9590
9590 9722
9722 9846
9846 9983
9983 10107
10107 10232
10232 10357
10357 10484
10484 10608
10608 10751
10751 10861
10861 11145
11145 11275
11275 11397
11397 11521
11521 11650
11650 11783
11783 11908
11908 12082
12082 12206
12206 12344
12344 12453
12453 12595
12595 12723
12723 12848
12848 12983
12983 13081
13081 13203
13203 13341
13341 13474
13474 13603
13603 13735
13735 13857
13857 13981
13981 14126
14126 14254
14254 14380
14380 14506
14506 14644
14644 14778
