180 323
323 395
395 465
465 534
534 586
586 661
818 957
957 1166
1166 1234
1234 1652
1652 1720
1720 2001
2001 2140
2140 2278
2278 2461
2461 2932
2932 3067
3067 3203
3203 3270
3270 3546
3546 3616
3616 3685
3685 3892
3892 4028
4028 4097
4097 4164
4164 4233
4233 4303
4303 4442
4442 4648
4648 4857
4857 4996
4996 5064
5064 5133
5133 5268
5268 5337
5337 5404
5404 5472
5472 5610
5610 5678
5678 5745
5745 5815
5815 6025
6025 6093
6093 6297
6297 6431
6431 6939
6939 7140
7140 7205
7205 7269
7269 7335
7335 7402
7402 7469
7469 7534
7534 7598
7598 7665
7665 7731
7731 7796
7796 7860
7860 7926
7926 7991
7991 8056
8056 8121
8121 8253
8253 8320
8320 8385
8385 8451
8451 8518
8518 8585
8585 8651
8651 8784
8784 8984
8984 9116
9116 9183
9183 9249
9249 9316
9316 9383
9383 9448
9448 9516
9516 9651
9651 9786
9786 9906
9906 9987
9987 10044
10044 10177
10177 10243
10243 10309
10309 10376
10376 10511
10511 10578
10578 10711
10711 10778
10778 10846
10846 10913
10913 11047
11047 11114
11114 11180
11180 11247
11247 11315
11315 11384
11384 11452
11452 11587
11587 11653
11653 11720
11720 11854
11854 11920
11920 11987
11987 12051
12051 12117
12117 12186
12186 12322
12322 12390
12390 12456
12456 12525
12525 12593
12593 12730
12730 12796
12796 12864
12864 12931
12931 12998
12998 13034
13034 13168
13168 13433
13433 13499
13499 13564
13564 13697
13697 13828
13828 13894
13894 13960
13960 14025
14025 14092
14092 14159
14159 14226
14226 14362
14362 14430
14430 14496
14496 14564
14564 14631
14631 14766
14766 14833
