79 201
322 434
434 554
554 650
2630 2746
2746 2867
2867 3007
3007 3068
3307 3429
3429 3547
3547 3672
3672 3806
3806 3928
3928 4063
4063 4190
4190 4313
4313 4437
4437 4535
4535 4651
4651 4772
4772 4897
4897 5018
5018 5095
5095 5211
5211 5324
5324 5441
5441 5559
5559 5674
5674 5794
5794 5918
6090 6208
6569 6690
6690 6783
6905 7109
7109 7232
7943 8101
8583 8715
8715 8817
8938 9088
9088 9182
9182 9301
10989 11104
11104 11222
11222 11339
11339 11546
11546 11666
11666 11781
11781 11890
11890 12009
12009 12068
12068 12187
12187 12305
12305 12415
12415 12529
12529 12653
12653 12784
12784 12909
12909 13057
13057 13175
13175 13301
13301 13425
13425 13541
13541 13660
13660 13784
13784 13910
13910 14026
14026 14149
14149 14273
14273 14399
14399 14520
14520 14639
14639 14770
14770 14900
14900 15021
15021 15149
15149 15277
15277 15398
15398 15522
15522 15651
15651 15772
15772 15895
15895 16026
16026 16122
16122 16243
16243 16366
16366 16490
16490 16608
16608 16732
16732 16855
16855 16973
16973 17058
17058 17175
17175 17302
17302 17422
17422 17543
17543 17671
17671 17792
17792 17909
17909 18070
18070 18191
18191 18312
18312 18437
18437 18561
18561 18686
18686 18818
18818 18946
18946 19066
19066 19197
19197 19325
19325 19446
19446 19568
19568 19696
19696 19818
19818 19948
19948 20151
20151 20270
20270 20397
20397 20522
20522 20637
20637 20759
20759 20880
20880 20994
20994 21147
21147 21269
21269 21390
21390 21517
21517 21637
21637 21764
21764 21896
21896 22017
22017 22073
22073 22199
22199 22320
22320 22437
22437 22561
22561 22680
22680 22798
22798 22908
22908 23019
23019 23123
23123 23251
23251 23373
23373 23503
23503 23632
23632 23756
23756 23885
23885 24011
24011 24132
24132 24248
24248 24375
24375 24503
24503 24622
24622 24745
24745 24874
24874 24994
24994 25120
25120 25246
25246 25340
25340 25470
25470 25592
25592 25687
25687 25812
25812 25934
25934 26078
26078 26208
26208 26328
26328 26451
26451 26578
26578 26693
26693 26814
26814 26939
26939 27067
27067 27195
27195 27316
27316 27441
27441 27568
27568 27670
27670 27796
27796 27923
27923 28047
28047 28163
28163 28286
28286 28406
28406 28522
28522 28637
28637 28754
28754 28875
28875 28993
28993 29077
29077 29192
29192 29302
29302 29417
29417 29536
29536 29653
29653 29775
