217 439
929 1118
1118 1243
1243 1363
1363 1489
1489 1622
1622 1744
1744 1870
1870 1997
1997 2115
2115 2236
2236 2361
2361 2483
2483 2603
2603 2724
2724 2845
2845 2964
2964 3088
3088 3218
3218 3342
3342 3468
3468 3594
3594 3716
3716 3843
3843 3975
3975 4100
4100 4226
4226 4354
4354 4479
4479 4604
4604 4725
4725 4846
4846 4969
4969 5091
5091 5217
5217 5344
5344 5467
5467 5587
5587 5714
5714 5838
5838 5958
5958 6102
6102 6212
6212 6323
6323 6436
6436 6545
6545 6658
6658 6775
6775 6886
6886 6999
6999 7124
7124 7243
7243 7366
7366 7491
7491 7613
7613 7731
7731 7855
7855 7974
7974 8088
8088 8209
8209 8332
8332 8447
8447 8561
8561 8681
8681 8801
8801 8914
8914 9029
9029 9119
9119 9237
9237 9352
9352 9475
9475 9570
9570 9686
9686 9799
9799 9923
9923 10092
10092 10215
10215 10330
10330 10449
10449 10572
10572 10694
10694 10812
10812 10933
10933 11056
11056 11180
11180 11300
11300 11413
11413 11532
11532 11655
11655 11781
11781 11900
11900 12021
12021 12175
12175 12296
12296 12428
12428 12556
12556 12682
12682 12779
12779 12903
12903 13129
13129 13257
13257 13386
13386 13509
13509 13637
13637 13759
13759 13879
13879 14006
14006 14085
14085 14219
14219 14346
14346 14468
14468 14595
14595 14719
14719 14843
14843 14970
14970 15091
15091 15217
15217 15337
15337 15452
15452 15577
15577 15699
15699 15828
15828 15960
15960 16079
16079 16310
16310 16435
16435 16558
16558 16660
16660 16781
16781 16902
16902 17027
17027 17097
17097 17201
17201 17303
17303 17406
17406 17510
17510 17617
17617 17721
17721 17828
17828 17938
17938 18048
18048 18158
18158 18265
18265 18372
18372 18480
18480 18587
18587 18696
18696 18804
18804 18913
18913 19022
19022 19132
19132 19240
19240 19347
19347 19454
19454 19561
19561 19666
19666 19773
19773 19880
19880 19989
19989 20084
20084 20202
20202 20314
20314 20432
20432 20554
20554 20678
20678 20797
20797 21019
21019 21106
21106 21237
21237 21373
21373 21498
21498 21625
21625 21753
21753 21880
21880 22004
22004 22176
22176 22279
22279 22402
22402 22613
22613 22724
22724 22832
22832 22941
22941 23054
23054 23164
23164 23277
23277 23389
23389 23496
23496 23604
23604 23712
23712 23820
23820 23928
23928 24099
24099 24209
24209 24317
24317 24424
24424 24534
24534 24641
24641 24749
24749 24860
24860 24967
24967 25086
25086 25207
25207 25325
25325 25445
25445 25568
25568 25689
25689 25808
25808 25929
25929 26035
26035 26154
26154 26270
26270 26389
26389 26516
26516 26639
26639 26768
26768 26897
26897 26997
26997 27083
27083 27203
27203 27332
27332 27467
27467 27598
27598 27719
27719 27844
