554 683
683 784
784 911
911 1124
2916 3115
3115 3243
3243 3370
3370 3500
3500 3631
3631 3759
3759 3892
3892 4025
4025 4153
4153 4282
4282 4414
4414 4542
4542 4667
4667 4797
4797 4923
4923 5131
5131 5258
5258 5388
5388 5521
5521 5646
5646 5775
5775 5909
5909 6089
6089 6187
6187 6316
6316 6444
6444 6568
6568 6694
6694 6825
6825 6967
6967 7099
7099 7230
7230 7337
7337 7467
7467 7596
7596 7724
7724 7855
7855 7983
7983 8088
8088 8219
8219 8346
8346 8475
8475 8599
8599 8721
8721 8848
8848 8975
8975 9086
9086 9212
9212 9337
9337 9438
9438 9540
9540 9672
9672 9804
