241 383
775 916
1315 1450
1735 1873
1873 2009
2009 2099
2381 2520
2921 3099
3917 4126
4126 4258
4258 4393
4393 4502
4502 4635
4635 4769
4769 4911
4911 5024
5024 5131
5131 5232
5232 5362
5362 5491
5491 5616
5616 5745
5745 5875
5875 6000
6000 6114
6114 6249
6249 6374
6374 6518
6518 6649
6649 6783
6783 6912
6912 7120
7120 7242
7242 7367
7367 7524
7524 7630
7630 7765
7765 7898
7898 8078
8078 8210
8210 8343
8343 8468
8468 8600
8600 8730
8730 8860
