181 636
636 726
726 1003
1003 1094
1094 1185
1185 1276
1276 1555
1555 1650
1650 1744
1744 1842
1842 1937
1937 2134
2134 2230
2230 2330
2330 2429
2429 2529
2529 2629
2629 2730
2730 2830
2830 2931
2931 3031
3031 3131
3131 3330
3330 3428
3428 3629
3629 3727
3727 3925
3925 4024
4024 4121
4121 4218
4218 4314
4314 4408
4408 4502
4502 4596
4596 4688
4688 4780
4780 4869
4869 4958
4958 5397
5397 5483
5483 5571
5571 5660
5660 5750
5750 6029
6029 6123
6123 6217
6217 6310
6310 7885
7885 7990
7990 8097
8097 8203
8203 8410
8410 8513
8513 8617
8617 8721
8721 8922
8922 9019
9019 9118
9118 9315
9315 9412
9412 9611
9611 9710
9710 9810
9810 9912
9912 9989
9989 10090
10090 10492
10492 10586
10586 10689
10689 11185
11185 11284
11284 11381
11381 11478
11478 11577
11577 11676
11676 12365
12365 12462
12462 12559
12559 12656
12656 12752
12752 12945
12945 13135
13135 13229
13229 13322
13322 13598
13598 13785
13785 13877
13877 13971
13971 14154
14154 14249
14249 14341
14341 14431
14431 14613
14613 14704
14704 15066
15066 15157
15157 15248
15248 15339
15339 15430
15430 15522
15522 15614
15614 15707
15707 15894
15894 15988
15988 16082
16082 16369
16369 16462
16462 16553
16553 16645
16645 16736
16736 16827
16827 16919
16919 17009
17009 17100
17100 17191
17191 17372
17372 17463
17463 17553
17553 17644
17644 17736
17736 17829
17829 17924
17924 18047
18047 18138
18138 18229
18229 18320
18320 18413
18413 18504
18504 18595
18595 18687
18687 18779
18779 18871
18871 18963
18963 19030
19030 19123
19123 19215
19215 19308
19308 19400
19400 19492
19492 19586
19586 19680
19680 19776
19776 19872
19872 19969
19969 20068
20068 20167
20167 20267
20267 20369
20369 20471
20471 20573
20573 20674
20674 20775
20775 20975
20975 21074
21074 21172
21172 21270
21270 21368
21368 21467
21467 21566
21566 21761
21761 21857
21857 21953
21953 22049
22049 22146
22146 22242
22242 22338
22338 22434
22434 22529
22529 22623
22623 22717
22717 22810
22810 22903
22903 22997
22997 23090
23090 23185
23185 23280
23280 23374
23374 23470
23470 23660
23660 23754
23754 23848
23848 23940
23940 24033
24033 24126
24126 24220
24220 24314
24314 24408
24408 24503
24503 24598
24598 24694
24694 24790
24790 24886
