142 208
208 275
275 341
341 408
408 474
474 540
540 606
606 672
672 739
739 806
739 806
806 872
872 938
938 1004
1004 1071
1071 1137
1137 1204
1204 1271
1271 1338
1338 1404
1404 1471
1471 1538
1538 1605
1605 1672
1672 1739
1739 1806
1806 1873
1941 2008
2008 2075
2075 2142
2142 2209
2209 2277
2277 2344
2344 2411
2411 2478
2478 2543
2543 2610
2610 2676
2676 2744
2744 2809
2809 2875
2875 2942
2942 3008
3008 3075
3075 3143
3143 3209
3209 3275
3275 3342
3342 3409
3409 3476
3476 3541
3541 3607
3607 3674
3674 3742
3742 3808
3808 3874
3874 3940
3940 4007
4007 4075
4075 4141
4141 4208
4208 4275
4275 4343
4343 4411
4411 4477
4477 4545
4545 4612
4612 4681
4681 4749
4749 4816
4816 4883
4883 4951
4951 5019
5019 5087
5087 5153
5153 5220
5220 5287
5287 5355
5355 5422
5422 5488
5488 5555
5555 5622
5622 5690
5690 5757
5757 5823
5823 5890
5890 5957
5957 6025
6025 6106
6106 6174
6174 6242
6242 6309
6309 6377
6377 6445
6445 6514
6514 6583
6583 6651
6651 6719
6719 6787
6787 6856
6856 6924
6924 6993
6993 7069
7069 7135
7135 7201
7201 7268
7268 7335
7335 7402
7402 7469
7469 7535
7535 7601
7601 7668
7668 7735
7735 7802
7802 7868
7868 7934
7934 8001
8001 8067
8067 8134
8134 8201
8201 8266
8266 8332
8332 8398
8398 8463
8463 8529
8529 8595
8595 8662
8662 8729
8729 8794
8794 8860
8860 8926
8926 8993
8993 9059
9059 9125
9125 9191
9191 9257
9257 9323
9323 9390
9390 9456
9456 9522
9522 9589
9589 9655
9655 9722
9722 9789
9789 9857
9857 9924
9924 9991
9991 10058
10058 10125
10125 10193
10193 10261
10261 10328
10328 10396
10396 10463
10463 10531
10531 10599
10599 10666
10666 10732
10732 10799
10799 10867
10867 10933
10933 10999
10999 11083
11083 11151
11151 11219
11219 11288
11288 11357
11357 11425
11425 11493
11493 11561
11561 11629
11629 11698
11698 11766
11766 11834
11834 11901
11901 11969
11969 12038
12038 12106
12106 12174
12174 12241
12241 12309
12309 12377
12377 12445
12445 12513
12513 12582
12582 12650
12650 12717
12717 12785
12785 12854
12854 12922
12922 12990
12990 13058
13058 13125
13125 13193
13193 13261
13261 13329
13329 13397
13397 13465
13465 13532
13532 13599
13599 13667
13667 13734
13734 13802
13802 13869
13869 13936
13936 14004
14004 14072
14072 14140
14140 14208
14208 14276
14276 14345
14345 14414
14414 14483
14483 14551
14551 14619
14619 14688
14688 14756
14756 14826
14826 14894
14894 14962
14962 15065
15065 15132
15132 15198
15198 15264
15264 15330
15330 15396
15396 15462
15462 15528
15528 15594
15594 15660
15660 15727
15727 15793
15793 15859
15859 15924
15924 15991
15991 16057
16057 16124
16124 16190
16190 16256
16256 16322
16322 16389
16389 16456
16456 16523
16523 16589
16589 16656
16656 16723
16723 16790
16790 16858
16858 16925
16925 16991
16991 17063
17063 17130
17130 17197
17197 17265
17265 17333
17333 17399
17399 17467
17467 17534
17534 17603
17603 17672
17672 17739
17739 17807
17807 17875
17875 17943
17943 18012
18012 18080
18080 18147
18147 18215
18215 18283
18283 18352
18352 18419
18419 18486
18486 18553
18553 18621
18621 18688
18688 18754
18754 18821
18821 18888
18888 18957
18957 19024
19024 19090
19090 19157
19157 19225
19225 19294
19294 19361
19361 19428
19428 19496
19496 19564
19564 19633
19633 19701
19701 19768
19768 19836
19836 19906
19906 19975
19975 20042
20042 20110
20110 20179
20179 20246
20246 20316
20316 20384
20384 20451
20451 20518
20518 20586
20586 20654
20654 20721
20721 20788
20788 20855
20855 20923
20923 20992
20992 21059
21059 21126
21126 21194
21194 21262
21262 21331
21331 21400
21400 21468
21468 21537
21537 21607
21607 21676
21676 21746
21746 21815
21815 21885
21885 21954
21954 22038
22038 22107
22107 22175
22175 22243
22243 22310
22310 22378
22378 22446
22446 22512
22512 22579
22579 22646
22646 22711
22711 22777
22777 22845
22845 22911
22911 22976
22976 23043
23043 23109
23109 23175
23175 23241
23241 23309
23309 23374
23374 23440
23440 23506
23506 23573
23573 23639
23639 23704
23704 23770
23770 23837
23837 23903
23903 23968
23968 24061
24061 24127
24127 24193
24193 24258
24258 24323
24323 24388
24388 24454
24454 24519
24519 24585
24585 24650
24650 24716
24716 24782
24782 24847
24847 24913
24913 24978
24978 25044
25044 25110
25110 25175
25175 25240
25240 25305
25305 25370
25370 25434
25434 25498
25498 25562
25562 25626
25626 25691
25691 25754
25754 25818
25818 25881
25881 25945
25945 26008
26008 26072
26072 26136
26136 26199
26199 26262
26262 26326
26326 26391
26391 26455
26455 26519
26519 26583
26583 26647
26647 26712
26712 26776
26776 26840
26840 26904
26904 26968
26968 27032
27032 27096
27096 27161
27161 27224
27224 27288
27288 27352
27352 27416
27416 27480
27480 27545
27545 27608
27608 27672
27672 27737
27737 27801
27801 27865
27865 27930
27930 27995
27995 28060
28060 28126
28126 28189
28189 28254
28254 28318
28318 28383
28383 28447
28447 28511
28511 28575
28575 28639
28639 28704
28704 28768
28768 28832
28832 28895
28895 28959
28959 29024
29024 29089
29089 29152
29152 29217
29217 29282
29282 29347
29347 29413
29413 29479
29479 29547
29547 29613
29613 29679
29679 29745
29745 29812
29812 29878
29878 29945
29945 30011
30011 30076
30076 30142
30142 30208
30208 30274
30274 30341
30341 30407
30407 30473
30473 30539
30539 30605
30605 30671
30671 30739
30739 30806
30806 30872
30872 30938
30938 31004
31004 31071
31071 31138
31138 31205
31205 31271
31271 31337
31337 31404
31404 31471
31471 31538
31538 31605
31605 31671
31671 31738
31738 31805
31805 31872
31872 31941
31941 32008
32008 32076
32076 32143
32143 32211
32211 32279
32279 32348
32348 32417
32417 32485
32485 32553
32553 32621
32621 32689
32689 32758
32758 32826
32826 32894
32894 32962
