109 169
109 169
169 230
414 475
475 537
660 721
721 783
783 907
907 981
907 981
1101 1213
1213 1288
1288 1400
1400 1475
1475 1586
1586 1662
1662 1775
1775 1850
1850 2047
2047 2107
2107 2166
2166 2225
2225 2285
2285 2345
2345 2406
2406 2466
2466 2526
2526 2585
2585 2645
2645 2705
2705 2766
2766 2826
2826 2945
2945 3005
3005 3069
3069 3177
3177 3253
3253 3362
3362 3437
3437 3545
3545 3620
3620 3731
3731 3805
3805 3916
3916 3991
3991 4034
