1916 1999
3908 3990
5077 5158
5158 5240
6222 6305
6305 6388
6388 6446
7441 7523
7523 7606
7606 7689
7689 7772
7772 7854
7854 7937
7937 8019
8019 8101
8101 8183
8183 8264
8264 8345
8345 8426
8426 8506
8506 8586
8586 8666
8666 8745
8745 8825
8825 8905
8905 8985
8985 9045
9045 9128
9128 9211
9211 9294
9294 9377
9377 9461
9461 9545
9545 9630
9630 9714
9714 9799
9799 9884
9884 9968
9968 10052
10052 10136
10136 10220
10220 10304
10304 10387
10387 10471
10471 10554
10554 10636
10636 10718
10718 10800
10800 10882
10882 10964
10964 11045
11045 11127
11127 11208
11208 11290
11290 11370
11370 11452
11452 11533
11533 11616
11616 11698
11698 11780
11780 11863
11863 11945
11945 12028
12028 12111
12111 12194
12194 12276
12276 12358
12358 12440
12440 12522
12522 12603
12603 12684
12684 12764
12764 12844
12844 12924
12924 13003
13003 13083
13083 13163
13163 13243
13243 13323
13323 13403
13403 13483
13483 13564
13564 13646
13646 13728
13728 13811
13811 13893
13893 13976
13976 14059
14059 14142
14142 14226
14226 14310
14310 14394
14394 14478
14478 14562
14562 14646
14646 14729
14729 14813
14813 14896
14896 14979
14979 15062
15062 15145
15145 15228
15228 15311
15311 15393
15393 15475
15475 15558
15558 15641
15641 15723
15723 15806
15806 15888
15888 15970
15970 16100
16100 16183
16183 16265
16265 16347
16347 16429
16429 16512
16512 16594
16594 16676
16676 16758
16758 16840
16840 16921
16921 17003
17003 17052
17052 17132
17132 17213
17213 17294
17294 17376
17376 17458
17458 17541
17541 17624
17624 17707
17707 17790
17790 17873
17873 17958
17958 18041
18041 18125
18125 18208
18208 18291
18291 18373
18373 18457
18457 18540
18540 18622
18622 18705
18705 18787
18787 18869
18869 18951
18951 19033
19033 19115
19115 19197
19197 19280
19280 19363
19363 19445
19445 19503
19503 19584
19584 19667
19667 19749
19749 19832
19832 19914
19914 19995
19995 20077
20077 20158
20158 20239
20239 20320
20320 20401
20401 20482
20482 20563
20563 20645
20645 20727
20727 20809
20809 20892
20892 20975
20975 21058
21058 21143
21143 21228
21228 21312
21312 21397
21397 21482
21482 21567
21567 21652
21652 21737
21737 21821
21821 21905
21905 21989
21989 22073
22073 22156
22156 22238
22238 22321
22321 22405
22405 22489
22489 22574
22574 22657
22657 22741
22741 22825
22825 22909
22909 22993
22993 23077
23077 23160
23160 23244
23244 23328
23328 23412
23412 23496
23496 23580
23580 23664
23664 23747
23747 23830
23830 23912
23912 23994
23994 24077
24077 24159
24159 24241
24241 24324
24324 24406
24406 24488
24488 24571
24571 24652
24652 24734
24734 24815
24815 24895
24895 24976
24976 25056
25056 25137
25137 25217
25217 25298
25298 25378
25378 25458
25458 25538
25538 25619
25619 25700
25700 25781
25781 25863
25863 25945
25945 26028
26028 26090
26090 26171
26171 26253
26253 26334
26334 26415
26415 26496
26496 26576
26576 26656
26656 26736
26736 26815
26815 26895
26895 26974
26974 27054
27054 27134
27134 27213
27213 27293
27293 27373
27373 27452
27452 27532
27532 27611
27611 27691
27691 27770
27770 27850
27850 27929
27929 28010
28010 28090
28090 28170
28170 28250
28250 28330
28330 28409
28409 28489
28489 28568
28568 28648
28648 28727
28727 28807
28807 28886
28886 28966
28966 29045
29045 29124
29124 29204
29204 29283
29283 29362
29362 29442
29442 29520
29520 29600
29600 29678
29678 29758
29758 29837
29837 29916
29916 29995
29995 30073
30073 30151
30151 30229
30229 30307
30307 30385
30385 30464
30464 30541
30541 30620
30620 30698
30698 30775
30775 30852
30852 30929
30929 31006
31006 31105
31105 31183
31183 31260
31260 31338
31338 31416
31416 31494
31494 31572
31572 31651
31651 31731
31731 31811
31811 31892
31892 31975
31975 32056
32056 32138
32138 32220
32220 32302
32302 32384
32384 32467
32467 32550
32550 32633
32633 32716
32716 32798
32798 32881
32881 32963
32963 33071
33071 33151
33151 33231
33231 33310
33310 33390
33390 33470
33470 33550
33550 33630
33630 33710
33710 33791
33791 33873
33873 33954
33954 34035
34035 34117
34117 34198
34198 34279
34279 34361
34361 34443
34443 34525
34525 34607
34607 34689
34689 34770
34770 34851
34851 34932
34932 35013
35013 35094
35094 35175
35175 35256
35256 35337
35337 35418
35418 35499
35499 35580
35580 35660
35660 35742
35742 35823
35823 35905
35905 35986
35986 36068
36068 36149
36149 36230
36230 36310
36310 36391
36391 36472
36472 36553
36553 36633
36633 36712
36712 36791
36791 36871
36871 36950
36950 37029
37029 37109
37109 37188
37188 37268
37268 37348
37348 37428
37428 37509
37509 37589
37589 37669
37669 37750
37750 37831
37831 37912
37912 37993
37993 38073
38073 38154
38154 38235
38235 38316
38316 38397
38397 38478
38478 38559
38559 38639
38639 38719
38719 38798
38798 38878
38878 38957
38957 39036
39036 39114
39114 39191
39191 39269
39269 39346
39346 39422
