7 53
53 124
124 195
195 266
266 337
337 408
408 479
479 551
551 621
621 692
692 764
907 978
978 1042
1042 1115
1115 1187
1187 1259
1259 1331
1331 1403
1403 1476
1476 1547
1547 1619
1619 1691
1691 1763
1763 1836
1836 1908
1908 1980
1980 2042
2042 2114
2114 2185
2185 2257
2257 2328
2328 2399
2399 2470
2470 2542
2542 2613
2613 2684
2684 2755
2755 2827
2827 2898
2898 2969
2969 3090
3090 3163
3163 3235
3235 3307
3307 3430
3430 3502
3502 3575
3575 3647
