9948 10135
11928 12077
12077 12184
12184 12290
12290 12397
12397 12504
12504 12585
12585 12692
12692 12798
12798 12904
12904 13010
13010 13117
13117 13224
13224 13331
13331 13438
13438 13545
13545 13652
13652 13760
13760 13866
13866 13973
13973 14080
14080 14186
14186 14293
14293 14400
14400 14507
14507 14614
14614 14721
14721 14828
14828 14936
14936 15042
15042 15149
15149 15256
15256 15363
15363 15470
15470 15577
15577 15684
15684 15790
15790 15897
15897 16003
16003 16110
16110 16217
16217 16324
16324 16432
16432 16539
16539 16646
16646 16753
16753 16859
16859 16965
16965 17072
17072 17179
17179 17286
17286 17393
17393 17500
17500 17607
17607 17715
17715 17822
17822 17929
17929 18035
18035 18142
18142 18250
18250 18357
18357 18465
18465 18572
18572 18680
18680 18788
18788 18895
18895 19003
19003 19109
19109 19216
19216 19322
19322 19429
19429 19536
19536 19643
19643 19749
19749 19856
19856 19963
19963 20070
20070 20177
20177 20283
20283 20365
20365 20472
20472 20579
20579 20686
20686 20793
20793 20899
20899 21005
21005 21062
21062 21168
21168 21274
21274 21381
21381 21487
21487 21593
21593 21700
21700 21808
21808 21915
21915 22022
22022 22129
22129 22236
22236 22342
22342 22449
22449 22557
22557 22664
22664 22771
22771 22877
22877 22983
22983 23089
23089 23195
23195 23301
23301 23382
23382 23488
23488 23595
23595 23702
23702 23810
23810 23917
23917 24024
24024 24132
24132 24238
24238 24344
24344 24450
24450 24556
24556 24662
24662 24768
24768 24875
24875 24981
24981 25088
25088 25194
25194 25300
25300 25406
25406 25512
25512 25619
25619 25727
25727 25834
25834 25942
25942 26049
26049 26156
26156 26263
26263 26370
26370 26476
26476 26584
26584 26691
26691 26798
26798 26906
26906 27014
27014 27122
27122 27230
27230 27337
27337 27444
27444 27551
27551 27658
27658 27765
27765 27871
27871 27978
27978 28085
28085 28192
28192 28300
28300 28407
28407 28515
28515 28623
28623 28731
28731 28839
28839 28946
28946 29053
29053 29160
29160 29266
29266 29372
29372 29478
29478 29585
29585 29693
29693 29801
29801 29908
29908 30016
30016 30064
30064 30171
30171 30278
30278 30359
30359 30466
30466 30655
30655 30762
30762 30870
30870 30978
30978 31086
31086 31194
31194 31302
31302 31409
31409 31516
31516 31624
31624 31731
31731 31838
31838 31944
31944 32051
32051 32133
32133 32240
32240 32347
32347 32455
32455 32562
32562 32669
32669 32777
32777 32885
32885 32992
32992 33047
33047 33154
33154 33262
33262 33452
33452 33560
33560 33668
33668 33750
33750 33857
33857 33965
33965 34072
34072 34178
34178 34285
34285 34391
34391 34497
34497 34605
34605 34712
34712 34819
34819 34927
34927 35010
35010 35119
35119 35227
35227 35335
35335 35442
35442 35550
35550 35657
35657 35764
35764 35872
35872 35980
35980 36088
36088 36195
36195 36277
36277 36383
36383 36489
36489 36596
36596 36703
36703 36811
36811 36918
36918 36999
36999 37106
37106 37212
37212 37319
37319 37426
37426 37533
37533 37640
37640 37748
37748 37855
37855 37963
37963 38070
38070 38178
38178 38285
38285 38392
38392 38499
38499 38606
38606 38714
38714 38821
38821 38928
38928 39062
39062 39169
39169 39277
39277 39384
39384 39467
39467 39574
39574 39680
39680 39787
39787 39893
39893 39974
39974 40080
40080 40187
40187 40295
40295 40402
40402 40510
40510 40617
40617 40725
40725 40833
40833 40941
40941 41048
41048 41155
41155 41263
41263 41371
41371 41479
41479 41587
41587 41695
41695 41803
41803 41886
41886 41993
41993 42100
42100 42207
42207 42314
42314 42422
42422 42529
42529 42636
42636 42718
42718 42825
42825 42931
42931 43039
43039 43146
43146 43254
43254 43362
43362 43469
43469 43576
43576 43683
43683 43789
43789 43871
43871 43978
43978 44085
44085 44193
44193 44301
44301 44408
44408 44516
44516 44624
44624 44731
44731 44837
44837 44944
44944 45027
45027 45135
45135 45243
45243 45351
45351 45458
45458 45565
45565 45671
45671 45778
45778 45885
45885 45993
45993 46101
46101 46208
46208 46316
46316 46423
46423 46530
46530 46637
46637 46745
46745 46852
46852 46960
46960 47067
47067 47175
47175 47283
47283 47391
47391 47499
47499 47582
47582 47689
47689 47797
47797 47880
47880 47987
47987 48095
48095 48203
48203 48312
48312 48395
48395 48502
48502 48610
48610 48717
48717 48824
48824 48931
48931 49039
49039 49146
49146 49253
49253 49360
49360 49467
49467 49576
49576 49684
49684 49792
49792 49900
49900 50008
50008 50089
50089 50197
50197 50305
50305 50387
50387 50495
50495 50601
50601 50708
50708 50789
50789 50897
50897 51004
51004 51079
51079 51186
51186 51293
51293 51400
51400 51508
51508 51616
51616 51700
51700 51808
51808 51917
51917 52061
52061 52169
52169 52276
52276 52383
52383 52490
52490 52598
52598 52706
52706 52815
52815 52923
52923 53006
53006 53060
53060 53168
53168 53276
53276 53384
53384 53467
53467 53575
53575 53682
53682 53789
53789 53897
53897 54005
54005 54081
54081 54188
54188 54296
54296 54403
54403 54511
54511 54619
54619 54725
54725 54832
