6 58
964 1088
7550 7638
7638 7703
19958 20066
22958 23080
33034 33120
33120 33184
37866 37951
37951 38036
38036 38100
43845 43932
43932 44020
44020 44062
44851 44939
44939 45029
45029 45072
46842 46932
46932 47021
