4102 4177
4325 4398
12577 12652
12652 12727
14063 14137
14137 14210
14210 14284
14284 14358
14358 14432
14432 14506
14506 14579
14579 14653
14653 14727
14727 14800
14947 15050
15050 15123
15123 15196
15196 15269
15269 15342
15342 15415
15415 15488
15488 15561
15707 15780
15780 15853
15853 15926
15926 15999
15999 16099
16099 16171
16099 16171
16171 16243
16243 16315
16315 16387
16387 16459
16459 16532
16532 16604
16604 16677
16677 16749
16749 16822
16822 16895
16895 16968
16968 17040
17040 17113
17113 17185
17185 17258
17258 17330
17330 17403
17403 17476
17476 17548
17548 17621
17621 17693
17693 17766
17766 17838
17838 17911
17911 17984
17984 18056
18056 18129
18129 18201
18201 18274
18274 18346
18346 18419
18419 18492
18492 18565
18565 18638
18638 18711
18711 18784
18784 18857
18857 18930
18930 19002
19002 19075
19075 19147
19147 19220
19220 19292
19292 19365
19365 19437
19437 19510
19510 19582
19582 19655
19655 19727
19727 19800
19800 19872
19872 19945
19945 20017
20017 20089
20089 20162
20162 20235
20235 20307
20307 20379
20379 20452
20452 20524
20669 20741
20741 20814
20814 20886
20886 20959
20959 21055
21055 21128
21128 21201
21201 21273
21273 21346
21346 21419
21419 21491
21491 21564
21564 21636
21636 21709
21709 21782
21782 21854
21854 21927
21927 21999
21999 22072
22072 22144
22144 22217
22217 22289
22289 22362
22362 22434
22434 22507
22507 22579
22579 22652
22652 22724
22724 22797
22797 22870
22870 22942
22942 23015
23015 23087
23087 23160
23160 23233
23233 23305
23305 23451
23451 23524
23524 23670
23670 23743
23743 23815
23815 23888
23888 23961
23961 24034
24034 24107
24107 24180
24180 24253
24253 24326
24326 24399
24399 24472
24472 24545
24545 24619
24619 24691
24691 24765
24765 24838
24838 24911
24911 24984
24984 25057
25057 25130
25130 25203
25203 25276
25276 25349
25349 25422
25422 25495
25495 25568
25568 25641
25641 25714
25714 25787
25787 25860
25860 25933
25933 26006
26006 26079
26079 26151
26151 26224
26224 26297
26297 26370
26370 26443
26443 26516
26516 26588
26588 26661
26661 26733
26733 26806
26806 26879
26879 26951
26951 27024
27024 27096
27096 27169
27169 27241
27241 27314
27314 27386
27386 27459
27459 27532
27532 27604
27604 27677
27677 27750
27750 27823
27823 27896
27896 27969
27969 28042
28042 28114
28114 28187
28187 28260
28260 28333
28333 28406
28406 28479
28479 28552
28552 28625
28625 28699
28699 28772
28772 28845
28845 28919
28919 28992
28992 29066
29066 29139
29139 29213
29213 29287
29287 29360
29360 29434
29434 29508
29508 29581
29581 29654
29654 29728
29728 29801
29801 29875
29875 29948
29948 30022
30022 30096
30096 30169
30169 30243
30243 30316
30316 30390
30390 30464
30464 30538
30538 30611
30611 30685
30685 30758
30758 30832
30832 30905
30905 30979
30979 31053
31053 31126
31126 31200
31200 31274
31274 31347
31347 31421
31421 31494
31494 31568
31568 31641
31641 31715
31715 31788
31788 31861
31861 31934
31934 32008
32008 32081
32081 32154
32154 32227
32227 32300
32300 32373
32373 32446
32446 32520
32520 32593
32593 32666
32666 32739
32739 32813
32813 32886
32886 32960
32960 33033
33033 33107
33107 33180
33180 33254
33254 33327
33327 33401
33401 33474
33474 33548
33548 33622
33622 33695
33695 33769
33769 33843
33843 33916
33916 33990
33990 34064
34064 34138
34138 34212
34212 34285
34285 34359
34359 34433
34433 34507
34507 34581
34581 34655
34655 34729
34729 34803
34803 34877
34877 34950
34950 35024
35024 35098
35098 35172
35172 35246
35246 35320
35320 35395
35395 35469
35469 35543
35543 35617
35617 35692
35692 35766
35766 35840
35840 35914
35914 35989
35989 36063
36063 36138
36138 36212
36212 36287
36287 36361
36361 36436
36436 36510
36510 36585
36585 36660
36660 36734
36734 36809
36809 36884
36884 36958
36958 37033
37033 37107
37107 37182
37182 37257
37257 37332
37332 37406
37406 37481
37481 37556
37556 37631
37631 37706
37706 37781
37781 37856
37856 37931
37931 38005
38005 38080
38080 38155
38155 38230
38230 38305
38305 38380
38380 38455
38455 38530
38530 38605
38605 38679
38679 38754
38754 38829
38829 38904
38904 38979
38979 39054
39054 39129
39129 39204
39204 39278
39278 39353
39353 39428
39428 39503
39503 39578
39578 39653
39653 39728
39728 39803
39803 39878
39878 39952
39952 40027
40027 40102
40102 40177
40177 40251
40251 40326
40326 40401
40401 40476
40476 40550
40550 40625
40625 40700
40700 40775
40775 40849
40849 40924
40924 40999
40999 41074
41074 41148
41148 41223
41223 41298
41298 41372
41372 41447
41447 41521
41521 41596
41596 41670
41670 41745
41745 41819
41819 41894
41894 41968
41968 42043
42043 42117
42117 42192
42192 42266
42266 42341
42341 42416
42416 42490
42490 42565
42565 42640
42640 42714
42714 42789
42789 42864
42864 42939
42939 43013
43013 43088
43088 43163
43163 43237
43237 43312
43312 43386
43386 43461
43461 43536
43536 43610
43610 43685
43685 43760
43760 43834
43834 43909
43909 43984
43984 44059
44059 44134
44134 44209
44209 44284
44284 44359
44359 44434
44434 44509
44509 44583
44583 44658
44658 44733
44733 44807
44807 44882
44882 44956
44956 45031
45031 45105
45105 45180
45180 45254
45254 45328
45328 45402
45402 45477
45477 45551
45551 45625
45625 45700
45700 45774
45774 45849
45849 45923
45923 45998
45998 46073
46073 46147
46147 46222
46222 46297
46297 46372
46372 46446
46446 46521
46521 46596
46596 46671
46671 46745
46745 46820
46820 46895
46895 46970
46970 47045
47045 47120
47120 47195
47195 47271
47271 47346
47346 47421
47421 47496
47496 47571
47571 47646
47646 47721
47721 47796
47796 47872
47872 47947
47947 48022
48022 48097
48097 48172
48172 48247
48247 48322
48322 48397
48397 48472
48472 48547
48547 48622
48622 48697
48697 48772
48772 48847
48847 48922
48922 48997
48997 49072
49072 49147
49147 49222
49222 49297
49297 49372
49372 49447
49447 49522
49522 49597
49597 49672
49672 49747
49747 49822
49822 49896
49896 49971
49971 50046
50046 50120
50120 50195
50195 50269
50269 50344
50344 50418
50418 50493
50493 50567
50567 50641
50641 50716
50716 50790
50790 50864
50864 50939
50939 51014
51014 51088
51088 51163
51163 51237
51237 51312
51312 51387
51387 51462
51462 51537
51537 51612
51612 51687
51687 51762
51762 51837
51837 51912
51912 51987
51987 52062
52062 52137
52137 52212
52212 52287
52287 52362
52362 52437
52437 52512
52512 52587
52587 52662
52662 52737
52737 52812
52812 52887
52887 52962
52962 53037
53037 53112
53112 53187
53187 53262
53262 53336
53336 53411
53411 53487
53487 53561
53561 53636
53636 53711
53711 53786
53786 53861
53861 53936
53936 54011
54011 54086
54086 54161
54161 54235
54235 54310
54310 54385
54385 54460
54460 54535
54535 54610
54610 54684
54684 54759
54759 54834
54834 54909
54909 54984
54984 55059
55059 55133
55133 55208
55208 55283
55283 55358
55358 55433
55433 55508
55508 55583
55583 55658
55658 55733
55733 55808
55808 55883
55883 55958
55958 56033
56033 56108
56108 56183
56183 56259
56259 56334
56334 56409
56409 56484
56484 56559
56559 56634
56634 56709
56709 56784
56784 56859
56859 56935
56935 57010
57010 57085
57085 57160
57160 57235
57235 57310
57310 57385
57385 57460
57460 57535
57535 57610
57610 57685
57685 57760
57760 57835
57835 57910
57910 57985
57985 58060
58060 58135
58135 58210
58210 58285
58285 58360
58360 58435
58435 58510
58510 58585
58585 58660
58660 58735
58735 58810
58810 58885
58885 58960
58960 59035
59035 59110
59110 59185
59185 59260
59260 59335
59335 59411
59411 59486
59486 59561
59561 59636
59636 59711
59711 59786
59786 59861
59861 59936
59936 60012
60012 60087
60087 60162
60162 60237
60237 60312
60312 60387
60387 60462
60462 60537
60537 60612
60612 60687
60687 60762
60762 60837
60837 60912
60912 60987
60987 61062
61062 61137
61137 61212
61212 61287
61287 61362
61362 61437
61437 61512
61512 61587
61587 61662
61662 61737
61737 61811
61811 61887
61887 61961
61961 62036
62036 62111
62111 62186
62186 62260
62260 62335
62335 62410
62410 62484
62484 62559
62559 62634
62634 62709
62709 62784
62784 62859
62859 62934
62934 63009
63009 63084
63084 63159
63159 63234
63234 63309
63309 63384
63384 63459
63459 63534
63534 63609
63609 63684
63684 63760
63760 63835
63835 63910
63910 63985
63985 64060
64060 64135
64135 64210
64210 64284
64284 64360
