71 171
671 711
711 773
773 872
872 926
926 1026
1026 1130
1130 1228
1228 1328
1328 1427
1427 1528
1528 1627
1627 1728
1728 1828
1828 1926
1926 2026
2026 2125
2125 2226
2226 2325
2325 2427
2427 2526
2526 2628
2628 2727
2727 2828
2828 2928
2928 3028
3028 3128
3128 3231
3231 3333
3333 3434
3434 3537
3537 3638
3638 3741
3741 3842
3842 3944
3944 4045
4045 4145
4145 4246
4246 4346
4346 4446
4446 4545
4545 4646
4646 4745
4745 4847
4847 4947
4947 5049
5049 5150
5150 5251
5251 5351
5351 5453
5453 5554
5554 5654
5654 5755
5755 5854
5854 5956
5956 6056
6056 6157
6157 6257
6257 6357
6357 6457
6457 6557
6557 6658
6658 6757
6757 6858
6858 6957
6957 7059
7059 7158
7158 7260
7260 7360
7360 7459
7459 7560
7560 7658
7658 7759
7759 7858
7858 7959
7959 8065
8065 8166
8166 8266
8266 8366
8366 8467
8467 8566
8566 8668
8668 8768
8768 8869
8869 8969
8969 9068
9068 9168
9168 9242
9242 9364
9364 9467
9467 9567
9567 9668
9668 9769
9769 9868
9868 9969
9969 10050
10050 10153
10153 10253
10253 10357
10357 10458
10458 10559
10559 10661
10661 10761
10761 10863
10863 10962
10962 11074
11074 11177
11177 11278
11278 11380
11380 11481
11481 11581
11581 11683
11683 11783
11783 11885
11885 11985
11985 12082
12082 12187
12187 12293
12293 12398
12398 12503
12503 12608
12608 12713
12713 12819
12819 12923
12923 13043
13043 13146
13146 13249
13249 13354
13354 13457
13457 13561
13561 13665
13665 13768
13768 13871
13871 13974
13974 14078
14078 14181
14181 14284
14284 14491
14491 14594
14594 14697
14697 14800
14800 14903
14903 15006
15006 15109
15109 15212
15212 15315
15315 15418
15418 15521
15521 15624
15624 15665
15665 15727
15727 15832
15832 15935
15935 16039
16039 16142
16142 16245
16245 16349
16349 16451
16451 16555
16555 16658
16658 16761
16761 16863
16863 16967
16967 17079
17079 17183
17183 17286
17286 17391
17391 17494
17494 17599
17599 17702
17702 17807
17807 17911
17911 18015
18015 18052
18052 18155
18155 18258
18258 18361
18361 18465
18465 18568
18568 18672
18672 18776
18776 18880
18880 19075
19075 19180
19180 19285
19285 19389
19389 19601
19601 19705
19705 19811
19811 19916
19916 20022
20022 20065
20065 20168
20168 20272
20272 20377
20377 20480
20480 20585
20585 20688
20688 20793
20793 20897
20897 21001
21001 21105
21105 21208
21208 21311
21311 21414
21414 21517
21517 21620
21620 21724
21724 21827
21827 21931
21931 22034
22034 22138
22138 22241
22241 22345
22345 22448
22448 22553
22553 22657
22657 22761
22761 22864
22864 22967
22967 23070
23070 23172
23172 23275
23275 23378
23378 23481
23481 23584
23584 23686
23686 23788
23788 23890
23890 23991
23991 24093
24093 24195
24195 24297
24297 24400
24400 24502
24502 24606
