2235 2306
2235 2306
2306 2374
2374 2443
2443 2512
2512 2583
2583 2653
2653 2723
2723 2792
2792 2862
2862 2933
3041 3109
3109 3179
3179 3247
3247 3316
3316 3384
3384 3453
3453 3521
3521 3588
3588 3656
3656 3723
3723 3792
3792 3859
3859 3928
3928 3995
3995 4039
4039 4106
4106 4176
4176 4244
4244 4312
4312 4380
4380 4449
4449 4518
4518 4587
4587 4655
4655 4724
4724 4793
4793 4861
4861 4930
4930 4999
4999 5068
5068 5144
5144 5214
5214 5283
5283 5352
5352 5420
5420 5489
5489 5558
5558 5626
5626 5694
5694 5764
5764 5833
5833 5901
5901 5970
5970 6040
6040 6109
6109 6178
6178 6248
6248 6316
6316 6385
6385 6454
6454 6523
6523 6593
6593 6661
6661 6713
6713 6843
6843 6911
6911 6980
6980 7049
7049 7117
7117 7185
7185 7254
7254 7322
7322 7392
7392 7460
7460 7528
7528 7596
7596 7665
7665 7734
7734 7802
7802 7871
7871 7940
7940 8009
8009 8079
8079 8147
8147 8215
8215 8285
8285 8354
8354 8422
8422 8491
8491 8561
8561 8630
8630 8699
8699 8768
8768 8838
8838 8907
8907 8976
8976 9044
9044 9114
9114 9182
9182 9251
9251 9320
9320 9390
9390 9458
9458 9527
9527 9595
9595 9665
9665 9733
9733 9801
9801 9870
9870 9939
9939 10008
10008 10076
10076 10145
10145 10215
10215 10283
10283 10351
10351 10420
10420 10490
10490 10558
10558 10628
10628 10696
10696 10766
10766 10836
10836 10904
10904 10972
10972 11041
11041 11111
11111 11179
11179 11249
11249 11317
11317 11387
11387 11456
11456 11525
11525 11593
11593 11662
11662 11731
11731 11800
11800 11868
11868 11938
11938 12007
12007 12076
12076 12144
12144 12214
12214 12281
12281 12350
12350 12418
12418 12461
12461 12531
12531 12600
12600 12668
12668 12738
12738 12806
12806 12875
12875 12944
12944 13013
13013 13083
13083 13152
13152 13220
13220 13289
13289 13347
13347 13427
13427 13497
13497 13565
13565 13635
13635 13703
13703 13772
13772 13841
13841 13910
13910 13978
13978 14046
14046 14115
14115 14186
14186 14254
14254 14323
14323 14391
14391 14461
14461 14529
14529 14598
14598 14667
14667 14736
14736 14805
14805 14875
14875 14944
14944 15012
15012 15081
15081 15149
15149 15219
15219 15287
15287 15356
15356 15424
15424 15480
15480 15562
15562 15631
15631 15699
15699 15769
15769 15837
15837 15892
15892 15976
15976 16045
16045 16114
16114 16183
16183 16265
16265 16334
16334 16403
16403 16471
16471 16540
16540 16608
16608 16677
16677 16745
16745 16813
16813 16881
16881 16949
16949 17017
17017 17086
17086 17154
17154 17222
17222 17291
17291 17360
17360 17427
17427 17485
17485 17564
17564 17634
17634 17702
17702 17772
17772 17840
17840 17909
17909 17978
17978 18048
18048 18117
18117 18186
18186 18255
18255 18324
18324 18394
18394 18462
18462 18530
18530 18598
18598 18667
18667 18733
18733 18803
18803 18873
18873 18940
18940 19010
19010 19078
19078 19147
19147 19215
19215 19286
19286 19356
19356 19425
19425 19495
19495 19565
19565 19635
19635 19704
19704 19772
19772 19841
19841 19909
19909 19979
19979 20047
20047 20116
20116 20184
20184 20253
20253 20321
20321 20365
20365 20433
20433 20502
20502 20571
20571 20615
20615 20684
20684 20752
20752 20820
20820 20890
20890 20958
20958 21027
21027 21093
21093 21162
21162 21230
21230 21297
21297 21365
21365 21432
21432 21501
21501 21569
21569 21637
21637 21706
21706 21775
21775 21844
21844 21912
21912 21982
21982 22050
22050 22119
22119 22188
22188 22232
22232 22302
22302 22370
22370 22439
22439 22509
22509 22577
22577 22646
22646 22714
22714 22783
22783 22852
22852 22922
22922 22991
22991 23060
23060 23129
23129 23197
23197 23266
23266 23334
23334 23402
23402 23471
23471 23538
23538 23607
23607 23677
23677 23747
23747 23816
23816 23886
23886 23955
23955 24036
24036 24121
24121 24190
24190 24258
24258 24328
24328 24396
24396 24465
24465 24534
24534 24603
24603 24673
24673 24741
24741 24809
24809 24877
24877 24944
24944 25011
25011 25080
25080 25147
25147 25215
25215 25283
25283 25352
25352 25422
25422 25492
25492 25562
25562 25632
25632 25702
25702 25771
25771 25841
25841 25910
25910 25980
25980 26048
26048 26118
26118 26188
26188 26257
26257 26327
26327 26396
26396 26466
26466 26535
26535 26604
26604 26673
26673 26743
26743 26812
26812 26881
26881 26950
26950 27019
27019 27088
27088 27157
27157 27226
27226 27295
27295 27363
27363 27432
27432 27500
27500 27569
27569 27638
27638 27706
27706 27775
27775 27820
27820 27889
27889 27958
27958 28028
28028 28097
28097 28167
28167 28237
28237 28282
28282 28353
28353 28421
28421 28466
28466 28536
28536 28606
28606 28675
28675 28746
28746 28815
28815 28885
28885 28955
28955 29026
29026 29096
29096 29165
29165 29235
29235 29305
29305 29375
29375 29444
29444 29513
29513 29583
29583 29652
29652 29721
29721 29791
29791 29859
29859 29928
29928 29997
29997 30066
30066 30135
30135 30204
30204 30273
30273 30343
30343 30412
30412 30482
30482 30551
30551 30620
30620 30689
30689 30759
30759 30828
30828 30897
30897 30965
30965 31034
31034 31103
31103 31171
31171 31239
31239 31308
31308 31376
31376 31444
31444 31512
31512 31581
31581 31650
31650 31719
31719 31787
31787 31855
31855 31924
31924 31994
31994 32064
32064 32133
32133 32202
32202 32271
32271 32340
32340 32411
32411 32479
32479 32548
32548 32617
32617 32684
32684 32754
32754 32823
32823 32891
32891 32960
32960 33030
33030 33099
33099 33170
33170 33239
33239 33309
33309 33424
33424 33493
33493 33563
33563 33634
33634 33703
33703 33773
33773 33843
33843 33911
33911 33981
33981 34039
34039 34108
34108 34177
34177 34245
34245 34313
34313 34382
34382 34451
34451 34520
34520 34588
34588 34657
34657 34727
34727 34796
34796 34866
34866 34935
34935 34987
34987 35043
35043 35113
35113 35182
35182 35250
35250 35319
35319 35389
35389 35458
35458 35527
35527 35597
35597 35666
35666 35736
35736 35805
35805 35876
35876 35944
35944 35997
35997 36047
36047 36115
36115 36183
36183 36252
36252 36320
36320 36390
36390 36458
36458 36526
36526 36594
36594 36663
36663 36731
36731 36800
36800 36869
36869 36937
36937 37006
37006 37074
37074 37144
37144 37213
37213 37282
37282 37351
37351 37420
37420 37491
37491 37561
37561 37631
37631 37700
37700 37753
37753 37839
37839 37884
37884 37952
37952 38020
38020 38089
38089 38157
38157 38226
38226 38294
38294 38361
38361 38429
38429 38496
38496 38565
38565 38633
38633 38701
38701 38770
38770 38838
38838 38908
38908 38976
38976 39053
39053 39121
39121 39189
39189 39256
39256 39324
39324 39392
39392 39459
39459 39527
39527 39595
39595 39662
39662 39744
39744 39811
39811 39878
39878 39990
39990 40057
40057 40126
40126 40194
40194 40263
40263 40330
40330 40399
40399 40469
40469 40537
40537 40605
40605 40673
40673 40742
40742 40811
40811 40878
40878 40940
40940 41015
41015 41084
41084 41152
41152 41222
41222 41290
41290 41359
41359 41427
41427 41495
41495 41564
41564 41632
41632 41700
41700 41752
41752 41836
41836 41905
41905 41973
41973 42041
42041 42109
42109 42178
42178 42246
42246 42313
42313 42382
42382 42449
42449 42518
42518 42585
42585 42653
42653 42722
42722 42790
42790 42857
42857 42925
42925 42993
42993 43061
43061 43130
43130 43198
43198 43267
43267 43335
43335 43378
43378 43447
43447 43491
43491 43560
43560 43628
43628 43697
43697 43766
43766 43834
43834 43903
43903 43971
43971 44040
44040 44108
44108 44177
44177 44245
44245 44313
44313 44381
44381 44450
44450 44518
44518 44587
44587 44655
44655 44723
44723 44793
44793 44860
44860 44929
44929 44996
44996 45066
45066 45134
45134 45202
45202 45270
45270 45339
45339 45408
45408 45476
45476 45545
45545 45614
45614 45683
45683 45751
45751 45821
45821 45891
45891 45961
45961 46030
46030 46098
46098 46169
46169 46238
46238 46308
46308 46376
46376 46446
46446 46515
46515 46585
46585 46654
46654 46724
46724 46793
46793 46861
46861 46931
46931 46985
46985 47069
47069 47140
47140 47202
47202 47277
47277 47347
47347 47417
47417 47485
47485 47554
47554 47622
47622 47691
47691 47759
47759 47816
47816 47896
47896 47965
47965 48033
48033 48090
48090 48169
48169 48238
48238 48349
48349 48415
48415 48484
48484 48550
48550 48617
48617 48686
48686 48753
48753 48820
48820 48889
48889 48956
48956 49023
49023 49092
49092 49160
49160 49229
49229 49296
49296 49366
49366 49433
49433 49501
49501 49568
49568 49636
49636 49704
49704 49772
49772 49840
49840 49908
49908 49976
49976 50042
50042 50110
50110 50178
50178 50246
50246 50314
50314 50381
50381 50451
50451 50518
50518 50587
50587 50655
50655 50723
50723 50791
50791 50858
50858 50926
50926 50994
50994 51062
51062 51129
51129 51197
51197 51264
51264 51331
51331 51400
51400 51468
51468 51536
51536 51605
51605 51673
51673 51741
51741 51810
51810 51878
51878 51946
51946 52015
52015 52083
52083 52151
52151 52220
52220 52288
52288 52355
52355 52398
52398 52467
52467 52534
52534 52603
52603 52670
52670 52739
52739 52807
52807 52874
52874 52942
52942 53009
53009 53077
53077 53144
53144 53213
53213 53280
53280 53349
53349 53416
53416 53484
53484 53552
53552 53622
53622 53691
53691 53760
53760 53828
53828 53898
53898 53966
53966 54035
54035 54102
54102 54170
54170 54239
54239 54307
54307 54376
54376 54442
54442 54511
54511 54578
54578 54647
54647 54714
54714 54783
54783 54851
54851 54920
54920 54990
54990 55057
55057 55127
55127 55197
55197 55267
55267 55336
55336 55408
55408 55478
55478 55549
55549 55618
55618 55690
55690 55765
55765 55837
55837 55908
55908 55979
55979 56050
56050 56118
56118 56187
56187 56256
56256 56324
56324 56392
56392 56461
56461 56529
56529 56597
56597 56666
56666 56734
56734 56803
56803 56872
56872 56941
56941 57011
57011 57080
57080 57149
57149 57218
57218 57288
57288 57357
57357 57426
57426 57495
57495 57564
57564 57632
57632 57701
57701 57770
57770 57839
57839 57906
57906 57975
57975 58043
58043 58112
58112 58182
58182 58250
58250 58319
58319 58387
58387 58457
58457 58524
58524 58593
58593 58661
58661 58730
58730 58798
58798 58866
58866 58934
58934 59002
59002 59071
59071 59140
59140 59207
59207 59276
59276 59345
59345 59413
59413 59482
59482 59550
59550 59619
59619 59687
59687 59755
59755 59823
59823 59892
