2141 2236
2236 2330
7946 8068
9584 9680
9680 9774
9774 9868
9868 9962
9962 10060
10060 10153
10153 10246
10246 10338
10338 10431
10431 10523
10523 10616
10616 10710
10710 10803
10803 10896
10896 10989
10989 11084
11084 11177
11177 11270
11270 11363
11363 11458
11458 11551
11551 11646
11646 11739
11739 11834
11834 11928
12051 12144
12144 12239
12239 12332
12332 12426
12426 12495
12495 12590
12590 12683
12683 12778
12778 12871
12871 12965
12965 13059
13059 13152
13152 13246
13246 13339
13339 13435
13435 13528
13528 13621
13621 13716
13716 13809
13809 13903
13903 13997
13997 14092
14092 14184
14184 14253
14253 14347
14347 14440
14440 14534
14534 14628
14628 14697
14697 14790
14790 14883
14883 14976
14976 15057
15057 15150
15150 15243
15243 15338
15338 15431
15431 15524
15524 15617
15617 15711
15711 15803
15803 15896
15896 15990
15990 16082
16082 16175
16175 16268
16268 16362
16362 16454
16454 16545
16545 16639
16639 16730
16730 16824
16824 16916
16916 17010
17010 17109
17109 17203
17203 17297
17297 17389
17389 17483
17483 17577
17577 17670
17670 17764
17764 17859
17859 17954
17954 18048
18048 18143
18143 18239
18239 18334
18334 18427
18427 18524
18524 18617
18617 18712
18712 18806
18806 18901
18901 18994
18994 19088
19088 19182
19182 19277
19277 19371
19371 19465
19465 19559
19559 19653
19653 19746
19746 19840
19840 19936
20028 20070
20070 20163
20163 20258
20258 20352
20352 20446
20446 20541
20541 20635
20635 20729
20729 20824
20824 20918
20918 21012
21012 21107
21107 21200
21200 21295
21295 21387
21387 21482
21482 21574
21574 21668
21668 21762
21762 21855
21855 21949
21949 22042
22042 22137
22137 22230
22230 22323
22323 22417
22417 22511
22511 22604
22604 22697
22697 22792
22792 22885
22885 22978
22978 23073
23073 23166
23166 23259
23259 23351
23351 23446
23446 23539
23539 23631
23631 23726
23726 23818
23818 23911
23911 24005
24005 24098
24098 24191
24191 24284
24284 24379
24379 24472
24472 24565
24565 24659
24659 24752
24752 24845
24845 24938
24938 25064
25064 25157
25157 25252
25252 25346
25346 25440
25440 25534
25534 25629
25629 25722
25722 25817
25817 25910
25910 26005
26005 26098
26098 26191
26191 26286
26286 26380
26380 26473
26473 26566
26566 26661
26661 26753
26753 26845
26845 26940
26940 27071
27071 27166
27166 27259
27259 27354
27354 27449
27449 27544
27544 27638
27638 27732
27732 27826
27826 27920
27920 28014
28014 28109
28109 28202
28202 28296
28296 28388
28388 28481
28481 28576
28576 28669
28669 28762
28762 28856
28856 28949
28949 29042
29042 29134
29134 29230
29230 29323
29323 29416
29416 29511
29511 29606
29606 29699
29699 29792
29792 29886
29886 29981
29981 30074
30074 30167
30167 30261
30261 30354
30354 30447
30447 30540
30540 30633
30633 30724
30724 30816
30816 30910
30910 31003
31003 31096
31096 31187
31187 31281
31281 31373
31373 31465
31465 31559
31559 31652
31652 31744
31744 31838
31838 31933
31933 32060
32060 32152
32904 32999
32999 33092
33092 33186
33186 33281
33281 33375
33375 33470
33470 33564
33564 33660
33660 33754
33754 33848
33848 33941
33941 34060
34060 34153
34153 34245
34245 34339
34339 34431
34431 34523
34523 34617
34617 34708
34708 34801
34801 34895
34895 34987
34987 35080
35080 35173
35173 35265
35265 35359
35359 35451
35451 35544
35544 35637
35637 35731
35731 35823
35823 35916
35916 36009
36009 36103
36103 36196
36196 36288
36288 36384
36384 36475
36475 36569
36569 36662
36662 36755
36755 36847
36847 36938
36938 37033
37033 37125
37125 37218
37218 37311
37311 37405
37405 37498
37498 37591
37591 37684
37684 37779
37779 37872
37872 37964
37964 38056
38056 38150
38150 38241
38241 38333
38333 38426
38426 38519
38519 38612
38612 38704
38704 38797
38797 38889
38889 38981
38981 39075
39075 39168
39168 39261
39261 39354
39354 39449
39449 39542
39542 39635
39635 39728
39728 39822
39822 39915
39915 40008
40008 40100
40100 40194
40194 40286
40286 40379
40379 40471
40471 40565
40565 40658
40658 40751
40751 40844
40844 40937
41029 41152
42458 42551
42646 42738
42738 42925
42925 43019
43019 43092
43092 43185
43185 43280
43280 43374
43374 43467
43467 43561
43561 43655
43655 43748
43748 43842
43842 43937
44083 44177
44177 44273
44273 44368
44368 44463
44463 44558
44558 44654
44654 44747
44747 44843
44843 44938
44938 45043
45043 45138
45138 45233
45233 45326
45326 45420
45420 45514
45514 45608
45608 45701
45701 45796
45796 45890
45890 45984
45984 46077
46077 46172
46172 46265
46265 46358
46358 46454
46454 46547
46547 46641
46641 46736
46736 46828
46828 46921
47050 47145
