12 109
109 170
935 1020
1020 1057
3782 3870
3870 3958
5826 5915
5915 5979
5979 6039
6039 6103
6103 6193
6193 6282
6282 6371
6371 6461
6461 6549
6549 6639
6639 6727
6727 6817
6817 6906
6906 6995
6995 7063
7063 7151
7151 7241
7241 7329
7329 7418
7418 7506
7506 7595
7595 7684
7684 7772
7772 7861
7861 7950
7950 8016
8016 8106
8106 8194
8194 8284
8284 8373
8373 8462
8462 8553
8553 8642
8642 8732
8732 8822
8822 8911
8911 9001
9001 9091
9091 9180
9180 9269
9269 9360
9360 9449
9449 9538
9538 9629
9629 9718
9718 9806
9806 9897
9897 9986
9986 10075
10075 10164
10164 10253
10253 10343
10343 10432
10432 10522
10522 10612
10612 10700
10700 10791
10791 10880
10880 10968
10968 11059
11059 11148
11148 11238
11238 11327
11327 11417
11417 11505
11505 11594
11594 11683
11683 11771
11771 11860
11860 11948
11948 12099
12099 12187
12187 12276
12276 12365
12365 12454
12454 12542
12542 12629
12629 12719
12719 12807
12807 12894
12894 12984
12984 13072
13072 13161
13161 13251
13251 13340
13340 13430
13430 13519
13519 13609
13609 13697
13697 13788
13788 13877
13877 13966
13966 14032
14032 14122
14122 14210
14210 14298
14298 14388
14388 14475
14475 14563
14563 14650
14650 14740
14740 14827
14827 14915
14915 15003
15003 15090
15090 15179
15179 15267
15267 15355
15355 15442
15442 15531
15531 15619
15619 15706
15706 15796
15796 15884
15884 15972
15972 16062
16062 16151
16151 16240
16240 16329
16329 16418
16418 16506
16506 16594
16594 16684
16684 16773
16773 16862
16862 16951
16951 17040
17040 17130
17130 17219
17219 17309
17309 17399
17399 17488
17488 17578
17578 17667
17667 17757
17757 17846
17846 17935
17935 18024
18024 18113
18113 18202
18202 18292
18292 18380
18380 18469
18469 18558
18558 18647
18647 18735
18735 18822
18822 18911
18911 19000
19000 19039
19039 19129
19129 19217
19217 19305
19305 19395
19395 19484
19484 19572
19572 19661
19661 19749
19749 19838
19838 19927
19927 20015
20015 20102
20102 20189
20189 20276
20276 20364
20364 20451
20451 20537
20537 20624
20624 20711
20711 20799
20799 20885
20885 20972
20972 21034
21034 21122
21122 21209
21209 21297
21297 21385
21385 21473
21473 21561
21561 21649
21649 21737
21737 21824
21824 21911
21911 22000
22000 22087
22087 22175
22175 22262
22262 22350
22350 22437
22437 22525
22525 22614
22614 22701
22701 22788
22788 22875
22875 22963
22963 23057
23057 23144
23144 23232
23232 23319
23319 23407
23407 23494
23494 23582
23582 23670
23670 23757
23757 23845
23845 23933
23933 24020
24020 24072
24072 24159
24159 24247
24247 24334
24334 24421
24421 24507
24507 24595
24595 24681
24681 24768
24768 24853
24853 24941
24941 25028
25028 25115
25115 25203
25203 25290
25290 25377
25377 25464
25464 25552
25552 25640
25640 25728
25728 25815
25815 25904
25904 25991
25991 26079
26079 26168
26168 26255
26255 26344
26344 26431
26431 26520
26520 26608
26608 26696
26696 26783
26783 26873
26873 26960
26960 27048
27048 27137
27137 27226
27226 27314
27314 27402
27402 27491
27491 27580
27580 27667
27667 27757
27757 27845
27845 27933
27933 28046
28046 28134
28134 28222
28222 28309
28309 28397
28397 28484
28484 28573
28573 28661
28661 28749
28749 28838
28838 28927
28927 29016
29016 29107
29107 29197
29197 29286
29286 29376
29376 29466
29466 29556
29556 29645
29645 29734
29734 29823
29823 29912
29912 29976
29976 30064
30064 30153
30153 30242
30242 30330
30330 30418
30418 30506
30506 30595
30595 30683
30683 30772
30772 30859
30859 30948
30948 31037
31037 31125
31125 31212
31212 31301
31301 31388
31388 31477
31477 31565
31565 31653
31653 31741
31741 31831
31831 31919
31919 32007
32007 32096
32096 32185
32185 32274
32274 32363
32363 32451
32451 32541
32541 32630
32630 32719
32719 32808
32808 32898
32898 32987
32987 33076
33076 33167
33167 33256
33256 33345
33345 33434
33434 33524
33524 33613
33613 33702
33702 33792
33792 33881
33881 33969
33969 34057
34057 34145
34145 34235
34235 34323
34323 34412
34412 34501
34501 34566
34566 34656
34656 34745
34745 34835
34835 34925
34925 35015
35015 35125
35125 35209
35209 35294
35294 35378
35378 35462
35462 35546
35546 35630
35630 35717
35717 35801
35801 35885
35885 35970
35970 36055
36055 36139
