1168 1257
1257 1344
3261 3349
3349 3437
3437 3523
3523 3612
3612 3699
3699 3785
3785 3874
3874 3961
3961 4047
4047 4135
4135 4221
4221 4307
4307 4395
4395 4481
4481 4568
4568 4656
4656 4742
4742 4830
4830 4917
4917 5003
5003 5049
5049 5135
5135 5223
5223 5310
5310 5396
5396 5484
5484 5571
5571 5656
5656 5747
5747 5832
5832 5918
5918 6035
6035 6120
6120 6206
6206 6293
6293 6380
6380 6466
6466 6553
6553 6640
6640 6727
6727 6814
6814 6903
6903 6989
6989 7078
7078 7165
7165 7251
7251 7339
7339 7427
7427 7513
7513 7600
7600 7688
7688 7773
7773 7861
7861 7948
7948 8033
8033 8122
8122 8207
8207 8294
8294 8381
8381 8467
8467 8553
8553 8639
8639 8726
8726 8812
8812 8899
8899 8984
8984 9076
9076 9162
9162 9247
9247 9334
9334 9421
9421 9505
9505 9593
9593 9678
9678 9763
9763 9850
9850 9936
9936 10021
10021 10108
10108 10194
10194 10280
10280 10367
10367 10453
10453 10539
10539 10626
10626 10712
10712 10798
10798 10885
10885 10971
10971 11078
11078 11163
11163 11248
11248 11333
11333 11416
11416 11503
11503 11587
11587 11671
11671 11757
11757 11841
11841 11925
11925 12011
12011 12095
12095 12179
12179 12263
12263 12348
12348 12434
12434 12519
12519 12603
12603 12689
12689 12774
12774 12859
12859 12944
12944 13029
13029 13066
13066 13151
13151 13238
13238 13324
13324 13408
13408 13494
13494 13580
13580 13664
13664 13749
13749 13833
13833 13917
13917 14001
14001 14085
14085 14167
14167 14251
14251 14333
14333 14418
14418 14500
14500 14584
14584 14666
14666 14750
14750 14837
14837 14920
14920 15005
15005 15059
15059 15145
15145 15229
15229 15323
15323 15400
15400 15485
15485 15570
15570 15680
15680 15764
15764 15849
15849 15934
15934 16020
16020 16105
16105 16190
16190 16276
16276 16361
16361 16447
16447 16533
16533 16618
16618 16705
16705 16791
16791 16876
16876 16962
16962 17046
17046 17131
17131 17217
17217 17302
17302 17388
17388 17472
17472 17557
17557 17643
17643 17729
17729 17813
17813 17898
17898 18033
18033 18118
18118 18204
18204 18289
18289 18375
18375 18461
18461 18546
18546 18631
18631 18717
18717 18802
18802 18888
18888 18974
18974 19089
19089 19175
19175 19261
19261 19348
19348 19434
19434 19521
19521 19607
19607 19694
19694 19781
19781 19866
19866 19954
19954 20040
20040 20127
20127 20213
20213 20301
20301 20388
20388 20475
20475 20563
20563 20649
20649 20736
20736 20822
20822 20910
20910 20996
20996 21083
21083 21169
21169 21257
21257 21343
21343 21429
21429 21516
21516 21602
21602 21689
21689 21776
21776 21862
21862 21949
21949 22036
22036 22122
22122 22209
22209 22295
22295 22381
22381 22467
22467 22553
22553 22639
22639 22725
22725 22811
22811 22899
22899 22984
22984 23076
23076 23162
23162 23250
23250 23337
23337 23424
23424 23511
23511 23598
23598 23686
23686 23773
23773 23860
23860 23948
23948 24050
24050 24138
24138 24228
24228 24316
24316 24404
24404 24494
24494 24582
24582 24671
24671 24759
24759 24847
24847 24934
24934 25021
25021 25108
25108 25196
25196 25283
25283 25370
25370 25458
25458 25546
25546 25632
25632 25721
25721 25809
25809 25895
25895 25984
25984 26063
26063 26151
26151 26239
26239 26326
26326 26413
26413 26502
26502 26589
26589 26676
26676 26764
26764 26852
26852 26939
26939 27027
27027 27114
27114 27201
27201 27289
27289 27377
27377 27463
27463 27550
27550 27638
27638 27725
27725 27812
27812 27899
27899 27987
27987 28101
28101 28187
28187 28274
28274 28360
28360 28446
28446 28533
28533 28619
28619 28705
28705 28792
28792 28878
28878 28919
28919 29007
29007 29116
29116 29202
29202 29290
29290 29377
29377 29463
29463 29550
29550 29636
29636 29722
29722 29809
29809 29895
29895 29981
29981 30062
30062 30149
30149 30235
30235 30322
30322 30408
30408 30495
30495 30580
30580 30667
30667 30752
30752 30838
30838 30925
30925 31010
31010 31096
31096 31182
31182 31267
31267 31354
31354 31440
31440 31527
31527 31613
31613 31699
31699 31785
31785 31872
31872 31958
31958 32044
32044 32131
32131 32217
32217 32304
32304 32391
32391 32478
32478 32564
32564 32650
32650 32737
32737 32823
32823 32909
32909 32995
32995 33082
33082 33167
33167 33255
33255 33342
33342 33429
33429 33517
33517 33604
33604 33691
33691 33779
33779 33867
33867 33954
33954 34042
34042 34130
34130 34217
34217 34304
34304 34391
34391 34479
34479 34566
34566 34653
34653 34741
34741 34828
34828 34916
34916 35003
35003 35090
35090 35178
35178 35265
35265 35352
35352 35439
35439 35527
35527 35612
35612 35700
35700 35786
35786 35872
35872 35959
35959 36044
36044 36132
36132 36218
36218 36304
36304 36392
36392 36478
36478 36565
36565 36653
36653 36740
36740 36827
36827 36915
36915 37002
37002 37088
37088 37177
37177 37263
37263 37351
37351 37399
37399 37486
37486 37572
37572 37660
37660 37747
37747 37834
37834 37920
37920 38005
38005 38094
38094 38179
38179 38266
38266 38352
38352 38439
38439 38526
38526 38613
38613 38701
38701 38763
38763 38851
38851 38937
38937 39025
39025 39111
39111 39199
39199 39287
39287 39372
39372 39460
39460 39546
39546 39633
39633 39720
39720 39807
39807 39893
39893 39981
39981 40068
40068 40155
40155 40242
40242 40329
40329 40416
40416 40505
40505 40592
40592 40679
40679 40768
40768 40856
40856 40944
40944 41033
41033 41121
41121 41210
41210 41298
41298 41386
41386 41474
41474 41562
41562 41649
41649 41737
41737 41826
41826 41912
41912 41961
41961 42089
42089 42175
42175 42261
42261 42348
42348 42420
42420 42514
42514 42604
42604 42691
42691 42778
42778 42866
42866 42953
42953 43039
43039 43128
43128 43214
43214 43301
43301 43388
43388 43474
43474 43561
43561 43648
43648 43735
43735 43821
43821 43909
43909 43995
43995 44081
44081 44168
44168 44255
44255 44341
44341 44428
44428 44514
44514 44601
