8635 8724
10668 10808
10808 10896
16776 16867
16932 17021
17021 17111
17111 17201
17201 17289
17289 17379
17379 17468
17468 17557
17557 17647
17647 17737
17737 17827
17827 17916
17916 18005
18005 18095
18095 18184
18184 18272
18272 18363
18363 18452
18452 18517
18517 18605
18605 18696
18696 18783
18783 18823
18823 18880
18880 18971
18971 19031
19031 19119
19119 19209
19209 19299
19299 19388
19388 19478
19478 19567
19567 19656
19656 19745
19745 19834
19834 19924
19924 20013
20013 20103
20103 20193
20193 20283
20283 20373
20373 20463
20463 20554
20554 20643
20643 20734
20734 20825
20825 20914
20914 21004
21004 21114
21114 21203
21203 21292
21292 21381
21381 21470
21470 21558
21558 21648
21648 21735
21735 21823
21823 21910
21910 22001
22001 22089
22089 22177
22177 22264
22264 22352
22352 22441
22441 22529
22529 22616
22616 22706
22706 22794
22794 22880
22880 22995
22995 23036
23036 23125
23125 23212
23212 23298
23298 23387
23387 23474
23474 23561
23561 23648
23648 23735
23735 23821
23821 23908
23908 23996
23996 24047
24047 24136
24136 24225
24225 24311
24311 24398
24398 24487
24487 24574
24574 24661
24661 24746
24746 24884
24884 24969
24969 25054
25054 25143
25143 25228
25228 25314
25314 25401
25401 25489
25489 25575
25575 25662
25662 25750
25750 25837
25837 25925
25925 26011
26011 26098
26098 26184
26184 26270
26270 26358
26358 26445
26445 26530
26530 26619
26619 26706
26706 26792
26792 26881
26881 26968
26968 27054
27054 27143
27143 27230
27230 27317
27317 27405
27405 27492
27492 27579
27579 27665
27665 27754
27754 27841
27841 27927
27927 28016
28016 28104
28104 28192
28192 28279
28279 28369
28369 28457
28457 28544
28544 28633
28633 28722
28722 28810
28810 28898
28898 28988
28988 29077
29077 29165
29165 29254
29254 29343
29343 29432
29432 29520
29520 29610
29610 29698
29698 29787
29787 29875
29875 29963
29963 30058
30058 30145
30145 30233
30233 30322
30322 30409
30409 30496
30496 30585
30585 30673
30673 30762
30762 30849
30849 30937
30937 31026
31026 31115
31115 31201
31201 31291
31291 31379
31379 31466
31466 31554
31554 31644
31644 31732
31732 31820
31820 31908
31908 31996
31996 32084
32084 32171
32171 32259
32259 32346
32346 32433
32433 32519
32519 32609
32609 32695
32695 32781
32781 32870
32870 32957
32957 33056
33056 33143
33143 33232
33232 33321
33321 33409
33409 33498
33498 33587
33587 33675
33675 33764
33764 33852
33852 33939
33939 34028
34028 34116
34116 34203
34203 34292
34292 34381
34381 34470
34470 34559
34559 34649
34649 34737
34737 34825
34825 34915
34915 35004
35004 35091
35091 35180
35180 35266
35266 35353
35353 35441
35441 35528
35528 35615
35615 35702
35702 35789
35789 35878
35878 35965
35965 36051
36051 36138
36138 36225
36225 36313
36313 36400
36400 36489
36489 36577
36577 36665
36665 36752
36752 36842
36842 36929
36929 37018
37018 37107
37107 37196
37196 37283
37283 37370
37370 37458
37458 37544
37544 37631
37631 37719
37719 37808
37808 37894
37894 37980
37980 38066
38066 38151
38151 38239
38239 38327
38327 38412
38412 38501
38501 38589
38589 38676
38676 38765
38765 38852
38852 38939
38939 39028
39028 39115
39115 39202
39202 39264
39264 39350
39350 39438
39438 39525
39525 39610
39610 39698
39698 39760
39760 39845
39845 39934
39934 40022
40022 40126
40126 40215
40215 40301
40301 40386
40386 40471
40471 40557
40557 40644
40644 40729
40729 40815
40815 40900
40900 40987
40987 41074
41074 41159
41159 41245
41245 41331
41331 41419
41419 41506
41506 41592
41592 41679
41679 41765
41765 41853
41853 41940
41940 42028
42028 42116
42116 42203
42203 42292
42292 42379
42379 42467
42467 42553
42553 42642
42642 42731
42731 42816
42816 42904
42904 42990
42990 43076
43076 43164
43164 43252
43252 43339
43339 43425
43425 43512
43512 43600
43600 43686
43686 43773
43773 43860
43860 43947
43947 44036
44036 44125
44125 44212
44212 44300
44300 44388
44388 44477
44477 44563
44563 44627
44627 44713
44713 44802
44802 44890
44890 44977
44977 45065
45065 45152
45152 45238
45238 45325
45325 45413
45413 45500
45500 45586
45586 45673
45673 45759
45759 45846
45846 45935
45935 46023
46023 46111
46111 46199
46199 46289
46289 46376
46376 46465
46465 46552
46552 46642
46642 46729
46729 46816
46816 46904
46904 46991
46991 47078
47078 47142
47142 47229
47229 47316
47316 47402
47402 47491
47491 47578
47578 47665
47665 47753
47753 47840
47840 47929
47929 48018
48018 48105
48105 48193
48193 48281
48281 48369
48369 48457
48457 48543
48543 48632
48632 48720
48720 48806
48806 48894
48894 48982
48982 49035
49035 49124
49124 49212
49212 49275
49275 49362
49362 49453
49453 49541
49541 49628
49628 49716
49716 49806
49806 49892
49892 49933
49933 50020
50020 50059
50059 50144
50144 50231
50231 50317
50317 50403
50403 50489
50489 50576
50576 50664
50664 50750
50750 50836
50836 50923
50923 51009
51009 51096
51096 51181
51181 51269
51269 51355
51355 51441
51441 51526
51526 51587
51587 51648
51648 51733
51733 51820
51820 51906
51906 51991
51991 52097
52097 52186
52186 52272
52272 52358
52358 52444
52444 52533
52533 52620
52620 52707
52707 52796
52796 52883
52883 52970
52970 53057
53057 53143
53143 53232
53232 53319
53319 53406
53406 53492
53492 53581
53581 53668
53668 53753
53753 53839
53839 53925
53925 54010
