270 362
362 451
542 631
631 722
722 811
811 901
901 990
990 1050
1050 1140
1140 1230
1230 1319
1319 1409
1409 1499
1499 1589
1589 1680
1680 1770
1770 1861
1861 1952
1952 2042
2042 2133
2133 2222
2222 2312
2312 2402
2402 2491
2491 2581
2581 2670
2670 2761
2761 2851
2851 2941
2941 3030
3030 3105
3105 3163
3163 3255
3255 3411
3411 3502
3502 3570
3570 3662
3662 3753
3753 3819
3819 3909
3909 3998
3998 4071
4071 4160
4160 4249
4249 4339
4339 4428
4428 4517
4517 4606
4606 4696
4696 4784
4784 4873
4873 4964
4964 5053
5053 5176
5176 5267
5267 5358
5358 5449
5449 5540
5540 5630
5630 5721
5721 5813
5813 5904
5904 5995
5995 6086
6086 6178
6178 6269
6269 6361
6361 6453
6453 6546
6546 6638
6638 6734
6734 6826
6826 6921
6921 7015
7015 7095
7095 7184
7184 7275
7275 7364
7364 7452
7452 7543
7543 7632
7632 7721
7721 7809
7809 7900
7900 7988
7988 8069
8069 8159
8159 8247
8247 8337
8337 8427
8427 8518
8518 8607
8607 8699
8699 8789
8789 8880
8880 8970
8970 9059
9059 9151
9151 9239
9239 9330
9330 9418
9418 9509
9509 9598
9598 9687
9687 9776
9776 9866
9866 9953
9953 10074
10074 10165
10165 10254
10254 10344
10344 10434
10434 10568
10568 10657
10657 10747
10747 11024
11024 11072
11072 11160
11160 11249
11249 11398
11398 11487
11487 11578
11578 11667
11667 11756
11756 11847
11847 11993
11993 12084
12084 12173
12173 12263
12263 12351
12351 12441
12441 12530
12530 12619
12619 12708
12708 12798
12798 12886
12886 12955
12955 13068
13068 13160
13160 13251
13251 13343
13343 13433
13433 13525
13525 13616
13616 13709
13709 13800
13800 13892
13892 13982
13982 14073
14073 14164
14164 14254
14254 14344
14344 14436
14436 14526
14526 14617
14617 14709
14709 14800
14800 14891
14891 14983
14983 15046
15046 15139
15139 15232
15232 15324
15324 15416
15416 15509
15509 15602
15602 15695
15695 15788
15788 15881
15881 15974
15974 16068
16068 16161
16161 16254
16254 16346
16346 16439
16439 16480
16480 16572
16572 16664
16664 16755
16755 16849
16849 16942
16942 17097
17097 17189
17189 17280
17280 17371
17371 17464
17464 17555
17555 17647
17647 17739
17739 17831
