1413 1503
2040 2130
2130 2220
2851 2941
2941 3030
3827 3918
3918 4008
4920 5010
5010 5133
5312 5402
5580 5670
5670 5760
8733 8824
8824 8914
8914 9003
9003 9095
9095 9185
9185 9275
9275 9365
9365 9456
9456 9546
9546 9637
9637 9727
9727 9817
9817 9907
9907 9998
9998 10088
10088 10177
10177 10269
10269 10359
10359 10450
10450 10540
10540 10631
10631 10721
10721 10812
10812 10902
10902 10992
10992 11082
11082 11172
11172 11261
11261 11351
11351 11441
11441 11531
11531 11621
11621 11712
11712 11801
11801 11891
11891 11981
11981 12072
12072 12160
12160 12251
12251 12340
12340 12429
12429 12519
12519 12609
12609 12697
12697 12788
12788 12878
12878 12967
12967 13058
13058 13148
13148 13237
13237 13328
13328 13418
13418 13507
13507 13596
13596 13686
13686 13775
13775 13862
13862 13953
13953 14041
14041 14130
14130 14219
14219 14307
14307 14395
14395 14486
14486 14574
14574 14664
14664 14752
14752 14842
14842 14931
14931 15054
15054 15144
15144 15233
15233 15321
15321 15411
15411 15501
15501 15589
15589 15679
15679 15768
15768 15857
15857 15947
15947 16037
16037 16126
16126 16215
16215 16305
16305 16395
16395 16484
16484 16574
16574 16664
16664 16752
16752 16843
16843 16932
16932 17021
17021 17061
17061 17151
17151 17242
17242 17330
17330 17421
