949 1020
1020 1125
2939 3010
3010 3101
3101 3170
3170 3239
3239 3310
3310 3380
4937 5008
5008 5047
5186 5255
5255 5299
5997 6076
8999 9079
9930 10001
10001 10094
11980 12095
12095 12163
12163 12208
12208 12277
12277 12344
12344 12414
12414 12459
12459 12528
12528 12596
12596 12665
12665 12733
12733 12802
12802 12871
12871 12915
12915 12984
12984 13028
13028 13096
13096 13165
13165 13236
13236 13305
13305 13375
13375 13444
13444 13515
13515 13587
13587 13658
13658 13729
13729 13800
13800 13869
13869 13941
13941 14011
14011 14107
14107 14178
14178 14250
14250 14320
14320 14390
14390 14463
14463 14534
14534 14604
14604 14675
14675 14746
14746 14815
14815 14887
14887 14957
14957 15003
15003 15103
15103 15172
15172 15242
15242 15313
15313 15382
15382 15453
15453 15523
15523 15594
15594 15664
15664 15736
15736 15806
15806 15879
15879 15951
15951 16023
16023 16093
16093 16165
16165 16235
16235 16305
16305 16375
16375 16444
16444 16514
16514 16584
16584 16655
16655 16725
16725 16797
16797 16866
16866 16937
16937 17038
17038 17106
17106 17177
17177 17248
17248 17319
17319 17388
17388 17460
17460 17529
17529 17600
17600 17670
17670 17739
17739 17810
17810 17878
17878 17922
17922 17994
17994 18062
18062 18132
18132 18200
18200 18272
18272 18341
18341 18411
18411 18481
18481 18551
18551 18621
18621 18691
18691 18762
18762 18832
18832 18903
18903 18973
18973 19020
19020 19095
19095 19165
19165 19236
19236 19307
19307 19379
19379 19449
19449 19518
19518 19590
19590 19660
19660 19732
19732 19803
19803 19875
19875 19946
19946 20018
20018 20090
20090 20162
20162 20233
20233 20302
20302 20374
20374 20445
20445 20515
20515 20585
20585 20655
20655 20726
20726 20796
20796 20867
20867 20936
20936 21008
21008 21076
21076 21147
21147 21215
21215 21285
21285 21354
21354 21423
21423 21493
21493 21563
21563 21633
21633 21704
21704 21774
21774 21845
21845 21916
21916 21986
21986 22088
22088 22159
22159 22231
22231 22302
22302 22372
22372 22443
22443 22512
22512 22583
22583 22652
22652 22722
22722 22794
22794 22863
