83 243
821 918
918 1016
1016 1058
23998 24070
24070 24160
24160 24249
24249 24337
24337 24426
24426 24516
24516 24607
24607 24697
24697 24786
24786 24877
24877 24970
24970 25065
25065 25160
25160 25252
25252 25344
25344 25436
25436 25530
25530 25627
25627 25720
25720 25812
25812 25907
25907 26002
26002 26099
26099 26195
26195 26289
26289 26381
26381 26475
26475 26570
26570 26666
26666 26761
26761 26855
26855 26948
26948 27042
27042 27138
27138 27235
27235 27330
27330 27424
27424 27518
27518 27613
27613 27709
27709 27805
27805 27901
27901 27995
27995 28089
28089 28186
28186 28284
28284 28380
28380 28475
28475 28570
28570 28665
28665 28760
28760 28857
28857 28952
28952 29046
29046 29141
29141 29237
29237 29334
29334 29429
29429 29523
29523 29618
29618 29713
29713 29810
29810 29906
29906 30000
30000 30095
30095 30192
30192 30290
30290 30389
30389 30485
30485 30579
30579 30674
30674 30770
30770 30866
30866 30961
30961 31056
31056 31150
31150 31247
31247 31345
31345 31444
31444 31540
31540 31635
31635 31730
31730 31828
31828 31928
31928 32025
32025 32120
32120 32216
32216 32312
32312 32411
32411 32508
32508 32604
32604 32700
32700 32798
32798 32897
32897 32994
32994 33090
33090 33184
33184 33279
33279 33375
33375 33472
33472 33567
33567 33659
33659 33752
33752 33846
33846 33942
33942 34037
34037 34131
34131 34225
34225 34321
34321 34419
34419 34516
34516 34612
34612 34709
34709 34807
34807 34907
34907 35004
35004 35100
35100 35195
35195 35291
35291 35389
35389 35487
35487 35582
35582 35676
35676 35769
35769 35865
35865 35962
35962 36058
36058 36152
36152 36246
36246 36341
36341 36438
36438 36534
36534 36627
36627 36721
36721 36817
36817 36914
36914 37011
37011 37106
37106 37200
37200 37297
37297 37397
37397 37496
37496 37591
37591 37686
37686 37780
37780 37875
37875 37971
37971 38065
38065 38157
38157 38250
38250 38343
38343 38438
38438 38531
38531 38623
38623 38715
38715 38808
38808 38901
38901 38994
38994 39086
39086 39178
39178 39272
39272 39367
39367 39463
39463 39557
39557 39650
39650 39744
39744 39840
39840 39936
39936 40031
40031 40124
40124 40218
40218 40314
40314 40410
40410 40504
40504 40597
40597 40689
40689 40784
40784 40881
40881 40977
40977 41070
41070 41162
41162 41256
41256 41351
41351 41446
41446 41540
41540 41633
41633 41727
41727 41824
41824 41920
41920 42015
42015 42108
42108 42200
42200 42293
42293 42387
42387 42483
42483 42577
42577 42671
42671 42764
42764 42860
42860 42957
42957 43053
43053 43147
43147 43242
43242 43339
43339 43437
43437 43533
43533 43627
43627 43720
43720 43813
43813 43908
43908 44004
44004 44099
44099 44192
44192 44285
44285 44380
44380 44476
44476 44572
44572 44667
44667 44762
44762 44859
44859 44956
44956 45054
45054 45149
45149 45219
45219 45313
45313 45409
45409 45504
45504 45597
45597 45690
45690 45782
45782 45877
45877 45973
45973 46067
46067 46160
46160 46254
46254 46350
46350 46446
46446 46541
46541 46635
46635 46728
46728 46822
46822 46917
46917 47013
47013 47106
47106 47198
47198 47291
47291 47385
47385 47481
47481 47576
47576 47670
47670 47763
47763 47857
47857 47953
47953 48047
48047 48139
48139 48230
48230 48323
48323 48417
48417 48511
48511 48605
48605 48697
48697 48790
48790 48885
48885 48980
48980 49074
49074 49166
49166 49257
49257 49349
49349 49442
49442 49536
49536 49627
49627 49717
49717 49809
49809 49901
49901 49994
49994 50086
50086 50177
50177 50269
50269 50361
50361 50455
50455 50547
50547 50639
50639 50730
50730 50825
50825 50921
50921 51016
51016 51107
51107 51199
51199 51292
51292 51387
51387 51480
51480 51572
51572 51663
51663 51756
51756 51849
51849 51943
51943 52035
52035 52126
52126 52218
52218 52311
52311 52406
52406 52501
52501 52594
52594 52688
52688 52783
52783 52879
52879 52975
52975 53069
53069 53163
53163 53259
53259 53357
53357 53455
53455 53550
53550 53644
53644 53737
53737 53831
53831 53927
53927 54021
54021 54113
54113 54205
54205 54299
54299 54394
54394 54489
54489 54583
54583 54675
54675 54769
54769 54865
54865 54961
54961 55055
55055 55149
55149 55242
55242 55337
55337 55433
55433 55528
55528 55620
55620 55713
55713 55807
55807 55902
55902 55997
55997 56090
56090 56181
56181 56273
56273 56367
56367 56463
56463 56557
56557 56650
56650 56743
56743 56837
56837 56932
56932 57027
57027 57120
57120 57212
57212 57305
57305 57400
57400 57496
57496 57591
57591 57685
57685 57780
57780 57877
57877 57974
57974 58071
58071 58165
58165 58260
58260 58355
58355 58452
58452 58548
58548 58643
58643 58736
58736 58830
58830 58925
58925 59020
59020 59115
59115 59208
59208 59300
59300 59393
59393 59488
59488 59583
59583 59678
59678 59770
59770 59863
59863 59955
59955 60050
60050 60146
60146 60239
60239 60332
60332 60424
60424 60517
60517 60612
60612 60707
60707 60800
60800 60892
60892 60987
60987 61082
61082 61178
61178 61272
61272 61364
61364 61458
61458 61552
61552 61649
61649 61744
61744 61837
61837 61930
61930 62024
62024 62119
62119 62215
62215 62309
62309 62402
62402 62494
62494 62589
62589 62686
62686 62781
62781 62875
62875 62970
62970 63065
63065 63161
63161 63257
63257 63351
63351 63443
63443 63537
63537 63632
63632 63727
63727 63821
63821 63913
63913 64006
64006 64100
64100 64196
64196 64290
64290 64382
64382 64475
64475 64568
64568 64662
64662 64757
64757 64850
64850 64942
64942 65033
65033 65127
65127 65221
65221 65316
65316 65409
65409 65502
65502 65596
65596 65691
65691 65787
65787 65882
65882 65975
65975 66067
66067 66163
66163 66261
66261 66357
66357 66451
66451 66544
66544 66637
66637 66734
66734 66830
66830 66924
66924 67016
67016 67108
67108 67202
67202 67296
67296 67390
67390 67483
67483 67577
67577 67671
67671 67767
67767 67863
67863 67958
67958 68051
68051 68145
68145 68241
68241 68337
68337 68433
68433 68527
68527 68621
68621 68715
68715 68810
68810 68906
68906 69000
69000 69094
69094 69188
69188 69283
69283 69380
69380 69476
69476 69570
69570 69665
69665 69761
69761 69859
69859 69956
69956 70052
70052 70148
70148 70244
70244 70341
70341 70439
70439 70535
70535 70629
70629 70722
