1515 1650
1915 2099
2878 3010
3010 3103
3291 3361
4918 5087
7929 8125
8125 8269
8269 8418
8418 8562
8562 8703
8703 8843
8843 8980
8980 9115
9115 9251
9251 9388
9388 9524
9524 9660
9660 9800
9800 9941
9941 10076
10076 10219
10219 10358
10358 10500
10500 10638
10638 10777
10777 10916
10916 11098
11098 11231
11231 11363
11363 11497
11497 11632
11632 11765
11765 11898
11898 12103
12103 12243
12243 12379
12379 12514
12514 12649
12649 12788
12788 12926
12926 13068
13068 13202
13202 13342
13342 13479
13479 13615
13615 13750
13750 13889
13889 14025
14025 14159
14159 14294
14294 14434
14434 14571
14571 14710
14710 14848
14848 14988
14988 15127
15127 15264
15264 15401
15401 15540
15540 15676
15676 15810
15810 15946
15946 16081
16081 16216
16216 16351
16351 16488
16488 16626
16626 16763
16763 16898
16898 17034
17034 17172
17172 17307
17307 17443
17443 17577
17577 17714
17714 17848
17848 17981
17981 18114
18114 18252
18252 18388
18388 18523
18523 18655
18655 18795
18795 18934
18934 19037
19037 19171
19171 19304
19304 19437
19437 19547
19547 19679
19679 19811
19811 19944
19944 20115
20115 20250
20250 20381
20381 20521
20521 20659
20659 20794
20794 20926
20926 21064
21064 21200
21200 21334
21334 21466
21466 21605
21605 21742
21742 21877
21877 22010
22010 22070
22070 22204
22204 22342
22342 22478
22478 22614
22614 22744
22744 22881
22881 23018
23018 23124
23124 23257
23257 23387
23387 23523
23523 23659
23659 23793
23793 23924
23924 24106
24106 24240
24240 24373
24373 24502
24502 24638
24638 24772
24772 24904
24904 25100
25100 25236
25236 25371
25371 25504
25504 25633
25633 25768
25768 25903
25903 26099
26099 26227
26227 26363
26363 26497
26497 26630
26630 26758
26758 26893
26893 27027
27027 27159
27159 27288
27288 27421
27421 27555
27555 27687
27687 27816
27816 27949
27949 28083
28083 28216
28216 28356
28356 28492
28492 28630
28630 28766
28766 28896
28896 29032
29032 29167
29167 29301
29301 29430
29430 29565
29565 29809
