1711 1829
1918 2110
2110 2227
2227 2346
2346 2461
2461 2576
2576 2693
2693 2809
2809 2923
2923 3112
3112 3234
3234 3355
3355 3450
3450 3569
3569 3689
3689 3808
3808 3929
3929 4050
4050 4169
4169 4289
4289 4386
4386 4505
4505 4601
4601 4722
4722 4841
4841 4935
4935 5076
5076 5196
5196 5317
5317 5435
5435 5554
5554 5675
5675 5796
