1979 2079
2967 3116
4966 5086
7936 8023
8023 8081
8964 9106
9106 9193
9193 9281
9281 9369
9369 9456
9456 9544
9544 9632
9632 9720
9720 9807
9807 9896
9896 9984
9984 10072
10072 10161
10161 10249
10249 10337
10337 10424
10424 10512
10512 10600
10600 10687
10687 10775
10775 10862
10862 10949
10949 11036
11036 11123
11123 11210
11210 11298
11298 11386
11386 11473
11473 11561
11561 11648
11648 11736
11736 11825
11825 11913
11913 12001
12001 12090
12090 12179
12179 12267
12267 12356
12356 12446
12446 12535
12535 12623
12623 12713
12713 12803
12803 12892
12892 12981
12981 13070
13070 13158
13158 13246
13246 13327
13327 13422
13422 13511
13511 13599
13599 13687
13687 13775
13775 13863
13863 13951
13951 14039
14039 14128
14128 14217
14217 14306
14306 14395
14395 14484
14484 14573
14573 14662
14662 14751
14751 14841
14841 14929
14929 15018
15018 15107
15107 15196
15196 15284
15284 15373
15373 15462
15462 15550
15550 15639
15639 15727
15727 15816
15816 15905
15905 15993
15993 16082
16082 16171
16171 16259
16259 16348
16348 16436
16436 16525
16525 16614
16614 16702
16702 16791
16791 16878
16878 16966
16966 17107
17107 17195
17195 17283
17283 17371
17371 17459
17459 17547
17547 17635
17635 17724
17724 17812
18169 18258
18258 18347
18347 18436
18436 18526
18526 18607
18607 18702
18702 18792
18792 18881
18881 18969
18969 19106
19106 19198
19198 19289
19289 19380
19380 19472
19472 19564
19564 19656
19656 19748
19748 19842
19842 19935
19935 20045
20045 20137
20137 20229
20229 20311
20311 20407
20407 20498
20498 20588
20588 20678
20678 20767
20767 20857
20857 20947
20947 21050
21050 21139
21139 21227
21227 21315
21315 21404
21404 21493
21493 21582
21582 21671
21671 21760
21760 21849
21849 21938
21938 22028
22028 22130
22130 22220
22220 22311
22311 22400
22400 22490
22490 22580
22580 22670
22670 22760
22760 22850
22850 22941
22941 23030
23030 23147
23147 23236
23236 23325
23325 23414
23414 23503
23503 23592
23592 23681
23681 23770
23770 23860
23860 23949
23949 24039
24039 24129
24129 24218
24218 24308
24308 24399
24399 24489
24489 24578
