151 236
236 307
307 390
390 487
487 751
751 848
848 919
919 1069
1069 1163
1163 1246
1246 1342
1342 1424
1424 1519
1519 1602
1602 1698
1698 1779
1779 1874
1874 1956
1956 2052
2052 2134
2134 2230
2230 2313
2313 2408
2408 2490
2490 2586
2586 2667
2667 2763
2763 2844
2844 2940
2940 3021
3021 3117
3117 3200
3200 3296
3296 3378
3378 3473
3473 3556
3556 3651
3651 3733
3733 3829
3829 3912
3912 4007
4007 4088
4088 4184
4184 4266
4266 4362
4362 4443
4443 4539
4539 4622
4622 4717
4717 4799
4799 4895
4895 4976
4976 5072
5072 5154
5154 5249
5249 5331
5331 5426
5426 5484
5484 5579
5579 5661
5661 5757
5757 5838
5838 5933
5933 6015
6015 6110
6110 6167
6167 6262
6262 6344
6344 6439
6439 6521
6521 6616
6616 6698
6698 6793
6793 6875
6875 6970
6970 7028
7028 7123
7123 7206
7206 7302
7302 7385
7385 7480
7480 7563
7563 7659
7659 7742
7742 7837
7837 7919
7919 8015
8015 8096
8096 8191
8191 8273
8273 8368
8368 8449
8449 8545
8545 8626
8626 8721
8721 8802
8802 8897
8897 8978
8978 9073
9073 9154
9154 9248
9248 9329
9329 9425
9425 9505
9505 9600
9600 9681
9681 9776
9776 9857
9857 9952
9952 10034
10034 10130
10130 10211
10211 10307
10307 10389
10389 10484
10484 10566
10566 10661
10661 10753
10753 10847
10847 10941
11100 11196
11808 11902
11902 11983
11983 12114
12912 13009
13886 13980
15961 16109
27667 27762
27762 27817
29949 30045
30817 30915
30915 30972
34853 34958
34958 35113
44604 44703
44703 44763
47899 48000
48000 48058
48142 48242
50128 50229
