2903 3383
3383 3540
3540 3620
3620 3700
3700 3935
3935 4013
4013 4235
4235 4985
4985 5124
5124 5346
5346 5615
5615 5793
5793 6027
6027 6285
6285 7579
7579 8451
8451 8525
8525 8824
8824 8898
8898 8973
8973 9048
9048 9779
9779 10087
10087 10232
10232 10304
10304 10377
10377 10893
10893 11041
11041 11488
11488 11636
11636 11710
11710 11932
11932 12006
12006 12302
12302 12597
12597 12671
12671 12965
12965 13039
13039 13185
13185 13258
13258 13993
13993 14355
14355 15192
15192 15252
15252 15697
15697 15770
15770 15987
15987 17208
17208 17282
17282 17504
17504 17578
17578 17875
17875 18098
18098 18173
18173 18323
18323 18397
18397 18691
18691 18765
