55 130
178 250
250 324
324 395
395 469
469 540
540 595
595 687
687 763
763 836
836 911
911 985
985 1040
1040 1114
1114 1188
1188 1263
1263 1336
1336 1412
1412 1485
1485 1540
1540 1636
1636 1713
1713 1786
1786 1862
1862 1936
1936 2010
2010 2085
2085 2159
2159 2235
2235 2310
2310 2386
2386 2460
2460 2535
2535 2613
2613 2689
2689 2763
2763 2839
2839 2913
2913 2989
2989 3064
3064 3139
3139 3215
3215 3289
3289 3364
3364 3440
3440 3515
3515 3592
3592 3667
3667 3743
3743 3818
3818 3894
3894 3976
3976 4057
4057 4136
4136 4216
4216 4294
4294 4371
4371 4449
4449 4526
4526 4603
4603 4678
4678 4756
4756 4831
4831 4907
4907 4985
4985 5060
5060 5136
5136 5215
5215 5290
5290 5368
5368 5444
5444 5498
5498 5598
5598 5675
5675 5749
5749 5826
5826 5903
5903 5978
5978 6054
6054 6130
6130 6206
6206 6283
6283 6358
6358 6435
6435 6511
6511 6586
6586 6662
6662 6738
6738 6812
6812 6891
6891 6967
6967 7044
7044 7120
7120 7194
7194 7270
7270 7344
7344 7419
7419 7495
7495 7569
7569 7645
7645 7719
7719 7794
7794 7869
7869 7943
7943 8019
8019 8093
8093 8169
8169 8244
8244 8317
8317 8392
8392 8466
8466 8541
8541 8615
8615 8673
8673 8763
8763 8840
8840 8893
8893 8989
8989 9066
9066 9140
9140 9215
9215 9290
9290 9363
9363 9439
9439 9512
9512 9588
9588 9662
9662 9737
9737 9813
9813 9887
9887 9963
9963 10038
10038 10112
10112 10188
10188 10263
10263 10338
10338 10414
10414 10488
10488 10564
10564 10640
10640 10715
10715 10791
10791 10866
10866 10942
10942 11015
11015 11090
11090 11163
11163 11237
11237 11312
11312 11385
11385 11460
11460 11535
11535 11607
11607 11682
11682 11755
11755 11830
11830 11904
11904 11978
11978 12054
12054 12129
12129 12205
12205 12280
12280 12355
12355 12431
12431 12505
12505 12581
12581 12654
12654 12729
12729 12805
12805 12879
12879 12954
12954 13030
13030 13105
13105 13182
13182 13258
13258 13333
13333 13410
13410 13486
13486 13563
13563 13639
13639 13715
13715 13791
13791 13866
13866 13943
13943 14020
14020 14094
14094 14170
14170 14245
14245 14322
14322 14397
14397 14473
14473 14551
14551 14626
14626 14703
14703 14780
14780 14857
14857 14934
14934 15010
15010 15087
15087 15165
15165 15241
15241 15318
15318 15394
15394 15448
15448 15547
15547 15624
15624 15699
15699 15775
15775 15850
15850 15926
15926 16000
16000 16054
16054 16201
16201 16274
16274 16349
16349 16423
16423 16498
16498 16574
16574 16649
16649 16725
16725 16798
16798 16874
16874 16949
16949 17023
17023 17100
17100 17175
17175 17250
17250 17326
17326 17401
17401 17476
17476 17551
17551 17626
17626 17703
17703 17778
17778 17855
17855 17930
17930 18007
18007 18083
18083 18158
18158 18233
18233 18309
18309 18384
18384 18460
18460 18535
18535 18611
18611 18686
18686 18761
18761 18838
18838 18914
18914 18991
18991 19068
19068 19143
19143 19219
19219 19293
19293 19369
19369 19444
19444 19519
19519 19593
19593 19668
19668 19744
19744 19821
19821 19896
19896 19973
19973 20048
20048 20122
20122 20196
20196 20271
20271 20345
20345 20421
20421 20496
20496 20573
20573 20647
20647 20723
20723 20798
20798 20873
20873 20948
20948 21024
21024 21098
21098 21174
21174 21249
21249 21326
21326 21400
21400 21476
21476 21551
21551 21628
21628 21702
21702 21780
21780 21855
21855 21932
21932 22009
22009 22087
22087 22163
22163 22239
22239 22316
22316 22390
22390 22466
22466 22540
22540 22616
22616 22690
22690 22764
22764 22839
22839 22913
22913 22988
22988 23063
23063 23137
23137 23213
23213 23286
23286 23361
23361 23436
23436 23512
23512 23588
23588 23662
23662 23737
23737 23814
23814 23890
23890 23966
23966 24042
24042 24120
24120 24196
24196 24271
24271 24348
24348 24422
24422 24499
24499 24574
24574 24649
24649 24726
24726 24799
24799 24875
24875 24948
24948 25023
25023 25099
25099 25174
25174 25251
25251 25324
25324 25380
25380 25475
25475 25552
25552 25626
25626 25702
25702 25778
25778 25853
25853 25930
25930 26005
26005 26081
26081 26156
26156 26232
26232 26306
26306 26361
26361 26457
26457 26534
26534 26609
26609 26685
26685 26761
26761 26835
26835 26915
26915 26993
26993 27068
27068 27143
27143 27216
27216 27270
27270 27363
27363 27439
27439 27513
27513 27588
27588 27665
27665 27740
27740 27817
27817 27894
27894 27971
27971 28050
28050 28127
28127 28204
28204 28282
28282 28358
28358 28435
28435 28510
28510 28564
28564 28661
28661 28739
28739 28812
28812 28887
28887 28962
28962 29035
29035 29110
29110 29184
29184 29258
29258 29332
29332 29408
29408 29482
29482 29558
29558 29633
29633 29709
29709 29785
29785 29861
29861 29938
29938 30015
30015 30089
30089 30165
30165 30240
30240 30315
30315 30392
30392 30468
30468 30545
30545 30620
30620 30697
30697 30774
30774 30850
30850 30927
30927 31004
31004 31058
31058 31158
31158 31237
31237 31314
31314 31391
31391 31469
31469 31545
31545 31623
31623 31699
31699 31775
31775 31851
31851 31928
31928 32003
32003 32080
32080 32154
32154 32230
32230 32306
32306 32382
32382 32458
32458 32532
32532 32610
32610 32685
32685 32760
32760 32835
32835 32909
32909 32984
32984 33058
33058 33132
33132 33205
33205 33278
33278 33352
33352 33424
33424 33497
33497 33568
33568 33641
33641 33713
33713 33785
33785 33858
33858 33930
33930 34003
34003 34076
34076 34148
34148 34221
34221 34292
34292 34366
34366 34437
34437 34510
34510 34582
34582 34655
34655 34727
34727 34782
34782 34872
34872 34946
34946 35018
35018 35091
35091 35162
35162 35234
35234 35307
35307 35378
35378 35451
35451 35523
35523 35596
35596 35668
35668 35740
35740 35815
35815 35888
35888 35962
35962 36035
36035 36109
36109 36182
36182 36256
36256 36331
36331 36404
36404 36478
36478 36551
36551 36625
36625 36699
36699 36771
36771 36845
36845 36917
36917 36991
36991 37063
37063 37117
37117 37209
37209 37284
37284 37356
37356 37430
37430 37503
37503 37576
37576 37650
37650 37722
37722 37796
37796 37868
37868 37941
37941 38014
38014 38086
38086 38160
38160 38232
38232 38306
38306 38378
38378 38452
38452 38525
38525 38598
38598 38673
38673 38746
38746 38820
38820 38892
38892 38966
38966 39031
39031 39083
39083 39174
39174 39247
39247 39319
39319 39393
39393 39465
39465 39538
39538 39611
39611 39683
39683 39757
39757 39830
39830 39903
39903 39976
39976 40048
40048 40120
40120 40194
40194 40268
40268 40342
40342 40418
40418 40493
40493 40569
40569 40644
40644 40719
40719 40794
40794 40870
40870 40946
40946 41022
41022 41098
41098 41175
41175 41251
41251 41326
41326 41401
41401 41478
41478 41553
41553 41630
41630 41706
41706 41784
41784 41859
41859 41935
41935 42009
42009 42084
42084 42160
42160 42236
42236 42312
42312 42387
42387 42464
42464 42540
42540 42615
42615 42691
42691 42769
42769 42845
42845 42924
42924 43000
43000 43078
43078 43152
43152 43229
43229 43304
43304 43380
43380 43456
43456 43531
43531 43606
43606 43680
43680 43755
43755 43830
43830 43905
43905 43981
43981 44055
44055 44132
44132 44207
44207 44282
44282 44358
44358 44432
44432 44509
44509 44584
44584 44660
44660 44738
44738 44816
44816 44893
44893 44970
44970 45047
45047 45123
45123 45199
45199 45274
45274 45350
45350 45425
45425 45498
45498 45572
45572 45647
45647 45721
45721 45796
45796 45872
45872 45947
45947 46022
46022 46099
46099 46172
46172 46246
46246 46321
46321 46398
46398 46473
46473 46549
46549 46622
46622 46698
46698 46771
46771 46846
46846 46920
46920 46996
46996 47070
47070 47143
47143 47217
47217 47290
47290 47363
47363 47437
47437 47509
47509 47583
47583 47655
47655 47704
47704 47777
47777 47851
47851 47924
47924 47997
47997 48071
48071 48144
48144 48219
48219 48292
48292 48367
48367 48442
48442 48518
48518 48594
48594 48668
48668 48744
48744 48819
48819 48892
48892 48967
48967 49040
49040 49115
49115 49188
49188 49242
49242 49337
49337 49412
49412 49485
49485 49559
49559 49634
49634 49708
49708 49782
49782 49855
49855 49929
49929 50003
50003 50079
50079 50154
50154 50232
50232 50306
50306 50383
50383 50458
50458 50533
50533 50609
50609 50682
50682 50758
50758 50831
50831 50885
50885 50980
50980 51055
51055 51128
51128 51203
51203 51277
51277 51352
51352 51425
51425 51483
51483 51574
51574 51650
51650 51723
51723 51799
51799 51873
51873 51950
51950 52026
52026 52101
52101 52177
52177 52253
52253 52327
52327 52401
52401 52477
52477 52551
52551 52627
52627 52701
52701 52759
52759 52849
52849 52925
52925 52998
52998 53073
53073 53150
53150 53225
53225 53301
53301 53377
53377 53450
53450 53525
53525 53598
53598 53658
53658 53745
53745 53820
53820 53893
53893 53966
53966 54041
54041 54115
54115 54189
54189 54263
54263 54337
54337 54412
54412 54487
54487 54562
54562 54637
54637 54712
54712 54787
54787 54861
54861 54936
54936 55010
55010 55086
55086 55161
55161 55238
55238 55313
55313 55363
55363 55439
55439 55514
55514 55590
55590 55667
55667 55743
55743 55820
55820 55895
55895 55972
55972 56050
56050 56125
56125 56201
56201 56278
56278 56353
56353 56431
56431 56507
56507 56581
56581 56657
56657 56731
56731 56806
56806 56880
56880 56955
56955 57031
57031 57105
57105 57181
57181 57255
57255 57312
57312 57405
57405 57481
57481 57555
57555 57629
57629 57704
57704 57778
57778 57853
57853 57927
57927 58002
58002 58075
58075 58151
58151 58226
58226 58300
58300 58375
58375 58450
58450 58525
58525 58599
58599 58674
58674 58749
58749 58824
58824 58898
58898 58974
58974 59049
59049 59124
59124 59198
59198 59273
59273 59350
59350 59426
59426 59501
59501 59576
59576 59653
59653 59727
59727 59802
59802 59877
59877 59937
59937 60028
60028 60105
60105 60180
60180 60255
60255 60331
60331 60404
60404 60479
60479 60553
60553 60628
60628 60702
60702 60776
60776 60851
60851 60926
60926 61002
61002 61077
61077 61153
61153 61230
61230 61306
61306 61383
61383 61460
61460 61536
61536 61613
61613 61689
61689 61766
61766 61842
61842 61919
61919 61996
61996 62072
62072 62147
62147 62223
62223 62298
62298 62374
62374 62450
62450 62525
62525 62600
62600 62675
62675 62751
62751 62827
62827 62902
62902 62979
62979 63054
63054 63130
63130 63205
63205 63281
63281 63358
63358 63434
63434 63517
63517 63596
63596 63672
63672 63748
63748 63822
63822 63877
63877 63971
63971 64021
64021 64094
64094 64170
64170 64244
64244 64320
64320 64395
64395 64469
64469 64544
64544 64618
64618 64693
64693 64769
64769 64843
64843 64918
64918 64992
64992 65068
65068 65142
65142 65215
65215 65290
65290 65364
65364 65437
65437 65512
65512 65586
65586 65660
65660 65735
65735 65810
65810 65886
65886 65960
