10899 10981
10981 11113
11113 11195
11195 11279
11279 11361
11361 11445
11445 11528
11528 11611
11611 11669
11669 11752
11752 11835
11835 11918
11918 12002
12002 12085
12085 12168
12168 12251
12251 12335
12335 12418
12418 12501
12501 12584
12584 12667
12667 12751
12751 12834
12834 12917
12917 13000
13000 13084
13084 13167
13167 13250
13250 13334
13334 13417
13417 13500
13500 13584
13584 13667
13667 13750
13750 13833
13833 13915
13915 13998
13998 14081
14081 14164
14164 14247
14247 14331
14331 14414
14414 14498
14498 14582
14582 14665
14665 14748
14748 14831
14831 14914
14914 14997
14997 15080
15080 15162
15162 15245
15245 15327
15327 15409
15409 15492
15492 15574
15574 15656
15656 15739
15739 15822
15822 15904
15904 15986
15986 16069
16069 16152
16152 16235
16235 16317
16317 16400
16400 16483
16483 16565
16565 16648
16648 16730
16730 16813
16813 16896
16896 16979
16979 17063
17063 17146
17146 17230
17230 17315
17315 17399
17399 17483
17483 17567
17567 17651
17651 17734
17734 17817
17817 17900
17900 17984
17984 18067
18067 18150
18150 18233
18233 18316
18316 18399
18399 18481
18481 18564
18564 18647
18647 18730
18730 18812
18812 18895
18895 18978
18978 19060
19060 19143
19143 19225
19225 19308
19308 19390
19390 19472
19472 19554
19554 19636
19636 19719
19719 19801
19801 19883
19883 19966
19966 20048
20048 20130
20130 20212
20212 20295
20295 20377
20377 20459
20459 20541
20541 20623
20623 20705
20705 20787
20787 20869
20869 20951
20951 21034
21034 21116
21116 21199
21199 21281
21281 21364
21364 21446
21446 21529
21529 21611
21611 21693
21693 21776
21776 21858
21858 21940
21940 22023
22023 22105
22105 22187
22187 22270
22270 22353
22353 22435
22435 22517
22517 22599
22599 22682
22682 22764
22764 22845
22845 22927
22927 23010
23010 23092
23092 23174
23174 23256
23256 23339
23339 23421
23421 23503
23503 23585
23585 23667
23667 23750
23750 23832
23832 23914
23914 23996
23996 24078
24078 24161
24161 24243
24243 24326
24326 24409
24409 24492
24492 24575
24575 24658
24658 24741
24741 24825
24825 24908
24908 24991
24991 25075
25075 25159
25159 25242
25242 25326
25326 25409
25409 25493
25493 25576
25576 25659
25659 25743
25743 25827
25827 25911
25911 25995
25995 26079
26079 26163
26163 26247
26247 26330
26330 26414
26414 26497
26497 26580
26580 26664
26664 26747
26747 26831
26831 26914
26914 26997
26997 27081
27081 27164
27164 27247
27247 27331
27331 27414
27414 27497
27497 27580
27580 27663
27663 27746
27746 27829
27829 27912
27912 27994
27994 28077
28077 28159
28159 28241
28241 28324
28324 28406
28406 28489
28489 28572
28572 28655
28655 28737
28737 28820
28820 28902
28902 28985
28985 29067
29067 29150
29150 29233
29233 29317
29317 29399
29399 29483
29483 29566
29566 29649
29649 29733
29733 29816
29816 29901
29901 29985
29985 30070
30070 30156
30156 30242
30242 30329
30329 30416
30416 30505
30505 30593
30593 30681
30681 30770
30770 30858
30858 30947
30947 31036
31036 31124
31124 31211
31211 31298
31298 31384
31384 31471
31471 31556
31556 31643
31643 31728
31728 31814
31814 31899
31899 31984
31984 32069
32069 32154
32154 32239
32239 32324
32324 32410
32410 32495
32495 32581
32581 32667
32667 32753
32753 32840
32840 32927
32927 33013
33013 33100
33100 33187
33187 33273
33273 33360
33360 33447
33447 33533
33533 33619
33619 33705
33705 33790
33790 33876
33876 33962
33962 34048
34048 34134
34134 34220
34220 34307
34307 34394
34394 34480
34480 34567
34567 34653
34653 34740
34740 34826
34826 34913
34913 34999
34999 35086
35086 35173
35173 35259
35259 35346
35346 35432
35432 35520
35520 35607
35607 35695
35695 35782
35782 35870
35870 35957
35957 36045
36045 36133
36133 36221
36221 36308
36308 36396
36396 36483
36483 36571
36571 36658
36658 36745
36745 36831
36831 36918
36918 37004
37004 37091
37091 37176
37176 37262
37262 37348
37348 37433
37433 37518
37518 37603
37603 37689
37689 37775
37775 37861
37861 37946
37946 38032
38032 38117
38117 38202
38202 38287
38287 38372
38372 38458
38458 38543
38543 38628
38628 38712
38712 38798
38798 38883
38883 38968
38968 39053
39053 39140
39140 39225
39225 39311
39311 39398
39398 39484
39484 39569
39569 39654
39654 39740
39740 39825
39825 39910
39910 39996
39996 40083
40083 40169
40169 40255
40255 40342
40342 40429
40429 40516
40516 40602
40602 40690
40690 40776
40776 40862
40862 40949
40949 41036
41036 41122
41122 41209
41209 41295
41295 41382
41382 41468
41468 41555
41555 41642
41642 41729
41729 41816
41816 41904
41904 41991
41991 42078
42078 42165
42165 42253
42253 42339
42339 42427
42427 42514
42514 42600
42600 42687
42687 42774
42774 42860
42860 42947
42947 43034
43034 43122
43122 43209
43209 43296
43296 43384
43384 43472
43472 43560
43560 43649
43649 43737
43737 43825
43825 43914
43914 44003
44003 44092
44092 44181
44181 44269
44269 44358
44358 44446
44446 44534
44534 44622
44622 44711
44711 44799
44799 44887
44887 44975
44975 45051
45051 45139
45139 45226
45226 45314
45314 45402
45402 45490
45490 45578
45578 45665
45665 45752
45752 45840
45840 45926
45926 46046
46046 46131
46131 46216
46216 46301
46301 46387
46387 46472
46472 46557
46557 46642
46642 46728
46728 46813
46813 46899
46899 46984
46984 47070
47070 47156
47156 47241
47241 47328
47328 47414
47414 47499
47499 47585
47585 47672
47672 47758
47758 47843
47843 47929
47929 48015
48015 48101
48101 48187
48187 48274
48274 48361
48361 48447
48447 48534
48534 48621
48621 48708
48708 48794
48794 48881
48881 48967
48967 49053
49053 49139
49139 49226
49226 49311
49311 49397
49397 49482
49482 49568
49568 49653
49653 49738
49738 49824
49824 49909
49909 49995
49995 50080
50080 50167
50167 50253
50253 50338
50338 50424
50424 50509
50509 50594
50594 50679
50679 50764
50764 50848
50848 50932
50932 51016
51016 51101
51101 51184
51184 51268
51268 51352
51352 51437
51437 51521
51521 51606
51606 51690
51690 51775
51775 51859
51859 51943
51943 52028
52028 52113
52113 52197
52197 52281
52281 52366
52366 52450
52450 52533
52533 52617
52617 52701
52701 52785
52785 52869
52869 52953
52953 53037
53037 53120
53120 53203
53203 53287
53287 53371
53371 53454
53454 53538
53538 53622
53622 53706
53706 53789
53789 53874
53874 53957
53957 54102
54102 54186
54186 54270
54270 54354
54354 54439
54439 54523
54523 54608
54608 54692
54692 54776
54776 54860
54860 54944
54944 55029
55029 55114
55114 55197
55197 55281
55281 55366
55366 55450
55450 55534
55534 55618
55618 55702
55702 55786
55786 55869
55869 55954
55954 56039
56039 56123
56123 56207
56207 56292
56292 56377
56377 56461
56461 56545
56545 56630
56630 56715
56715 56799
56799 56884
56884 56968
56968 57053
57053 57138
57138 57223
57223 57308
57308 57393
57393 57477
57477 57562
57562 57646
57646 57730
57730 57815
57815 57900
57900 57985
57985 58070
58070 58156
58156 58241
58241 58327
58327 58412
58412 58497
58497 58583
58583 58668
58668 58753
58753 58839
