9734 9839
9839 9903
9903 9968
9968 10033
10033 10097
10097 10161
10161 10226
10226 10290
10290 10355
10355 10419
10419 10483
10483 10547
10547 10611
10611 10675
10675 10739
10739 10803
10803 10867
10867 10931
10931 10995
10995 11059
11059 11123
11123 11187
11187 11251
11251 11315
11315 11379
11379 11443
11443 11507
11507 11571
11571 11636
11636 11700
11700 11764
11764 11828
11828 11892
11892 11956
11956 12020
12020 12084
12084 12148
12148 12211
12211 12275
12275 12339
12339 12403
12403 12467
12467 12530
12530 12594
12594 12658
12658 12721
12721 12784
12784 12848
12848 12911
12911 12975
12975 13038
13038 13101
13101 13164
13164 13227
13227 13291
13291 13354
13354 13417
13417 13481
13481 13545
13545 13608
13608 13672
13672 13736
13736 13800
13800 13863
13863 13927
13927 13991
13991 14055
14055 14119
14119 14183
14183 14247
14247 14311
14311 14375
14375 14439
14439 14503
14503 14567
14567 14631
14631 14695
14695 14759
14759 14823
14823 14887
14887 14951
14951 15015
15015 15078
15078 15142
15142 15205
15205 15268
15268 15331
15331 15395
15395 15458
15458 15521
15521 15585
15585 15649
15649 15712
15712 15776
15776 15839
15839 15903
15903 15967
15967 16031
16031 16095
16095 16158
16158 16222
16222 16286
16286 16350
16350 16414
16414 16478
16478 16542
16542 16606
16606 16669
16669 16733
16733 16796
16796 16860
16860 16924
16924 16988
16988 17051
17051 17115
17115 17178
17178 17242
17242 17306
17306 17369
17369 17433
17433 17497
17497 17561
17561 17625
17625 17689
17689 17753
17753 17817
17817 17881
17881 17946
17946 18010
18010 18074
18074 18139
18139 18203
18203 18268
18268 18332
18332 18397
18397 18461
18461 18525
18525 18590
18590 18654
18654 18718
18718 18783
18783 18847
18847 18912
18912 18976
18976 19040
19040 19105
19105 19169
19169 19233
19233 19297
19297 19361
19361 19425
19425 19490
19490 19554
19554 19618
19618 19683
19683 19747
19747 19811
19811 19875
19875 19940
19940 20004
20004 20068
20068 20132
20132 20196
20196 20260
20260 20324
20324 20388
20388 20451
20451 20515
20515 20579
20579 20643
20643 20706
20706 20770
20770 20834
20834 20898
20898 20961
20961 21025
21025 21089
21089 21152
21152 21216
21216 21280
21280 21344
21344 21408
21408 21472
21472 21536
21536 21600
21600 21664
21664 21728
21728 21792
21792 21856
21856 21920
21920 21985
21985 22049
22049 22113
22113 22177
22177 22241
22241 22305
22305 22369
22369 22433
22433 22497
22497 22561
22561 22625
22625 22689
22689 22753
22753 22817
22817 22881
22881 22945
22945 23009
23009 23073
23073 23137
23137 23201
23201 23265
23265 23329
23329 23394
23394 23458
23458 23522
23522 23586
23586 23650
23650 23714
23714 23778
23778 23842
23842 23905
23905 23968
23968 24032
24032 24095
24095 24158
24158 24221
24221 24284
24284 24347
24347 24410
24410 24474
24474 24537
24537 24600
24600 24663
24663 24727
24727 24790
24790 24853
24853 24917
24917 24980
24980 25043
25043 25107
25107 25171
25171 25234
25234 25298
25298 25362
25362 25425
25425 25489
25489 25553
25553 25617
25617 25682
25682 25746
25746 25810
25810 25875
25875 25939
25939 26004
26004 26068
26068 26132
26132 26197
26197 26261
26261 26325
26325 26390
26390 26454
26454 26518
26518 26582
26582 26647
26647 26711
26711 26775
26775 26839
26839 26903
26903 26967
26967 27031
27031 27094
27094 27158
27158 27222
27222 27286
27286 27350
27350 27414
27414 27478
27478 27542
27542 27606
27606 27671
27671 27734
27734 27798
27798 27862
27862 27927
27927 27990
27990 28054
28054 28118
28118 28182
28182 28245
28245 28309
28309 28372
28372 28435
28435 28498
28498 28561
28561 28625
28625 28687
28687 28751
28751 28814
28814 28877
28877 28940
28940 29003
29003 29066
29066 29129
29129 29192
29192 29255
29255 29318
29318 29381
29381 29444
29444 29508
29508 29571
29571 29634
29634 29698
29698 29762
29762 29825
29825 29889
29889 29953
29953 30017
30017 30081
30081 30145
30145 30209
30209 30273
30273 30338
30338 30402
30402 30466
30466 30531
30531 30595
30595 30659
30659 30723
30723 30787
30787 30851
30851 30915
30915 30980
30980 31044
31044 31107
31107 31171
31171 31235
31235 31299
31299 31363
31363 31427
31427 31491
31491 31555
31555 31619
31619 31683
31683 31746
31746 31810
31810 31874
31874 31938
31938 32001
32001 32065
32065 32128
32128 32192
32192 32256
32256 32319
32319 32383
32383 32447
32447 32510
32510 32574
32574 32638
32638 32702
32702 32766
32766 32830
32830 32893
32893 32957
32957 33020
33020 33084
33084 33147
33147 33210
33210 33273
33273 33336
33336 33399
33399 33462
33462 33526
33526 33588
33588 33651
33651 33714
33714 33777
33777 33840
33840 33903
33903 33965
33965 34028
34028 34091
34091 34153
34153 34216
34216 34278
34278 34341
34341 34404
34404 34466
34466 34529
34529 34591
34591 34654
34654 34716
34716 34779
34779 34842
34842 34905
34905 34968
34968 35031
35031 35094
35094 35156
35156 35219
35219 35281
35281 35344
35344 35407
35407 35470
35470 35533
35533 35595
35595 35659
35659 35722
35722 35785
35785 35848
35848 35911
35911 35974
35974 36038
36038 36101
36101 36164
36164 36228
36228 36291
36291 36355
36355 36419
36419 36482
36482 36546
36546 36609
36609 36673
36673 36737
36737 36800
36800 36864
36864 36928
36928 36992
36992 37056
37056 37120
37120 37185
37185 37249
37249 37313
37313 37377
37377 37442
37442 37506
37506 37570
37570 37634
37634 37698
37698 37762
37762 37825
37825 37889
37889 37953
37953 38017
38017 38080
38080 38144
38144 38208
38208 38271
38271 38335
38335 38398
38398 38461
38461 38525
38525 38589
38589 38652
38652 38716
38716 38780
38780 38843
38843 38907
38907 38971
38971 39034
39034 39098
39098 39162
39162 39226
39226 39290
39290 39353
39353 39418
39418 39482
39482 39545
39545 39609
39609 39672
39672 39736
39736 39799
39799 39862
39862 39926
39926 39989
39989 40052
40052 40115
40115 40178
40178 40241
40241 40304
40304 40366
40366 40429
40429 40492
40492 40555
40555 40618
40618 40682
40682 40745
40745 40808
40808 40871
40871 40934
40934 40997
40997 41060
41060 41122
41122 41185
41185 41248
41248 41311
41311 41374
41374 41437
41437 41500
41500 41563
41563 41626
41626 41689
41689 41752
41752 41815
41815 41879
41879 41942
41942 42006
42006 42069
42069 42132
42132 42195
42195 42259
42259 42322
42322 42385
42385 42448
42448 42511
42511 42574
42574 42637
42637 42700
42700 42763
42763 42826
42826 42889
42889 42951
42951 43014
43014 43077
43077 43140
43140 43203
43203 43267
43267 43330
43330 43394
43394 43457
43457 43521
43521 43585
43585 43649
43649 43713
43713 43778
43778 43842
43842 43907
43907 43972
43972 44036
44036 44101
44101 44166
44166 44230
44230 44295
44295 44359
44359 44424
44424 44488
44488 44553
44553 44617
44617 44681
44681 44746
44746 44810
44810 44874
44874 44938
44938 45002
45002 45067
45067 45131
45131 45196
45196 45260
45260 45324
45324 45389
45389 45453
45453 45517
45517 45581
45581 45646
45646 45710
45710 45774
45774 45839
45839 45903
45903 45968
45968 46032
46032 46096
46096 46161
46161 46225
46225 46290
46290 46354
46354 46419
46419 46483
46483 46548
46548 46613
46613 46677
46677 46741
46741 46806
46806 46870
46870 46935
46935 47000
47000 47064
47064 47128
47128 47192
47192 47256
47256 47320
47320 47384
47384 47448
47448 47512
47512 47575
47575 47639
47639 47702
47702 47766
47766 47829
47829 47893
47893 47956
47956 48019
48019 48082
48082 48146
48146 48209
48209 48273
48273 48337
48337 48400
48400 48464
48464 48528
48528 48593
48593 48657
48657 48721
48721 48785
48785 48850
48850 48914
48914 48978
48978 49042
49042 49107
49107 49171
49171 49235
49235 49299
49299 49363
49363 49427
49427 49491
49491 49555
49555 49619
49619 49684
49684 49748
49748 49813
49813 49877
49877 49941
49941 50006
50006 50071
50071 50135
50135 50199
50199 50264
50264 50328
50328 50393
50393 50457
50457 50522
50522 50586
50586 50651
50651 50715
50715 50779
50779 50844
50844 50908
50908 50972
50972 51036
51036 51100
51100 51164
51164 51228
51228 51291
51291 51355
51355 51418
51418 51482
51482 51545
51545 51609
51609 51672
51672 51735
51735 51799
51799 51862
51862 51926
51926 51989
51989 52052
52052 52115
52115 52178
52178 52241
52241 52305
52305 52368
52368 52431
52431 52494
52494 52557
52557 52621
52621 52685
52685 52748
52748 52812
52812 52876
52876 52940
52940 53005
53005 53068
53068 53133
53133 53197
53197 53261
53261 53325
53325 53389
53389 53453
53453 53517
53517 53582
53582 53646
53646 53710
53710 53775
53775 53839
53839 53904
53904 53968
53968 54033
54033 54098
54098 54162
54162 54226
54226 54290
54290 54355
54355 54419
54419 54484
54484 54548
54548 54612
54612 54676
54676 54741
54741 54805
54805 54869
54869 54933
54933 54998
54998 55062
55062 55127
55127 55191
55191 55255
55255 55320
55320 55385
55385 55449
55449 55513
55513 55578
55578 55643
55643 55707
55707 55771
55771 55836
55836 55900
55900 55964
55964 56029
56029 56093
56093 56157
56157 56220
56220 56284
56284 56348
56348 56412
56412 56475
56475 56538
56538 56601
56601 56664
56664 56727
56727 56790
56790 56853
56853 56916
56916 56980
56980 57043
57043 57106
57106 57169
57169 57233
57233 57296
57296 57360
57360 57423
57423 57487
57487 57551
57551 57615
57615 57679
57679 57743
57743 57807
57807 57871
57871 57935
57935 57999
57999 58063
58063 58127
58127 58190
58190 58254
58254 58318
58318 58382
58382 58446
58446 58509
58509 58573
58573 58636
58636 58700
58700 58764
58764 58827
58827 58891
58891 58955
58955 59018
59018 59082
59082 59146
59146 59209
59209 59273
59273 59337
59337 59400
59400 59464
59464 59528
59528 59592
59592 59656
59656 59720
59720 59784
59784 59848
59848 59913
59913 59977
59977 60041
60041 60105
60105 60169
60169 60233
60233 60297
60297 60361
60361 60425
60425 60488
60488 60552
60552 60615
60615 60679
60679 60742
60742 60806
60806 60869
60869 60933
60933 60996
60996 61060
61060 61123
61123 61186
61186 61250
61250 61313
61313 61377
61377 61440
61440 61503
61503 61567
61567 61630
61630 61693
61693 61756
61756 61819
61819 61883
61883 61946
61946 62010
62010 62073
62073 62136
62136 62200
62200 62263
62263 62327
62327 62390
62390 62454
62454 62517
62517 62580
62580 62643
62643 62706
62706 62769
62769 62832
62832 62895
62895 62958
62958 63021
63021 63084
63084 63147
63147 63210
63210 63273
63273 63336
63336 63399
63399 63462
63462 63525
63525 63587
63587 63650
63650 63713
63713 63776
63776 63839
63839 63902
63902 63965
63965 64028
64028 64091
64091 64155
64155 64218
64218 64281
64281 64345
64345 64409
64409 64473
64473 64536
64536 64601
64601 64665
64665 64729
64729 64794
64794 64858
64858 64923
64923 64988
64988 65053
65053 65117
65117 65182
65182 65247
65247 65311
65311 65376
65376 65440
65440 65504
65504 65568
65568 65632
65632 65696
65696 65760
65760 65824
65824 65889
65889 65953
65953 66017
66017 66081
66081 66145
66145 66209
66209 66274
66274 66338
66338 66402
66402 66466
66466 66531
66531 66595
66595 66660
66660 66724
66724 66789
66789 66854
66854 66918
66918 66983
66983 67047
67047 67112
67112 67177
67177 67241
67241 67306
67306 67371
67371 67435
67435 67500
67500 67564
67564 67629
67629 67693
67693 67757
67757 67822
67822 67885
67885 67949
67949 68013
68013 68077
68077 68140
68140 68204
68204 68267
68267 68331
68331 68395
68395 68458
68458 68522
68522 68585
68585 68649
68649 68713
68713 68777
68777 68840
68840 68904
68904 68968
68968 69032
69032 69096
69096 69159
69159 69223
69223 69287
69287 69351
69351 69415
69415 69478
69478 69542
69542 69605
69605 69669
69669 69733
69733 69796
69796 69859
69859 69922
69922 69985
69985 70048
70048 70111
70111 70174
70174 70237
70237 70300
70300 70363
70363 70426
70426 70488
70488 70551
70551 70614
70614 70676
70676 70739
70739 70802
70802 70865
70865 70928
70928 70991
70991 71054
71054 71117
71117 71180
71180 71243
71243 71307
71307 71370
71370 71433
71433 71497
71497 71560
71560 71624
71624 71687
71687 71750
71750 71813
71813 71877
71877 71940
71940 72002
72002 72065
72065 72128
72128 72191
72191 72253
72253 72316
72316 72379
72379 72441
72441 72504
72504 72567
72567 72630
72630 72692
72692 72755
72755 72818
72818 72881
72881 72944
72944 73008
73008 73071
73071 73135
73135 73198
73198 73262
73262 73326
73326 73390
73390 73454
73454 73518
73518 73582
73582 73646
73646 73711
73711 73775
73775 73840
73840 73904
