1968 2084
4922 4965
6678 6746
6746 6815
6815 6883
6883 6950
6950 7020
7020 7096
7096 7164
7164 7232
7232 7299
7299 7366
7366 7434
7434 7501
7501 7567
7567 7635
7635 7701
7701 7768
7768 7834
7834 7902
7902 7969
7969 8035
8035 8101
8101 8168
8168 8234
8234 8300
8300 8367
8367 8433
8433 8499
8499 8565
8565 8631
8631 8697
8697 8763
8763 8829
8829 8895
8895 8961
8961 9027
9027 9093
9093 9159
9159 9225
9225 9290
9290 9356
9356 9422
9422 9488
9488 9553
9553 9620
9620 9687
9687 9752
9752 9818
9818 9884
9884 9951
9951 10016
10016 10084
10084 10150
10150 10217
10217 10282
10282 10350
10350 10416
10416 10483
10483 10549
10549 10616
10616 10683
10683 10748
10748 10816
10816 10883
10883 10949
10949 11016
11016 11082
11082 11149
11149 11215
11215 11283
11283 11350
11350 11416
11416 11482
11482 11550
11550 11616
11616 11682
11682 11749
11749 11816
11816 11882
11882 11948
11948 12016
12016 12083
12083 12149
12149 12216
12216 12283
12283 12349
12349 12415
12415 12483
12483 12550
12550 12616
12616 12683
12683 12750
12750 12816
12816 12882
12882 12948
12948 13016
13016 13083
13083 13149
13149 13216
13216 13283
13283 13350
13350 13416
13416 13484
13484 13551
13551 13618
13618 13685
13685 13752
13752 13820
13820 13886
13886 13954
13954 14020
14020 14087
14087 14154
14154 14223
14223 14290
14290 14356
14356 14423
14423 14490
14490 14558
14558 14623
14623 14692
14692 14759
14759 14826
14826 14892
14892 14934
14934 15001
15001 15068
15068 15134
15134 15201
15201 15268
15268 15335
15335 15401
15401 15469
15469 15536
15536 15602
15602 15669
15669 15711
15711 15778
15778 15845
15845 15913
15913 15980
15980 16032
16032 16099
16099 16167
16167 16234
16234 16301
16301 16368
16368 16435
16435 16502
16502 16568
16568 16637
16637 16704
16704 16771
16771 16838
16838 16906
16906 16974
16974 17040
17040 17108
17108 17175
17175 17242
17242 17309
17309 17377
17377 17444
17444 17510
17510 17578
17578 17645
17645 17712
17712 17779
17779 17846
17846 17913
17913 18020
18020 18088
18088 18155
18155 18221
18221 18289
18289 18356
18356 18423
18423 18489
18489 18555
18555 18622
18622 18690
18690 18756
18756 18824
18824 18891
18891 18958
18958 19034
19034 19100
19100 19167
19167 19233
19233 19301
19301 19368
19368 19436
19436 19502
19502 19570
19570 19638
19638 19704
19704 19771
19771 19839
19839 19906
19906 19975
19975 20073
20073 20140
20140 20206
20206 20274
20274 20342
20342 20408
20408 20475
20475 20543
20543 20610
20610 20677
20677 20745
20745 20812
20812 20879
20879 20945
20945 21012
21012 21079
21079 21147
21147 21213
21213 21256
21256 21324
21324 21391
21391 21458
21458 21525
21525 21593
21593 21659
21659 21726
21726 21793
21793 21860
21860 21927
21927 21994
21994 22085
22085 22151
22151 22219
22219 22287
22287 22353
22353 22421
22421 22488
22488 22555
22555 22621
22621 22689
22689 22756
22756 22823
22823 22890
22890 22957
22957 23023
23023 23091
23091 23158
23158 23224
23224 23293
23293 23360
23360 23427
23427 23493
23493 23561
23561 23603
23603 23670
23670 23738
23738 23805
23805 23873
23873 23940
23940 24008
24008 24097
24097 24164
24164 24231
24231 24298
24298 24365
24365 24433
24433 24500
24500 24567
24567 24634
24634 24702
24702 24769
24769 24836
24836 24903
24903 24970
24970 25037
25037 25103
25103 25171
25171 25238
25238 25305
25305 25371
25371 25438
25438 25506
25506 25573
25573 25639
25639 25706
25706 25773
25773 25839
25839 25905
25905 25971
25971 26038
26038 26105
26105 26171
26171 26238
26238 26304
26304 26371
26371 26437
26437 26503
26503 26570
26570 26637
26637 26702
26702 26769
26769 26836
26836 26902
26902 26968
26968 27034
27034 27075
27075 27141
27141 27207
27207 27275
27275 27341
27341 27407
27407 27473
27473 27539
27539 27605
27605 27671
27671 27738
27738 27804
27804 27869
27869 27935
27935 28002
28002 28068
28068 28134
28134 28200
28200 28267
28267 28333
28333 28398
28398 28464
28464 28530
28530 28596
28596 28661
28661 28727
28727 28791
28791 28858
28858 28924
28924 28989
28989 29052
29052 29118
29118 29182
29182 29249
29249 29315
29315 29380
29380 29445
29445 29512
29512 29578
29578 29643
29643 29709
29709 29775
29775 29841
29841 29906
29906 29972
29972 30038
30038 30103
30103 30168
30168 30234
30234 30300
30300 30366
30366 30431
30431 30498
30498 30564
30564 30629
30629 30694
30694 30761
30761 30827
30827 30893
30893 30959
30959 31024
31024 31090
31090 31155
31155 31221
31221 31286
31286 31353
31353 31419
31419 31485
31485 31551
31551 31618
31618 31684
31684 31751
31751 31817
31817 31925
31925 31991
31991 32057
32057 32123
32123 32190
32190 32256
32256 32323
32323 32388
32388 32456
32456 32523
32523 32589
32589 32656
32656 32722
32722 32790
32790 32856
32856 32923
32923 32989
32989 33056
33056 33122
33122 33188
33188 33255
33255 33321
33321 33388
33388 33455
33455 33520
33520 33588
33588 33654
33654 33721
33721 33787
33787 33854
33854 33920
33920 33986
33986 34075
34075 34140
34140 34207
34207 34274
34274 34339
34339 34406
34406 34472
34472 34538
34538 34604
34604 34671
34671 34737
34737 34803
34803 34868
34868 34935
34935 35001
35001 35066
35066 35133
35133 35199
35199 35265
35265 35331
35331 35397
35397 35463
35463 35529
35529 35595
35595 35661
35661 35727
35727 35793
35793 35860
35860 35926
35926 35992
35992 36058
36058 36124
36124 36190
36190 36256
36256 36323
36323 36389
36389 36455
36455 36522
36522 36588
36588 36654
36654 36720
36720 36787
36787 36853
36853 36919
36919 36985
36985 37051
37051 37117
37117 37183
37183 37249
37249 37315
37315 37381
37381 37447
37447 37513
37513 37579
37579 37644
37644 37711
37711 37777
37777 37843
37843 37908
37908 37974
37974 38040
38040 38106
38106 38172
38172 38239
38239 38305
38305 38371
38371 38438
38438 38504
38504 38570
38570 38636
38636 38702
38702 38768
38768 38834
38834 38901
38901 38966
38966 39033
39033 39099
39099 39165
39165 39231
39231 39297
39297 39363
39363 39429
39429 39495
39495 39562
39562 39628
39628 39694
39694 39760
39760 39826
39826 39891
39891 39957
39957 39999
39999 40065
40065 40132
