1460 1533
1460 1533
1533 1604
1604 1677
1677 1749
1749 1821
1821 1893
1893 1965
1965 2037
2037 2110
2110 2183
2183 2256
2331 2406
2406 2479
2479 2554
2554 2628
2628 2702
2702 2776
2776 2849
2849 2922
2922 2996
2996 3069
3069 3143
3143 3216
3216 3289
3289 3362
3362 3436
3436 3508
3508 3580
3580 3653
3653 3725
3725 3796
3796 3866
3866 3939
3939 4010
4010 4083
4083 4154
4154 4227
4227 4300
4300 4373
4373 4447
4597 4670
4895 4969
4969 5043
5043 5118
5118 5191
5191 5265
5265 5338
5338 5412
5412 5485
5485 5559
5559 5632
5632 5706
5706 5779
5779 5853
5853 5928
5928 6001
6001 6074
6074 6148
6148 6222
6222 6295
6295 6370
6370 6442
6442 6517
6517 6590
6590 6663
6663 6735
6735 6808
6808 6881
6881 6953
6953 7024
7024 7097
7097 7169
7169 7240
7240 7311
7311 7383
7383 7453
7453 7524
7524 7595
7595 7666
7666 7737
7737 7809
7953 8025
8025 8112
8112 8184
8184 8255
8255 8327
8327 8397
8397 8470
8470 8542
8542 8615
8615 8686
8686 8759
8759 8832
8832 8905
8905 8979
8979 9053
9053 9126
9126 9201
9201 9274
9274 9347
9347 9420
9420 9494
9494 9566
9566 9639
9639 9711
9711 9784
9784 9857
9857 9930
9930 10002
10002 10075
10075 10147
10147 10222
10222 10294
10294 10367
10367 10440
10440 10514
10514 10586
10586 10659
10659 10731
10731 10805
10805 10876
10876 10948
10948 11020
11020 11094
11094 11167
11167 11239
11239 11312
11312 11385
11385 11458
11458 11531
11531 11604
11604 11678
11678 11753
11753 11826
11826 11900
11900 11974
11974 12049
12049 12123
12123 12199
12199 12273
12273 12347
12347 12420
12420 12494
12494 12567
12567 12641
12641 12714
12714 12788
12788 12861
12861 12934
12934 13006
13006 13094
13094 13167
13167 13241
13241 13315
13315 13388
13388 13463
13463 13535
13535 13610
13610 13683
13683 13757
13757 13830
13830 13903
13903 13977
13977 14077
14077 14148
14148 14218
14218 14290
14290 14362
14362 14432
14432 14504
14504 14576
14576 14648
14648 14719
14719 14791
14791 14864
14864 14935
14935 15006
15006 15068
15068 15140
15140 15213
15213 15284
15284 15356
15356 15429
15429 15501
15501 15574
15574 15646
15646 15719
15719 15793
15793 15866
15866 15938
15938 16012
16012 16086
16086 16159
16159 16231
16231 16304
16304 16378
16378 16452
16452 16524
16524 16598
16598 16671
16671 16745
16745 16818
16818 16890
16890 16963
16963 17039
17039 17110
17110 17183
17183 17256
17256 17328
17328 17401
17401 17473
17473 17546
17546 17619
17619 17692
17692 17764
17764 17836
17836 17908
17908 17980
17980 18051
18051 18122
18122 18195
18195 18267
18267 18339
18339 18412
18412 18484
18484 18557
18557 18631
18631 18703
18703 18777
18777 18850
18850 18924
18924 18997
18997 19059
19059 19130
19130 19201
19201 19274
19274 19345
19345 19417
19417 19490
19490 19561
19561 19634
19634 19707
19707 19779
19779 19851
19851 19925
19925 19997
19997 20084
20084 20202
20202 20274
20274 20345
20345 20417
20417 20489
20489 20562
20562 20635
20635 20708
20708 20780
20780 20853
20853 20925
20925 20998
20998 21069
21069 21142
21142 21214
21214 21287
21287 21360
21360 21432
21432 21505
21505 21577
21577 21649
21649 21722
21722 21793
21793 21866
21866 21938
21938 22011
22011 22098
22098 22171
22171 22242
22242 22314
22314 22387
22387 22458
22458 22530
22530 22601
22601 22674
22674 22747
22747 22819
22819 22892
22892 22964
22964 23037
23037 23110
23110 23183
23183 23256
23256 23329
23329 23402
23402 23475
23475 23548
23548 23621
23621 23694
23694 23769
23769 23841
23841 23915
23915 23987
23987 24035
24035 24107
24107 24180
24180 24254
24254 24328
24328 24400
24400 24473
24473 24546
24546 24618
24618 24691
24691 24765
24765 24838
24838 24911
24911 24984
24984 25088
25088 25162
25162 25235
25235 25307
25307 25381
25381 25454
25454 25526
25526 25647
25647 25720
25720 25792
25792 25866
25866 25939
25939 26011
26011 26085
26085 26159
26159 26231
26231 26305
26305 26378
26378 26452
26452 26525
26525 26600
26600 26673
26673 26748
26748 26822
26822 26896
26896 26970
26970 27043
27043 27118
27118 27191
27191 27264
27264 27338
27338 27411
27411 27487
27487 27561
27561 27634
27634 27709
27709 27782
27782 27857
27857 27930
27930 27983
27983 28047
28047 28120
28120 28192
28192 28265
28265 28338
28338 28411
28411 28484
28484 28557
28557 28631
28631 28705
28705 28780
28780 28853
28853 28926
28926 29000
29000 29073
29073 29148
29148 29221
29221 29294
29294 29369
29369 29442
29442 29517
29517 29591
29591 29665
29665 29740
29740 29815
29815 29889
29889 29963
29963 30057
30057 30131
30131 30203
30203 30275
30275 30348
30348 30420
30420 30493
30493 30566
30566 30641
30641 30713
30713 30788
30788 30860
30860 30935
30935 31009
31009 31115
31115 31188
31188 31262
31262 31335
31335 31409
31409 31483
31483 31557
31557 31631
31631 31705
31705 31779
31779 31853
31853 31926
31926 32001
32001 32074
32074 32147
32147 32219
32219 32292
32292 32364
32364 32438
32438 32510
32510 32582
32582 32655
32655 32727
32727 32799
32799 32872
32872 32945
32945 33019
33019 33092
33092 33164
33164 33238
33238 33312
33312 33386
33386 33461
33461 33533
33533 33608
33608 33681
33681 33755
33755 33829
33829 33902
33902 33975
33975 34057
34057 34129
34129 34203
34203 34275
34275 34348
34348 34420
34420 34493
34493 34566
34566 34638
34638 34710
34710 34784
34784 34856
34856 34929
34929 35001
35001 35040
35040 35115
35115 35188
35188 35261
35261 35335
35335 35410
35410 35485
35485 35558
