181 271
271 527
527 616
616 701
701 783
783 867
867 1216
1216 1300
1300 1389
1389 1480
1480 1567
1567 2085
2085 2176
2176 2347
2347 2431
2431 2774
2774 2856
2856 3025
3025 3279
3279 3538
3538 4048
4048 4300
4300 4384
4384 4472
4472 4555
4555 4818
4818 4992
4992 5079
5079 5342
5342 5428
5428 5690
5690 5773
5773 6032
6032 6209
6209 6295
6295 6559
6559 6642
6642 6727
6727 6814
6814 7077
7077 7161
7161 7338
7338 7420
7420 7591
7591 8025
8025 8201
8201 8286
8286 8542
8542 8631
8631 8800
8800 8883
8883 8971
8971 9262
9262 9340
9340 9507
9507 9588
9588 9666
9666 9749
9749 9998
9998 10071
10071 10244
10244 10322
10322 10489
10489 10650
10650 10812
10812 10892
10892 10971
10971 11055
11055 11135
11135 11212
11212 11373
11373 11532
11532 11688
11688 11848
11848 11924
11924 12001
12001 12235
12235 12316
12316 12392
12392 12550
12550 12628
12628 12784
12784 12862
12862 12938
12938 13019
13019 13266
13266 13513
13513 13758
13758 13839
13839 13918
13918 13998
13998 14084
14084 14407
14407 14491
14491 14570
14570 14733
14733 14811
14811 14894
14894 14971
14971 15055
15055 15134
15134 15379
15379 15455
15455 15537
15537 15617
15617 15693
15693 15773
15773 15855
15855 15933
15933 16016
16016 16176
16176 16342
16342 16425
16425 16588
16588 16752
16752 17073
17073 17157
17157 17321
17321 17487
17487 17654
17654 17733
17733 17819
17819 17897
17897 18392
18392 18469
18469 18550
18550 18631
18631 18793
18793 18963
18963 19045
19045 19126
19126 19293
19293 19374
19374 19620
19620 19780
19780 19944
19944 20110
20110 20189
20189 20268
20268 20350
20350 20427
20427 20507
20507 20751
20751 20828
20828 21078
21078 21163
21163 21247
21247 21333
21333 21423
21423 21600
21600 21684
21684 21771
21771 21947
21947 22036
22036 22290
22290 22371
22371 22454
22454 22537
22537 22623
22623 22706
22706 22959
22959 23040
23040 23126
23126 23205
23205 23454
23454 23534
23534 23618
23618 23697
23697 24113
24113 24450
24450 24536
24536 24587
24587 24782
24782 24868
24868 24958
24958 25125
25125 25213
25213 25293
25293 25545
25545 25626
25626 25885
25885 26056
26056 26392
26392 26472
26472 26643
26643 26724
26724 26807
26807 26976
26976 27063
27063 27143
27143 27392
27392 27480
27480 27564
27564 27821
27821 27905
27905 28082
28082 28173
28173 28263
28263 28348
28348 28611
28611 28867
28867 29117
29117 29199
29199 29281
29281 29363
29363 29613
29613 29695
29695 29865
29865 29948
29948 30285
30285 30365
30365 30451
30451 30701
30701 30784
30784 31121
31121 31202
31202 31377
31377 31460
31460 31547
31547 31639
31639 31723
31723 31810
31810 31901
31901 31984
31984 32241
32241 32500
32500 32584
32584 32668
32668 32750
32750 32921
32921 33260
33260 33341
33341 33428
33428 33510
33510 33680
33680 33761
33761 34371
34371 34632
34632 34893
34893 34980
34980 35072
35072 35246
35246 35334
35334 35678
35678 35761
35761 35937
35937 36021
36021 36197
36197 36280
36280 36366
36366 36623
36623 36704
36704 36791
36791 36872
36872 36958
36958 37041
37041 37121
37121 38005
38005 38082
38082 38165
38165 38245
38245 38322
38322 38568
38568 38648
38648 38808
38808 38890
38890 38970
38970 39051
39051 39132
39132 39298
39298 39378
39378 39457
39457 39701
39701 39778
39778 39862
39862 40027
40027 40275
40275 40357
40357 40436
40436 40684
40684 40764
40764 40847
40847 41185
41185 41359
41359 41440
41440 41610
41610 41693
41693 41773
41773 41859
41859 42111
42111 42367
42367 42450
42450 42622
42622 42704
42704 42791
42791 42872
42872 42956
42956 43209
43209 43297
43297 43643
43643 43730
43730 43821
43821 43910
43910 43998
43998 44179
44179 44357
44357 44445
44445 44528
44528 44705
44705 44788
44788 44876
44876 45144
45144 45229
45229 45318
45318 45412
45412 45501
45501 45587
45587 45853
45853 45940
45940 46024
46024 46198
46198 46465
46465 46643
46643 46734
46734 47008
47008 47097
47097 47455
47455 47545
47545 47633
47633 47729
47729 47818
47818 47914
47914 48005
48005 48190
48190 48278
48278 48549
48549 48635
48635 48815
48815 48901
48901 49236
49236 49502
49502 49860
49860 50131
50131 50221
50221 50309
50309 50497
50497 50588
50588 50769
50769 50859
50859 51042
51042 51131
51131 51218
51218 51576
51576 51662
51662 51844
51844 52115
52115 52204
52204 52295
52295 52383
52383 52474
52474 52660
52660 52752
52752 52843
52843 53221
53221 53409
53409 53497
53497 53591
53591 53681
53681 54138
54138 54235
54235 54329
54329 54419
54419 54789
54789 54879
54879 54975
54975 55061
55061 55154
55154 55243
55243 55424
55424 55511
55511 55871
55871 55965
55965 56057
56057 56146
56146 56236
56236 56417
56417 56690
56690 57050
57050 57140
57140 57235
57235 57322
57322 57504
57504 57592
57592 57951
57951 58044
58044 58131
58131 58491
58491 58584
58584 58671
58671 58767
58767 58854
58854 58948
58948 59036
59036 59128
59128 59222
59222 59310
59310 59406
59406 59497
59497 59584
59584 59680
59680 59768
59768 59863
59863 60049
60049 60137
60137 60232
60232 60321
60321 60505
60505 60592
60592 60865
60865 60955
60955 61326
61326 61603
61603 61696
61696 61782
61782 61875
61875 61963
61963 62048
62048 62140
62140 62226
62226 62314
62314 62498
62498 62585
62585 62863
62863 62951
62951 63139
63139 63227
63227 63413
63413 63503
63503 63590
63590 64038
64038 64213
64213 64304
64304 64389
64389 64480
64480 64566
64566 64649
64649 64735
64735 64825
64825 64912
64912 64995
64995 65143
65143 65506
65506 65593
65593 65685
65685 65778
65778 65864
65864 66049
66049 66138
66138 66226
66226 66316
66316 66495
66495 66766
66766 66946
66946 67037
67037 67123
67123 67567
67567 67653
67653 67743
67743 67835
67835 67920
67920 68011
68011 68101
68101 68188
68188 68274
68274 68623
68623 68793
