4072 4183
4183 4258
4587 4697
4697 4776
11893 12001
12001 12065
14916 15029
15029 15110
15832 15941
15941 16018
18514 18621
18621 18702
22905 23012
23012 23064
23064 23169
23169 23252
30893 30953
30953 31028
31122 31216
31216 31292
31292 31393
31393 31492
31492 31571
31571 31673
31673 31745
31745 31819
31819 31920
31920 32020
32020 32115
32115 32189
32189 32290
32290 32390
32390 32486
32486 32562
32562 32663
32663 32764
32764 32840
32840 32939
32939 33110
33110 33191
33191 33271
33271 33342
33342 33445
33445 33526
33526 33595
33595 33684
33684 33765
33765 33844
33844 33924
33924 33994
33994 34045
34045 34116
34116 34204
34204 34288
34288 34363
34363 34450
34450 34533
34533 34609
34609 34696
34696 34766
34766 34827
34827 34921
34921 35003
35003 35066
35066 35141
35141 35231
35231 35300
35300 35393
35393 35481
35481 35553
35553 35646
35646 35720
35720 35813
35813 35901
35901 35972
35972 36066
36066 36155
36155 36227
36227 36322
36322 36412
36412 36486
36486 36580
36580 36670
36670 36744
36744 36838
36838 36913
36913 37008
37008 37099
37099 37168
37168 37266
37266 37358
37358 37430
37430 37527
37527 37598
37598 37697
37697 37790
37790 37864
37864 37961
37961 38052
38052 38126
38126 38222
38222 38294
38294 38393
38393 38486
38486 38576
38576 38652
38652 38748
38748 38823
38823 38921
38921 39013
39013 39085
39085 39182
39182 39274
39274 39362
39362 39441
39441 39534
39534 39623
39623 39703
39703 39795
39795 39884
39884 39960
39960 40053
40053 40142
40142 40230
40230 40317
40317 40404
40404 40474
40474 40572
40572 40665
40665 40753
40753 40842
40842 40930
40930 41001
41001 41099
41099 41171
41171 41272
