1751 1833
1833 1916
1833 1916
1916 1996
1996 2054
2932 3035
3035 3116
3116 3196
3196 3276
3276 3358
3358 3437
3437 3519
3519 3600
3600 3680
3680 3762
3762 3845
3845 3925
3925 4007
4007 4089
4089 4170
4170 4251
4251 4333
4333 4414
4414 4494
4494 4576
4576 4657
4657 4737
4737 4819
4819 4901
4901 4983
4983 5063
5063 5145
5145 5228
5228 5309
5309 5390
5390 5472
5472 5555
5555 5636
5636 5718
5718 5801
5801 5883
5883 5964
5964 6046
6046 6130
6130 6211
6211 6293
6293 6376
6376 6458
6458 6541
6541 6624
6624 6708
6708 6790
6790 6874
6874 6958
6958 7043
7043 7125
7125 7210
7210 7294
7294 7378
7378 7461
7461 7545
7545 7630
7630 7712
7712 7796
7796 7880
7880 7963
7963 8045
8045 8129
8129 8214
8214 8295
8295 8379
8379 8463
8463 8545
8545 8629
8629 8713
8713 8794
8794 8877
8877 8961
8961 9042
9042 9123
9123 9206
9206 9286
9286 9367
9367 9450
9450 9532
9532 9612
9612 9695
9695 9777
9777 9859
9859 9940
9940 10024
10024 10106
10106 10189
10189 10272
10272 10355
10355 10436
10436 10519
10519 10602
10602 10683
10683 10764
10764 10847
10847 10928
10928 11009
11009 11090
11090 11172
11172 11252
11252 11334
11334 11416
11416 11496
11496 11577
11577 11659
11659 11740
11740 11821
11821 11902
11902 11959
11959 12040
12040 12121
12121 12203
12203 12285
12285 12366
12366 12448
12448 12531
12531 12611
12611 12693
12693 12776
12776 12857
12857 12938
12938 13021
13021 13102
13102 13185
13185 13267
13267 13347
13347 13430
13430 13512
13512 13593
13593 13678
13678 13759
13759 13843
13843 13925
13925 14005
14005 14088
14088 14169
14169 14249
14249 14331
14331 14411
14411 14492
14492 14572
14572 14653
14653 14734
14734 14814
14814 14895
14895 14974
14974 15056
15056 15137
15137 15216
15216 15297
15297 15376
15376 15457
15457 15537
15537 15617
15617 15698
15698 15777
15777 15858
15858 15938
15938 16017
16017 16098
16098 16178
16178 16256
16256 16336
16336 16416
16416 16496
16496 16577
16577 16656
16656 16736
16736 16816
16816 16895
16895 16973
16973 17052
17052 17132
17132 17210
17210 17290
17290 17371
17371 17450
17450 17531
17531 17611
17611 17691
17691 17772
17772 17852
17852 17931
17931 18011
18011 18091
18091 18171
18171 18251
18251 18330
18330 18411
18411 18512
18512 18554
18554 18652
18652 18731
18731 18810
18810 18890
18890 18970
18970 19067
19067 19148
19148 19230
19230 19310
19310 19390
19390 19472
19472 19552
19552 19631
19631 19713
19713 19793
19793 19874
19874 19956
19956 20035
20035 20116
20116 20198
20198 20280
20280 20361
20361 20440
20440 20520
20520 20601
20601 20682
20682 20762
20762 20842
20842 20923
20923 21005
21005 21086
21086 21168
21168 21250
21250 21332
21332 21414
21414 21497
21497 21580
21580 21663
21663 21745
21745 21828
21828 21910
21910 21992
21992 22039
22039 22123
22123 22205
22205 22286
22286 22369
22369 22451
22451 22509
22509 22591
22591 22674
22674 22756
22756 22839
22839 22922
22922 22977
22977 23087
23087 23169
23169 23250
23250 23331
23331 23412
23412 23493
23493 23572
23572 23629
23629 23734
23734 23813
23813 23894
23894 23975
23975 24054
24054 24135
24135 24215
24215 24296
24296 24377
24377 24458
24458 24540
24540 24619
24619 24701
24701 24782
24782 24863
24863 24943
24943 25025
25025 25106
25106 25187
25187 25269
25269 25350
25350 25431
25431 25512
25512 25593
25593 25674
25674 25756
25756 25836
25836 25918
25918 26000
26000 26081
26081 26163
26163 26245
26245 26327
26327 26408
26408 26490
26490 26572
26572 26653
26653 26735
26735 26815
26815 26895
26895 26977
26977 27057
27057 27137
27137 27218
27218 27300
27300 27381
27381 27464
27464 27546
27546 27629
27629 27711
27711 27767
27767 27879
27879 27960
27960 28044
28044 28126
28126 28209
28209 28292
28292 28374
28374 28457
28457 28539
28539 28622
28622 28705
28705 28787
28787 28868
28868 28951
28951 29034
29034 29116
29116 29199
29199 29282
29282 29340
29340 29422
29422 29506
29506 29589
29589 29671
29671 29755
29755 29838
29838 29921
29921 30004
30004 30086
30086 30169
30169 30252
30252 30335
30335 30417
30417 30499
30499 30582
30582 30664
30664 30748
30748 30829
30829 30912
30912 30996
30996 31079
31079 31161
31161 31245
31245 31328
31328 31411
31411 31494
31494 31578
31578 31660
31660 31744
31744 31827
31827 31910
31910 31994
31994 32076
32076 32136
32136 32246
32246 32329
32329 32414
32414 32497
32497 32580
32580 32665
32665 32749
32749 32833
32833 32917
32917 33000
33000 33084
33084 33167
33167 33251
33251 33335
33335 33417
33417 33502
33502 33585
33585 33670
33670 33753
33753 33838
33838 33922
33922 34007
34007 34091
34091 34177
34177 34262
34262 34347
34347 34431
34431 34516
34516 34600
34600 34683
34683 34766
34766 34850
34850 34933
34933 35014
35014 35098
35098 35181
35181 35263
35263 35345
35345 35429
35429 35511
35511 35594
35594 35676
35676 35733
35733 35816
35816 35898
35898 35981
35981 36064
36064 36146
36146 36228
36228 36312
36312 36394
36394 36477
36477 36560
36560 36643
36643 36725
36725 36810
36810 36893
36893 36976
36976 37060
37060 37143
37143 37225
37225 37311
37311 37394
37394 37476
37476 37561
37561 37646
37646 37727
37727 37811
37811 37894
37894 37976
37976 38059
38059 38143
38143 38226
38226 38308
38308 38391
38391 38474
38474 38557
38557 38639
38639 38724
38724 38807
38807 38890
38890 38974
38974 39059
39059 39143
39143 39228
39228 39287
39287 39372
39372 39457
39457 39540
39540 39626
39626 39711
39711 39795
39795 39879
39879 39964
39964 40050
40050 40133
40133 40219
40219 40304
40304 40388
40388 40472
40472 40558
40558 40643
40643 40726
40726 40811
40811 40896
40896 40980
40980 41063
41063 41148
41148 41231
41231 41315
41315 41397
41397 41482
41482 41565
41565 41649
41649 41731
41731 41815
41815 41899
41899 41983
41983 42067
42067 42153
42153 42237
42237 42322
42322 42406
42406 42492
42492 42576
42576 42662
42662 42746
42746 42832
42832 42917
42917 43001
43001 43087
43087 43171
43171 43256
43256 43339
43339 43425
43425 43508
43508 43592
43592 43677
43677 43761
43761 43844
43844 43930
43930 44014
44014 44097
44097 44180
44180 44262
44262 44342
44342 44425
44425 44508
44508 44590
44590 44672
44672 44753
44753 44836
44836 44919
44919 45002
45002 45084
45084 45165
45165 45248
45248 45330
45330 45412
45412 45495
45495 45576
45576 45657
45657 45741
45741 45822
45822 45905
45905 45988
45988 46071
46071 46154
46154 46237
46237 46321
46321 46405
46405 46487
46487 46573
46573 46657
46657 46740
46740 46825
46825 46909
46909 46993
46993 47062
47062 47146
47146 47233
47233 47319
47319 47403
47403 47490
47490 47576
47576 47662
47662 47747
47747 47834
47834 47921
47921 48005
48005 48092
48092 48179
48179 48262
48262 48349
48349 48435
48435 48522
48522 48607
48607 48692
48692 48778
48778 48865
48865 48951
48951 49034
49034 49121
49121 49205
49205 49290
49290 49373
49373 49459
49459 49542
49542 49627
49627 49713
49713 49796
49796 49882
49882 49967
49967 50088
50088 50172
50172 50255
50255 50339
50339 50422
50422 50505
50505 50561
50561 50674
50674 50756
50756 50840
50840 50922
50922 51005
51005 51088
51088 51172
51172 51255
51255 51338
51338 51422
51422 51506
51506 51590
51590 51675
51675 51760
51760 51844
51844 51930
51930 52015
52015 52100
52100 52184
52184 52269
52269 52354
52354 52438
52438 52524
52524 52610
52610 52694
52694 52780
52780 52866
52866 52950
52950 53009
53009 53094
53094 53179
53179 53263
53263 53349
53349 53434
53434 53520
53520 53604
53604 53690
53690 53775
53775 53861
53861 53946
53946 54032
54032 54118
54118 54203
54203 54289
54289 54375
54375 54460
54460 54521
54521 54634
54634 54718
54718 54779
