6 59
119 187
187 258
258 329
329 400
400 471
471 541
541 613
613 754
754 825
825 895
895 1070
1070 1140
1140 1211
1211 1282
1282 1353
1353 1423
1423 1494
1494 1565
1565 1636
1636 1707
1707 1778
1778 1850
1850 1921
1921 1992
1992 2064
2064 2135
2135 2207
2207 2278
2278 2350
2350 2421
2421 2493
2493 2565
2565 2708
2708 2781
2781 2853
2853 2925
2925 2996
2996 3040
3040 3112
3112 3183
3183 3255
3255 3326
3326 3469
3469 3540
3540 3612
3612 3683
3683 3755
3755 3804
3804 3900
3900 3946
3946 3996
3996 4111
4111 4181
4181 4246
4246 4530
4530 4672
4530 4672
4814 4956
5090 5155
5155 5298
5298 5369
5369 5441
5441 5512
5512 5583
5583 5655
5655 5726
5726 5797
5797 5869
5869 5941
5941 6013
6013 6084
6084 6156
6156 6228
6228 6300
6300 6371
6371 6443
6443 6515
6515 6587
6587 6659
6659 6804
6804 6875
6804 6875
6875 6947
6947 7020
7020 7092
7092 7164
7164 7236
7236 7308
7308 7380
7380 7452
7452 7524
7524 7597
7597 7668
7668 7741
7741 7813
7813 7885
7885 7957
7957 8029
8029 8102
8102 8174
8174 8245
8245 8318
8318 8390
8390 8462
8462 8534
8534 8606
8606 8678
8678 8750
8750 8822
8822 8894
8894 8965
8965 9037
9037 9109
9109 9181
9181 9252
9252 9324
9324 9396
9396 9468
9468 9539
9539 9610
9610 9682
9682 9753
9753 9824
9824 9968
11479 11551
11623 11847
11847 12197
12197 12269
12269 12413
12413 12485
12485 12557
12557 12702
12702 12774
12774 12847
12847 12920
12920 12992
12992 13089
13089 13161
13161 13234
13234 13306
13959 14098
15127 15347
15347 15420
15420 15493
15493 15566
15566 15639
15639 15712
15712 15786
15786 15859
15859 15933
15933 16006
16006 16079
16079 16152
16152 16226
16226 16298
16298 16371
16371 16445
16445 16518
16518 16591
16591 16664
16664 16737
16737 16811
16811 16884
16884 16957
16957 17031
17031 17104
17104 17178
17178 17251
17251 17324
17324 17398
17398 17472
17472 17545
17545 17618
17618 17692
17692 17766
17766 17839
17839 17913
17913 17987
17987 18060
18060 18133
18133 18206
18206 18280
18280 18353
18353 18426
18426 18500
18500 18574
18574 18647
18647 18720
18720 18794
18794 18868
18868 18942
18942 19164
19164 19238
19238 19310
19310 19383
19383 19456
19456 19529
19529 19601
19601 19674
19674 19747
19747 19821
19821 19894
19894 19967
19967 20040
20040 20114
20114 20187
20187 20260
20260 20334
20334 20408
20408 20481
20481 20554
20554 20629
20629 20703
20703 20776
20776 20850
20850 20924
20924 20998
20998 21072
21072 21145
21145 21220
21220 21294
21294 21367
21367 21441
21441 21516
21516 21590
21590 21664
21664 21739
21739 21813
21813 21888
21888 21962
21962 22036
22036 22111
22111 22186
22186 22260
22260 22334
22334 22409
22409 22483
22483 22557
22557 22706
22706 22780
22780 22854
22854 22928
22928 23003
23003 23094
23094 23169
23169 23218
23218 23292
23292 23367
23367 23442
23442 23517
23517 23570
23570 23645
23645 23721
23721 23795
25366 25516
25516 25590
25590 25664
25664 25738
25738 25812
25812 25886
25886 25959
25959 26033
26033 26108
26108 26182
26182 26256
26256 26330
26330 26404
26404 26479
26479 26552
26552 26627
26627 26701
26701 26775
26775 26849
26849 26923
26923 26998
26998 27072
27072 27146
27146 27221
27221 27296
27296 27370
27370 27444
27444 27518
27518 27593
27593 27667
27667 27741
27741 27815
27815 27890
27890 27964
27964 28039
28039 28113
28113 28189
28857 28930
32580 32655
