16034 16116
17975 18111
24995 25092
27976 28089
31100 31244
31244 31328
31328 31413
31413 31498
31498 31584
31584 31671
31671 31758
31758 31846
31846 31931
31931 32017
32017 32102
32102 32187
32187 32271
32271 32356
32356 32440
32440 32525
32525 32608
32608 32689
32689 32771
32771 32852
32852 32934
32934 33015
33015 33096
33096 33178
33178 33259
33259 33341
33341 33421
33421 33502
33502 33583
33583 33664
33664 33745
33745 33826
33826 33909
33909 33992
33992 34076
34076 34159
34159 34243
34243 34326
34326 34409
34409 34491
34491 34573
34573 34655
34655 34736
34736 34817
34817 34897
34897 34977
34977 35079
35079 35157
35157 35235
35235 35313
35313 35392
35392 35470
35470 35548
35548 35627
35627 35706
35706 35785
35785 35864
35864 35944
35944 36025
36025 36106
36106 36188
36188 36269
36269 36351
36351 36433
36433 36515
36515 36597
36597 36679
36679 36762
36762 36845
36845 36928
36928 37011
37011 37094
37094 37177
37177 37259
37259 37342
37342 37424
37424 37507
37507 37589
37589 37671
37671 37753
37753 37835
37835 37918
37918 38000
38000 38082
38082 38165
38165 38247
38247 38330
38330 38413
38413 38495
38495 38578
38578 38661
38661 38744
38744 38827
38827 38910
38910 38993
38993 39077
39077 39160
39160 39243
39243 39326
39326 39408
39408 39492
39492 39575
39575 39658
39658 39741
39741 39824
39824 39907
39907 39990
39990 40073
40073 40156
40156 40239
40239 40322
40322 40406
40406 40489
40489 40571
40571 40655
40655 40739
40739 40822
40822 40905
40905 40988
40988 41070
41070 41152
41152 41235
41235 41318
41318 41401
41401 41484
41484 41567
41567 41650
41650 41733
41733 41816
41816 41899
41899 41982
41982 42065
42065 42148
42148 42232
42232 42315
42315 42398
42398 42481
42481 42564
42564 42648
42648 42731
42731 42813
42813 42896
42896 42979
42979 43062
43062 43145
43145 43227
43227 43310
43310 43394
43394 43477
43477 43560
43560 43642
43642 43725
43725 43808
43808 43891
43891 43974
43974 44056
44056 44138
44138 44221
44221 44304
44304 44386
44386 44469
44469 44552
44552 44635
44635 44719
44719 44802
44802 44885
44885 44968
44968 45052
45052 45136
45136 45220
45220 45303
45303 45387
45387 45470
45470 45554
45554 45638
45638 45722
45722 45806
45806 45889
45889 45973
45973 46057
46057 46141
46141 46224
46224 46307
46307 46390
46390 46474
46474 46615
46615 46698
46698 46782
46782 46865
46865 46948
46948 47032
47032 47115
47115 47198
47198 47282
47282 47365
47365 47448
47448 47531
47531 47614
47614 47698
47698 47781
47781 47864
47864 47947
47947 48030
48030 48113
48113 48195
48195 48278
48278 48360
48360 48442
48442 48524
48524 48605
48605 48686
48686 48767
48767 48847
48847 48928
48928 49008
49008 49049
49049 49132
49132 49214
49214 49296
49296 49376
49376 49458
49458 49539
49539 49620
49620 49700
49700 49782
49782 49863
49863 49944
49944 50025
50025 50086
50086 50167
50167 50248
50248 50328
50328 50409
50409 50488
50488 50568
50568 50647
50647 50727
50727 50808
50808 50889
50889 50970
50970 51051
51051 51132
51132 51213
51213 51295
51295 51377
51377 51459
51459 51541
51541 51622
51622 51704
51704 51786
51786 51867
51867 51949
51949 52031
52031 52112
52112 52193
52193 52274
52274 52355
52355 52435
52435 52517
52517 52598
52598 52679
52679 52760
52760 52841
52841 52921
52921 53002
53002 53082
53082 53162
53162 53243
53243 53324
53324 53404
53404 53485
53485 53566
53566 53647
53647 53727
53727 53808
53808 53888
53888 53968
53968 54048
54048 54127
54127 54207
54207 54287
54287 54368
54368 54447
54447 54527
54527 54608
54608 54688
54688 54769
54769 54851
54851 54933
54933 55015
55015 55097
55097 55179
55179 55261
55261 55343
55343 55425
55425 55506
55506 55588
55588 55669
55669 55750
55750 55831
55831 55912
55912 55994
55994 56075
56075 56156
56156 56237
56237 56319
56319 56400
56400 56482
56482 56564
56564 56645
56645 56726
56726 56807
56807 56889
56889 56970
56970 57051
57051 57132
57132 57213
57213 57294
57294 57375
57375 57456
57456 57536
57536 57617
57617 57698
57698 57779
57779 57861
57861 57942
57942 58025
58025 58107
58107 58189
58189 58271
58271 58353
58353 58434
58434 58516
58516 58597
58597 58678
58678 58758
58758 58839
