306 384
384 461
847 925
925 1002
1002 1063
1374 1452
1452 1531
1531 1609
1609 1686
1686 1764
1764 1842
1842 1921
1921 1999
1999 2078
2078 2156
2156 2234
2234 2313
2313 2391
2391 2470
2470 2548
2548 2627
2627 2706
2706 2785
2785 2864
2864 2944
2944 3023
3023 3067
3067 3147
3147 3227
3227 3307
3307 3387
3387 3467
3467 3547
3547 3627
3627 3707
3707 3786
3786 3866
3866 3947
3947 4027
4027 4141
4141 4221
4221 4302
4302 4382
4382 4463
4463 4544
4544 4625
4625 4705
4705 4786
4786 4866
4866 4947
4947 5027
5027 5107
5107 5187
5187 5267
5267 5347
5347 5427
5427 5507
5507 5587
5587 5666
5666 5746
5746 5826
5826 5906
5906 5986
5986 6066
6066 6146
6146 6226
6226 6307
6307 6387
6387 6467
6467 6547
6547 6627
6627 6707
6707 6787
6787 6867
6867 6947
6947 7028
7028 7108
7108 7188
7188 7269
7269 7349
7349 7430
7430 7510
7510 7591
7591 7671
7671 7751
7751 7831
7831 7911
7911 7991
7991 8076
8076 8154
8154 8231
8231 8309
8309 8386
8386 8463
8463 8541
8541 8619
8619 8697
8697 8775
8775 8853
8853 8931
8931 9034
9034 9113
9113 9191
9191 9270
9270 9349
9349 9427
9427 9506
9506 9585
9585 9664
9664 9743
9743 9821
9821 9900
9900 9973
9973 10094
10094 10172
10172 10250
10250 10328
10328 10407
10407 10485
10485 10565
10565 10644
10644 10723
10723 10803
10803 10856
10856 10935
10935 11013
11013 11081
11081 11160
11160 11238
11238 11317
11317 11396
11396 11475
11475 11554
11554 11634
11634 11714
11714 11794
11794 11873
11873 11953
11953 12033
12033 12113
12113 12193
12193 12273
12273 12353
12353 12433
12433 12513
12513 12593
12593 12673
12673 12752
12752 12832
12832 12912
12912 12992
12992 13072
13072 13152
13152 13233
13233 13313
13313 13394
13394 13476
13476 13557
13557 13638
13638 13719
13719 13800
13800 13882
13882 13962
13962 14043
14043 14124
14124 14205
14205 14286
14286 14366
14366 14446
14446 14527
14527 14607
14607 14687
14687 14767
14767 14848
14848 14928
14928 15008
15008 15088
15088 15169
15169 15250
15250 15330
15330 15411
15411 15492
15492 15573
15573 15653
15653 15734
15734 15814
15814 15894
15894 15975
15975 16084
16084 16138
16138 16216
16216 16295
16295 16373
16373 16452
16452 16531
16531 16609
16609 16690
16690 16770
16770 16851
16851 16931
16931 17012
17012 17068
17068 17149
17149 17230
17230 17311
17311 17391
17391 17472
17472 17553
17553 17635
17635 17716
17716 17797
17797 17878
17878 17960
17960 18041
18041 18123
18123 18205
18205 18287
18287 18369
18369 18452
18452 18533
18533 18615
18615 18697
18697 18778
18778 18860
18860 18940
18940 19021
19021 19066
19066 19145
19145 19224
19224 19303
19303 19383
19383 19462
19462 19542
19542 19621
19621 19701
19701 19780
19780 19860
19860 19940
19940 20020
20020 20101
20101 20182
20182 20263
20263 20344
20344 20425
20425 20507
20507 20588
20588 20670
20670 20751
20751 20832
20832 20913
20913 20994
20994 21076
21076 21157
21157 21238
21238 21319
21319 21401
21401 21457
21457 21538
21538 21621
21621 21703
21703 21785
21785 21867
21867 21950
21950 22032
22032 22115
22115 22197
22197 22280
22280 22363
22363 22445
22445 22528
22528 22610
22610 22693
22693 22776
22776 22859
22859 22941
22941 23024
23024 23106
23106 23188
23188 23271
23271 23353
23353 23436
23436 23519
23519 23601
23601 23684
23684 23767
23767 23850
23850 23932
23932 24014
24014 24097
24097 24180
24180 24262
24262 24345
24345 24427
24427 24509
24509 24591
24591 24674
24674 24756
24756 24838
24838 24920
24920 25001
25001 25084
25084 25166
25166 25248
25248 25330
25330 25412
25412 25495
25495 25577
25577 25659
25659 25741
25741 25824
25824 25906
25906 25989
25989 26071
26071 26154
26154 26236
26236 26319
26319 26402
26402 26485
26485 26568
26568 26650
26650 26733
26733 26816
26816 26899
26899 26982
26982 27064
27064 27147
27147 27229
27229 27311
27311 27392
27392 27474
27474 27555
27555 27637
27637 27718
27718 27799
27799 27880
27880 27961
27961 28042
28042 28123
