59 155
155 264
264 311
311 361
400 441
441 509
509 600
600 641
641 678
678 720
720 768
768 812
812 848
848 895
895 940
940 996
996 1081
1081 1123
1123 1159
1159 1205
1205 1258
1258 1297
1297 1345
1345 1392
1392 1435
1435 1489
1489 1548
1548 1622
1622 1705
1705 1742
1742 1843
1843 1902
1902 1939
1939 2015
2015 2073
2073 2111
2111 2155
2155 2201
2201 2257
2257 2324
2324 2372
2372 2455
2455 2498
2498 2544
2544 2599
2599 2640
2640 2712
2712 2760
2760 2797
2797 2851
2851 2918
2918 2954
2954 3000
3000 3042
3042 3079
3079 3133
3133 3212
3212 3281
3281 3319
3319 3366
3366 3402
3402 3464
3464 3505
3505 3577
3577 3622
3622 3678
3678 3750
3750 3806
3806 3847
3847 3889
3889 3933
3933 3969
3969 4057
4057 4130
4130 4172
4172 4236
4236 4273
4273 4312
4312 4354
4354 4390
4390 4439
4439 4481
4481 4534
4534 4604
4604 4652
4652 4695
4695 4733
4733 4775
4775 4816
4816 4852
4852 4897
4897 4970
4970 5015
5015 5056
5056 5096
5096 5132
5132 5172
5172 5245
5245 5294
5294 5333
5333 5372
5372 5457
5457 5499
5499 5541
5541 5583
5583 5638
5638 5677
5677 5741
5741 5795
5795 5839
5839 5883
5883 5930
5930 6020
6020 6072
6072 6117
6117 6157
6157 6205
6205 6243
6243 6283
6283 6321
6321 6362
6362 6400
6400 6470
6470 6523
6523 6599
6599 6650
6650 6691
6691 6747
6747 6843
6843 6923
6923 6974
6974 7011
7011 7091
7091 7193
7193 7243
7243 7298
7298 7342
7342 7420
7420 7552
7552 7600
7600 7638
7638 7683
7683 7756
7756 7794
7794 7835
7835 7873
7873 7918
7918 7962
7962 8023
8023 8072
8072 8124
8124 8160
8160 8205
8205 8255
8255 8299
8299 8341
8341 8396
8396 8467
8467 8507
8507 8548
8548 8584
8584 8638
8638 8694
8694 8759
8759 8796
8796 8833
8833 8879
8879 8952
8952 9016
9016 9059
9059 9097
9097 9175
9175 9211
9211 9261
9261 9302
9302 9344
9344 9424
9424 9462
9462 9531
9531 9578
9578 9624
9624 9667
9667 9703
9703 9791
9791 9830
9830 9876
9876 9914
9914 9960
9960 10003
10003 10055
10055 10095
10095 10208
10208 10255
10255 10292
10292 10332
10332 10386
10386 10453
10453 10491
10491 10528
10528 10566
10566 10615
10615 10710
10710 10785
10785 10863
10863 10900
10900 10943
10943 11015
11015 11068
11068 11122
11122 11192
11192 11229
11229 11284
11284 11332
11332 11373
