255 372
7021 7103
7103 7195
7195 7287
7287 7377
7377 7468
7468 7560
7560 7649
7649 7740
7740 7830
7830 7921
7921 8010
8010 8090
8090 8177
8177 8264
8264 8353
8353 8442
8442 8530
8530 8620
8620 8709
8709 8798
8798 8889
8889 8980
8980 9069
9069 9159
9159 9251
9251 9342
9342 9434
9434 9526
9526 9618
9618 9708
9708 9800
9800 9890
9890 9957
9957 10048
10048 10137
10137 10226
10226 10316
10316 10404
10404 10493
10493 10582
10582 10670
10670 10757
10757 10846
10846 10934
10934 11023
11023 11112
11112 11201
11201 11290
11290 11381
11381 11472
11472 11562
11562 11652
11652 11743
11743 11834
11834 11924
11924 12015
12015 12106
12106 12196
12196 12285
12285 12375
12375 12465
12465 12553
12553 12642
12642 12732
12732 12821
12821 12911
12911 13001
13001 13092
13092 13181
13181 13272
13272 13363
13363 13453
13453 13543
13543 13634
13634 13725
13725 13813
13813 13903
13903 13992
13992 14081
14081 14170
14170 14260
14260 14348
14348 14437
14437 14526
14526 14615
14615 14704
14704 14794
14794 14885
14885 14948
14948 15038
15038 15129
15129 15225
15225 15297
15297 15393
15393 15488
15488 15581
15581 15676
15676 15770
15770 15862
15862 15956
15956 16050
16050 16141
16141 16233
16233 16326
16326 16417
16417 16508
16508 16599
16599 16689
16689 16778
16778 16867
16867 16956
16956 17045
17045 17135
17135 17224
17224 17314
17314 17402
17402 17492
17492 17582
17582 17671
17671 17761
17761 17851
17851 17940
17940 18029
18029 18119
18119 18210
18210 18298
18298 18388
18388 18478
18478 18567
18567 18657
18657 18748
18748 18837
18837 18926
18926 19017
19017 19107
19107 19196
19196 19286
19286 19376
19376 19465
19465 19554
19554 19644
19644 19733
19733 19821
19821 19911
19911 20002
20002 20091
20091 20181
20181 20271
20271 20362
20362 20450
20450 20541
20541 20632
20632 20722
20722 20813
20813 20905
20905 20996
20996 21087
21087 21180
21180 21272
21272 21364
21364 21457
21457 21550
21550 21641
21641 21733
21733 21826
21826 21917
21917 22008
22008 22101
22101 22194
22194 22285
22285 22377
22377 22470
22470 22561
22561 22652
22652 22745
22745 22837
22837 22929
22929 23021
23021 23114
23114 23206
23206 23298
23298 23390
23390 23483
23483 23573
23573 23665
23665 23758
23758 23851
23851 23944
23944 24038
24038 24134
24134 24230
24230 24326
24326 24424
24424 24523
24523 24622
24622 24720
24720 24821
24821 24922
24922 25025
25025 25125
25125 25227
25227 25330
25330 25431
25431 25532
25532 25609
25609 25710
25710 25809
25809 25908
25908 26007
26007 26105
26105 26202
26202 26300
26300 26397
26397 26491
26491 26588
26588 26683
26683 26776
26776 26871
26871 26965
26965 27057
27057 27150
27150 27243
27243 27336
27336 27427
27427 27521
27521 27613
27613 27705
27705 27798
27798 27891
27891 27982
27982 28074
28074 28167
28167 28259
28259 28349
28349 28441
28441 28535
28535 28630
28630 28723
28723 28818
28818 28914
28914 29010
29010 29106
29106 29205
29205 29303
29303 29401
29401 29502
29502 29603
29603 29704
29704 29805
29805 29907
29907 30011
30011 30116
30116 30219
30219 30325
30325 30431
30431 30536
30536 30641
30641 30748
30748 30834
30834 30939
30939 31042
31042 31148
31148 31252
31252 31354
31354 31458
31458 31563
31563 31668
31668 31774
31774 31887
31887 31999
31999 32110
32110 32223
32223 32337
32337 32449
32449 32561
32561 32675
32675 32789
32789 32901
32901 33013
33013 33128
33128 33217
33217 33329
33329 33446
33446 33560
33560 33674
33674 33791
33791 33907
33907 34020
34020 34114
34114 34209
34209 34303
34303 34395
34395 34488
34488 34583
34583 34676
34676 34769
34769 34862
34862 34959
34959 35053
35053 35149
35149 35245
35245 35337
35337 35428
35428 35521
35521 35614
35614 35705
35705 35798
35798 35892
35892 35984
35984 36083
36083 36175
36175 36268
36268 36360
36360 36454
36454 36549
36549 36645
36645 36741
36741 36837
36837 36936
36936 37037
37037 37138
37138 37242
37242 37347
37347 37454
37454 37558
37558 37662
37662 37770
37770 37883
37883 37994
37994 38105
38105 38219
38219 38333
38333 38443
38443 38555
38555 38668
38668 38754
38754 38864
38864 38976
38976 39099
39099 39214
39214 39327
39327 39444
39444 39558
39558 39672
39672 39788
39788 39901
39901 40010
40010 40049
40049 40144
40144 40242
40242 40340
40340 40436
40436 40534
40534 40634
40634 40731
40731 40825
40825 40919
40919 41016
41016 41120
41120 41221
41221 41322
41322 41426
41426 41529
41529 41633
41633 41736
41736 41842
41842 41948
41948 42056
42056 42161
42161 42270
42270 42380
42380 42491
42491 42600
42600 42712
42712 42824
42824 42935
42935 43045
43045 43158
43158 43270
43270 43381
43381 43492
43492 43605
43605 43716
43716 43826
43826 43937
43937 44049
44049 44159
44159 44268
44268 44380
44380 44492
44492 44603
44603 44715
44715 44829
44829 44942
44942 45053
45053 45165
45165 45277
45277 45390
45390 45502
45502 45615
45615 45729
45729 45842
45842 45955
45955 46069
46069 46182
46182 46295
46295 46410
46410 46525
46525 46639
46639 46754
46754 46869
46869 46956
46956 47082
47082 47192
47192 47303
47303 47416
47416 47528
47528 47639
47639 47749
47749 47861
47861 47970
47970 48100
48100 48191
48191 48279
48279 48372
48372 48469
48469 48563
48563 48656
48656 48748
48748 48839
48839 48930
48930 49022
49022 49114
49114 49204
49204 49297
49297 49389
49389 49479
49479 49569
49569 49660
49660 49750
49750 49840
49840 49931
49931 50020
50020 50108
50108 50195
50195 50283
50283 50372
50372 50460
50460 50523
50523 50610
50610 50696
50696 50784
50784 50871
50871 50956
50956 51043
51043 51129
51129 51214
51214 51301
51301 51387
51387 51473
51473 51558
51558 51645
51645 51731
51731 51817
51817 51904
51904 51990
51990 52077
52077 52166
52166 52253
52253 52340
52340 52428
52428 52516
52516 52603
52603 52692
52692 52781
52781 52869
52869 52958
52958 53047
53047 53136
53136 53225
53225 53315
53315 53404
53404 53492
53492 53581
53581 53670
53670 53758
53758 53847
53847 53938
53938 54027
54027 54115
54115 54203
54203 54293
54293 54382
54382 54470
54470 54559
54559 54648
54648 54735
54735 54823
54823 54912
54912 54999
