78 128
128 183
183 238
238 289
371 452
452 503
611 669
669 725
725 774
774 825
825 936
936 1013
1013 1094
1094 1165
1165 1216
1216 1266
1266 1364
1364 1423
1423 1478
1478 1539
1539 1591
1591 1651
1651 1709
1709 1761
1761 1817
1817 1870
1870 1922
1922 2012
2012 2062
2062 2114
