649 730
730 810
810 891
891 971
971 1052
1052 1132
1132 1212
1212 1292
1292 1372
1372 1452
1452 1532
1532 1612
1612 1693
1693 1774
1774 1855
1855 1935
1935 2016
2016 2097
2097 2178
2178 2259
2259 2340
2340 2421
2421 2502
2502 2584
2584 2665
2665 2747
2747 2828
2828 2910
2910 2993
2993 3076
3076 3158
3158 3241
3241 3323
3323 3404
3404 3486
3486 3568
3568 3650
3650 3731
3731 3812
3812 3893
3893 3974
3974 4055
4055 4136
4136 4217
4217 4299
4299 4381
4381 4463
4463 4544
4544 4626
4626 4708
4708 4790
4790 4871
4871 4953
4953 5079
5079 5138
5138 5218
5218 5301
5301 5383
5383 5465
5465 5547
5547 5628
5628 5719
5719 5798
5798 5877
5877 5956
5956 6035
6035 6114
6114 6192
6192 6271
6271 6349
6349 6428
6428 6506
6506 6584
6584 6662
6662 6741
6741 6819
6819 6898
6898 6977
6977 7055
7055 7135
7135 7214
7214 7293
7293 7371
7371 7450
7450 7529
7529 8419
8419 8813
8813 9841
9841 10821
10821 11306
11306 15151
15151 15547
15547 16022
16022 16902
16902 17302
17302 17781
17781 18182
