982 1103
1722 1812
1983 2105
2105 2175
2175 2244
2244 2313
2313 2386
2386 2457
2457 2530
2530 2601
2601 2670
2670 2741
2741 2815
2815 2889
2889 2962
2962 3030
3030 3101
3101 3175
3175 3249
3249 3322
3322 3393
3393 3464
3464 3535
3535 3609
3609 3685
3685 3760
3760 3829
3829 3900
3900 3971
3971 4044
4044 4105
4105 4186
4186 4258
4258 4333
4333 4406
4406 4481
4481 4553
4553 4624
4624 4695
4695 4772
4772 4843
4843 4915
4915 4975
4975 5033
5799 5869
5869 5930
5930 5997
5997 6064
6064 6145
6145 6212
6212 6304
6304 6390
6390 6471
6471 6551
6551 6630
6630 6700
6700 6792
6792 6869
6869 6948
6948 7026
7026 7106
7106 7184
7184 7257
7257 7329
7329 7407
