893 1010
1010 1085
1323 1442
1442 1561
1919 2110
2110 2227
2462 2579
2579 2694
2694 2809
2809 2924
3093 3210
3922 4104
4104 4221
4922 5097
5916 6099
6099 6216
6216 6333
6333 6450
6450 6568
6568 6685
6685 6803
6803 6925
6925 7106
7106 7227
7227 7346
7346 7464
7464 7583
7583 7701
7701 7820
7820 7941
7941 8064
8064 8184
8184 8305
8305 8425
8425 8545
8545 8665
8665 8785
8785 8904
8904 9022
9022 9069
9069 9185
9185 9300
9300 9415
9415 9530
9530 9645
9645 9760
9760 9876
9876 9992
9992 10107
10107 10221
10221 10335
10335 10449
10449 10563
10563 10677
10677 10791
10791 10904
10904 11038
11038 11139
11139 11238
11238 11336
11336 11435
11435 11540
11540 11642
11642 11743
11743 11845
11845 11944
11944 12042
12042 12139
12139 12238
12238 12336
12336 12432
12432 12526
12526 12618
12618 12715
12715 12810
12810 12903
12903 12997
12997 13091
13091 13187
13187 13279
13279 13373
13373 13466
13466 13558
13558 13649
13649 13740
13740 13830
13830 13920
13920 14013
14013 14105
14105 14196
14196 14286
14286 14378
14378 14470
14470 14565
14565 14661
14661 14756
14756 14851
14851 14944
14944 15036
15036 15129
15129 15227
15227 15321
15321 15416
15416 15507
15507 15601
15601 15693
15693 15785
15785 15876
15876 15965
15965 16057
16057 16148
16148 16240
16240 16331
16331 16424
16424 16519
16519 16611
16611 16704
16704 16797
16797 16894
16894 16991
16991 17085
17085 17180
17180 17272
17272 17364
17364 17455
17455 17545
17545 17634
17634 17725
17725 17817
17817 17906
17906 17997
17997 18095
18095 18190
18190 18282
18282 18374
18374 18469
18469 18563
18563 18656
18656 18751
18751 18845
18845 18936
18936 19024
19024 19112
19112 19201
19201 19287
19287 19373
19373 19459
19459 19546
19546 19636
19636 19727
19727 19818
19818 19909
19909 20003
20003 20097
20097 20189
20189 20280
20280 20372
20372 20466
20466 20557
20557 20654
20654 20743
20743 20834
20834 20923
20923 21010
21010 21097
21097 21185
21185 21275
21275 21364
21364 21453
21453 21540
21540 21628
21628 21720
21720 21810
21810 21900
21900 21990
21990 22078
22078 22166
22166 22253
22253 22339
22339 22427
22427 22517
22517 22609
22609 22701
22701 22791
22791 22881
22881 22972
22972 23060
23060 23150
23150 23240
23240 23331
23331 23422
23422 23512
23512 23602
23602 23691
23691 23784
23784 23878
23878 23968
23968 24058
24058 24147
24147 24239
24239 24329
24329 24417
24417 24503
24503 24591
24591 24680
24680 24767
24767 24854
24854 24943
24943 25033
25033 25122
25122 25211
25211 25299
25299 25390
25390 25482
25482 25571
25571 25662
25662 25752
25752 25842
25842 25931
25931 26020
26020 26107
26107 26197
26197 26292
26292 26382
26382 26469
26469 26557
26557 26645
26645 26734
26734 26822
26822 26911
26911 27000
27000 27090
27090 27181
27181 27270
27270 27359
27359 27447
27447 27537
27537 27625
27625 27713
27713 27800
27800 27888
27888 27976
27976 28065
28065 28152
28152 28238
28238 28325
28325 28411
28411 28497
28497 28582
28582 28667
28667 28752
28752 28838
28838 28923
28923 29007
29007 29091
29091 29175
29175 29260
29260 29344
29344 29427
29427 29510
29510 29594
29594 29679
29679 29763
29763 29848
29848 29932
29932 30019
30019 30105
30105 30190
30190 30276
30276 30362
30362 30453
30453 30543
30543 30631
30631 30718
30718 30806
30806 30895
30895 30985
30985 31074
31074 31162
31162 31252
31252 31342
31342 31432
31432 31522
31522 31611
31611 31701
31701 31792
31792 31880
31880 31969
31969 32059
32059 32150
32150 32239
32239 32328
32328 32417
32417 32506
32506 32596
32596 32685
32685 32774
32774 32863
32863 32952
32952 33044
33044 33135
33135 33225
33225 33315
33315 33406
33406 33496
33496 33586
33586 33676
33676 33767
33767 33861
33861 33952
33952 34042
34042 34130
34130 34219
34219 34308
34308 34397
34397 34484
34484 34574
34574 34666
34666 34758
34758 34848
34848 34938
34938 35030
35030 35122
35122 35213
35213 35302
35302 35391
35391 35484
35484 35575
35575 35665
35665 35755
35755 35847
35847 35938
35938 36030
36030 36121
36121 36211
36211 36303
36303 36395
36395 36487
36487 36579
36579 36671
36671 36765
36765 36857
36857 36949
36949 37039
37039 37128
37128 37217
37217 37305
37305 37393
37393 37482
37482 37573
37573 37665
37665 37756
37756 37846
37846 37938
37938 38030
38030 38122
38122 38213
38213 38305
38305 38399
38399 38493
38493 38585
38585 38676
38676 38768
38768 38860
38860 38950
38950 39039
39039 39126
39126 39215
39215 39303
39303 39390
39390 39476
39476 39562
39562 39649
39649 39736
39736 39822
39822 39907
39907 39992
39992 40079
40079 40168
40168 40258
40258 40347
40347 40437
40437 40527
40527 40616
40616 40705
40705 40795
40795 40886
40886 40977
40977 41068
41068 41159
41159 41251
41251 41343
41343 41433
41433 41522
41522 41613
41613 41705
41705 41795
41795 41885
41885 41975
41975 42067
42067 42157
42157 42246
42246 42335
42335 42423
42423 42513
42513 42604
42604 42694
42694 42783
42783 42872
42872 42962
42962 43052
43052 43141
43141 43230
43230 43318
43318 43409
43409 43499
43499 43588
43588 43678
43678 43768
43768 43859
43859 43950
43950 44039
44039 44129
44129 44221
44221 44311
44311 44400
44400 44488
44488 44577
44577 44665
44665 44753
44753 44841
44841 44928
44928 45016
45016 45130
45130 45223
45223 45318
45318 45412
45412 45504
45504 45594
45594 45685
45685 45777
45777 45868
