159 241
159 241
241 291
291 354
354 427
765 846
846 899
1859 1918
1859 1918
1918 2049
2049 2092
2092 2312
2312 2534
2534 2602
2602 2671
2671 2739
2739 2807
2807 2944
2944 3012
3012 3080
3080 3148
3148 3216
3216 3284
3284 3352
3352 3420
3420 3488
3488 3556
3556 3623
3623 3691
3691 3759
3759 3826
3826 3894
3894 3961
3961 4029
4029 4079
4079 4146
4146 4213
4213 4280
4280 4347
4347 4414
4414 4480
4480 4613
4613 4680
4680 4879
4879 5415
5415 5551
5551 5618
5618 5685
5685 5753
5753 5820
5820 5955
5955 6023
6023 6077
6077 6144
6144 6211
6211 6277
6277 6344
6344 6411
6411 6544
6544 6638
6638 6687
6687 6760
6760 6815
6815 6883
6883 6951
6951 7019
7019 7087
7087 7156
7156 7224
7224 7293
7293 7361
7361 7430
7430 7498
7498 7566
7566 7635
7635 7703
7703 7772
7772 7840
7840 7909
7909 7977
7977 8046
8046 8114
8114 8183
8183 8252
8252 8320
8320 8389
8389 8457
8457 8526
8526 8594
8594 8662
8662 8731
8731 8799
8799 8867
8867 8935
8935 9004
9004 9072
9072 9139
9139 9207
9207 9276
9276 9344
9344 9412
9412 9480
9480 9548
9548 9616
9616 9684
9684 9752
9752 9821
9821 9889
9889 9958
9958 10027
10027 10095
10095 10164
10164 10232
10232 10301
10301 10578
10578 10648
10648 10718
10718 10788
10788 10858
10858 10997
10997 11067
11067 11137
11137 11417
11417 11487
11487 11626
11626 11696
11696 11766
11766 11835
11835 11905
11905 11975
11975 12045
12045 12115
12115 12184
12184 12254
12254 12324
12324 12393
12393 12463
12463 12532
12532 12602
12602 12671
12671 12740
12740 12810
12810 12879
12879 12948
12948 13018
13018 13087
13087 13156
13156 13226
13226 13295
13295 13363
13363 13432
13432 13570
13570 13639
13639 13708
13708 13777
13777 13846
13846 13916
13916 13985
13985 14124
14124 14193
14193 14263
14263 14333
14333 14403
14403 14472
14472 14541
14541 14610
14610 14679
14679 14747
14747 14816
14816 14884
14884 14953
14953 15022
15022 15090
15090 15159
15159 15228
15228 15298
15298 15367
15367 15437
15437 15506
15506 15576
15576 15645
15645 15715
15715 15785
15785 15855
15855 15924
15924 15994
15994 16064
16064 16134
16134 16203
16203 16273
16273 16342
16342 16412
16412 16481
16481 16551
16551 16620
16620 16690
16690 16759
16759 16829
16829 16877
16877 16947
16947 17017
17017 17087
17087 17158
17158 17229
17229 17299
17299 17370
17370 17441
17441 17511
17511 17582
17582 17653
17653 17724
17724 17794
17794 17865
17865 17936
17936 18007
18007 18078
18078 18149
18149 18220
18220 18291
18291 18362
18362 18433
18433 18504
18504 18575
18575 18612
18612 18718
18718 18790
18790 18861
18861 18915
18915 18990
18990 19091
19091 19148
19148 19218
19218 19291
19291 19363
19363 19435
19435 19506
19506 19577
19577 19648
19648 19718
19718 19789
19789 19859
19859 19930
19930 20001
20001 20072
20072 20143
20143 20215
20215 20286
20286 20358
20358 20501
20501 20572
20572 20644
20644 20716
20716 20788
20788 20860
20860 20932
20932 21004
21004 21076
21076 21148
21148 21220
21220 21293
21293 21365
21365 21438
21438 21497
21497 21581
21581 21654
21654 21727
21727 21800
21800 21872
21872 21944
21944 22016
22016 22088
22088 22160
22160 22231
22231 22303
22303 22374
22374 22446
22446 22518
22518 22589
22589 22660
22660 22731
22731 22803
22803 22874
22874 22945
22945 23017
23017 23089
23089 23161
23161 23233
23233 23305
23305 23378
23378 23451
23451 23523
23523 23596
23596 23669
23669 23742
23742 23815
23815 23888
23888 23961
23961 24034
24034 24108
24108 24181
24181 24255
24255 24328
24328 24402
24402 24475
24475 24548
24548 24621
24621 24694
24694 24767
24767 24840
24840 24913
24913 24986
24986 25059
25059 25132
25132 25205
25205 25278
25278 25352
25352 25425
25425 25499
25499 25572
25572 25645
25645 25718
25718 25792
25792 25865
25865 25939
25939 26012
26012 26086
26086 26159
26159 26232
26232 26306
26306 26380
26380 26453
26453 26526
26526 26600
26600 26673
26673 26745
26745 26819
26819 26892
26892 26965
26965 27038
27038 27111
27111 27184
27184 27256
27256 27329
27329 27402
27402 27474
27474 27547
27547 27620
27620 27693
27693 27766
27766 27839
27839 27912
27912 27986
27986 28059
28059 28132
28132 28205
28205 28278
28278 28351
28351 28423
28423 28496
28496 28567
28567 28639
28639 28711
28711 28783
28783 28855
28855 28927
28927 28999
28999 29071
29071 29144
29144 29216
29216 29289
29289 29362
29362 29436
29436 29509
29509 29582
29582 29656
29656 29729
29729 29802
29802 29875
29875 29949
29949 30038
30038 30111
30111 30184
30184 30256
30256 30329
30329 30402
30402 30476
30476 30549
30549 30622
30622 30695
30695 30769
30769 30842
30842 30915
30915 30989
30989 31063
31063 31136
31136 31209
31209 31283
31283 31356
31356 31430
31430 31503
31503 31577
31577 31650
31650 31724
31724 31798
31798 31872
31872 31947
31947 32021
32021 32095
32095 32169
32169 32243
32243 32318
32318 32392
32392 32466
32466 32540
32540 32614
32614 32688
32688 32762
32762 32836
32836 32911
32911 32985
32985 33059
33059 33134
33134 33208
33208 33283
33283 33357
33357 33432
33432 33506
33506 33581
33581 33655
33655 33729
33729 33803
33803 33877
33877 33951
33951 34024
34024 34098
34098 34172
34172 34246
34246 34319
34319 34393
34393 34466
34466 34540
34540 34614
34614 34687
34687 34760
34760 34835
34835 34908
34908 34982
34982 35055
35055 35129
35129 35203
35203 35276
35276 35349
35349 35423
35423 35496
35496 35570
35570 35644
35644 35717
35717 35790
35790 35863
35863 35937
35937 36010
36010 36083
36083 36156
36156 36228
36228 36300
36300 36373
36373 36445
36445 36517
36517 36590
36590 36663
36663 36736
36736 36809
36809 36882
36882 36955
36955 37029
37029 37103
37103 37176
37176 37250
37250 37324
37324 37398
37398 37472
37472 37546
37546 37620
37620 37694
37694 37769
37769 37843
37843 37918
37918 37992
37992 38066
38066 38141
38141 38215
38215 38290
38290 38365
38365 38439
38439 38513
38513 38588
38588 38662
38662 38736
38736 38811
38811 38886
38886 38961
38961 39036
39036 39112
39112 39188
39188 39263
39263 39338
39338 39414
39414 39489
39489 39564
39564 39639
39639 39714
39714 39788
39788 39862
39862 39936
39936 40011
40011 40085
40085 40159
40159 40233
40233 40307
40307 40380
40380 40453
40453 40527
40527 40600
40600 40673
40673 40747
40747 40820
40820 40894
40894 40969
40969 41042
41042 41117
41117 41191
41191 41266
41266 41340
41340 41415
41415 41489
41489 41564
41564 41639
41639 41714
41714 41789
41789 41864
41864 41939
41939 42014
42014 42089
42089 42165
42165 42240
42240 42315
42315 42391
42391 42466
42466 42542
42542 42617
42617 42693
42693 42768
42768 42844
42844 42919
42919 42994
42994 43069
43069 43145
43145 43220
43220 43296
43296 43371
43371 43448
43448 43524
43524 43599
43599 43676
43676 43752
43752 43828
43828 43904
43904 43980
43980 44056
44056 44132
44132 44208
44208 44284
44284 44360
44360 44436
44436 44512
44512 44587
44587 44663
44663 44739
44739 44814
44814 44889
44889 44965
44965 45040
45040 45115
45115 45191
45191 45266
45266 45342
45342 45417
45417 45494
45494 45570
45570 45646
45646 45722
45722 45799
45799 45875
45875 45951
45951 46027
46027 46103
46103 46178
46178 46253
46253 46329
46329 46404
46404 46479
46479 46555
46555 46630
46630 46706
46706 46782
46782 46858
46858 46934
46934 47010
47010 47101
47101 47177
47177 47252
47252 47327
47327 47403
47403 47478
47478 47554
47554 47629
47629 47705
47705 47782
47782 47858
47858 47934
47934 48011
48011 48088
48088 48165
48165 48242
48242 48318
48318 48395
48395 48472
48472 48548
48548 48625
48625 48701
48701 48777
48777 48853
48853 48929
48929 49004
49004 49079
49079 49154
49154 49229
49229 49303
49303 49378
49378 49453
49453 49527
49527 49602
49602 49676
49676 49750
49750 49824
49824 49899
49899 49973
49973 50048
50048 50123
50123 50199
50199 50274
50274 50349
50349 50425
50425 50500
50500 50576
50576 50651
50651 50727
50727 50802
50802 50877
50877 50953
50953 51028
51028 51104
51104 51179
51179 51255
51255 51330
51330 51406
51406 51482
51482 51557
51557 51633
51633 51709
51709 51785
51785 51861
51861 51937
51937 52014
52014 52115
52115 52191
52191 52267
52267 52342
52342 52417
52417 52491
52491 52565
52565 52640
52640 52714
52714 52788
52788 52863
52863 52937
52937 53011
53011 53051
53051 53125
53125 53198
53198 53272
53272 53346
53346 53421
53421 53496
53496 53571
53571 53646
53646 53721
53721 53796
53796 53872
53872 53947
53947 54023
54023 54099
54099 54174
54174 54250
54250 54325
54325 54402
54402 54478
54478 54553
54553 54630
54630 54706
54706 54782
54782 54858
54858 54935
54935 55010
55010 55069
55069 55144
55144 55218
55218 55292
55292 55366
55366 55441
55441 55515
55515 55589
55589 55664
55664 55739
55739 55814
55814 55889
55889 55964
55964 56039
56039 56115
56115 56190
56190 56265
56265 56341
56341 56416
56416 56492
56492 56568
56568 56644
56644 56720
56720 56796
56796 56872
56872 56947
56947 57023
57023 57098
57098 57173
57173 57248
57248 57324
57324 57399
57399 57475
57475 57550
57550 57626
57626 57701
57701 57777
57777 57854
57854 57930
57930 58006
58006 58082
58082 58158
58158 58235
58235 58311
58311 58387
58387 58464
58464 58540
58540 58617
58617 58694
58694 58770
58770 58847
58847 58923
