2535 2596
2596 2657
2657 2719
2719 2780
2780 2841
2841 2901
2901 2962
2962 3023
3023 3084
3084 3145
3145 3205
3205 3266
3266 3327
3327 3387
3387 3448
3448 3508
3508 3569
3569 3629
3629 3690
3690 3752
3752 3812
3812 3872
3872 3933
3933 3994
3994 4055
4055 4116
4116 4177
4177 4237
4237 4298
4298 4394
4455 4515
4515 4576
4576 4636
4636 4696
4696 4757
4757 4818
4818 4877
4877 4939
4939 4998
4998 5059
5059 5120
5120 5181
5181 5241
5241 5302
5302 5362
5362 5422
5422 5484
5484 5544
5544 5605
5605 5666
5666 5726
5726 5787
5787 5849
5849 5910
5910 5970
5970 6031
6031 6091
6091 6161
6161 6222
6222 6281
6281 6341
6341 6401
6401 6462
6462 6522
6522 6583
6583 6643
6643 6703
6703 6764
6764 6824
6824 6884
6884 6945
6945 7007
7007 7062
7062 7121
7121 7182
7182 7241
7241 7303
7303 7363
7363 7423
7423 7484
7484 7544
7544 7604
7604 7666
7666 7726
7726 7787
7787 7848
7848 7909
7909 7969
7969 8048
8048 8107
8107 8167
8167 8226
8226 8284
