42 95
231 280
280 340
340 388
388 468
468 560
560 654
654 748
748 800
800 857
857 944
944 994
994 1067
1067 1118
1118 1208
1208 1254
1254 1304
1304 1388
1388 1482
1482 1569
1569 1663
1663 1756
1756 1871
1871 1966
1966 2097
2097 2186
