2 50
1850 1941
1941 2031
2031 2121
2121 2210
2210 2300
2300 2391
2391 2481
2481 2571
2571 2661
2661 2753
2753 2844
2844 2935
2935 3025
3025 3117
3117 3208
3208 3300
3300 3392
3392 3483
3483 3573
3573 3664
3664 3755
3755 3843
3843 3934
3934 4024
4024 4114
4114 4203
4203 4292
4292 4381
4381 4469
4469 4557
4557 4646
4646 4735
4735 4823
4823 4911
4911 5002
5002 5092
5092 5182
5182 5271
5271 5362
5362 5453
5453 5543
5543 5634
5634 5726
5726 5818
5818 5909
5909 6001
6001 6093
6093 6184
6184 6275
6275 6367
6367 6460
6460 6551
6551 6642
6642 6733
6733 6825
6825 6916
6916 7006
7006 7096
7096 7188
7188 7279
7279 7369
7369 7460
7460 7550
7550 7640
7640 7731
7731 7824
7824 7917
7917 8008
8008 8097
8097 8185
8185 8275
8275 8365
8365 8453
8453 8540
8540 8628
8628 8718
8718 8807
8807 8896
8896 8984
8984 9073
9073 9161
9161 9252
9252 9342
9342 9431
9431 9521
9521 9612
9612 9702
9702 9791
9791 9881
9881 9973
9973 10049
10049 10142
10142 10235
10235 10329
10329 10423
10423 10516
10516 10610
10610 10705
10705 10799
10799 10893
10893 10988
10988 11083
11083 11177
11177 11271
11271 11366
11366 11460
11460 11554
11554 11648
11648 11742
11742 11835
11835 11928
11928 12021
12021 12106
12106 12199
12199 12292
12292 12386
12386 12480
12480 12573
12573 12667
12667 12761
12761 12854
12854 12948
12948 13068
13068 13161
13161 13253
13253 13346
13346 13440
13440 13533
13533 13625
13625 13719
13719 13813
13813 13906
13906 13999
13999 14093
14093 14186
14186 14279
14279 14373
14373 14467
14467 14560
14560 14653
14653 14747
14747 14841
14841 14934
14934 15028
15028 15122
15122 15216
15216 15309
15309 15404
15404 15498
15498 15591
15591 15685
15685 15779
15779 15873
15873 15966
15966 16059
16059 16152
16152 16245
16245 16338
16338 16432
16432 16525
16525 16617
16617 16710
16710 16802
16802 16894
16894 16986
16986 17079
17079 17172
17172 17264
17264 17357
17357 17451
17451 17545
17545 17638
17638 17733
17733 17829
17829 17925
17925 18021
18021 18118
18118 18215
18215 18312
18312 18410
18410 18509
18509 18606
18606 18704
18704 18803
18803 18901
18901 18998
18998 19066
19066 19156
19156 19247
19247 19338
19338 19429
19429 19520
19520 19612
19612 19704
19704 19796
19796 19887
19887 19977
19977 20052
20052 20142
20142 20233
20233 20325
20325 20417
20417 20509
20509 20601
20601 20694
20694 20788
20788 20882
20882 20975
20975 21068
21068 21163
21163 21257
21257 21352
21352 21446
21446 21541
21541 21635
21635 21730
21730 21823
21823 21917
21917 22011
22011 22105
22105 22198
22198 22291
22291 22385
22385 22480
22480 22573
22573 22667
22667 22761
22761 22856
22856 22951
22951 23045
23045 23140
23140 23235
23235 23329
23329 23424
23424 23519
23519 23614
23614 23710
23710 23804
23804 23896
23896 23988
23988 24081
24081 24174
24174 24268
24268 24361
24361 24455
24455 24548
24548 24644
24644 24739
24739 24833
24833 24927
24927 25022
25022 25117
25117 25212
25212 25306
25306 25401
25401 25497
25497 25591
25591 25684
25684 25779
25779 25873
25873 25966
25966 26059
26059 26152
26152 26245
26245 26339
26339 26432
26432 26525
26525 26618
26618 26713
26713 26806
26806 26900
26900 26995
26995 27089
27089 27183
27183 27278
27278 27373
27373 27468
27468 27562
27562 27658
27658 27752
27752 27847
27847 27943
27943 28038
28038 28133
28133 28228
28228 28323
28323 28418
28418 28512
28512 28607
28607 28702
28702 28796
28796 28891
28891 28986
28986 29081
29081 29176
29176 29272
29272 29367
29367 29462
29462 29558
29558 29653
29653 29749
29749 29845
29845 29940
29940 30036
30036 30132
30132 30228
30228 30324
30324 30421
30421 30516
30516 30612
30612 30709
30709 30804
30804 30899
30899 30995
30995 31090
31090 31185
31185 31282
31282 31378
31378 31474
31474 31571
31571 31666
31666 31762
31762 31859
31859 31954
31954 32050
32050 32146
32146 32241
32241 32337
32337 32434
32434 32531
32531 32627
32627 32725
32725 32821
32821 32918
32918 33015
33015 33112
33112 33207
33207 33305
33305 33402
33402 33499
33499 33595
33595 33692
33692 33788
33788 33882
33882 33977
33977 34072
34072 34167
34167 34260
34260 34353
34353 34446
34446 34538
34538 34629
34629 34720
34720 34812
34812 34903
34903 34993
34993 35085
35085 35177
35177 35269
35269 35361
35361 35452
35452 35545
35545 35638
35638 35730
35730 35822
35822 35916
35916 36010
36010 36104
36104 36197
36197 36291
36291 36385
36385 36478
