56 143
143 205
205 292
292 379
379 466
466 554
554 641
641 728
728 816
816 903
903 991
991 1079
1079 1167
1167 1255
1255 1342
1342 1429
1429 1516
1516 1603
1603 1690
1690 1776
1776 1862
1862 2006
2006 2054
2054 2143
2143 2232
2232 2321
2321 2410
2410 2498
2498 2562
2562 2650
2650 2739
2739 2827
2827 2916
2916 3005
3005 3093
3093 3181
3181 3269
3269 3358
3358 3446
3446 3534
3534 3622
3622 3710
3710 3799
3799 3886
3886 3949
3949 4036
4036 4098
4098 4184
4184 4269
4269 4354
4354 4438
4438 4522
4522 4607
4607 4692
4692 4776
4776 4860
4860 4945
4945 5030
5030 5097
5097 5184
5184 5271
5271 5358
5358 5446
5446 5534
5534 5622
5622 5711
5711 5801
5801 5890
5890 5980
5980 6071
6071 6162
6162 6254
6254 6345
6345 6437
6437 6527
6527 6618
6618 6708
6708 6799
6799 6889
6889 6980
6980 7070
7070 7161
7161 7251
7251 7342
7342 7433
7433 7524
7524 7614
7614 7704
7704 7794
7794 7858
7858 7946
7946 8101
8101 8189
8189 8276
8276 8365
8365 8453
8453 8542
8542 8630
8630 8719
8719 8809
8809 8899
8899 8989
8989 9079
9079 9169
9169 9260
9260 9350
9350 9440
9440 9530
9530 9619
9619 9708
9708 9796
9796 9883
9883 9970
9970 10056
10056 10143
10143 10230
10230 10318
10318 10405
10405 10494
10494 10582
10582 10671
10671 10759
10759 10847
10847 10936
10936 11025
11025 11081
11081 11170
11170 11258
11258 11346
11346 11434
11434 11521
11521 11610
11610 11698
11698 11786
11786 11875
11875 11964
11964 12053
12053 12142
12142 12232
12232 12321
12321 12412
12412 12501
12501 12591
12591 12682
12682 12772
12772 12861
12861 12952
12952 13042
13042 13132
13132 13222
13222 13313
13313 13404
13404 13495
13495 13586
13586 13677
13677 13767
13767 13856
13856 13945
13945 14035
14035 14124
14124 14212
14212 14301
14301 14390
14390 14480
14480 14569
14569 14658
14658 14747
14747 14837
14837 14926
14926 15015
15015 15105
15105 15194
15194 15282
15282 15370
15370 15457
15457 15544
15544 15631
15631 15718
15718 15804
15804 15891
15891 15979
15979 16066
16066 16154
16154 16241
16241 16329
16329 16417
16417 16505
16505 16592
16592 16679
16679 16766
16766 16854
16854 16942
16942 17030
17030 17118
17118 17207
17207 17296
17296 17386
17386 17477
17477 17567
17567 17658
17658 17749
17749 17839
17839 17928
17928 18016
18016 18105
18105 18194
18194 18282
18282 18370
18370 18458
18458 18547
18547 18636
18636 18725
18725 18814
18814 18903
18903 18992
18992 19082
19082 19172
19172 19262
19262 19351
19351 19441
19441 19531
19531 19621
19621 19711
19711 19802
19802 19892
19892 19983
19983 20057
20057 20142
20142 20228
20228 20312
20312 20397
20397 20483
20483 20569
20569 20656
20656 20743
20743 20830
20830 20918
20918 21005
21005 21093
21093 21179
21179 21267
21267 21354
21354 21441
21441 21529
21529 21616
21616 21703
21703 21791
21791 21879
21879 21967
21967 22055
22055 22142
22142 22230
22230 22318
22318 22405
22405 22493
22493 22580
22580 22666
22666 22753
22753 22841
22841 22928
22928 23014
23014 23101
23101 23188
23188 23275
23275 23362
23362 23448
23448 23535
23535 23622
23622 23708
23708 23796
23796 23883
23883 23971
23971 24059
24059 24146
24146 24209
24209 24296
24296 24383
24383 24469
24469 24556
24556 24642
24642 24728
24728 24813
24813 24898
24898 24983
24983 25068
25068 25152
25152 25238
25238 25323
25323 25409
25409 25494
25494 25579
25579 25668
25668 25756
25756 25844
25844 25931
25931 26019
26019 26107
26107 26196
26196 26283
26283 26372
26372 26454
26454 26541
26541 26628
26628 26714
26714 26800
26800 26887
26887 26973
26973 27044
27044 27128
27128 27212
27212 27296
27296 27379
27379 27463
27463 27547
27547 27631
27631 27715
27715 27799
27799 27883
27883 27969
27969 28050
28050 28134
28134 28218
28218 28302
28302 28387
28387 28471
28471 28555
28555 28639
28639 28724
28724 28809
28809 28895
28895 28980
28980 29067
29067 29152
29152 29239
29239 29325
29325 29411
29411 29534
29534 29619
29619 29704
29704 29789
29789 29873
29873 29957
29957 30085
30085 30169
30169 30252
30252 30337
30337 30422
30422 30508
30508 30594
30594 30680
30680 30766
30766 30851
30851 30938
30938 31024
31024 31130
31130 31215
31215 31300
31300 31385
31385 31469
31469 31554
31554 31638
31638 31721
31721 31805
31805 31888
31888 31971
31971 32083
32083 32167
32167 32251
32251 32335
32335 32420
32420 32505
32505 32590
32590 32674
32674 32758
32758 32846
32846 32932
32932 32994
32994 33083
33083 33168
33168 33253
33253 33338
33338 33423
33423 33508
33508 33593
33593 33678
33678 33763
33763 33848
33848 33933
33933 34018
34018 34104
34104 34190
34190 34276
34276 34361
34361 34447
34447 34534
34534 34620
34620 34706
34706 34791
34791 34877
34877 34963
34963 35050
35050 35135
35135 35219
35219 35307
35307 35393
35393 35479
35479 35565
35565 35651
35651 35737
35737 35824
35824 35911
35911 35998
35998 36105
36105 36191
36191 36276
36276 36363
36363 36450
36450 36537
36537 36623
36623 36709
36709 36796
36796 36886
36886 36948
36948 37107
37107 37194
37194 37281
37281 37367
37367 37454
37454 37540
37540 37627
37627 37713
37713 37799
37799 37883
37883 37969
37969 38055
38055 38140
38140 38225
38225 38311
38311 38396
38396 38479
38479 38563
38563 38651
38651 38736
38736 38821
38821 38907
38907 38993
38993 39079
39079 39165
39165 39253
39253 39341
39341 39429
39429 39517
39517 39606
39606 39695
39695 39784
