2263 2352
2976 3096
7947 8103
8103 8193
8193 8283
8283 8373
8373 8464
8464 8555
8555 8646
8646 8738
8738 8830
8830 8921
8921 9013
9013 9105
9105 9198
9198 9290
9290 9382
9382 9476
9476 9569
9569 9661
9661 9755
9755 9849
9849 9942
9942 10035
10035 10129
10129 10223
10223 10316
10316 10408
10408 10502
10502 10686
10686 10778
10778 10869
10869 10960
10960 11118
11118 11207
11207 11298
11298 11388
11388 11478
11478 11568
11568 11660
11660 11751
11751 11842
11842 11932
11932 12036
12036 12130
12130 12224
12224 12319
12319 12413
12413 12506
12506 12599
12599 12693
12693 12788
12788 12881
12881 12974
12974 13068
13068 13162
13162 13256
13256 13350
13350 13445
13445 13540
13540 13635
13635 13730
13730 13826
13826 13922
13922 14017
14017 14113
14113 14209
14209 14305
14305 14402
14402 14497
14497 14594
14594 14690
14690 14786
14786 14881
14881 14978
14978 15062
15062 15157
15157 15254
15254 15352
15352 15449
15449 15548
15548 15647
15647 15746
15746 15846
15846 15946
15946 16046
16046 16147
16147 16248
16248 16349
16349 16451
16451 16553
16553 16654
16654 16757
16757 16859
16859 16960
16960 17037
17037 17137
17137 17238
17238 17338
17338 17439
17439 17537
17537 17633
17633 17731
17731 17889
17889 17979
17979 18113
18113 18203
18203 18293
18293 18384
18384 18475
18475 18566
18566 18657
18657 18748
18748 18840
18840 18932
18932 19024
19024 19115
19115 19207
19207 19300
19300 19392
19392 19485
19485 19578
19578 19671
19671 19765
19765 19858
19858 19951
19951 20044
20044 20138
20138 20231
20231 20325
20325 20418
20418 20512
20512 20607
20607 20701
20701 20796
20796 20891
20891 20987
20987 21083
21083 21181
21181 21278
21278 21376
21376 21474
21474 21574
21574 21674
21674 21774
21774 21876
21876 21978
21978 22079
22079 22180
22180 22282
22282 22385
22385 22487
22487 22589
22589 22691
22691 22793
22793 22894
22894 22996
22996 23098
23098 23200
23200 23300
23300 23400
23400 23500
23500 23600
23600 23699
23699 23794
23794 23889
23889 23980
23980 24066
24066 24161
24161 24256
24256 24351
24351 24445
24445 24539
24539 24632
24632 24726
24726 24819
24819 24912
24912 25006
25006 25101
25101 25196
25196 25292
25292 25389
25389 25486
25486 25583
25583 25682
25682 25780
25780 25879
25879 25979
25979 26079
26079 26179
26179 26280
26280 26380
26380 26481
26481 26580
26580 26680
26680 26779
26779 26876
26876 26946
27099 27192
