103 203
905 1005
1005 1043
3914 4006
4006 4043
4043 4395
4395 4748
4748 4925
4925 5014
5014 5282
5282 5372
5372 5462
5462 5643
5643 5733
5733 5825
5825 6107
6107 6296
6296 7331
7331 7702
7702 7978
7978 9040
9040 9129
9129 9218
9218 9306
9306 9396
9396 9486
9486 9577
9577 9666
9666 9757
9757 9847
9847 9937
9937 10027
10027 10140
10140 10230
10230 10320
10320 10588
10588 10678
10678 10768
10768 10858
10858 10948
10948 11037
11037 11216
11216 11307
11307 11397
11397 11486
11486 11575
11575 11665
11665 11755
11755 11845
11845 11935
11935 12101
12101 12190
12190 12280
12280 12369
12369 12460
12460 12550
12550 12640
12640 12729
12729 12999
12999 13360
13360 13450
13450 13541
13541 13632
13632 13723
13723 13813
13813 13904
13904 13995
13995 14086
14086 14178
14178 14270
14270 14362
14362 14454
14454 14547
14547 14640
14640 14733
14733 14921
14921 15015
15015 15109
15109 15203
15203 15297
15297 15390
15390 15671
15671 15764
15764 15858
15858 15951
15951 16119
16119 16209
16209 16391
16391 16483
16483 16574
16574 16911
16911 17002
17002 17246
17246 17336
17336 17428
17428 17518
17518 17608
17608 17698
17698 17789
17789 17881
17881 17972
17972 18063
18063 18155
18155 18247
18247 18339
18339 18431
18431 18523
18523 18616
18616 18708
18708 18800
18800 18891
18891 18983
18983 19303
19303 19393
19393 19483
19483 19574
19574 19665
19665 19754
19754 19843
19843 20112
20112 20203
20203 20475
20475 20566
20566 20658
20658 20749
20749 20841
20841 20932
20932 21024
21024 21117
21117 21209
21209 21300
21300 21392
21392 21484
21484 21576
21576 21758
21758 21849
21849 21942
21942 22033
22033 22216
22216 22308
22308 22400
22400 22673
22673 22765
22765 22856
22856 24039
24039 24129
24129 24219
24219 24308
24308 24398
24398 24488
24488 24578
24578 24758
24758 24848
24848 24938
24938 25117
25117 25207
25207 25297
25297 25388
25388 25478
25478 25840
25840 26022
26022 26203
26203 26332
26332 26476
26476 26567
26567 26657
26657 26749
26749 26839
26839 26930
26930 27020
27020 27746
27746 27838
27838 28107
28107 28379
28379 28471
28471 28563
28563 28837
28837 28930
28930 29114
29114 29206
29206 29299
29299 29391
29391 29481
29481 29573
29573 29664
29664 29754
29754 30301
30301 30392
30392 30484
30484 30575
30575 30757
30757 31033
31033 31126
31126 31403
31403 31866
31866 32145
32145 32238
32238 32331
32331 32424
32424 32517
32517 32796
32796 32889
32889 33075
33075 33168
33168 33262
33262 33354
33354 33445
33445 33537
33537 33630
33630 33723
33723 33907
33907 33999
33999 34092
34092 34184
34184 34368
34368 34460
34460 34552
34552 34644
34644 34736
34736 34829
34829 34920
34920 35103
35103 35378
35378 35470
35470 35562
35562 35654
35654 35746
35746 35839
35839 35932
35932 36024
36024 36116
36116 36302
36302 36395
36395 36649
36649 36726
36726 36767
36767 36859
36859 36953
36953 37046
37046 37138
37138 37229
37229 37321
37321 37414
37414 37506
37506 37598
37598 37689
37689 37782
37782 37874
37874 37966
37966 38058
38058 38150
38150 38243
38243 38426
38426 38519
38519 38611
38611 38703
38703 38795
38795 38888
38888 38982
38982 39074
39074 39166
39166 39817
39817 39909
39909 40002
40002 40185
40185 40276
40276 40367
40367 40639
40639 40730
40730 40998
40998 41086
41086 41175
41175 41263
41263 41351
41351 41439
41439 41527
41527 43306
43306 43668
43668 43759
43759 44033
44033 44125
44125 44399
44399 44766
44766 45136
45136 45228
45228 45320
45320 45596
45596 45688
45688 45962
45962 46057
46057 46149
46149 46240
46240 46331
46331 46423
46423 46515
46515 46607
46607 46789
46789 46881
46881 46973
46973 47156
47156 47248
47248 47704
47704 47795
47795 47887
