9193 9306
12919 13052
13052 13166
13166 13279
13279 13393
13393 13506
13506 13619
13619 13733
13733 13846
13846 13959
13959 14073
14073 14186
14186 14300
14300 14413
14413 14526
14526 14640
14640 14753
14753 14867
14867 14980
14980 15094
15094 15208
15208 15322
15322 15435
15435 15549
15549 15663
15663 15777
15777 15890
15890 16004
16004 16117
16117 16231
16231 16344
16344 16457
16457 16571
16571 16684
16684 16797
16797 16910
16910 17023
17023 17064
17064 17177
17177 17290
17290 17403
17403 17516
17516 17629
17629 17742
17742 17855
17855 17968
17968 18082
18082 18195
18195 18308
18308 18422
18422 18535
18535 18648
18648 18762
18762 18876
18876 18989
18989 19117
19117 19229
19229 19343
19343 19457
19457 19571
19571 19685
19685 19799
19799 19913
19913 20027
20027 20163
20163 20277
20277 20390
20390 20504
20504 20617
20617 20730
20730 20844
20844 20957
20957 21071
21071 21184
21184 21298
21298 21411
21411 21525
21525 21639
21639 21753
21753 21866
21866 21980
21980 22093
22093 22207
22207 22321
22321 22434
22434 22548
22548 22662
22662 22775
22775 22889
22889 23002
23002 23116
23116 23229
23229 23343
23343 23456
23456 23570
23570 23684
23684 23798
23798 23912
23912 24025
24025 24139
24139 24253
24253 24366
24366 24480
24480 24594
24594 24708
24708 24821
24821 24935
24935 25049
25049 25162
25162 25276
25276 25389
25389 25503
25503 25616
25616 25730
25730 25843
25843 25957
25957 26071
26071 26184
26184 26298
26298 26412
26412 26526
26526 26639
26639 26753
26753 26867
26867 26981
26981 27094
27094 27208
27208 27322
27322 27436
27436 27550
27550 27664
27664 27777
27777 27892
27892 28006
28006 28120
28120 28234
28234 28348
28348 28461
28461 28574
28574 28688
28688 28801
28801 28914
28914 29027
29027 29140
29140 29253
29253 29367
29367 29481
29481 29594
29594 29707
29707 29821
29821 29934
29934 30048
30048 30161
30161 30275
30275 30389
30389 30503
30503 30617
30617 30730
30730 30844
30844 30958
30958 31072
31072 31185
31185 31299
31299 31413
31413 31527
31527 31641
31641 31755
31755 31869
31869 31983
31983 32097
32097 32211
32211 32326
32326 32440
32440 32554
32554 32667
32667 32781
32781 32895
32895 33009
33009 33123
33123 33237
33237 33351
33351 33465
33465 33579
33579 33693
33693 33807
33807 33921
33921 34064
34064 34178
34178 34292
34292 34406
34406 34520
34520 34635
34635 34749
34749 34863
34863 34977
34977 35092
35092 35206
35206 35320
35320 35434
35434 35549
35549 35663
35663 35777
35777 35890
35890 36004
36004 36118
36118 36232
36232 36346
36346 36459
36459 36573
36573 36686
36686 36800
36800 36913
36913 37027
37027 37140
37140 37254
37254 37368
37368 37456
37456 37570
37570 37683
37683 37797
37797 37911
37911 38025
38025 38118
38118 38232
38232 38345
38345 38458
38458 38571
38571 38684
38684 38796
38796 38909
38909 39021
39021 39134
39134 39247
39247 39359
39359 39472
39472 39585
39585 39697
39697 39810
39810 39923
39923 40035
40035 40148
40148 40260
40260 40373
40373 40486
40486 40598
40598 40711
40711 40824
40824 40937
40937 41049
41049 41162
41162 41275
41275 41388
41388 41501
41501 41614
41614 41727
41727 41840
41840 41953
41953 42066
42066 42179
42179 42292
42292 42405
42405 42518
42518 42632
42632 42745
42745 42858
42858 42971
42971 43085
43085 43198
43198 43311
43311 43424
43424 43537
43537 43650
43650 43763
43763 43877
43877 43991
43991 44104
44104 44218
44218 44332
44332 44447
44447 44561
44561 44675
44675 44789
44789 44903
44903 45017
45017 45131
45131 45245
45245 45359
45359 45474
45474 45587
45587 45701
45701 45815
45815 45929
45929 46057
46057 46170
46170 46282
46282 46395
46395 46507
46507 46620
46620 46733
46733 46846
46846 46959
46959 47072
47072 47185
47185 47298
47298 47411
47411 47524
47524 47637
47637 47749
47749 47862
47862 47975
47975 48088
48088 48201
48201 48314
48314 48427
48427 48541
48541 48654
48654 48767
48767 48881
48881 48994
48994 49107
49107 49220
49220 49333
49333 49446
49446 49559
49559 49672
49672 49785
49785 49898
49898 50010
50010 50123
50123 50236
50236 50349
50349 50462
50462 50575
50575 50687
50687 50800
50800 50913
50913 51026
51026 51139
51139 51252
51252 51365
51365 51478
51478 51592
51592 51705
51705 51819
51819 51933
51933 52046
52046 52160
52160 52274
52274 52387
52387 52501
52501 52614
52614 52728
52728 52842
52842 52955
52955 53069
53069 53183
53183 53297
53297 53411
53411 53524
53524 53638
53638 53752
53752 53866
53866 53979
53979 54093
54093 54206
54206 54320
54320 54433
54433 54547
54547 54661
54661 54775
54775 54889
54889 55003
55003 55116
55116 55230
55230 55344
55344 55458
55458 55572
55572 55686
55686 55800
55800 55914
55914 56028
56028 56108
56108 56222
56222 56335
56335 56449
56449 56562
56562 56676
56676 56790
56790 56903
56903 57017
57017 57053
57053 57166
57166 57279
57279 57392
57392 57505
57505 57618
57618 57731
57731 57844
57844 57957
57957 58071
58071 58183
58183 58296
58296 58409
58409 58522
58522 58635
58635 58748
58748 58860
