497 557
557 653
894 954
1135 1197
1296 1357
1357 1418
1418 1479
1479 1539
1539 1601
1601 1661
1661 1721
1721 1782
1782 1818
1818 1877
1877 1938
1938 1999
1999 2085
2085 2146
2146 2206
2206 2265
2265 2326
2326 2386
2386 2446
2446 2507
2507 2568
2568 2628
2628 2689
2689 2748
2748 2809
2809 2869
2869 2929
2929 2990
2990 3050
3050 3110
3110 3170
3170 3230
3230 3291
3291 3352
3352 3412
3412 3472
3472 3532
3532 3593
3593 3654
3654 3715
3715 3775
3775 3837
3837 3897
3897 3957
3957 4019
4019 4079
4079 4141
4141 4202
4202 4263
4263 4324
