3993 4110
16938 17060
26374 26475
26475 26576
27898 28025
28025 28125
28125 28225
28225 28325
28325 28425
28425 28525
28525 28625
28625 28725
28725 28824
28824 28924
28924 29024
29024 29124
29124 29224
29224 29323
29323 29423
29423 29523
29523 29623
29623 29723
29723 29822
29822 29922
29922 30022
30022 30121
30121 30221
30221 30321
30321 30420
30420 30520
30520 30620
30620 30720
30720 30820
30820 30920
30920 31020
31020 31135
31135 31236
31236 31337
31337 31437
31437 31538
31538 31639
31639 31740
31740 31841
31841 31942
31942 32033
32033 32135
32135 32236
32236 32338
32338 32439
32439 32540
32540 32641
32641 32743
32743 32844
32844 32945
32945 33119
33119 33219
