73 173
173 273
273 373
373 473
473 573
573 673
673 773
773 873
873 974
974 1074
1074 1175
1175 1275
1275 1376
1376 1476
1476 1577
1577 1677
1677 1778
1778 1879
1879 1979
1979 2080
2080 2181
2181 2281
2281 2382
2382 2482
2482 2582
2582 2683
2683 2784
2784 2884
2884 2984
2984 3084
3084 3185
3185 3285
3285 3385
3385 3485
3485 3585
3585 3684
3684 3784
3784 3884
3884 3984
3984 4084
4084 4183
4183 4283
4283 4383
4383 4483
4483 4583
4583 4683
4683 4782
4782 4882
4882 4982
4982 5082
5082 5182
5182 5282
5282 5382
5382 5481
5481 5581
5581 5681
5681 5781
5781 5880
5880 5980
5980 6081
6081 6181
6181 6281
6281 6381
6381 6482
6482 6582
6582 6682
6682 6782
6782 6883
6883 6983
6983 7084
7084 7184
7184 7285
7285 7385
7385 7485
7485 7586
7586 7686
7686 7786
7786 7887
7887 7987
7987 8087
8087 8187
8187 8288
8288 8388
8388 8488
8488 8588
8588 8688
8688 8788
8788 8888
8888 8988
8988 9088
9088 9188
9188 9288
9288 9388
9388 9488
9488 9588
9588 9688
9688 9788
9788 9888
9888 9989
9989 10088
10088 10189
10189 10288
10288 10388
10388 10488
10488 10588
10588 10689
10689 10788
10788 10889
10889 10989
10989 11089
11089 11189
11189 11289
11289 11389
11389 11489
11489 11589
11589 11688
11688 11788
11788 11888
11888 11987
11987 12087
12087 12186
12186 12286
12286 12385
12385 12485
12485 12584
12584 12684
12684 12784
12784 12883
12883 12983
12983 13083
13083 13182
13182 13282
13282 13381
13381 13481
13481 13581
13581 13680
13680 13780
13780 13880
13880 13979
13979 14079
14079 14179
14179 14278
14278 14378
14378 14478
14478 14577
14577 14677
14677 14777
14777 14877
14877 14977
14977 15077
15077 15177
15177 15276
15276 15377
15377 15476
15476 15576
15576 15676
15676 15776
15776 15876
15876 15976
15976 16076
16076 16176
16176 16276
16276 16376
16376 16476
16476 16576
16576 16677
16677 16777
16777 16877
16877 16977
16977 17077
17077 17177
17177 17278
17278 17378
17378 17478
17478 17579
17579 17679
17679 17779
17779 17879
17879 17979
17979 18080
18080 18180
18180 18280
18280 18381
18381 18481
18481 18582
18582 18682
18682 18782
18782 18883
18883 18983
18983 19083
19083 19183
19183 19283
19283 19384
19384 19484
19484 19584
19584 19684
19684 19784
19784 19884
19884 19983
19983 20084
20084 20184
20184 20284
20284 20384
20384 20484
20484 20585
20585 20685
20685 20785
20785 20886
20886 20986
20986 21086
21086 21186
21186 21287
21287 21386
21386 21486
21486 21586
21586 21685
21685 21785
21785 21884
21884 21984
21984 22083
22083 22183
22183 22282
22282 22381
22381 22481
22481 22580
22580 22679
22679 22778
22778 22878
22878 22976
22976 23076
23076 23175
23175 23274
23274 23373
23373 23472
23472 23572
23572 23671
23671 23770
23770 23869
23869 23968
23968 24067
24067 24167
24167 24266
24266 24365
24365 24465
24465 24565
24565 24664
24664 24764
24764 24864
24864 24964
24964 25064
25064 25164
25164 25264
25264 25364
25364 25464
25464 25564
25564 25664
25664 25764
25764 25863
25863 25963
25963 26062
26062 26162
26162 26261
26261 26360
26360 26460
26460 26558
26558 26658
26658 26757
26757 26856
26856 26955
26955 27054
27054 27153
27153 27252
27252 27351
27351 27450
27450 27549
27549 27648
27648 27747
27747 27845
27845 27944
27944 28042
28042 28141
28141 28239
28239 28339
28339 28437
28437 28536
28536 28635
28635 28734
28734 28833
28833 28932
28932 29031
29031 29130
29130 29229
29229 29328
29328 29427
29427 29526
29526 29625
29625 29724
29724 29823
29823 29922
29922 30020
30020 30088
30088 30185
30185 30283
30283 30381
30381 30478
30478 30576
30576 30674
30674 30771
30771 30868
30868 30966
30966 31063
31063 31161
31161 31258
31258 31356
31356 31453
31453 31551
31551 31648
31648 31746
31746 31844
31844 31942
31942 32124
32124 32223
32223 32323
32323 32423
32423 32522
32522 32622
