57 176
176 236
236 295
414 747
747 806
1117 1176
1176 1236
1236 1295
1295 1355
1355 1474
1474 1534
1534 1593
1593 1653
1653 1712
1712 1772
1772 1831
1831 1890
1890 1949
1949 2009
2009 2068
2068 2127
2127 2186
2186 2245
2245 2305
2305 2364
2364 2423
2423 2482
2482 2542
2542 2601
2601 2661
2661 2720
2720 2780
2780 2839
2839 2898
2898 2958
2958 3017
3017 3056
3056 3115
3115 3174
3174 3233
3233 3293
3293 3352
3352 3411
3411 3470
3470 3530
3530 3589
3589 3648
3648 3708
3708 3767
3767 3826
3826 3886
3886 3945
3945 4004
4004 4122
4122 4182
4182 4241
4241 4300
4300 4360
4360 4419
4419 4479
4479 4538
4538 4597
4597 4656
4656 4715
4715 4775
4775 4834
4834 4893
4893 4952
4952 5011
5011 5061
5061 5180
5180 5239
5239 5299
5299 5358
5358 5417
5417 5477
5477 5536
5536 5595
5595 5655
5655 5714
5714 5773
5773 5832
5832 5891
5891 6177
6177 6236
6236 6296
6296 6475
6475 6534
6534 6594
6594 6653
6653 6712
6712 6771
6771 6831
6831 6890
6890 6949
6949 7008
7008 7126
7126 7185
7185 7244
7244 7303
7303 7480
7480 7539
7539 7598
7598 7658
7658 7717
7717 7776
7776 7835
7835 7894
7894 7953
7953 8013
8013 8072
8072 8309
8309 8369
8369 8428
8428 8725
8725 8818
8818 8878
8878 8937
8937 8996
8996 9056
9056 9532
9532 9592
9532 9592
9592 9652
9771 9831
9831 10247
10247 10306
10247 10306
10306 10366
10366 10425
10425 10485
10485 10544
10544 10932
10932 10991
10991 11050
11050 11110
11110 11169
11169 11228
11228 11794
11794 11854
11854 11914
11914 11973
11973 12033
12033 12451
12451 12511
12511 12571
12571 12631
12631 12691
12691 12752
12752 12932
12932 12992
12992 13052
13052 13112
13112 13172
13172 13231
13231 13291
13291 13351
13351 13411
13411 13471
13471 13530
13530 13590
13590 13709
13709 13768
13768 13828
13828 14219
14219 14278
14278 14338
14338 14398
14398 14457
14457 14932
14932 14992
14992 15052
15052 15112
15112 15172
15172 15231
15231 15591
15591 15686
15686 15746
15746 15806
15806 16165
16165 16225
16225 16285
16285 16344
16344 16404
16404 16763
16763 16823
16823 16884
16884 16944
16944 17004
17004 17460
17460 17520
17520 17581
17581 17641
17641 17701
17701 17942
17942 18002
18002 18062
18062 18123
18123 18183
18183 18665
18665 18725
18725 18785
18785 18846
18846 18906
18906 19146
19146 19206
19206 19266
19266 19326
19326 19386
19386 19566
19566 19626
19626 19686
19686 19746
19746 19806
19806 19865
19865 19985
19985 20045
20045 20105
20105 20164
20164 20224
20224 20284
20284 20344
20344 20404
20404 20464
20464 20524
20524 20584
20584 20764
20764 20824
20824 20884
20884 20944
20944 21004
21004 21305
21305 21365
21365 21426
21426 21486
21486 21546
21546 21728
21728 21788
21788 21849
21849 21909
21909 21970
21970 22125
22125 22246
22246 22307
22307 22368
22368 22428
22428 22489
22489 22611
22611 22671
22671 22732
22732 22793
22793 22854
22854 22915
22915 22975
22975 23036
23036 23097
23097 23158
23158 23219
23219 23279
23279 23340
23340 23401
23401 23461
23461 23522
23522 23583
23583 23643
23643 23704
23704 23765
23765 23855
23855 23947
23947 24069
24069 24130
24130 24191
24191 24251
24251 24312
24312 24433
24433 24494
24494 24555
24555 24615
24615 24676
24676 24736
24736 24797
24797 24857
24857 24917
24917 24978
24978 25135
25135 25195
25195 25256
25256 25316
25316 25496
25496 25557
25557 25617
25617 25677
25677 25737
25737 25797
25797 26372
26372 26432
26432 26493
26493 26553
26553 26613
26613 26673
26673 26733
26733 26793
26793 26854
26854 26913
26913 26974
26974 27090
27090 27150
27150 27270
27270 27330
27330 27389
27389 27449
27449 27629
27629 27688
27688 27748
27748 27808
27808 27928
27928 27988
27988 28048
28048 28108
28108 28168
28168 28228
28228 28469
28469 28529
28529 28589
