3504 3578
6939 7041
7041 7116
7116 7193
7193 7269
7269 7345
7345 7422
7422 7497
7497 7573
7573 7647
7647 7722
7722 7797
7797 7873
7873 7948
7948 8024
8024 8099
8099 8175
8175 8250
9007 9154
9154 9229
9229 9306
9306 9430
9430 9505
9505 9581
9581 9656
9656 9732
9732 9807
9807 9857
9857 9932
9932 10008
10008 10053
10053 10128
10128 10204
10204 10278
10278 10353
10353 10429
10429 10503
10503 10578
10578 10653
10653 10727
10727 10802
10802 10878
10878 10953
11028 11103
18477 18552
18552 18627
18702 18776
18776 18850
18850 18924
18924 18998
18998 19072
19072 19146
19146 19220
19220 19293
19293 19367
19367 19440
19440 19513
19513 19588
19588 19661
19661 19734
19881 19953
19953 20027
20027 20101
20101 20173
20173 20248
20248 20325
20325 20403
20403 20482
20482 20561
20561 20640
20640 20717
20717 20794
20794 20871
20871 20948
20948 21029
21029 21111
21111 21190
21190 21268
21268 21346
21346 21424
21424 21503
21503 21595
21595 21677
21677 21760
21760 21841
21841 21920
21920 21999
21999 22077
22077 22152
22152 22227
22227 22303
22303 22377
22377 22452
22452 22527
22527 22601
22601 22674
22674 22748
22748 22822
22822 22896
22896 22971
22971 23047
23047 23121
23121 23196
23196 23270
23270 23345
23345 23420
23420 23496
23496 23573
23573 23649
23649 23724
23724 23799
23799 23907
23907 23952
23952 24019
24019 24080
24080 24156
24156 24233
24233 24310
24310 24386
24386 24461
24461 24535
24535 24611
24611 24686
24686 24761
24761 24835
24835 24910
24910 24984
24984 25059
25059 25133
25133 25209
25209 25285
25285 25366
25366 25446
25446 25525
25525 25606
25606 25684
25684 25761
25761 25838
25838 25913
25913 25990
25990 26064
26064 26141
26141 26216
26216 26295
26295 26372
26372 26450
26450 26527
26527 26605
26605 26685
26685 26765
26765 26842
26842 26920
26920 26996
26996 27071
27071 27147
27147 27222
27222 27299
27299 27375
27375 27450
27450 27525
27525 27602
27602 27678
27678 27757
27757 27847
27847 27925
27925 28004
28004 28082
28082 28159
28159 28234
28234 28310
28310 28384
28384 28458
28458 28533
28533 28607
28607 28681
28681 28754
28754 28829
28829 28902
28902 28975
28975 29049
29049 29121
29121 29196
29196 29269
29269 29347
29347 29423
29423 29500
29500 29578
29578 29656
29656 29731
29731 29809
29809 29884
29884 29959
29959 30034
30034 30109
30109 30183
30183 30259
30259 30333
30333 30409
30409 30485
30485 30560
30560 30636
30636 30713
30713 30789
30789 30866
30866 30944
30944 31019
31019 31094
31094 31169
31169 31246
31246 31322
31322 31395
31395 31470
31470 31545
31545 31618
31618 31692
31692 31766
31766 31839
31839 31911
31911 31984
31984 32058
32058 32131
32131 32204
32204 32277
32277 32350
32350 32424
32424 32475
32475 32550
32550 32627
32627 32703
32703 32778
32778 32855
32855 32930
32930 33007
33007 33082
33082 33159
33159 33234
33234 33310
33310 33385
33385 33463
33463 33538
33538 33617
33617 33696
33696 33771
33771 33847
33847 33923
33923 33999
33999 34079
34079 34158
34158 34213
34213 34291
34291 34370
34370 34446
34446 34522
34522 34598
34598 34673
34673 34748
34748 34822
34822 34894
34894 34970
34970 35043
35043 35117
35117 35189
35189 35263
35263 35337
35337 35410
35410 35485
35485 35559
35559 35633
35633 35707
35707 35780
35780 35854
35854 35927
35927 36004
36004 36077
36077 36152
36152 36226
36226 36301
36301 36374
36374 36449
36449 36524
36524 36603
36603 36682
36682 36761
36761 36840
36840 36915
36915 36991
36991 37065
37065 37142
37142 37216
37216 37291
37291 37366
37366 37440
37440 37515
37515 37590
37590 37668
37668 37743
37743 37819
37819 37893
37893 37968
37968 38078
38078 38153
38153 38232
38232 38309
38309 38387
38387 38463
38463 38541
38541 38618
38618 38700
38700 38781
38781 38857
38857 38935
38935 39044
39044 39118
39118 39194
39194 39269
39269 39345
39345 39425
39425 39502
39502 39580
39580 39657
39657 39732
39732 39808
39808 39883
39883 39957
39957 40031
40031 40104
40104 40178
40178 40251
40251 40326
40326 40401
40401 40474
40474 40549
40549 40622
40622 40696
40696 40770
40770 40844
40844 40918
40918 40992
40992 41067
41067 41140
41140 41217
41217 41293
41293 41366
41366 41441
41441 41516
41516 41591
41591 41669
41669 41746
41746 41825
41825 41901
41901 41978
41978 42055
42055 42130
42130 42205
42205 42280
42280 42353
42353 42429
42429 42504
42504 42579
42579 42653
42653 42728
42728 42803
42803 42879
42879 42955
42955 43030
43030 43103
43103 43178
43178 43251
43251 43327
43327 43401
43401 43451
43451 43523
43523 43596
43596 43718
43718 43790
43790 43864
43864 43936
43936 44009
44009 44084
44084 44158
44158 44235
44235 44313
44313 44391
44391 44467
44467 44541
44541 44616
44616 44691
44691 44768
44768 44843
44843 44918
44918 44992
44992 45066
45066 45138
45138 45212
45212 45284
45284 45358
45358 45430
45430 45503
45503 45575
45575 45648
45648 45719
45719 45793
45793 45866
45866 45938
45938 46031
46031 46109
46109 46188
46188 46266
46266 46342
46342 46420
46420 46497
46497 46574
46574 46651
46651 46726
46726 46803
46803 46879
46879 46956
46956 47033
47033 47110
47110 47184
47184 47260
47260 47336
47336 47415
47415 47494
47494 47572
47572 47649
47649 47727
47727 47804
47804 47882
47882 47937
47937 48057
48057 48126
48126 48195
48195 48265
48265 48335
48335 48404
48404 48473
48473 48544
48544 48614
48614 48684
48684 48755
48755 48826
48826 48898
48898 48969
48969 49040
49040 49114
49114 49185
49185 49257
49257 49332
49332 49407
49407 49480
49480 49552
49552 49626
49626 49698
49698 49771
49771 49843
49843 49915
49915 49989
49989 50063
50063 50138
50138 50210
50210 50284
50284 50355
50355 50429
50429 50502
50502 50573
50573 50644
50644 50715
50715 50788
50788 50861
50861 50933
50933 51007
51007 51047
51047 51124
51124 51202
51202 51277
51277 51353
51353 51427
51427 51501
51501 51573
51573 51647
51647 51718
51718 51791
51791 51864
51864 51938
51938 52010
52010 52083
52083 52156
52156 52228
52228 52301
52301 52374
52374 52446
52446 52518
52518 52593
52593 52669
52669 52743
52743 52818
52818 52892
52892 52966
52966 53040
53040 53112
53112 53185
53185 53258
53258 53333
53333 53408
53408 53482
53482 53555
53555 53627
53627 53701
53701 53772
53772 53845
