3 53
4973 5060
5060 5147
5147 5233
5233 5320
5320 5406
5406 5492
5492 5578
5578 5665
5665 5752
5752 5839
5839 5926
5926 6013
6013 6049
6049 6310
6310 6397
6397 6484
6484 6571
6571 6659
6659 6745
6745 6832
6832 6938
6938 7025
7025 7111
7111 7197
7197 7284
7284 7370
7370 7458
7458 7545
7545 7633
7633 7722
7722 7809
7809 7897
7897 7983
7983 8070
8070 8156
8156 8242
8242 8329
8329 8414
8414 8500
8500 8585
8585 8671
8671 8758
8758 8844
8844 8931
8931 9019
9019 9106
9106 9194
9194 9281
9281 9369
9369 9456
9456 9544
9544 9630
9630 9719
9719 9807
9807 9894
9894 9945
9945 10068
10068 10154
10154 10240
10240 10327
10327 10414
10414 10501
10501 10587
10587 10674
10674 10760
10760 10846
10846 10932
10932 11018
11018 11104
11104 11190
11190 11276
11276 11362
11362 11449
11449 11536
11536 11623
11623 11710
11710 11797
11797 11884
11884 11970
11970 12058
12058 12144
12144 12229
12229 12315
12315 12401
12401 12487
12487 12573
12573 12660
12660 12747
12747 12834
12834 12921
12921 13008
13008 13093
13093 13180
13180 13267
13267 13354
13354 13441
13441 13528
13528 13614
13614 13701
13701 13787
13787 13873
13873 13958
13958 14044
14044 14129
14129 14215
14215 14301
14301 14387
14387 14474
14474 14559
14559 14646
14646 14732
14732 14817
14817 14903
14903 14988
14988 15073
15073 15159
15159 15245
15245 15330
15330 15416
15416 15502
15502 15588
15588 15674
15674 15760
15760 15845
15845 15931
15931 16016
16016 16131
16131 16217
16217 16303
16303 16390
16390 16477
16477 16563
16563 16649
16649 16734
16734 16820
16820 16906
16906 16992
16992 17077
17077 17163
17163 17249
17249 17334
17334 17420
17420 17505
17505 17591
17591 17676
17676 17762
17762 17848
17848 17935
17935 18022
18022 18109
18109 18196
18196 18283
18283 18370
18370 18458
18458 18545
18545 18632
18632 18719
18719 18807
18807 18894
18894 18981
18981 19068
19068 19155
19155 19241
19241 19328
19328 19414
19414 19500
19500 19586
19586 19672
19672 19757
19757 19843
19843 19928
19928 20012
20012 20097
20097 20181
20181 20265
20265 20350
20350 20434
20434 20519
20519 20603
20603 20688
20688 20772
20772 20856
20856 20941
20941 21026
21026 21110
21110 21195
21195 21280
21280 21365
21365 21451
21451 21538
21538 21624
21624 21711
21711 21798
21798 21886
21886 21974
21974 22062
22062 22150
22150 22237
22237 22324
22324 22411
22411 22497
22497 22583
22583 22669
22669 22755
22755 22840
22840 22925
22925 23010
23010 23096
23096 23181
23181 23268
23268 23354
23354 23440
23440 23526
23526 23613
23613 23699
23699 23784
23784 23870
23870 23955
23955 24040
24040 24126
24126 24212
24212 24298
24298 24383
24383 24469
24469 24555
24555 24641
24641 24726
24726 24812
24812 24898
24898 24984
24984 25070
25070 25156
25156 25241
25241 25327
25327 25412
25412 25497
25497 25582
25582 25667
25667 25752
25752 25837
25837 25923
25923 26009
26009 26096
26096 26183
26183 26270
26270 26357
26357 26444
26444 26531
26531 26618
26618 26705
26705 26794
26794 26881
26881 26970
26970 27057
27057 27144
27144 27232
27232 27319
27319 27406
27406 27494
27494 27582
27582 27669
27669 27756
27756 27843
27843 27929
27929 28016
28016 28102
28102 28188
28188 28274
28274 28360
28360 28446
28446 28532
28532 28618
28618 28705
28705 28792
28792 28879
28879 28965
28965 29052
29052 29138
29138 29224
29224 29311
29311 29397
29397 29483
29483 29569
29569 29656
29656 29742
29742 29828
29828 29914
29914 30000
30000 30086
30086 30171
30171 30256
30256 30341
30341 30427
30427 30512
30512 30597
30597 30682
30682 30767
30767 30851
30851 30936
30936 31020
31020 31105
31105 31189
31189 31273
31273 31357
31357 31442
31442 31527
31527 31612
31612 31696
31696 31781
31781 31867
31867 31952
31952 32038
32038 32124
32124 32211
32211 32297
32297 32384
32384 32470
32470 32557
32557 32643
32643 32729
32729 32815
32815 32901
32901 32986
32986 33072
33072 33157
33157 33242
33242 33326
33326 33411
33411 33495
33495 33579
33579 33664
33664 33749
33749 33834
33834 33919
33919 34005
34005 34091
34091 34178
34178 34265
34265 34352
34352 34438
34438 34524
34524 34609
34609 34696
34696 34781
34781 34867
34867 34953
34953 35039
35039 35125
35125 35212
35212 35298
35298 35384
35384 35470
35470 35556
35556 35642
35642 35727
35727 35812
35812 35898
35898 35983
35983 36067
36067 36152
36152 36236
36236 36322
36322 36408
36408 36494
36494 36580
36580 36666
36666 36752
36752 36838
36838 36924
36924 37009
37009 37094
37094 37179
37179 37264
37264 37350
37350 37436
37436 37522
37522 37583
37583 37669
37669 37755
37755 37841
37841 37927
37927 38012
38012 38097
38097 38182
38182 38267
38267 38352
38352 38438
38438 38524
38524 38610
38610 38696
38696 38782
38782 38868
38868 38953
38953 39039
39039 39125
39125 39210
39210 39296
39296 39357
39357 39442
39442 39527
39527 39612
39612 39696
39696 39781
39781 39866
39866 39950
39950 40104
40104 40187
40187 40269
40269 40351
40351 40433
40433 40516
40516 40598
40598 40681
40681 40763
40763 40846
40846 40928
40928 41011
41011 41095
41095 41178
41178 41262
41262 41346
41346 41431
41431 41515
41515 41601
41601 41687
41687 41774
41774 41861
41861 41949
41949 42071
42071 42156
42156 42240
42240 42324
42324 42409
42409 42494
42494 42579
42579 42665
42665 42751
42751 42838
42838 42926
42926 43014
43014 43122
43122 43209
43209 43296
43296 43383
43383 43470
43470 43558
43558 43645
43645 43732
43732 43819
43819 43907
43907 43994
43994 44081
44081 44168
44168 44256
44256 44342
44342 44429
44429 44516
44516 44603
44603 44690
44690 44777
44777 44864
44864 44951
44951 45038
45038 45126
45126 45214
45214 45302
45302 45390
45390 45477
45477 45565
45565 45652
45652 45739
45739 45825
45825 45912
45912 45998
45998 46084
46084 46171
46171 46257
46257 46344
46344 46431
46431 46517
46517 46603
46603 46689
46689 46775
46775 46860
46860 46947
46947 47033
47033 47119
47119 47205
47205 47291
47291 47377
47377 47463
47463 47548
47548 47634
47634 47720
47720 47806
47806 47892
47892 47978
47978 48064
48064 48151
48151 48238
48238 48324
48324 48410
48410 48495
48495 48581
48581 48665
48665 48750
48750 48835
48835 48920
48920 49005
49005 49089
49089 49175
49175 49260
49260 49346
49346 49431
49431 49516
49516 49602
49602 49687
49687 49772
49772 49859
49859 49945
49945 50030
50030 50116
50116 50201
50201 50286
50286 50372
50372 50457
50457 50542
50542 50627
50627 50713
50713 50798
50798 50885
50885 50971
50971 51058
51058 51145
51145 51231
51231 51317
51317 51403
51403 51489
51489 51574
51574 51659
51659 51744
51744 51829
51829 51915
51915 52001
52001 52087
52087 52173
52173 52259
52259 52345
52345 52431
52431 52517
52517 52603
52603 52689
52689 52774
52774 52860
52860 52946
52946 53033
53033 53119
53119 53206
53206 53292
53292 53379
53379 53466
53466 53553
53553 53639
53639 53725
53725 53812
53812 53898
53898 53984
53984 54071
54071 54157
54157 54243
54243 54329
54329 54414
54414 54499
54499 54584
54584 54671
54671 54757
54757 54843
54843 54930
54930 55016
55016 55102
55102 55189
55189 55275
55275 55361
55361 55446
55446 55532
55532 55617
55617 55703
55703 55789
55789 55874
55874 55961
55961 56047
56047 56134
56134 56221
56221 56307
56307 56394
56394 56480
56480 56565
56565 56650
56650 56735
56735 56821
56821 56906
56906 56992
56992 57078
57078 57164
57164 57250
57250 57336
57336 57422
57422 57507
57507 57592
57592 57678
57678 57763
57763 57849
57849 57935
57935 58043
58043 58128
58128 58212
58212 58296
58296 58381
58381 58465
58465 58548
58548 58632
58632 58716
58716 58799
58799 58882
58882 58965
58965 59047
59047 59129
59129 59212
59212 59294
59294 59377
59377 59460
59460 59542
59542 59625
59625 59708
59708 59792
59792 59875
59875 59959
59959 60043
60043 60126
60126 60211
60211 60296
60296 60380
60380 60465
60465 60549
60549 60633
60633 60718
60718 60803
60803 60889
60889 60974
60974 61058
61058 61143
61143 61228
61228 61313
61313 61397
61397 61481
61481 61565
61565 61649
61649 61733
61733 61818
61818 61903
61903 61988
61988 62073
62073 62159
62159 62245
62245 62331
62331 62416
62416 62502
62502 62587
62587 62672
62672 62758
62758 62843
62843 62929
62929 63015
63015 63102
63102 63189
63189 63276
63276 63362
63362 63449
63449 63537
63537 63624
63624 63712
63712 63799
63799 63886
63886 63973
63973 64059
64059 64145
64145 64231
