4929 5017
5017 5057
5238 5327
5327 5416
9578 9666
9666 9753
9753 9841
9841 9928
9928 10018
10018 10106
10106 10194
10194 10282
10282 10371
10371 10484
10484 10549
10549 10637
10637 10726
10726 10814
10814 10902
10902 10989
10989 11078
11078 11169
11169 11257
11257 11345
11345 11434
11434 11521
11521 11612
11612 11702
11702 11789
11789 11882
11882 11972
11972 12062
12062 12152
12152 12241
12241 12328
12328 12417
12417 12507
12507 12595
12595 12680
12680 12771
12771 12859
12859 12947
12947 13035
13035 13123
13123 13209
13209 13297
13297 13387
13387 13474
13474 13561
13561 13648
13648 13736
13736 13824
13824 13913
13913 14001
14001 14090
14090 14180
14180 14269
14269 14358
14358 14450
14450 14540
14540 14630
14630 14719
14719 14809
14809 14897
14897 14989
14989 15053
15053 15143
15143 15233
15233 15322
15322 15410
15410 15501
15501 15565
15565 15654
15654 15744
15744 15833
15833 15922
15922 16014
16014 16104
16104 16193
16193 16281
16281 16373
16373 16462
16462 16550
16550 16639
16639 16725
16725 16814
16814 16905
16905 16994
16994 17083
17083 17172
17172 17262
17262 17352
17352 17442
17442 17532
17532 17621
17621 17710
17710 17798
17798 17888
17888 17976
17976 18064
18064 18152
18152 18240
18240 18328
18328 18417
18417 18506
18506 18595
18595 18684
18684 18773
18773 18862
18862 18950
18950 19085
19085 19174
20572 20614
20614 20679
20679 20767
20767 20855
20855 20944
20944 21080
21080 21169
22861 22949
22949 23076
24940 25068
26576 26757
26757 26846
26846 26935
26935 27024
27024 27111
27111 27203
27203 27291
27291 27380
27380 27469
27469 27558
27558 27645
27645 27736
27736 27825
27825 27914
27914 28002
28002 28044
28959 29052
29052 29139
29139 29227
29227 29314
29314 29401
29401 29515
29515 29579
29579 29668
29668 29756
29756 29844
29844 29932
29932 30020
30020 30092
30092 30180
30180 30270
30270 30359
30359 30448
30448 30537
30537 30627
30627 30715
30715 30804
30804 30892
30892 30980
30980 31067
31067 31156
31156 31244
31244 31333
31333 31421
31421 31510
31510 31598
31598 31686
31686 31777
31777 31865
31865 31953
31953 32041
32041 32129
32129 32219
32219 32308
32308 32398
32398 32487
32487 32577
32577 32666
32666 32755
32755 32843
32843 32932
32932 33021
33021 33110
33110 33199
33199 33287
33287 33377
33377 33466
33466 33554
33554 33645
33645 33735
33735 33825
33825 33916
33916 34006
34006 34096
34096 34186
34186 34276
34276 34366
34366 34455
34455 34544
34544 34633
34633 34723
34723 34813
34813 34901
34901 34990
34990 35078
35078 35166
35166 35255
35255 35344
35344 35433
35433 35523
35523 35612
35612 35702
35702 35792
35792 35882
35882 35972
35972 36061
36061 36151
36151 36237
36237 36329
36329 36418
36418 36507
36507 36596
36596 36685
36685 36773
36773 36952
36952 37042
37042 37131
37131 37220
37220 37309
37309 37397
37397 37489
37489 37578
37578 37668
37668 37757
37757 37846
37846 37935
37935 38025
38025 38114
38114 38203
38203 38292
38292 38380
38380 38468
38468 38558
38558 38646
38646 38735
38735 38823
38823 38910
38910 38999
38999 39087
39087 39176
39176 39264
39264 39353
39353 39441
39441 39531
39531 39621
39621 39710
39710 39799
39799 39887
39887 39975
39975 40062
40062 40151
40151 40239
40239 40327
40327 40414
40414 40502
40502 40590
40590 40678
40678 40766
40766 40854
40854 40941
40941 41028
41028 41068
41068 41157
41157 41246
41246 41336
41336 41425
41425 41514
41514 41603
41603 41715
41715 41781
41781 41869
41869 41958
41958 42046
42046 42134
42134 42220
42220 42310
42310 42398
42398 42486
42486 42574
42574 42661
42661 42748
42748 42839
42839 42927
42927 43015
43015 43058
43058 43148
43148 43236
43236 43326
43326 43415
43415 43503
43503 43592
43592 43679
43679 43767
43767 43853
43853 43943
43943 44030
44030 44118
44118 44205
44205 44292
44292 44378
44378 44468
44468 44556
44556 44644
44644 44732
44732 44821
44821 44909
44909 44999
44999 45089
45089 45178
45178 45268
45268 45357
45357 45444
45444 45535
45535 45623
45623 45711
45711 45799
45799 45887
45887 45973
45973 46064
46064 46153
46153 46241
46241 46330
46330 46419
46419 46506
46506 46598
46598 46687
46687 46775
46775 46863
46863 46951
46951 47050
47050 47121
47121 47163
47163 47229
47229 47318
47318 47408
47408 47497
47497 47585
47585 47674
47674 47763
47763 47851
47851 47940
47940 48028
48028 48116
48116 48205
48205 48293
48293 48382
48382 48470
48470 48559
48559 48649
48649 48737
48737 48829
48829 48919
48919 49008
49008 49097
49097 49185
49185 49274
49274 49363
49363 49450
49450 49538
49538 49625
49625 49713
49713 49800
49800 49891
49891 49979
49979 50068
50068 50157
50157 50246
50246 50336
50336 50425
50425 50513
50513 50601
50601 50689
50689 50777
50777 50865
50865 50954
50954 51042
51042 51131
51131 51220
51220 51309
51309 51399
51399 51489
51489 51577
51577 51641
51641 51730
51730 51818
51818 51890
51890 51995
51995 52083
52083 52171
52171 52258
52258 52343
52343 52432
52432 52522
52522 52610
52610 52699
52699 52787
52787 52876
52876 52963
52963 53029
53029 53117
53117 53205
53205 53294
53294 53382
53382 53468
53468 53559
53559 53648
53648 53736
53736 53825
53825 53913
53913 54000
54000 54091
54091 54179
54179 54267
54267 54355
54355 54442
54442 54528
54528 54618
54618 54706
54706 54794
54794 54882
54882 54970
54970 55058
55058 55147
55147 55236
55236 55325
55325 55414
55414 55504
55504 55593
55593 55684
55684 55773
55773 55863
55863 55952
55952 56041
56041 56128
56128 56219
56219 56307
56307 56395
56395 56482
56482 56569
56569 56657
56657 56745
56745 56833
56833 56921
56921 57009
57009 57097
57097 57182
57182 57274
57274 57363
57363 57451
57451 57540
57540 57629
57629 57718
57718 57807
57807 57895
57895 57983
57983 58070
58070 58158
58158 58245
58245 58333
58333 58422
58422 58510
58510 58598
58598 58687
58687 58775
58775 58863
