14042 14132
14132 14221
14221 14310
14310 14399
14399 14488
14488 14578
14578 14668
14668 14758
14758 14848
14848 14939
14939 15029
15029 15120
15120 15211
15211 15302
15302 15393
15393 15484
15484 15575
15575 15665
15665 15756
15756 15845
15845 15935
15935 16024
16024 16107
16107 16197
16197 16288
16288 16379
16379 16469
16469 16560
16560 16650
16650 16740
16740 16831
16831 16922
16922 17012
17012 17103
17103 17194
17194 17284
17284 17376
17376 17466
17466 17557
