18926 19048
32934 33062
33062 33155
33155 33247
33247 33340
33340 33433
33433 33525
33525 33617
33617 33710
33710 33803
33803 33896
33896 33989
33989 34081
34081 34174
34174 34267
34267 34359
34359 34451
34451 34544
34544 34637
34637 34730
34730 34822
34822 34914
34914 35005
35005 35096
35096 35187
35187 35277
35277 35367
35367 35458
35458 35548
35548 35638
35638 35727
35727 35816
35816 35905
35905 35993
35993 36083
36083 36172
36172 36261
36261 36350
36350 36441
36441 36531
36531 36621
36621 36711
36711 36802
36802 36893
36893 36985
36985 37077
37077 37169
37169 37262
37262 37354
37354 37446
37446 37538
37538 37630
37630 37722
37722 37813
37813 37905
37905 37997
37997 38088
38088 38180
38180 38272
38272 38364
38364 38458
38458 38552
38552 38645
38645 38739
38739 38832
38832 38926
38926 39048
39048 39143
39143 39237
39237 39331
39331 39424
39424 39516
39516 39610
39610 39703
39703 39796
39796 39889
39889 39981
39981 40074
40074 40166
40166 40260
40260 40353
40353 40447
40447 40540
40540 40635
40635 40728
40728 40822
40822 40915
40915 41009
41009 41103
41103 41197
41197 41291
41291 41384
41384 41477
41477 41570
41570 41663
41663 41757
41757 41850
41850 41944
41944 42061
42061 42154
42154 42247
42247 42340
42340 42433
42433 42525
42525 42618
42618 42711
42711 42805
42805 42898
42898 42992
42992 43085
43085 43177
43177 43270
43270 43363
43363 43456
43456 43548
43548 43640
43640 43733
43733 43825
43825 43918
43918 44010
44010 44102
44102 44194
44194 44286
44286 44378
44378 44471
44471 44564
44564 44657
44657 44750
44750 44843
44843 44936
44936 45045
45045 45137
45137 45230
45230 45322
45322 45415
45415 45508
45508 45600
45600 45693
45693 45787
45787 45881
45881 45974
45974 46067
46067 46160
46160 46253
46253 46346
46346 46439
46439 46532
46532 46624
46624 46717
46717 46811
46811 46905
46905 46999
46999 47092
47092 47184
47184 47278
47278 47370
47370 47462
47462 47554
47554 47646
47646 47738
47738 47830
47830 47923
47923 48015
48015 48107
48107 48198
48198 48290
48290 48383
48383 48476
48476 48569
48569 48662
48662 48756
48756 48849
48849 48942
48942 49059
49059 49150
49150 49242
49242 49334
49334 49426
49426 49519
49519 49612
49612 49704
49704 49797
49797 49890
49890 49984
49984 50078
50078 50171
50171 50265
50265 50359
50359 50452
50452 50545
50545 50637
50637 50730
50730 50822
50822 50915
50915 51007
51007 51100
51100 51193
51193 51286
51286 51380
51380 51473
51473 51566
51566 51658
51658 51751
51751 51845
51845 51938
51938 52060
52060 52153
52153 52247
52247 52340
52340 52433
52433 52525
52525 52618
52618 52711
52711 52803
52803 52895
52895 52987
52987 53080
53080 53173
53173 53266
53266 53359
53359 53452
53452 53546
53546 53639
53639 53734
53734 53828
53828 53921
53921 54015
54015 54108
54108 54202
54202 54295
54295 54388
54388 54480
54480 54572
54572 54664
54664 54755
54755 54848
54848 54940
54940 55064
55064 55155
55155 55247
55247 55337
55337 55430
55430 55521
55521 55613
55613 55705
55705 55797
55797 55888
55888 55982
55982 56074
56074 56168
56168 56260
56260 56354
56354 56446
56446 56539
56539 56633
56633 56726
56726 56819
56819 56911
56911 57004
57004 57096
57096 57190
57190 57282
57282 57374
57374 57465
57465 57558
57558 57650
57650 57742
57742 57834
