4729 4812
4812 4896
10854 10939
10939 11024
11024 11085
15917 16001
16001 16067
26896 26981
26981 27044
51885 51969
51969 52053
52053 52137
52137 52222
52222 52306
52306 52390
52390 52475
52475 52558
52558 52642
52642 52726
52726 52809
52809 52892
52892 52975
52975 53058
53058 53141
53141 53224
53224 53308
53308 53391
53391 53474
53474 53558
53558 53641
53641 53725
53725 53810
53810 53894
53894 53978
53978 54062
54062 54146
54146 54231
54231 54315
54315 54400
54400 54483
54483 54567
54567 54651
54651 54735
54735 54819
54819 54902
54902 54984
54984 55067
55067 55150
55150 55233
55233 55317
55317 55402
55402 55485
55485 55570
55570 55654
55654 55739
55739 55823
55823 55907
55907 55991
55991 56060
56060 56144
56144 56228
56228 56313
56313 56397
56397 56481
56481 56565
56565 56648
56648 56732
56732 56815
56815 56899
56899 56983
56983 57067
57067 57152
57152 57235
57235 57320
57320 57404
57404 57488
57488 57572
57572 57657
57657 57742
57742 57827
57827 57910
57910 57994
57994 58078
58078 58161
58161 58245
58245 58328
58328 58412
58412 58496
58496 58580
58580 58663
58663 58747
58747 58830
58830 58914
58914 58998
58998 59082
59082 59165
59165 59249
59249 59333
59333 59417
59417 59501
59501 59585
59585 59668
59668 59751
59751 59835
59835 59917
59917 60000
60000 60083
60083 60165
60165 60248
60248 60331
60331 60415
60415 60498
60498 60581
60581 60664
60664 60747
60747 60830
60830 60912
60912 60994
61134 61216
61298 61380
61380 61461
61461 61543
61543 61625
61625 61707
61707 61788
61788 61869
61869 61951
61951 62032
62032 62113
62113 62194
62194 62275
62275 62356
62356 62436
62436 62516
62516 62597
62597 62676
62676 62756
62756 62835
62835 62915
62915 62994
62994 63073
63073 63152
63152 63232
63232 63311
63311 63390
63390 63470
63470 63550
63550 63631
63631 63712
63712 63794
63794 63876
63876 63959
63959 64041
64041 64124
64124 64208
64208 64291
64291 64373
64373 64456
64456 64539
64539 64622
64622 64705
64705 64789
64789 64872
64872 64956
64956 65040
65040 65123
65123 65206
65206 65290
65290 65373
65373 65456
65456 65539
65539 65622
65622 65706
65706 65790
65790 65872
65872 65957
65957 66040
66040 66124
66124 66207
66207 66291
66291 66374
66374 66459
66459 66543
66543 66628
66628 66712
66712 66796
66796 66880
66880 66964
66964 67048
67048 67133
67133 67217
67217 67301
67301 67385
67385 67469
67469 67554
67554 67638
67638 67722
67722 67806
67806 67890
67890 67975
67975 68059
68059 68144
68144 68229
68229 68313
68313 68397
68397 68482
68482 68566
68566 68650
