51907 52013
52013 52066
52157 52247
52247 52336
52336 52694
52694 53239
52694 53239
53239 53622
53622 53718
53718 54039
54039 54091
54091 54188
54188 54284
54284 54383
54383 54482
54482 54581
54581 54679
54679 54778
54778 54877
54877 54977
54977 55074
55074 55172
55172 55271
55271 55370
55370 55469
55469 55568
55568 55667
55667 55765
55765 55863
