300 413
413 523
523 637
637 1297
1297 1405
1405 1515
1515 1622
1622 2131
2131 2252
2252 2371
2371 2494
2494 2615
2615 2731
2731 2852
2852 2970
2970 15071
15071 17537
17537 18676
18676 18907
18907 19020
19020 19302
19302 19471
19471 19543
19543 19637
19637 19758
19758 19814
