5023 5352
5352 5464
5464 5576
5576 5690
5690 5807
5807 5923
5923 6037
6037 6151
6151 6265
6265 6381
6381 6499
6499 6613
6613 6727
6727 6955
6955 7071
7071 7185
7185 7296
7296 7409
7409 7519
7519 7631
7631 7745
7745 7862
7862 7977
7977 8089
8089 8205
8205 8321
8321 8441
8441 8555
8555 8669
8669 8784
8784 8899
8899 9012
9012 9124
9124 9237
9237 9357
9357 9471
9471 9583
9583 9805
9805 9918
9918 10029
10029 10140
10140 10250
10250 10361
10361 10473
10473 10589
10589 10702
10702 10814
10814 10926
10926 11119
11119 11239
11239 11358
11358 11473
11473 11588
11588 11704
11704 11817
11817 11930
11930 12045
12045 12158
12158 12270
12270 12383
12383 12495
12495 12604
12604 12831
12831 12947
12947 13058
13058 13169
13169 13282
13282 13393
13393 13504
13504 13616
13616 13727
13727 13841
13841 13955
13955 14069
14069 14180
14180 14291
14291 14408
14408 14520
14520 14633
14633 14745
14745 14856
14856 14968
14968 15084
15084 15199
15199 15309
15309 15420
15420 15531
15531 15642
15642 15751
15751 15859
15859 15968
15968 16077
16077 16187
16187 16295
16295 16403
16403 16514
16514 16623
16623 16731
16731 16843
16843 16956
16956 17064
17064 17177
17177 17288
17288 17399
17399 17509
17509 17622
17622 17732
17732 17843
17843 17951
17951 18062
18062 18173
18173 18283
18283 18391
18391 18609
18609 18719
18719 18825
18825 18930
18930 19077
19077 19183
19183 19286
19286 19392
19392 19496
19496 19604
19604 19712
19712 19820
19820 19928
19928 20035
20035 20143
20143 20254
20254 20365
20365 20477
20477 20585
20585 20671
20671 20782
20782 20895
20895 21005
21005 21116
21116 21229
21229 21341
21341 21451
21451 21565
21565 21679
21679 21793
21793 21905
21905 22023
22023 22136
22136 22249
22249 22363
22363 22477
22477 22592
22592 22702
22702 22815
22815 22925
22925 23138
23138 23249
23249 23361
23361 23474
23474 23588
23588 23704
23704 23816
23816 23934
23934 24051
24051 24170
24170 24286
24286 24399
24399 24512
24512 24630
24630 24745
24745 24857
24857 24968
24968 25086
25086 25202
25202 25322
25322 25438
25438 25531
25531 25646
25646 25764
25764 25880
25880 25993
25993 26109
26109 26227
26227 26344
26344 26459
26459 26573
26573 26692
26692 26807
26807 26924
26924 27088
27088 27204
27204 27325
27325 27444
27444 27561
27561 27681
27681 27797
27797 27913
27913 28042
28042 28159
28159 28277
28277 28394
28394 28513
28513 28631
28631 28751
28751 28868
28868 28990
28990 29112
29112 29233
29233 29356
29356 29475
29475 29594
29594 29711
29711 29830
29830 29947
29947 30063
30063 30177
30177 30296
30296 30414
30414 30529
30529 30647
30647 30767
30767 30882
30882 31002
31002 31114
31114 31231
31231 31353
31353 31475
31475 31596
31596 31711
31711 31827
31827 31942
31942 32060
32060 32178
32178 32294
32294 32409
32409 32646
32646 32761
32761 32882
32882 32998
32998 33114
33114 33227
33227 33343
33343 33459
33459 33577
33577 33690
33690 34010
34010 34125
34125 34238
34238 34465
34465 34583
34583 34700
34700 34814
34814 34925
34925 35037
35037 35154
35154 35267
35267 35381
35381 35494
35494 35611
35611 35725
35725 35840
35840 36068
36068 36182
36182 36296
36296 36410
36410 36526
36526 36643
36643 36760
36760 36876
36876 36995
36995 37108
37108 37224
37224 37340
37340 37455
37455 37568
37568 37797
37797 37912
37912 38030
38030 38143
38143 38257
38257 38374
38374 38490
38490 38605
38605 38720
38720 38835
38835 38950
38950 39070
39070 39184
39184 39299
39299 39531
39531 39650
39650 39765
39765 39882
39882 39997
39997 40112
40112 40344
40344 40460
40460 40574
40574 40808
40808 40925
40925 41040
41040 41273
41273 41390
41390 41506
41506 41620
41620 41740
41740 41858
41858 41977
41977 42091
42091 42202
42202 42439
42439 42556
42556 42672
42672 42786
42786 43019
43019 43141
43141 43256
43256 43369
43369 43482
43482 43597
43597 43711
43711 43825
43825 43939
43939 44052
44052 44164
44164 44278
44278 44390
44390 44504
44504 44617
44617 44731
44731 44844
44844 44955
44955 45064
45064 45176
45176 45289
45289 45400
45400 45512
45512 45621
45621 45731
45731 45844
45844 45956
45956 46068
46068 46293
46293 46405
46405 46514
46514 46627
46627 46739
46739 46852
