12 74
997 1119
1969 2113
7433 7531
7531 7627
7627 7725
7725 7821
7821 7919
7919 8015
8015 8107
8107 8204
8204 8300
8300 8394
8394 8488
8488 8584
8584 8678
8678 8770
8770 8864
8864 8956
9105 9202
14909 15011
14909 15011
15011 15870
15870 15966
15966 16097
16097 16282
16282 16374
16374 16563
16563 16759
16759 17051
17051 17250
17250 17753
17753 17864
17864 18019
18019 18133
18133 18250
18250 18332
18332 18417
18417 18502
18502 18587
18587 18726
18726 18813
18813 18933
18933 19021
19021 19108
19108 19197
19197 19288
19288 19381
19381 19472
19472 19566
19566 19660
19660 19754
19754 19846
19846 19939
19939 20122
20122 20212
20212 20302
20302 20391
20391 20568
20568 20656
20656 20829
20829 21003
21003 21088
21088 21172
21172 21257
21257 21344
21344 21518
21518 21698
21698 21789
21789 21881
21881 22065
22065 22158
22158 22250
22250 22342
22342 22524
22524 22615
22615 22706
22706 22795
22795 22973
22973 23151
23151 23240
23240 23330
23330 23420
23420 23510
23510 23601
23601 23784
23784 23967
23967 24058
24058 24150
24150 24241
24241 24426
24426 24610
24610 24701
24701 24791
24791 24883
24883 24972
24972 25062
25062 25151
25151 25240
25240 25331
25331 25515
25515 25607
25607 25698
25698 25790
25790 25975
25975 26067
26067 26251
26251 26310
26310 26434
26434 26524
26524 26615
26615 26707
26707 26797
26797 26890
26890 26981
26981 27073
27073 27165
27165 27256
27256 27348
27348 27438
27438 27529
27529 27620
27620 27711
27711 27804
27804 27894
27894 27986
27986 28078
28078 28170
28170 28262
28262 28353
28353 28445
28445 28538
28538 28630
28630 28721
28721 28814
28814 29000
29000 29093
29093 29186
29186 29278
29278 29372
29372 29464
29464 29556
29556 29650
29650 29743
29743 29837
29837 29930
29930 30023
30023 30115
30115 30302
30302 30393
30393 30485
30485 30578
30578 30670
30670 30764
30764 30856
30856 30949
30949 31044
31044 31138
31138 31233
31233 31420
31420 31512
31512 31605
31605 31696
31696 31787
31787 31878
31878 31968
31968 32058
32058 32148
32148 32238
32238 32329
32329 32420
32420 32513
32513 32605
32605 32697
32697 32789
32789 32972
32972 33065
33065 33157
33157 33249
33249 33340
33340 33434
33434 33528
33528 33624
33624 33718
33718 33811
33811 33907
33907 33999
33999 34091
34091 34184
34184 34369
34369 34462
34462 34555
34555 34645
34645 34738
34738 34833
34833 34989
34989 35059
35059 35149
35149 35240
35240 35334
35334 35427
35427 35521
35521 35614
35614 35710
35710 35771
35771 35897
35897 35990
35990 36068
36068 36159
36159 36253
36253 36346
36346 36439
36439 36534
36534 36629
36629 36723
36723 36817
36817 36910
36910 37003
37003 37096
37096 37190
37190 37285
37285 37348
37348 37475
37475 37569
37569 37662
37662 37755
37755 37848
37848 37942
37942 38034
38034 38129
38129 38224
38224 38318
38318 38413
38413 38506
38506 38602
38602 38694
38694 38789
38789 38882
38882 38977
38977 39071
39071 39165
39165 39259
39259 39353
39353 39447
39447 39541
39541 39634
39634 39727
39727 39819
39819 39912
39912 40004
40004 40097
40097 40189
40189 40280
40280 40372
40372 40463
40463 40555
40555 40615
40615 40741
40741 40835
40835 40931
40931 41026
41026 41122
41122 41217
41217 41315
41315 41411
41411 41507
41507 41603
41603 41701
41701 41766
41766 41894
41894 41991
41991 42085
42085 42182
42182 42246
42246 42375
42375 42471
42471 42566
42566 42663
42663 42760
42760 42859
42859 42923
42923 43051
43051 43115
43115 43242
43242 43335
43335 43429
43429 43524
43524 43621
43621 43716
43716 43780
43780 43908
43908 44004
44004 44100
44100 44197
44197 44259
44259 44386
44386 44478
44478 44569
44569 44662
44662 44726
44726 44853
