95 201
1868 1972
1972 2107
3151 3295
3295 3374
3295 3374
3374 3456
3456 3537
3537 3619
3928 4081
4081 4183
4183 4286
4286 4390
4390 4492
4492 4595
4595 4696
4696 4799
4799 4987
4987 5094
5094 5199
5199 5303
5303 5407
5407 5512
5512 5617
5617 5720
5720 5826
5826 5866
5866 6018
6018 6088
6088 6155
6155 6303
6303 6383
6383 6484
6484 6592
6592 6677
6677 6763
6763 6868
6868 6955
6955 7099
7099 7201
7201 7305
7305 7408
7408 7511
7511 7612
7612 7674
7674 7822
7822 7923
7923 8026
8026 8094
8094 8192
8192 8293
8293 8373
8373 8452
8452 8530
8530 8630
8630 8711
8711 8792
8792 8894
8894 8971
8971 9075
9075 9179
9179 9246
9246 9388
9388 9490
9490 9589
9589 9690
9690 9791
9791 9892
9892 9990
9990 10125
10125 10222
10222 10319
10319 10414
10414 10508
10508 10605
10605 10708
10708 10810
10810 10913
10913 11016
11016 11056
11056 11118
11118 11339
11339 11437
11437 11536
11536 11638
11638 11738
11738 11843
11843 11926
11926 12012
12012 12092
12092 12174
12174 12276
12276 12383
12383 12490
12490 12595
12595 12698
12698 12804
12804 12910
12910 13013
13013 13118
13118 13201
13201 13305
13305 13410
13410 13497
13497 13585
13585 13690
13690 13798
13798 13884
13884 13973
13973 14102
14102 14208
14208 14313
14313 14416
14416 14456
14456 14610
14610 14710
14710 14815
14815 14919
14919 15002
15002 15088
15088 15192
15192 15296
15296 15400
15400 15502
15502 15606
15606 15646
15646 15795
15795 15894
15894 15998
15998 16102
16102 16205
16205 16307
16307 16391
16391 16473
16473 16556
16556 16661
16661 16744
16744 16785
16785 16913
16913 17015
17015 17057
17057 17137
17137 17219
17219 17320
17320 17426
17426 17507
17507 17592
17592 17694
17694 17754
17754 17911
17911 18032
