6953 7063
7149 7238
9918 10040
13935 14030
14030 14076
20942 21029
26023 26079
28981 29076
29919 30013
30013 30065
35049 35129
35129 35211
35211 35292
35292 35376
35376 35462
35462 35547
35547 35631
35631 35714
35714 35799
35799 35886
35886 35971
35971 36059
36059 36151
36151 36240
36240 36328
36328 36422
36422 36513
36513 36604
36604 36689
36689 36774
36774 36877
36877 36976
36976 37088
37088 37178
45756 45837
45837 45924
45924 46007
46007 46054
46054 46139
46139 46220
46220 46300
46300 46380
46380 46461
46461 46541
46541 46622
46622 46703
46703 46783
46783 46867
46867 46951
46951 47036
47036 47120
47120 47210
47210 47297
47297 47386
47386 47472
47472 47560
