891 970
1051 1130
1130 1209
1209 1287
1287 1365
1365 1445
1445 1524
1524 1603
1603 1682
1682 1762
1762 1841
1841 1922
1922 2002
2002 2082
2082 2162
2162 2242
2242 2322
2322 2402
2402 2483
2483 2563
2563 2643
2643 2723
2723 2803
2803 2883
2883 2962
2962 3042
3042 3121
3121 3202
3202 3281
3281 3360
3360 3440
3440 3521
3521 3600
3600 3680
3680 3759
3759 3839
3839 3919
3919 3998
3998 4078
4078 4158
4158 4238
4238 4317
4317 4398
4398 4478
4478 4558
4558 4638
4638 4718
4718 4796
4796 4877
4877 4957
4957 5078
5078 5157
5157 5237
5237 5315
5315 5394
5394 5473
5473 5552
5552 5631
5631 5709
5709 5789
5789 5867
5867 5946
5946 6024
6024 6112
6112 6191
6191 6271
6271 6351
6351 6430
6430 6510
6510 6590
