907 1002
1002 1061
1061 1160
1160 1259
1259 1356
1356 1452
1452 1548
1548 1643
1643 1738
1738 1834
1834 1928
1928 2022
2022 2115
2115 2209
2209 2302
2302 2396
2396 2488
2488 2577
2577 2650
2650 2756
2756 2849
2849 2938
2938 3044
3044 3147
3147 3246
3246 3341
3341 3437
3437 3533
3533 3631
3631 3728
3728 3823
3823 3897
3897 4009
4009 4109
4109 4207
4207 4304
4304 4402
4402 4500
4500 4574
4574 4684
4684 4784
4784 4879
4879 4974
4974 5070
5070 5166
5166 5263
5263 5360
5360 5455
5455 5552
5552 5648
5648 5721
5721 5831
5831 5930
5930 6028
6028 6122
6122 6216
6216 6311
6311 6406
6406 6501
6501 6596
6596 6691
6691 6784
6784 6875
6875 6964
6964 7055
7055 7150
7150 7251
7251 7346
7346 7446
7446 7521
7521 7608
7608 7719
7719 7820
7820 7943
7943 8049
8049 8150
8150 8254
8254 8341
8341 8495
8495 8550
8550 8656
8656 8763
8763 8858
8858 8953
8953 9116
9116 9190
10912 11040
10912 11040
12917 13014
17994 18103
20934 21124
21124 21235
21235 21346
21346 21450
21450 21555
21555 21661
21661 21767
21767 21875
21875 21979
21979 22040
22040 22153
22153 22260
22260 22367
22367 22474
22474 22583
22583 22661
22661 22782
22782 22894
22894 23006
23006 23070
23070 23191
23191 23305
23305 23420
23420 23536
23536 23650
23650 23760
23760 23841
23841 23935
23935 24060
24060 24172
24172 24284
24284 24397
24397 24510
24510 24623
24623 24729
24729 24838
24838 24949
24949 25028
25028 25170
25170 25278
25278 25389
25389 25499
25499 25610
25610 25722
25722 25826
25826 25933
25933 26083
26083 26193
26193 26301
26301 26416
26416 26529
26529 26643
26643 26753
26753 26849
26849 26947
26947 27027
27027 27079
27079 27189
27189 27303
27303 27412
27412 27522
27522 27632
27632 27741
27741 27849
27849 27956
27956 28050
28050 28146
28146 28253
28253 28345
28345 28440
28440 28534
28534 28612
28612 28733
28733 28831
28831 28924
28924 29017
29017 29074
29074 29188
29188 29301
29301 29412
29412 29524
29524 29636
29636 29750
29750 29860
29860 29971
29971 30082
30082 30193
30193 30305
30305 30413
30413 30523
30523 30632
30632 30744
30744 30854
30854 30968
30968 31084
31084 31181
31181 31258
31258 31353
31353 31459
31459 31559
31559 31663
31663 31739
31739 31830
