958 1064
1153 1243
1243 1334
1334 1425
1425 1517
1517 1609
1609 1702
1702 1797
1797 1892
1892 1986
1986 2046
2046 2151
2151 2252
2252 2352
2352 2453
2453 2554
2554 2655
2655 2756
2756 2857
2857 2959
2959 3059
3059 3157
3157 3254
3254 3350
3350 3444
3444 3537
3537 3631
3631 3725
3725 3820
3820 3915
3915 4013
4013 4112
4112 4214
4214 4317
4317 4421
4421 4524
4524 4627
4627 4730
4730 4833
4833 4934
4934 5009
5009 5099
5099 5225
5225 5339
5339 5450
5450 5561
5561 5674
5674 5786
5786 5898
5898 6006
6006 6116
6116 6226
6226 6337
6337 6448
6448 6557
6557 6664
6664 6770
6770 6874
6874 6978
6978 7025
7025 7094
7094 7204
7204 7315
7315 7427
7427 7539
7539 7651
7651 7762
7762 7873
7873 7986
7986 8098
8098 8211
8211 8324
8324 8437
8437 8549
8549 8662
8662 8774
8774 8886
8886 9000
9000 9063
9063 9181
9181 9302
9302 9424
9424 9548
9548 9671
9671 9796
9796 9918
9918 10041
10041 10164
10164 10288
10288 10412
10412 10534
10534 10651
10651 10769
10769 10889
10889 11014
11014 11139
11139 11263
11263 11389
11389 11517
11517 11645
11645 11769
11769 11888
11888 12008
12008 12094
12094 12208
12208 12322
12322 12437
12437 12553
12553 12666
12666 12779
12779 12851
12851 12942
12942 13085
13085 13208
13208 13320
13320 13428
13428 13540
13540 13652
13652 13764
13764 13874
13874 13981
13981 14048
14048 14164
14164 14264
14264 14364
14364 14470
