113 200
200 287
287 374
374 461
461 548
548 635
635 722
722 810
810 899
899 988
988 1077
1077 1166
1166 1257
1257 1347
1347 1438
1438 1528
1528 1618
1618 1708
1708 1797
1797 1887
1887 1977
1977 2066
2066 2157
2157 2246
2246 2336
2336 2426
2426 2517
2517 2606
2606 2696
