16951 17100
25924 26008
26008 26077
27114 27196
27196 27277
27277 27359
27359 27441
27441 27523
27523 27606
27606 27688
27688 27770
27770 27853
27853 27936
27936 28019
28019 28102
28102 28184
28184 28267
28267 28350
28350 28433
28433 28516
28516 28598
28598 28682
28682 28765
28765 28848
28848 28930
28930 29013
29013 29096
29096 29179
29179 29261
29261 29343
29343 29426
29426 29509
29509 29591
29591 29673
29673 29755
29755 29837
29837 29919
29919 30000
30000 30081
30081 30164
30164 30245
30245 30326
30326 30407
30407 30489
30489 30571
30571 30653
30653 30734
30734 30816
30816 30899
30899 30981
30981 31062
31062 31143
31143 31227
31227 31310
31310 31392
31392 31474
31474 31555
31555 31639
31639 31722
31722 31804
31804 31886
31886 31969
31969 32051
32051 32133
32133 32216
32216 32297
32297 32380
32380 32462
32462 32544
32544 32625
32625 32707
