3592 3678
3678 3764
3764 3848
3848 3932
3932 4016
4016 4101
4101 4186
4186 4270
4270 4354
4354 4438
4438 4523
4523 4607
4607 4692
4692 4776
4776 4861
4861 4947
4947 5031
5031 5116
5116 5201
5201 5287
5287 5372
5372 5456
5456 5541
5541 5626
5626 5711
5711 5795
5795 5879
5879 5964
5964 6048
6048 6132
6132 6216
6216 6300
6300 6385
6385 6470
6470 6554
6554 6637
6637 6721
6721 6805
6805 6889
6889 6973
6973 7057
7057 7141
7141 7225
7225 7308
7308 7392
7392 7476
7476 7560
7560 7643
7643 7726
7726 7810
7810 7894
7894 7977
7977 8061
8061 8145
8145 8230
8230 8314
8314 8397
8397 8482
8482 8566
8566 8650
8650 8733
8733 8818
8818 8902
8902 8985
8985 9069
9069 9153
9153 9238
9238 9321
9321 9404
9404 9488
9488 9573
9573 9657
9657 9741
9741 9824
9824 9910
9910 9994
9994 10078
10078 10162
10162 10246
10246 10331
10331 10416
10416 10500
10500 10584
10584 10670
10670 10754
10754 10838
10838 10921
10921 11006
11006 11090
11090 11174
11174 11257
11257 11341
11341 11426
11426 11510
11510 11594
11594 11677
11677 11762
11762 11846
11846 11931
11931 12015
12015 12099
12099 12185
12185 12270
12270 12354
12354 12439
12439 12525
12525 12610
12610 12695
12695 12780
12780 12865
12865 12951
12951 13036
13036 13121
13121 13206
13206 13291
13291 13375
13375 13459
13459 13543
13543 13627
13627 13711
13711 13794
13794 13877
13877 13962
13962 14046
14046 14129
14129 14213
14213 14298
14298 14382
14382 14466
14466 14549
14549 14634
14634 14718
14718 14802
14802 14886
14886 14970
14970 15055
15055 15138
15138 15222
15222 15304
15304 15389
15389 15472
15472 15555
15555 15638
15638 15721
15721 15805
15805 15888
15888 15970
15970 16053
16053 16136
16136 16220
16220 16303
16303 16386
16386 16469
16469 16553
16553 16637
16637 16721
16721 16804
16804 16863
16863 16948
16948 17032
17032 17116
17116 17200
17200 17285
17285 17369
17369 17455
17455 17540
17540 17625
17625 17710
17710 17795
17795 17881
17881 17966
17966 18051
18051 18136
18136 18220
18220 18306
18306 18366
18366 18451
18451 18535
18535 18620
18620 18705
18705 18789
18789 18873
18873 18956
18956 19042
19042 19126
19126 19210
19210 19294
19294 19377
19377 19462
19462 19546
19546 19629
19629 19712
19712 19796
19796 19880
19880 19964
19964 20047
20047 20131
20131 20214
20214 20298
20298 20382
20382 20466
20466 20549
20549 20633
20633 20718
20718 20802
20802 20885
20885 20969
20969 21053
21053 21137
21137 21221
21221 21304
21304 21388
21388 21471
21471 21556
21556 21640
21640 21723
21723 21807
21807 21890
21890 21975
21975 22059
22059 22144
22144 22228
22228 22312
22312 22398
22398 22483
22483 22568
22568 22654
22654 22738
22738 22825
22825 22910
22910 22995
22995 23080
23080 23166
23166 23252
23252 23337
23337 23423
23423 23507
23507 23593
23593 23679
23679 23764
23764 23849
23849 23933
23933 24019
24019 24105
24105 24190
24190 24274
24274 24360
24360 24445
24445 24530
24530 24614
24614 24698
24698 24783
24783 24867
24867 24951
24951 25035
25035 25119
25119 25204
25204 25287
25287 25371
25371 25454
25454 25539
25539 25622
25622 25706
25706 25789
25789 25874
25874 25958
25958 26042
26042 26126
26126 26209
26209 26294
26294 26379
26379 26463
26463 26547
26547 26632
26632 26716
26716 26800
26800 26884
26884 26968
26968 27052
27052 27136
27136 27219
27219 27302
27302 27386
27386 27468
27468 27551
27551 27633
27633 27716
27716 27799
27799 27881
27881 27964
27964 28049
28049 28133
28133 28216
28216 28299
28299 28384
28384 28468
28468 28553
28553 28637
28637 28721
28721 28806
28806 28891
28891 28975
28975 29059
29059 29144
29144 29229
29229 29313
29313 29396
29396 29481
29481 29565
29565 29649
29649 29733
29733 29817
29817 29901
29901 29985
29985 30069
30069 30153
30153 30237
30237 30320
30320 30404
30404 30487
30487 30572
30572 30656
30656 30739
30739 30822
30822 30907
30907 30991
30991 31074
31074 31156
31156 31240
31240 31324
31324 31406
31406 31489
31489 31572
31572 31656
31656 31740
31740 31823
31823 31906
31906 31990
31990 32074
32074 32158
32158 32241
32241 32325
32325 32410
32410 32494
32494 32578
32578 32662
32662 32747
32747 32832
32832 32916
32916 33001
33001 33085
33085 33170
33170 33255
33255 33340
33340 33424
33424 33510
33510 33595
33595 33679
33679 33763
33763 33848
33848 33932
33932 34016
34016 34100
34100 34184
34184 34269
34269 34353
34353 34437
34437 34521
34521 34605
34605 34689
34689 34773
34773 34857
34857 34940
34940 35025
35025 35109
35109 35194
35194 35277
35277 35361
35361 35446
35446 35530
35530 35614
35614 35697
35697 35782
35782 35867
35867 35950
35950 36034
36034 36119
36119 36203
36203 36287
36287 36371
36371 36456
36456 36540
36540 36624
36624 36708
36708 36792
36792 36877
36877 36962
36962 37046
37046 37130
37130 37216
37216 37301
37301 37385
37385 37469
37469 37555
37555 37639
37639 37724
37724 37807
37807 37892
37892 37976
37976 38060
38060 38142
38142 38226
38226 38309
38309 38392
38392 38474
38474 38556
38556 38640
38640 38722
38722 38805
38805 38887
38887 38970
38970 39053
39053 39136
39136 39218
39218 39301
39301 39385
39385 39468
39468 39551
39551 39634
39634 39719
39719 39803
39803 39886
39886 39970
39970 40055
40055 40140
40140 40224
40224 40308
40308 40393
40393 40478
40478 40562
40562 40646
40646 40731
40731 40815
40815 40899
40899 40983
40983 41067
41067 41151
41151 41234
41234 41317
41317 41401
41401 41484
41484 41567
41567 41650
41650 41735
41735 41819
41819 41903
41903 41987
41987 42072
42072 42156
42156 42240
42240 42323
42323 42407
42407 42491
42491 42575
42575 42658
42658 42742
42742 42826
42826 42909
42909 42992
42992 43077
43077 43161
43161 43245
43245 43328
43328 43413
43413 43497
43497 43580
43580 43663
43663 43748
43748 43832
43832 43916
43916 43999
43999 44083
44083 44168
44168 44252
44252 44336
44336 44420
44420 44505
44505 44590
44590 44674
44674 44758
44758 44842
44842 44927
44927 45011
45011 45094
45094 45178
45178 45262
45262 45346
45346 45430
45430 45514
45514 45599
45599 45683
45683 45767
45767 45852
45852 45937
45937 46022
46022 46106
46106 46191
46191 46276
46276 46361
46361 46444
46444 46528
46528 46612
46612 46696
46696 46780
46780 46864
46864 46949
46949 47033
47033 47118
47118 47202
47202 47288
47288 47373
47373 47458
47458 47543
47543 47629
47629 47714
47714 47799
47799 47883
47883 47969
47969 48054
48054 48138
48138 48223
48223 48307
48307 48390
48390 48478
48478 48562
48562 48645
48645 48730
48730 48813
48813 48896
48896 48979
48979 49063
49063 49147
49147 49230
49230 49313
49313 49398
49398 49482
49482 49565
49565 49649
49649 49733
49733 49818
49818 49902
49902 49986
49986 50070
50070 50155
50155 50240
50240 50324
50324 50408
50408 50491
50491 50576
50576 50660
50660 50744
50744 50828
50828 50912
50912 50997
50997 51080
51080 51164
51164 51249
51249 51333
51333 51418
51418 51502
51502 51587
51587 51672
51672 51757
51757 51841
51841 51927
51927 52012
52012 52097
52097 52181
52181 52267
52267 52352
52352 52436
52436 52520
52520 52605
52605 52690
52690 52774
52774 52858
52858 52941
52941 53026
53026 53110
53110 53194
53194 53278
53278 53363
53363 53448
53448 53533
53533 53617
53617 53702
53702 53787
53787 53871
53871 53955
53955 54040
54040 54124
54124 54208
54208 54292
54292 54377
54377 54461
54461 54545
54545 54629
54629 54712
54712 54797
54797 54881
54881 54965
54965 55048
55048 55132
55132 55216
55216 55299
55299 55382
55382 55466
55466 55549
55549 55632
55632 55714
55714 55798
55798 55882
55882 55964
55964 56048
56048 56132
56132 56216
56216 56299
56299 56382
56382 56467
56467 56550
56550 56634
56634 56716
56716 56800
56800 56884
56884 56967
56967 57051
57051 57134
57134 57219
57219 57304
57304 57388
57388 57473
57473 57559
57559 57645
57645 57730
57730 57815
57815 57900
57900 57986
57986 58071
58071 58156
58156 58241
58241 58327
58327 58412
58412 58496
58496 58580
58580 58665
58665 58750
58750 58835
58835 58919
58919 59005
59005 59090
59090 59175
59175 59259
59259 59344
59344 59430
59430 59515
59515 59599
59599 59683
59683 59769
59769 59853
59853 59937
59937 60020
60020 60105
60105 60188
60188 60271
60271 60353
60353 60437
60437 60520
60520 60603
60603 60685
60685 60769
60769 60851
60851 60934
60934 61016
61016 61099
61099 61182
61182 61265
61265 61348
61348 61431
61431 61515
61515 61599
61599 61683
61683 61766
61766 61852
61852 61936
61936 62020
62020 62104
62104 62189
62189 62274
62274 62359
62359 62443
62443 62527
62527 62613
62613 62698
62698 62783
62783 62868
62868 62954
62954 63039
63039 63125
63125 63209
63209 63294
63294 63380
63380 63465
63465 63549
63549 63633
63633 63719
63719 63804
63804 63889
63889 63973
63973 64059
64059 64144
64144 64229
64229 64313
64313 64399
64399 64484
64484 64568
64568 64652
64652 64735
64735 64820
64820 64904
64904 64988
64988 65071
65071 65156
65156 65239
65239 65323
65323 65405
65405 65490
65490 65573
65573 65655
65655 65738
65738 65821
65821 65904
65904 65986
65986 66069
66069 66152
66152 66236
66236 66320
66320 66404
66404 66488
66488 66573
66573 66658
66658 66743
66743 66828
66828 66913
66913 67000
67000 67070
67070 67155
67155 67240
67240 67324
67324 67410
67410 67494
67494 67579
67579 67663
67663 67748
67748 67833
67833 67916
67916 68000
68000 68084
68084 68169
68169 68253
68253 68337
68337 68420
68420 68505
68505 68590
68590 68674
68674 68758
68758 68843
68843 68927
68927 69011
69011 69095
69095 69178
69178 69263
69263 69347
69347 69430
69430 69513
69513 69597
69597 69681
69681 69765
69765 69848
69848 69931
69931 70015
70015 70099
70099 70182
70182 70266
70266 70350
70350 70435
70435 70520
70520 70604
70604 70688
70688 70772
70772 70857
70857 70941
70941 71025
71025 71109
71109 71194
71194 71278
71278 71362
71362 71446
71446 71529
71529 71615
71615 71699
71699 71783
71783 71867
71867 71952
71952 72037
72037 72121
72121 72204
72204 72288
72288 72373
72373 72456
72456 72540
