11 48
48 130
130 268
1168 1249
1249 1331
2554 2635
2635 2717
2717 2798
5113 5196
5196 5278
5440 5520
5520 5603
5603 5685
5685 5765
5765 5845
5845 5928
5928 6009
6009 6090
6090 6169
6169 6252
6252 6333
6333 6414
6414 6494
6494 6576
6576 6658
6658 6739
6739 6820
6820 6900
6900 6981
6981 7063
7063 7145
7145 7226
7226 7308
7308 7390
7390 7472
7472 7554
7554 7636
7636 7718
7718 7800
7800 7882
7882 7965
7965 8072
8072 8154
8154 8235
8235 8317
8317 8398
8398 8480
8480 8561
8561 8643
8643 8725
8725 8808
8808 8890
8890 8972
8972 9055
9055 9137
9137 9219
9219 9302
9302 9385
9385 9467
9467 9549
9549 9631
9631 9714
9714 9796
9796 9878
9878 9960
9960 10043
10043 10125
10125 10206
10206 10288
10288 10370
10370 10452
10452 10534
10534 10615
10615 10698
10698 10779
10779 10861
10861 10942
10942 11024
11024 11106
11106 11187
11187 11268
11268 11350
11350 11433
11433 11515
11515 11596
11596 11678
11678 11761
11761 11843
11843 11925
11925 12007
12007 12091
12091 12174
12174 12256
12256 12338
12338 12421
12421 12480
12480 12562
12562 12644
12644 12728
12728 12811
12811 12894
12894 12976
12976 13059
13059 13142
13142 13224
13224 13306
13306 13390
13390 13473
13473 13555
13555 13637
13637 13720
13720 13803
13803 13885
13885 13967
13967 14050
14050 14132
14132 14214
14214 14296
14296 14378
14378 14461
14461 14543
14543 14626
14626 14708
14708 14791
14791 14875
14875 14958
14958 15041
15041 15124
15124 15208
15208 15291
15291 15373
15373 15456
15456 15540
15540 15622
15622 15704
15704 15787
15787 15870
15870 15952
15952 16034
16034 16117
16117 16200
16200 16282
16282 16364
16364 16447
16447 16530
16530 16613
16613 16695
16695 16777
16777 16861
16861 16943
16943 17025
17025 17107
17107 17190
17190 17273
17273 17355
17355 17437
17437 17520
17520 17603
17603 17684
17684 17766
17766 17848
17848 17931
17931 18012
18012 18093
18093 18176
18176 18258
18258 18340
18340 18421
18421 18503
18503 18586
18586 18668
18668 18750
18750 18832
18832 18914
18914 18997
18997 19036
19036 19118
19118 19200
19200 19282
19282 19362
19362 19444
19444 19527
19527 19609
19609 19690
19690 19772
19772 19855
19855 19936
19936 20018
20018 20075
20075 20157
20157 20237
20237 20324
20324 20407
20407 20489
20489 20571
20571 20653
20653 20736
20736 20820
20820 20902
20902 20984
20984 21067
21067 21150
21150 21232
21232 21314
21314 21396
21396 21479
21479 21561
21561 21642
21642 21724
21724 21806
21806 21888
21888 21969
21969 22050
22050 22133
22133 22215
22215 22295
22295 22376
22376 22459
22459 22541
22541 22621
22621 22702
22702 22785
22785 22867
22867 22948
22948 23029
23029 23112
23112 23195
23195 23276
23276 23358
23358 23440
23440 23523
23523 23604
23604 23685
23685 23768
23768 23849
23849 23930
23930 24011
24011 24093
24093 24175
24175 24256
24256 24337
24337 24418
24418 24500
24500 24581
24581 24661
24661 24743
24743 24825
24825 24906
24906 24987
24987 25069
25069 25151
25151 25232
25232 25313
25313 25396
25396 25477
25477 25559
25559 25640
25640 25723
25723 25805
25805 25886
25886 25967
25967 26049
26049 26131
26131 26212
26212 26293
26293 26374
26374 26456
26456 26537
26537 26619
26619 26701
26701 26783
26783 26864
26864 26946
26946 27027
27027 27110
27110 27193
27193 27274
27274 27355
27355 27439
27439 27521
27521 27603
27603 27685
27685 27767
27767 27848
27848 27931
27931 28012
28012 28094
28094 28175
28175 28256
28256 28337
28337 28419
28419 28499
28499 28580
28580 28661
28661 28743
28743 28824
28824 28905
28905 28986
28986 29068
29068 29149
29149 29229
29229 29310
29310 29392
29392 29473
29473 29553
29553 29634
29634 29716
29716 29797
29797 29878
29878 29958
29958 30039
30039 30120
30120 30201
30201 30281
30281 30361
30361 30443
30443 30524
30524 30605
30605 30685
30685 30767
30767 30848
30848 30929
30929 31009
31009 31091
31091 31174
31174 31255
31255 31335
31335 31416
31416 31499
31499 31580
31580 31661
31661 31741
31741 31823
31823 31880
31880 31961
31961 32041
32041 32123
32123 32205
32205 32287
32287 32368
32368 32449
32449 32532
32532 32614
32614 32696
32696 32778
32778 32858
32858 32942
32942 33023
33023 33104
33104 33185
33185 33268
33268 33350
33350 33432
33432 33513
33513 33595
33595 33677
33677 33759
33759 33839
33839 33920
33920 34003
34003 34084
34084 34165
34165 34245
34245 34328
34328 34410
34410 34491
34491 34572
34572 34653
34653 34736
34736 34817
34817 34897
34897 34978
34978 35060
35060 35141
35141 35197
35197 35277
35277 35359
35359 35441
35441 35522
35522 35603
35603 35684
35684 35767
35767 35849
35849 35930
35930 36011
36011 36094
36094 36176
36176 36258
36258 36339
36339 36421
36421 36479
36479 36561
36561 36642
36642 36723
36723 36806
36806 36888
36888 36969
36969 37050
37050 37133
37133 37215
37215 37297
37297 37378
37378 37460
37460 37543
37543 37625
37625 37706
37706 37787
37787 37869
37869 37951
37951 38032
38032 38113
38113 38195
38195 38277
38277 38359
38359 38439
38439 38521
38521 38603
38603 38685
38685 38766
38766 38847
38847 38929
38929 39011
39011 39092
39092 39173
39173 39255
39255 39337
39337 39418
39418 39499
39499 39581
39581 39663
39663 39744
39744 39825
39825 39907
39907 39988
39988 40108
40108 40189
40189 40272
40272 40354
40354 40436
40436 40517
40517 40598
40598 40680
40680 40761
40761 40842
40842 40923
40923 41005
41005 41087
41087 41168
41168 41248
41248 41329
41329 41411
41411 41492
41492 41572
41572 41652
41652 41734
41734 41814
41814 41894
41894 41974
41974 42056
42056 42137
42137 42217
42217 42297
42297 42378
42378 42460
42460 42540
42540 42595
42595 42675
42675 42757
42757 42837
42837 42917
42917 42998
42998 43079
43079 43160
43160 43240
43240 43320
43320 43400
43400 43482
43482 43563
43563 43644
43644 43724
43724 43804
43804 43886
43886 43966
43966 44047
44047 44127
44127 44208
44208 44289
44289 44370
44370 44450
44450 44529
44529 44611
44611 44691
44691 44770
44770 44849
44849 44930
44930 45010
45010 45089
45089 45168
45168 45248
45248 45329
45329 45408
45408 45487
45487 45565
45565 45644
45644 45724
45724 45803
45803 45880
45880 45959
45959 46038
46038 46117
46117 46196
46196 46273
46273 46352
46352 46432
46432 46510
46510 46588
46588 46665
46665 46744
46744 46824
46824 46902
46902 46979
46979 47058
47058 47138
47138 47216
47216 47295
47295 47372
47372 47453
47453 47531
47531 47610
47610 47689
47689 47768
47768 47847
47847 47926
47926 48006
48006 48085
48085 48166
48166 48246
48246 48326
48326 48405
48405 48486
48486 48566
48566 48647
48647 48727
48727 48807
48807 48886
48886 48966
48966 49047
49047 49127
49127 49206
49206 49286
49286 49367
49367 49447
49447 49527
49527 49606
49606 49687
49687 49767
49767 49847
49847 49927
49927 50007
50007 50087
50087 50168
50168 50247
50247 50327
50327 50408
50408 50488
50488 50568
50568 50647
50647 50727
50727 50808
50808 50888
50888 50968
50968 51048
51048 51128
51128 51209
51209 51289
51289 51369
51369 51449
51449 51530
51530 51610
51610 51690
51690 51770
51770 51850
51850 51930
51930 52010
52010 52090
52090 52170
52170 52250
52250 52330
52330 52410
52410 52490
52490 52570
52570 52650
52650 52730
52730 52810
52810 52891
52891 52971
52971 53051
53051 53131
53131 53212
53212 53292
53292 53373
53373 53452
53452 53532
53532 53613
53613 53693
53693 53773
53773 53853
53853 53934
53934 54014
54014 54094
54094 54174
54174 54255
54255 54335
54335 54415
54415 54495
54495 54575
54575 54657
54657 54737
54737 54817
54817 54898
54898 54979
54979 55060
55060 55140
55140 55220
55220 55302
55302 55383
55383 55464
55464 55544
55544 55624
55624 55706
55706 55786
55786 55866
55866 55946
55946 56028
56028 56108
56108 56189
56189 56269
56269 56350
56350 56431
56431 56511
56511 56591
56591 56673
56673 56753
56753 56834
56834 56914
56914 56994
56994 57075
57075 57155
57155 57235
57235 57315
57315 57397
57397 57477
57477 57557
57557 57636
57636 57718
57718 57798
57798 57878
57878 57958
57958 58038
58038 58119
58119 58200
58200 58279
58279 58359
58359 58441
58441 58521
58521 58600
58600 58680
58680 58761
58761 58842
58842 58922
58922 59019
59019 59103
59103 59183
59183 59264
59264 59346
59346 59428
59428 59508
59508 59588
59588 59671
59671 59752
59752 59833
59833 59913
59913 59995
59995 60040
60040 60120
60120 60201
60201 60283
60283 60364
60364 60445
60445 60526
60526 60608
60608 60689
60689 60770
60770 60850
60850 60933
