10003 10101
11889 11965
12059 12137
12137 12216
12216 12295
12295 12373
12373 12451
12451 12530
12530 12610
12610 12687
12687 12764
12764 12843
12843 12923
12923 12999
12999 13077
13077 13156
13156 13235
13235 13312
13312 13390
13390 13469
13469 13546
13546 13623
13623 13701
13701 13780
13780 13858
13858 13935
13935 14045
14045 14125
14125 14203
14203 14279
14279 14357
14357 14436
14436 14515
14515 14592
14592 14670
14670 14749
14749 14828
14828 14907
14907 14984
14984 15066
15066 15146
15146 15221
15221 15299
15299 15379
15379 15454
15454 15531
15531 15609
15609 15688
15688 15767
15767 15842
15842 15920
15920 15999
15999 16096
16096 16175
16408 16486
16621 16697
16697 16775
16775 16854
16854 16933
16933 17009
17009 17086
17086 17165
17165 17244
17244 17297
17297 17373
17373 17451
17451 17531
17531 17607
17607 17685
17685 17764
17764 17843
17843 17919
17919 17998
17998 18077
18077 18156
18156 18235
18235 18311
18311 18389
18389 18468
18468 18547
18547 18624
18624 18703
18703 18782
18782 18858
18858 18936
18936 19014
19014 19069
19069 19146
19146 19224
19224 19302
19302 19380
19380 19458
19458 19536
19536 19614
19614 19692
19692 19771
19771 19848
19848 19926
19926 20005
20005 20084
20084 20162
20162 20241
20241 20320
20320 20398
20398 20476
20476 20555
20555 20633
20633 20711
20711 20790
20790 20868
20868 20945
20945 21023
21023 21103
21103 21180
21180 21257
21257 21334
21334 21411
21411 21488
21488 21566
21566 21645
21645 21722
21722 21800
21800 21879
21879 21956
21956 22034
22034 22110
22110 22187
22187 22266
22266 22345
22345 22422
22422 22499
22499 22577
22577 22654
22654 22732
22732 22808
22808 22885
22885 22963
22963 23041
23041 23118
23118 23196
23196 23274
23274 23352
23352 23430
23430 23506
23506 23584
23584 23663
23663 23742
23742 23819
23819 23895
23895 23972
23972 24037
24037 24114
24114 24191
24191 24268
24268 24344
24344 24422
24422 24499
24499 24575
24575 24652
24652 24730
24730 24807
24807 24884
24884 24961
24961 25039
25039 25170
25170 25246
25246 25323
25323 25400
25400 25479
25479 25553
25553 25631
25631 25708
25708 25786
25786 25861
25861 25938
25938 26015
26015 26093
26093 26171
26171 26247
26247 26322
26322 26375
26375 26454
26454 26532
26532 26609
26609 26685
26685 26763
26763 26841
26841 26919
26919 26994
26994 27071
27071 27149
27149 27227
27227 27303
27303 27380
27380 27458
27458 27536
27536 27615
27615 27690
27690 27767
27767 27846
27846 27923
27923 28000
28000 28077
28077 28155
28155 28233
28233 28312
28312 28387
28387 28465
28465 28543
28543 28621
28621 28697
28697 28774
28774 28852
28852 28930
28930 29006
29006 29083
29083 29162
29162 29239
29239 29317
29317 29395
29395 29473
29473 29551
29551 29630
29630 29708
29708 29786
29786 29864
29864 29943
29943 30021
30021 30099
30099 30176
30176 30255
30255 30332
30332 30410
30410 30487
30487 30566
30566 30645
30645 30723
30723 30798
30798 30876
30876 30954
30954 31033
31033 31109
31109 31186
31186 31264
31264 31342
31342 31419
31419 31496
31496 31574
31574 31652
31652 31729
31729 31806
31806 31883
31883 31962
31962 32037
32037 32114
32114 32192
32192 32269
32269 32346
32346 32423
32423 32501
32501 32580
32580 32655
32655 32733
32733 32811
32811 32890
32890 32965
32965 33043
33043 33121
33121 33200
33200 33275
33275 33352
33352 33431
33431 33508
33508 33585
33585 33661
33661 33740
33740 33817
33817 33893
33893 33970
33970 34048
34048 34125
34125 34201
34201 34278
34278 34355
34355 34433
34433 34511
34511 34587
34587 34663
34663 34741
34741 34820
34820 34897
34897 34972
34972 35050
35050 35128
35128 35204
35204 35281
35281 35358
35358 35435
35435 35512
35512 35563
35563 35641
35641 35718
35718 35794
35794 35871
35871 35949
35949 36025
36025 36099
36099 36176
36176 36254
36254 36331
36331 36408
36408 36485
36485 36563
36563 36640
36640 36716
36716 36794
36794 36871
36871 36947
36947 37025
37025 37102
37102 37179
37179 37256
37256 37333
37333 37411
37411 37487
37487 37564
37564 37642
37642 37719
37719 37795
37795 37872
37872 37949
37949 38026
38026 38073
38073 38150
38150 38227
38227 38303
38303 38380
38380 38459
38459 38533
38533 38609
38609 38687
38687 38763
38763 38840
38840 38917
38917 38994
38994 39070
