8179 8285
8285 8366
8366 8446
8446 8526
8526 8606
8606 8686
8686 8766
8766 8845
8845 8925
8925 9004
9004 9085
9085 9164
9164 9244
9244 9323
9323 9404
9404 9484
9484 9563
9563 9642
9642 9723
9723 9802
9802 9882
9882 9961
9961 10042
10042 10121
10121 10201
10201 10281
10281 10361
10361 10441
10441 10521
10521 10600
10600 10680
10680 10760
10760 10840
10840 10920
10920 10999
10999 11079
11079 11159
11159 11239
11239 11319
11319 11399
11399 11480
11480 11559
11559 11639
11639 11720
11720 11800
11800 11880
11880 11960
11960 12040
12040 12120
12120 12200
12200 12279
12279 12359
12359 12439
12439 12519
12519 12599
12599 12678
12678 12758
12758 12838
12838 12918
12918 12997
12997 13077
13077 13157
13157 13236
13236 13315
13315 13395
13395 13475
13475 13555
13555 13634
13634 13714
13714 13794
13794 13874
13874 13954
13954 14034
14034 14115
14115 14195
14195 14276
14276 14356
14356 14437
14437 14517
14517 14598
14598 14678
14678 14758
14758 14838
14838 14919
14919 14999
14999 15078
15078 15158
15158 15238
15238 15318
15318 15397
15397 15477
15477 15557
15557 15637
15637 15717
15717 15796
15796 15877
15877 15957
15957 16038
16038 16118
16118 16199
16199 16280
16280 16360
16360 16441
16441 16521
16521 16602
16602 16683
16683 16763
16763 16845
16845 16926
16926 17007
17007 17088
17088 17170
17170 17251
17251 17332
17332 17413
17413 17495
17495 17576
17576 17658
17658 17739
17739 17821
17821 17903
17903 17984
17984 18065
18065 18147
18147 18229
18229 18310
18310 18391
18391 18472
18472 18553
18553 18634
18634 18715
18715 18797
18797 18877
18877 18958
18958 19039
19039 19120
19120 19201
19201 19282
19282 19362
19362 19443
19443 19524
19524 19605
19605 19686
19686 19767
19767 19849
19849 19930
19930 20012
20012 20093
20093 20174
20174 20256
20256 20338
20338 20419
20419 20501
20501 20583
20583 20666
20666 20748
20748 20829
20829 20911
20911 20993
20993 21076
21076 21158
21158 21240
21240 21322
21322 21405
21405 21487
21487 21569
21569 21651
21651 21733
21733 21815
21815 21896
