8165 8246
10199 10280
10280 10362
15448 15547
15547 15627
15627 15709
15709 15790
15790 15870
15870 15950
15950 16031
16031 16112
16112 16192
16192 16272
16272 16354
16354 16435
16435 16516
16516 16596
16596 16678
16678 16759
16759 16840
16840 16921
16921 17003
17003 17084
17084 17165
17165 17246
17246 17328
17328 17409
17409 17490
17490 17571
17571 17653
17653 17734
17734 17815
17815 17896
17896 17978
17978 18059
18059 18140
18140 18221
18221 18302
18302 18384
18384 18465
18465 18546
18546 18627
18627 18708
18708 18789
18789 18869
18869 18950
18950 19031
19031 19112
19112 19193
19193 19274
19274 19355
19355 19436
19436 19516
19516 19597
19597 19678
19678 19759
19759 19840
19840 19921
19921 20003
20003 20084
20084 20165
20165 20245
20245 20328
20328 20409
20409 20490
20490 20571
20571 20653
20653 20734
20734 20815
20815 20895
20895 20977
20977 21058
21058 21138
21138 21219
21219 21299
21299 21381
21381 21461
21461 21541
21541 21621
21621 21702
21702 21782
21782 21862
21862 21943
21943 22024
22024 22104
22104 22184
22184 22264
22264 22346
22346 22426
22426 22506
22506 22587
22587 22668
22668 22748
22748 22828
22828 22909
22909 22990
22990 23071
23071 23151
23151 23232
23232 23313
23313 23394
23394 23474
23474 23554
23554 23636
23636 23716
23716 23796
23796 23876
23876 23957
23957 24038
24038 24118
24118 24199
24199 24280
24280 24361
24361 24441
24441 24522
24522 24603
24603 24684
24684 24765
24765 24845
24845 24927
24927 25008
25008 25089
25089 25170
25170 25251
25251 25333
25333 25415
25415 25495
25495 25578
25578 25660
25660 25742
25742 25823
25823 25904
25904 25987
25987 26069
26069 26150
26150 26230
26230 26314
26314 26395
26395 26476
26476 26558
26558 26640
26640 26722
26722 26804
26804 26885
26885 26967
26967 27049
27049 27131
27131 27213
27213 27294
27294 27377
27377 27458
27458 27540
27540 27622
27622 27703
27703 27784
27784 27864
27864 27945
27945 28026
28026 28107
28107 28155
28155 28236
28236 28316
28316 28396
28396 28476
28476 28556
28556 28637
28637 28717
28717 28797
28797 28877
28877 28959
28959 29039
29039 29120
29120 29200
29200 29281
29281 29362
29362 29442
29442 29522
29522 29604
29604 29685
29685 29765
29765 29845
29845 29926
29926 30006
30006 30086
30086 30166
30166 30246
30246 30326
30326 30406
30406 30485
30485 30565
30565 30645
30645 30725
30725 30805
30805 30885
30885 30966
30966 31046
31046 31126
31126 31207
31207 31287
31287 31367
31367 31448
31448 31528
31528 31609
31609 31689
31689 31769
31769 31849
31849 31929
31929 32010
32010 32090
32090 32169
32169 32250
32250 32330
32330 32410
32410 32490
32490 32570
32570 32650
32650 32730
32730 32810
32810 32891
32891 32971
32971 33051
33051 33131
33131 33212
33212 33292
33292 33372
33372 33452
33452 33533
33533 33613
33613 33694
33694 33774
33774 33854
33854 33934
33934 34015
34015 34095
34095 34175
34175 34256
34256 34336
34336 34416
34416 34496
34496 34577
34577 34657
34657 34737
34737 34817
34817 34898
34898 34978
34978 35058
35058 35138
35138 35219
35219 35299
35299 35379
35379 35458
35458 35539
35539 35619
35619 35699
35699 35778
35778 35859
35859 35940
35940 36020
36020 36101
36101 36182
36182 36263
36263 36344
36344 36425
36425 36506
36506 36587
36587 36668
36668 36749
36749 36830
36830 36912
36912 36993
36993 37073
37073 37154
37154 37236
37236 37317
37317 37398
37398 37478
37478 37560
37560 37641
37641 37721
37721 37802
37802 37883
37883 37963
37963 38044
38044 38124
38124 38205
38205 38286
38286 38366
38366 38446
38446 38527
38527 38607
38607 38687
38687 38767
38767 38848
38848 38927
38927 39007
39007 39087
39087 39168
39168 39248
39248 39328
39328 39408
39408 39489
39489 39569
39569 39650
39650 39730
39730 39811
39811 39892
39892 39973
39973 40054
40054 40133
40133 40216
40216 40297
40297 40377
40377 40458
40458 40539
40539 40621
40621 40702
40702 40783
40783 40864
40864 40946
40946 41027
41027 41109
41109 41191
41191 41273
41273 41355
41355 41436
41436 41518
41518 41600
41600 41682
41682 41764
41764 41846
41846 41928
41928 42010
42010 42092
42092 42173
42173 42256
42256 42338
42338 42420
42420 42500
42500 42583
42583 42665
42665 42746
42746 42827
42827 42910
42910 42991
42991 43072
43072 43153
43153 43235
43235 43316
43316 43397
43397 43477
43477 43559
43559 43640
43640 43720
43720 43799
43799 43881
43881 43961
43961 44042
44042 44121
44121 44204
44204 44285
44285 44366
44366 44446
44446 44529
44529 44611
44611 44692
44692 44773
44773 44856
44856 44938
44938 45020
45020 45100
45100 45184
45184 45266
45266 45348
45348 45429
45429 45513
45513 45596
45596 45678
45678 45760
45760 45841
45841 45925
45925 46007
46007 46089
46089 46171
46171 46253
46253 46335
46335 46417
46417 46498
46498 46581
46581 46663
46663 46744
46744 46826
46826 46908
46908 46990
46990 47072
47072 47154
47154 47236
47236 47319
47319 47402
47402 47485
47485 47566
47566 47650
47650 47732
47732 47813
47813 47895
47895 47977
47977 48059
48059 48139
48139 48222
48222 48303
48303 48385
48385 48466
48466 48548
48548 48629
48629 48795
48795 48878
48878 48959
48959 49041
49041 49122
49122 49203
49203 49284
49284 49365
49365 49446
49446 49528
49528 49609
49609 49690
49690 49771
49771 49853
49853 49935
49935 50016
50016 50097
50097 50178
50178 50259
50259 50339
50339 50420
50420 50500
50500 50581
50581 50661
50661 50741
50741 50821
50821 50902
50902 50982
50982 51062
51062 51141
51141 51222
51222 51303
51303 51383
51383 51463
51463 51544
51544 51625
51625 51706
51706 51787
51787 51868
51868 51950
51950 52031
52031 52113
52113 52194
52194 52275
52275 52357
52357 52438
52438 52519
52519 52600
52600 52681
52681 52762
52762 52843
52843 52924
52924 53005
53005 53086
53086 53167
53167 53247
53247 53327
53327 53408
53408 53489
53489 53570
53570 53650
53650 53732
53732 53812
53812 53893
53893 53973
53973 54055
54055 54135
54135 54216
54216 54297
54297 54379
54379 54461
54461 54543
54543 54624
54624 54707
54707 54789
54789 54871
54871 54953
54953 55035
55035 55117
55117 55199
55199 55280
55280 55362
55362 55443
55443 55524
55524 55605
55605 55686
55686 55768
55768 55849
55849 55930
55930 56010
56010 56091
56091 56172
56172 56253
56253 56334
56334 56414
56414 56496
56496 56578
56578 56659
56659 56740
56740 56821
56821 56903
56903 56985
56985 57066
57066 57147
57147 57230
57230 57312
57312 57394
57394 57475
57475 57558
57558 57640
57640 57722
57722 57803
57803 57886
57886 57968
57968 58050
58050 58132
58132 58215
58215 58297
58297 58378
58378 58460
58460 58543
58543 58625
58625 58706
58706 58870
58870 58952
58952 59034
59034 59116
59116 59197
59197 59278
59278 59360
59360 59441
59441 59523
59523 59604
59604 59686
59686 59767
59767 59848
59848 59930
59930 60012
60012 60093
60093 60174
60174 60255
60255 60337
60337 60418
60418 60500
60500 60581
60581 60664
60664 60746
60746 60827
60827 60909
60909 60990
60990 61072
61072 61154
61154 61235
61235 61317
61317 61398
61398 61480
61480 61561
61561 61642
61642 61724
61724 61806
61806 61887
61887 61968
61968 62050
62050 62132
62132 62213
62213 62294
62294 62376
62376 62458
62458 62539
62539 62621
62621 62702
62702 62784
62784 62866
62866 62948
62948 63029
63029 63111
63111 63193
63193 63275
63275 63356
63356 63437
63437 63520
63520 63601
63601 63682
63682 63763
63763 63844
63844 63925
63925 64005
64005 64086
64086 64167
64167 64247
64247 64327
64327 64407
64407 64488
64488 64569
64569 64649
64649 64729
64729 64809
64809 64890
64890 64971
64971 65051
65051 65132
65132 65214
65214 65295
65295 65376
65376 65457
65457 65538
65538 65620
65620 65702
65702 65784
65784 65866
65866 65949
65949 66031
66031 66127
66127 66208
66208 66290
66290 66370
66370 66452
66452 66533
66533 66614
66614 66775
66775 66857
66857 66938
66938 67018
67018 67099
67099 67180
67180 67260
67260 67341
67341 67421
67421 67502
67502 67582
67582 67663
67663 67743
67743 67824
67824 67904
67904 67984
67984 68064
68064 68145
68145 68226
68226 68306
68306 68386
68386 68466
68466 68547
68547 68627
68627 68708
68708 68788
68788 68869
68869 68950
68950 69031
69031 69111
69111 69193
69193 69273
69273 69354
69354 69435
69435 69546
69546 69585
69585 69678
69678 69758
69758 69839
69839 69920
69920 70001
70001 70081
70081 70161
70161 70242
70242 70323
70323 70403
70403 70484
70484 70564
70564 70645
