17394 17477
17394 17477
17620 17704
17704 17786
17786 17870
17870 17954
17954 18038
18038 18121
18121 18205
18205 18290
18290 18376
18376 18460
18460 18543
18543 18629
18629 18714
18714 18798
18798 18880
18880 18964
18964 19048
19048 19131
19131 19212
19212 19296
19296 19379
19379 19462
19462 19545
19545 19627
19627 19711
19711 19794
19794 19877
19877 19959
19959 20042
20042 20125
20125 20208
20208 20290
20290 20373
20373 20457
20457 20540
20540 20621
20621 20705
20705 20789
20789 20871
20871 20953
20953 21035
21035 21118
21118 21201
21201 21284
21284 21366
21366 21450
21450 21534
21534 21617
21617 21699
21699 21783
21783 21866
21866 21949
21949 22031
22031 22114
22114 22197
22197 22281
22281 22362
22362 22445
22445 22529
22529 22611
22611 22692
22692 22775
22775 22859
22859 22942
22942 23024
23024 23107
23107 23190
23190 23273
23273 23356
23356 23439
23439 23523
23523 23607
23607 23690
23690 23773
23773 23858
23858 23942
23942 24025
24025 24108
24108 24192
24192 24276
24276 24359
24359 24441
24441 24524
24524 24607
24607 24689
24689 24771
24771 24853
24853 24936
24936 25019
25019 25099
25099 25181
25181 25264
25264 25346
25346 25428
25428 25509
25509 25592
25592 25676
25676 25758
25758 25839
25839 25921
25921 26005
26005 26087
26087 26168
26168 26249
26249 26332
26332 26415
26415 26498
26498 26579
26579 26661
26661 26744
26744 26827
26827 26908
26908 26989
26989 27072
27072 27155
27155 27236
27236 27317
27317 27399
27399 27482
27482 27564
27564 27644
27644 27727
27727 27809
27809 27892
27892 27973
27973 28054
28054 28138
28138 28221
28221 28304
28304 28386
28386 28469
28469 28553
28553 28637
28637 28719
28719 28803
28803 28887
28887 28970
28970 29053
29053 29136
29136 29220
29220 29303
29303 29386
29386 29468
29468 29552
29552 29635
29635 29717
29717 29801
29801 29885
29885 29968
29968 30050
30050 30134
30134 30218
30218 30302
30302 30384
30384 30468
30468 30554
30554 30638
30638 30722
30722 30805
30805 30890
30890 30975
30975 31059
31059 31141
31141 31226
31226 31310
31310 31393
31393 31476
31476 31561
31561 31645
31645 31728
31728 31811
31811 31895
31895 31979
31979 32063
32063 32145
32145 32229
32229 32313
32313 32396
32396 32478
32478 32562
32562 32646
32646 32729
32729 32812
32812 32895
32895 32978
32978 33061
33061 33143
33143 33226
33226 33310
33310 33392
33392 33474
33474 33556
33556 33640
33640 33723
33723 33806
33806 33889
33889 33973
33973 34057
34057 34141
34141 34224
34224 34309
34309 34394
34394 34478
34478 34562
34562 34647
34647 34732
34732 34816
34816 34900
34900 34985
34985 35070
35070 35154
35154 35238
35238 35322
35322 35407
35407 35490
35490 35573
35573 35658
35658 35742
35742 35825
35825 35908
35908 35992
35992 36077
36077 36160
36160 36243
36243 36327
36327 36411
36411 36496
36496 36579
36579 36663
36663 36748
36748 36832
36832 36916
36916 36999
36999 37084
37084 37169
37169 37253
37253 37336
37336 37422
37422 37507
37507 37592
37592 37675
37675 37761
37761 37846
37846 37931
37931 38014
38014 38098
38098 38183
38183 38267
38267 38351
38351 38435
38435 38520
38520 38604
38604 38688
38688 38771
38771 38855
38855 38939
38939 39022
39022 39105
39105 39188
39188 39273
39273 39357
39357 39439
39439 39523
39523 39607
39607 39692
39692 39776
39776 39860
39860 39945
39945 40029
40029 40114
40114 40197
40197 40283
40283 40368
40368 40453
40453 40536
40536 40622
40622 40708
40708 40792
40792 40876
40876 40961
40961 41046
41046 41130
41130 41213
41213 41298
41298 41383
41383 41467
41467 41550
41550 41634
41634 41719
41719 41803
41803 41886
41886 41970
41970 42055
42055 42139
42139 42222
42222 42305
42305 42389
42389 42473
42473 42556
42556 42639
42639 42724
42724 42808
42808 42892
42892 42975
42975 43059
43059 43120
43120 43228
43228 43310
43310 43394
43394 43477
43477 43560
43560 43642
43642 43726
43726 43809
43809 43892
43892 43975
43975 44060
44060 44144
44144 44227
44227 44310
44310 44395
44395 44479
44479 44563
44563 44648
44648 44731
44731 44817
44817 44902
44902 44986
44986 45071
45071 45156
45156 45242
45242 45327
45327 45411
45411 45497
45497 45582
45582 45667
45667 45750
45750 45835
45835 45920
45920 46004
46004 46087
46087 46172
46172 46256
46256 46339
46339 46421
46421 46505
46505 46589
46589 46671
46671 46753
46753 46837
46837 46920
46920 47003
47003 47054
47054 47136
47136 47219
47219 47303
47303 47387
47387 47469
47469 47552
47552 47635
47635 47719
47719 47802
47802 47885
47885 47969
47969 48054
48054 48137
48137 48219
48219 48304
48304 48388
48388 48471
48471 48555
48555 48638
48638 48722
48722 48806
48806 48890
48890 48973
48973 49057
49057 49141
49141 49224
49224 49307
49307 49390
49390 49474
49474 49558
49558 49641
49641 49724
49724 49809
49809 49893
49893 49976
49976 50059
50059 50143
50143 50228
50228 50312
50312 50395
50395 50479
50479 50564
50564 50648
50648 50731
50731 50815
50815 50900
50900 50983
50983 51066
51066 51150
51150 51234
51234 51317
51317 51399
51399 51482
51482 51566
51566 51649
51649 51731
51731 51815
51815 51898
51898 51981
51981 52063
52063 52146
52146 52230
52230 52313
52313 52397
52397 52479
52479 52564
52564 52649
52649 52733
52733 52816
52816 52901
52901 52986
52986 53070
53070 53154
53154 53239
53239 53323
53323 53408
53408 53491
53491 53575
53575 53661
53661 53744
53744 53827
53827 53910
53910 53994
53994 54078
54078 54161
54161 54244
54244 54330
54330 54414
54414 54498
54498 54582
54582 54667
54667 54753
54753 54838
54838 54921
54921 55007
55007 55073
55073 55238
55238 55323
55323 55408
55408 55492
55492 55574
55574 55657
55657 55742
55742 55825
55825 55908
55908 55990
55990 56072
56072 56154
56154 56237
56237 56319
56319 56403
56403 56486
56486 56569
56569 56654
56654 56738
56738 56821
56821 56904
56904 56989
56989 57073
57073 57158
57158 57241
57241 57326
57326 57410
57410 57494
57494 57577
57577 57662
57662 57746
57746 57830
57830 57913
57913 57998
57998 58082
58082 58166
58166 58249
58249 58333
58333 58416
58416 58500
58500 58583
58583 58665
58665 58749
58749 58832
58832 58915
58915 58998
58998 59081
59081 59165
59165 59248
59248 59331
59331 59414
59414 59498
59498 59581
59581 59664
59664 59747
59747 59831
59831 59916
59916 59999
59999 60072
60072 60155
60155 60238
60238 60322
60322 60406
60406 60489
60489 60572
60572 60656
60656 60739
60739 60822
60822 60905
60905 60988
60988 61071
61071 61154
61154 61237
61237 61319
61319 61403
61403 61486
61486 61569
61569 61651
61651 61734
61734 61818
61818 61901
61901 61983
61983 62065
62065 62124
62124 62208
62208 62290
62290 62372
62372 62456
62456 62540
62540 62622
62622 62704
62704 62787
62787 62870
62870 62952
62952 63034
63034 63115
63115 63198
63198 63281
63281 63363
63363 63445
63445 63528
63528 63612
63612 63695
63695 63776
63776 63859
63859 63943
63943 64026
64026 64108
64108 64190
64190 64274
64274 64358
64358 64440
64440 64522
64522 64605
64605 64689
64689 64772
64772 64855
64855 64938
64938 65022
65022 65106
65106 65190
65190 65274
65274 65358
65358 65442
65442 65526
65526 65609
65609 65693
65693 65777
65777 65861
65861 65943
65943 66026
66026 66110
66110 66193
66193 66276
66276 66359
66359 66444
66444 66527
66527 66611
66611 66693
66693 66777
66777 66862
66862 66945
66945 67027
67027 67110
67110 67195
67195 67278
67278 67362
67362 67444
67444 67529
67529 67700
67700 67783
67783 67867
67867 67952
67952 68037
68037 68120
68120 68205
68205 68290
68290 68374
68374 68459
68459 68542
68542 68628
68628 68712
68712 68796
68796 68880
68880 68965
68965 69049
69049 69133
69133 69217
69217 69301
69301 69385
69385 69469
69469 69553
69553 69637
69637 69721
69721 69805
69805 69888
69888 69973
69973 70058
70058 70142
70142 70225
70225 70309
70309 70394
70394 70478
70478 70563
70563 70646
70646 70732
70732 70817
70817 70902
70902 70987
70987 71071
71071 71157
71157 71242
