2392 2511
2511 2630
2630 2751
2751 2871
2871 2988
4824 4948
4948 5071
6166 6294
6294 6396
6396 6521
6521 6627
7109 7239
7239 7342
8703 8829
8829 8927
9053 9180
9180 9308
9308 9430
9430 9529
9883 10008
10008 10064
10777 10901
10901 11001
11001 11075
11327 11453
11453 11550
11805 11928
11928 12052
12052 12153
13634 13755
13755 13877
13877 13999
13999 14069
14943 15135
15135 15263
15263 15364
15364 15489
15489 15611
15611 15737
15737 15863
15863 15988
15988 16110
16110 16236
16236 16362
16362 16489
16489 16611
16611 16735
16735 16862
16862 16987
16987 17068
17068 17165
17165 17288
17288 17413
17413 17538
17538 17659
17659 17784
17784 17908
17908 18032
18032 18153
18153 18278
18278 18380
18380 18509
18509 18632
18632 18758
18758 18883
18883 18981
18981 19115
19115 19238
19238 19357
19357 19481
19481 19605
19605 19730
19730 19852
19852 19973
19973 20071
20071 20195
20195 20320
20320 20442
20442 20562
20562 20685
20685 20809
20809 20906
20906 21026
21026 21149
21149 21273
21273 21397
21397 21491
21491 21614
21614 21738
21738 21861
21861 21987
21987 22109
22109 22233
22233 22358
22358 22479
22479 22603
22603 22729
22729 22853
22853 22974
22974 23098
23098 23224
23224 23348
23348 23470
23470 23571
23571 23673
23673 23798
23798 23926
23926 24053
24053 24179
24179 24301
24301 24423
24423 24544
24544 24665
24665 24758
24758 24877
24877 24997
24997 25115
25115 25236
25236 25359
25359 25458
25458 25583
25583 25710
25710 25812
25812 25913
25913 26089
26089 26213
26213 26332
26332 26456
26456 26581
26581 26704
26704 26829
26829 26954
26954 27079
27079 27202
27202 27304
27304 27433
27433 27555
27555 27683
27683 27811
27811 27937
27937 28061
28061 28163
28163 28291
28291 28419
28419 28542
28542 28670
28670 28798
28798 28927
28927 29050
29050 29180
29180 29310
29310 29441
29441 29570
29570 29698
29698 29802
29802 29931
29931 30157
30157 30283
30283 30413
30413 30543
30543 30668
30668 30798
30798 30928
30928 31140
31140 31265
31265 31359
31359 31482
31482 31581
31581 31700
31700 31820
31820 31941
31941 32061
32061 32179
32179 32301
32301 32425
32425 32520
32520 32647
32647 32774
32774 32876
32876 32999
32999 33128
33128 33256
33256 33388
33388 33486
33486 33615
33615 33715
33715 33841
33841 33965
33965 34140
34140 34243
34243 34367
34367 34495
34495 34621
34621 34743
34743 34867
34867 34990
34990 35129
35129 35255
35255 35380
35380 35503
35503 35627
35627 35752
35752 35877
35877 36001
36001 36121
36121 36244
36244 36367
36367 36489
36489 36607
36607 36729
36729 36824
36824 36944
36944 37063
37063 37181
37181 37277
37277 37400
37400 37522
37522 37622
37622 37715
37715 37838
37838 37962
37962 38141
38141 38263
38263 38387
38387 38487
38487 38585
38585 38706
38706 38805
38805 38928
38928 39026
39026 39145
39145 39270
39270 39394
39394 39517
39517 39639
39639 39763
39763 39886
39886 40005
40005 40119
40119 40217
40217 40342
40342 40439
40439 40562
40562 40687
40687 40813
