151 310
310 389
389 469
469 548
548 627
627 707
707 786
786 866
866 1025
1025 1206
1206 1286
1286 1366
1366 1446
1446 1526
1526 1606
1606 1687
1687 1767
1767 1927
1927 2033
2033 2112
2112 2193
2193 2274
2274 2353
2353 2434
2434 2514
2514 2595
2595 2675
5352 5513
5513 5594
5594 5674
5674 5754
5754 5834
5834 5914
5914 5995
5995 6075
6075 6155
6155 6235
6235 6315
6315 6396
6396 6556
6556 6637
6637 6717
6717 6878
6878 6958
6958 7038
7038 7118
7118 7198
7198 7278
7278 7358
7358 7438
7438 7518
7518 7598
7598 7657
7657 7759
7759 7920
7920 8000
8000 8080
8080 8161
8161 8240
8240 8320
8320 8400
8400 8480
8480 8560
8560 8639
8639 8719
8719 8799
8799 8880
8880 9041
9041 9122
9122 9203
9203 9364
9364 9445
9445 9526
9526 9607
9607 9687
9687 9767
9767 9848
9848 9929
9929 10089
10089 10170
10170 10251
10251 10331
10331 10411
10411 10491
10491 10572
10572 10652
10652 10813
10813 10873
