284 521
521 599
599 757
757 913
913 975
975 1066
1066 1275
1275 1353
1353 1431
1431 1665
1665 1743
1743 2030
2030 2107
2107 2186
2186 2341
2341 2419
2419 2654
2654 2731
2731 2810
2810 2957
2957 3043
3043 3122
3122 3261
3261 3354
3354 3434
3434 3668
3668 3747
3747 3967
3967 4238
4238 4315
4315 4548
4548 4625
4625 5011
5011 5321
5321 5630
