4030 4152
4152 4251
5884 6014
6014 6094
11086 11211
11211 11308
12784 12910
12910 13102
14200 14329
16966 17090
17090 17216
17216 17317
17317 17443
17443 17667
18923 19159
19159 19290
19290 19416
19416 19543
19543 19672
19672 19799
19799 19926
19926 20042
20042 20165
20165 20294
20294 20422
20422 20550
20550 20678
20678 20805
20805 20930
20930 21055
21055 21181
21181 21306
21306 21427
21427 21553
21553 21678
21678 21802
21802 21925
21925 22092
22092 22217
22217 22341
22341 22465
22465 22561
22561 22685
22685 22810
22810 22934
22934 23104
23104 23223
23223 23342
23342 23461
23461 23582
23582 23704
23704 23825
23825 23946
23946 24064
24064 24186
24186 24309
24309 24432
24432 24556
24556 24678
24678 24802
24802 24927
24927 25051
25051 25175
25175 25297
25297 25419
25419 25543
25543 25667
25667 25790
25790 25913
25913 26035
26035 26155
26155 26276
26276 26400
26400 26522
26522 26645
26645 26766
26766 26887
26887 27011
27011 27069
27069 27189
27189 27308
27308 27428
27428 27546
27546 27667
27667 27790
27790 27911
27911 28033
28033 28154
28154 28275
28275 28399
28399 28523
28523 28646
28646 28768
28768 28893
28893 29018
29018 29132
29132 29260
29260 29386
29386 29515
29515 29644
29644 29746
29746 29869
29869 29995
29995 30123
30123 30250
30250 30374
30374 30501
30501 30602
30602 30728
30728 30852
30852 30977
30977 31072
31072 31195
31195 31321
31321 31446
31446 31571
31571 31692
31692 31818
31818 31944
31944 32071
32071 32197
32197 32319
32319 32448
32448 32574
32574 32700
32700 32823
32823 32948
32948 33072
33072 33197
33197 33320
33320 33446
33446 33572
33572 33695
33695 33815
33815 33940
33940 34064
34064 34189
34189 34313
34313 34437
34437 34560
34560 34683
34683 34805
34805 34925
34925 35047
35047 35169
35169 35291
35291 35412
35412 35532
35532 35653
35653 35775
35775 35896
35896 36014
36014 36077
36077 36174
36174 36295
36295 36415
36415 36539
36539 36639
36639 36762
36762 36883
36883 37009
37009 37132
37132 37255
37255 37379
37379 37501
37501 37625
37625 37746
37746 37870
37870 37995
37995 38120
38120 38245
38245 38367
38367 38492
38492 38616
38616 38741
38741 38866
38866 38989
38989 39089
39089 39213
39213 39335
39335 39456
39456 39576
39576 39697
39697 39818
39818 39938
39938 40055
40055 40174
40174 40291
40291 40408
40408 40526
40526 40645
40645 40767
40767 40888
40888 40986
40986 41106
41106 41231
41231 41356
41356 41484
41484 41610
41610 41737
41737 41861
41861 41986
41986 42089
42089 42217
42217 42449
42449 42557
42557 42709
42709 42816
42816 42947
42947 43057
43057 43186
43186 43410
43410 43539
43539 43668
43668 43769
43769 43873
