588 1154
1154 1561
1561 1889
1889 2218
2218 2301
2301 2383
2383 2465
2465 2546
2546 2628
2628 2709
2709 2953
2953 3034
3034 3359
3359 3441
3441 3685
3685 3767
3767 3848
3848 4094
4094 4422
4422 4504
4504 4586
4586 4748
4748 4831
4831 4913
4913 5157
5157 5239
5239 5321
5321 5483
5483 5566
5566 5648
5648 5891
5891 5973
5973 6055
6055 6298
6298 6380
6380 6461
6461 6705
6705 6786
6786 6868
6868 7113
7113 7196
7196 7277
7277 7360
7360 7441
7441 7524
7524 7607
7607 7689
7689 7852
7852 7934
7934 8016
8016 8179
8179 8261
8261 8343
8343 8587
8587 8669
8669 8914
8914 8996
8996 9078
9078 9242
9242 9325
9325 9407
9407 9654
9654 9737
9737 9820
9820 10068
10068 10151
10151 10399
10399 10483
10483 10566
10566 10732
10732 10816
10816 11065
11065 11149
11149 11232
11232 11396
11396 11479
11479 11562
11562 11645
11645 11809
11809 11892
11892 11975
11975 12139
12139 12222
12222 12305
12305 12387
12387 12469
12469 12552
12552 12635
12635 12880
12880 12963
12963 13045
13045 13126
13126 13207
13207 13290
13290 13372
13372 13617
13617 13700
13700 13943
13943 14026
14026 14108
14108 14190
14190 14271
14271 14354
14354 14436
14436 14683
14683 14765
14765 15012
15012 15094
15094 15339
15339 15422
15422 15585
15585 15667
15667 15750
15750 15833
15833 16078
16078 16162
16162 16244
16244 16327
16327 16492
16492 16575
16575 16739
16739 16820
16820 16903
16903 16985
16985 17230
17230 17313
17313 17394
17394 17557
17557 17640
17640 17705
17705 17805
17805 17968
17968 18050
18050 18132
18132 18214
18214 18460
18460 18542
18542 18624
18624 18870
18870 18952
18952 19034
19034 19197
19197 19280
19280 19362
19362 19608
19608 19690
19690 19854
19854 19935
19935 20019
20019 20101
20101 20349
20349 20431
20431 20513
20513 20677
20677 20760
20760 20842
20842 21048
21048 21131
21131 21213
21213 21460
21460 21542
21542 21624
21624 21788
21788 21870
21870 21952
21952 22034
22034 22115
22115 22198
22198 22280
22280 22363
22363 22444
22444 22525
22525 22608
22608 22771
22771 22852
22852 22935
22935 23017
23017 23099
23099 23179
23179 23262
23262 23344
23344 23588
23588 23671
23671 23752
23752 23834
23834 23914
23914 23997
23997 24080
24080 24243
24243 24326
24326 24408
24408 24491
24491 24655
24655 24738
24738 24821
24821 24904
24904 24985
24985 25067
25067 25149
25149 25477
25477 25804
25804 25887
25887 26133
26133 26215
26215 26462
26462 26544
26544 26627
26627 26710
26710 26793
26793 26876
26876 26959
26959 27042
27042 27206
27206 27288
27288 27371
27371 27453
27453 27534
27534 27617
27617 27700
27700 27782
