8 58
140 464
464 545
464 545
545 788
788 869
869 950
950 1191
1191 1273
1273 1354
1354 1596
1596 1677
1677 1919
1919 2000
2000 2081
2081 2323
2323 2404
2404 2727
2727 2808
2808 3051
3051 3132
3132 3213
3213 3454
3454 3535
3535 3776
3776 3857
3857 4227
4227 4308
4308 4388
4388 4631
4631 4712
4712 4793
4793 5036
5036 5117
5117 5360
5360 5441
5441 5683
5683 5764
5764 5845
5845 6087
6087 6168
6168 6409
6409 6490
6490 6571
6571 6813
6813 6894
6894 7111
7111 7191
7191 7432
7432 7513
7513 7593
7593 7835
7835 7915
7915 8155
8155 8236
8236 8316
8316 8557
8557 8638
8638 8961
8961 9042
9042 9284
9284 9365
9365 9446
9446 9769
9769 9851
9851 10093
10093 10175
10175 10257
10257 10499
10499 10581
10581 10903
10903 10984
10984 11224
11224 11305
11305 11385
11385 11628
11628 11708
11708 11950
11950 12032
12032 12113
12113 12357
12357 12438
12438 12680
12680 12762
12762 12843
12843 13086
13086 13167
13167 13408
13408 13490
13490 13571
13571 13813
13813 13895
13895 14138
14138 14219
14219 14542
14542 14624
14624 14867
14867 14948
14948 15190
15190 15271
15271 15352
15352 15594
15594 15675
15675 15916
15916 15997
15997 16319
16319 16400
16400 16642
16642 16723
16723 16804
16804 17046
17046 17128
17128 17451
17451 17533
17533 17776
17776 17857
17857 18100
18100 18181
18181 18504
18504 18585
18585 18827
18827 18907
18907 19117
19117 19198
19198 19439
19439 19521
19521 19602
19602 19844
19844 19925
19925 20166
20166 20248
20248 20489
20489 20571
20571 20652
20652 20894
20894 20976
20976 21218
21218 21301
21301 21382
21382 21625
21625 21707
21707 21949
21949 22031
22031 22113
22113 22356
22356 22439
22439 22682
22682 22764
22764 23008
23008 23090
23090 23415
23415 23497
23497 23741
23741 23823
23823 24068
24068 24150
24150 24232
24232 24478
24478 24560
24560 24805
24805 24888
24888 25133
25133 25216
25216 25298
25298 25546
25546 25628
25628 25875
25875 25958
25958 26204
26204 26287
26287 26370
26370 26616
26616 26699
26699 26943
26943 27026
27026 27270
27270 27352
27352 27434
27434 27679
27679 27761
27761 28005
28005 28087
28087 28330
28330 28413
28413 28495
28495 28740
28740 28823
28823 28906
28906 29153
29153 29236
29236 29482
29482 29565
29565 29648
29648 29895
29895 29961
29961 30052
30052 30299
30299 30382
30382 30630
30630 30714
30714 30796
30796 31044
31044 31128
31128 31375
31375 31458
31458 31704
31704 31787
31787 32033
32033 32116
32116 32362
32362 32445
32445 32528
32528 32776
32776 32860
32860 33239
33239 33323
33323 33573
33573 33657
33657 33905
33905 33989
33989 34236
34236 34319
34319 34566
34566 34649
34649 34732
34732 34979
34979 35062
35062 35308
35308 35390
35390 35636
35636 35719
35719 35965
35965 36048
36048 36132
36132 36380
36380 36463
36463 36711
36711 36795
36795 37044
37044 37129
37129 37213
37213 37463
37463 37547
37547 37796
37796 37879
37879 38127
38127 38210
38210 38456
38456 38539
38539 38622
38622 38871
38871 38955
38955 39203
39203 39288
39288 39371
39371 39621
39621 39706
39706 39790
39790 40040
40040 40124
40124 40372
40372 40456
40456 40704
40704 40788
40788 40871
40871 41119
41119 41202
41202 41450
41450 41534
41534 41867
41867 41951
41951 42199
42199 42284
42284 42533
42533 42618
42618 42701
42701 42953
42953 43038
43038 43372
43372 43456
43456 43705
43705 43788
43788 44120
44120 44203
44203 44450
44450 44533
44533 44779
44779 44862
44862 45191
45191 45274
45274 45520
45520 45603
45603 45850
45850 45933
45933 46179
46179 46262
46262 46345
46345 46593
46593 46676
46676 46925
46925 47009
47009 47092
47092 47258
47258 47343
47343 47427
47427 47678
47678 47763
47763 48013
48013 48097
48097 48347
48347 48431
48431 48679
48679 48763
48763 49011
49011 49155
49155 49239
49239 49570
49570 49654
49654 49903
49903 49992
49992 50241
50241 50325
50325 50409
50409 50659
50659 50743
50743 50994
50994 51079
51079 51330
51330 51416
51416 51501
51501 51754
51754 51839
51839 52089
52089 52174
52174 52258
52258 52508
52508 52592
52592 52844
52844 52928
52928 53180
53180 53264
53264 53601
53601 53686
53686 53939
53939 54024
54024 54109
54109 54363
54363 54448
54448 54702
54702 54786
54786 55038
55038 55122
55122 55288
55288 55372
55372 55455
55455 55704
55704 55787
55787 55869
55869 56119
56119 56202
56202 56452
56452 56536
56536 56761
56761 56846
56846 57097
57097 57215
57215 57468
57468 57554
57554 57806
57806 57890
57890 57974
57974 58224
58224 58308
58308 58556
58556 58640
58640 58888
58888 58972
58972 59222
59222 59306
59306 59556
59556 59641
59641 59724
59724 59891
59891 59976
59976 60061
60061 60314
60314 60400
60400 60653
60653 60738
60738 60823
60823 61144
61144 61228
61228 61479
61479 61563
61563 61647
61647 61814
61814 61899
61899 61984
61984 62238
62238 62323
62323 62409
62409 62665
62665 62751
