773 914
5048 5131
6750 6831
6831 6927
6927 7009
7009 7089
7089 7170
7170 7251
7251 7332
7332 7414
7414 7495
7495 7576
7576 7657
7657 7740
7740 7821
7821 7903
7903 7985
7985 8067
8067 8148
8148 8230
8230 8312
8312 8394
8394 8476
8476 8557
8557 8639
8639 8721
8721 8802
8802 8884
8884 8965
8965 9047
9047 9129
9129 9211
9211 9294
9294 9376
9376 9458
9458 9540
9540 9623
9623 9705
9705 9787
9787 9870
9870 9953
9953 10036
10036 10118
10118 10202
10202 10285
10285 10368
10368 10451
10451 10535
10535 10619
10619 10702
10702 10784
10784 10868
10868 10951
10951 11034
11034 11117
11117 11200
11200 11283
11283 11366
11366 11448
11448 11531
11531 11614
11614 11697
11697 11779
11779 11862
11862 11944
11944 12026
12026 12108
12108 12191
12191 12273
12273 12356
12356 12438
12438 12520
12520 12603
12603 12685
12685 12767
12767 12850
12850 12933
12933 13015
13015 13097
13097 13180
13180 13263
13263 13345
13345 13428
13428 13510
13510 13593
13593 13675
13675 13758
13758 13840
13840 13922
13922 14004
14004 14087
14087 14170
14170 14252
14252 14334
14334 14417
14417 14500
14500 14640
14640 14722
14722 14805
14805 14887
14887 14971
14971 15054
15054 15137
15137 15219
15219 15302
15302 15385
15385 15469
15469 15551
15551 15636
15636 15720
15720 15803
15803 15886
15886 15970
15970 16054
16054 16137
16137 16221
16221 16305
16305 16388
16388 16471
16471 16555
16555 16614
16614 16697
16697 16780
16780 16864
16864 16947
16947 17030
17030 17114
17114 17197
17197 17281
17281 17363
17363 17447
17447 17530
17530 17613
17613 17695
17695 17779
17779 17861
17861 17944
17944 18026
18026 18109
18109 18192
18192 18274
18274 18357
18357 18440
18440 18523
18523 18605
18605 18689
18689 18771
18771 18854
18854 18936
18936 19020
19020 19103
19103 19185
19185 19268
19268 19350
19350 19432
19432 19514
19514 19597
19597 19679
19679 19762
19762 19843
19843 19926
19926 20008
20008 20090
20090 20172
20172 20255
20255 20337
20337 20418
20418 20501
20501 20583
20583 20665
20665 20747
20747 20829
20829 20911
20911 20993
20993 21075
21075 21157
21157 21239
21239 21321
21321 21403
21403 21485
21485 21567
21567 21649
21649 21731
21731 21813
21813 21895
21895 21977
21977 22058
22058 22140
22140 22222
22222 22304
22304 22385
22385 22468
22468 22549
22549 22631
22631 22712
22712 22794
22794 22876
22876 22957
22957 23039
23039 23121
23121 23202
23202 23284
23284 23365
23365 23447
23447 23528
23528 23611
23611 23692
23692 23774
23774 23855
23855 23937
23937 24019
24019 24100
24100 24182
24182 24263
24263 24345
24345 24426
24426 24508
24508 24590
24590 24672
24672 24753
24753 24835
24835 24917
24917 24999
24999 25061
25061 25145
25145 25228
25228 25310
25310 25393
25393 25476
25476 25558
25558 25640
25640 25723
25723 25806
25806 25887
25887 25970
25970 26052
26052 26134
26134 26216
26216 26299
26299 26381
26381 26464
26464 26546
26546 26629
26629 26712
26712 26794
26794 26878
26878 26961
26961 27044
27044 27126
27126 27210
27210 27293
27293 27376
27376 27458
27458 27541
27541 27624
27624 27706
27706 27790
27790 27872
27872 27955
27955 28037
28037 28120
28120 28202
28202 28286
28286 28369
28369 28451
28451 28534
28534 28616
28616 28699
28699 28782
28782 28864
28864 28948
28948 29030
29030 29113
29113 29195
29195 29278
29278 29361
29361 29443
29443 29525
29525 29608
29608 29691
29691 29773
29773 29855
29855 29938
29938 30020
30020 30101
30101 30183
30183 30266
30266 30348
30348 30429
30429 30511
30511 30593
30593 30675
30675 30756
30756 30838
30838 30920
30920 31002
31002 31083
31083 31165
31165 31246
31246 31327
31327 31409
31409 31491
31491 31572
31572 31654
31654 31736
31736 31818
31818 31899
31899 31981
31981 32063
32063 32145
32145 32227
32227 32308
32308 32391
32391 32473
32473 32555
32555 32637
32637 32719
32719 32800
32800 32883
32883 32965
32965 33047
33047 33128
33128 33211
33211 33293
33293 33374
33374 33456
33456 33539
33539 33621
33621 33703
33703 33785
33785 33868
33868 33949
33949 34032
34032 34114
34114 34196
34196 34278
34278 34361
34361 34443
34443 34525
34525 34607
34607 34690
34690 34772
34772 34854
34854 34936
34936 35018
35018 35101
35101 35183
35183 35266
35266 35348
35348 35430
35430 35512
35512 35594
35594 35676
35676 35758
35758 35841
35841 35923
35923 36005
36005 36087
36087 36170
36170 36252
36252 36335
36335 36417
36417 36500
36500 36583
36583 36665
36665 36746
36746 36829
36829 36911
36911 36993
36993 37075
37075 37158
37158 37240
37240 37321
37321 37403
37403 37485
37485 37567
37567 37648
37648 37730
37730 37812
37812 37893
37893 37975
37975 38057
38057 38138
38138 38220
38220 38302
38302 38384
38384 38465
38465 38547
38547 38629
38629 38711
38711 38792
38792 38873
38873 38955
38955 39036
39036 39093
39093 39175
39175 39257
39257 39338
39338 39420
39420 39501
39501 39583
39583 39664
39664 39746
39746 39827
39827 39908
39908 39989
39989 40071
40071 40152
40152 40233
40233 40315
40315 40397
40397 40477
40477 40559
40559 40640
40640 40722
40722 40803
40803 40884
40884 40966
40966 41048
41048 41130
41130 41211
41211 41293
41293 41374
41374 41456
41456 41537
41537 41618
41618 41700
41700 41781
41781 41862
41862 41943
41943 42025
42025 42106
42106 42188
42188 42269
42269 42351
42351 42432
42432 42514
42514 42595
42595 42677
42677 42758
42758 42840
42840 42922
42922 43004
43004 43085
43085 43167
43167 43249
43249 43330
43330 43412
43412 43494
43494 43576
43576 43657
43657 43739
43739 43821
43821 43903
43903 43984
43984 44066
44066 44148
44148 44229
44229 44310
44310 44391
44391 44472
44472 44553
44553 44634
44634 44715
44715 44795
44795 44876
44876 44957
44957 45037
45037 45118
45118 45198
45198 45279
45279 45359
45359 45440
45440 45521
45521 45602
45602 45682
45682 45762
45762 45843
45843 45924
45924 46005
46005 46086
46086 46167
46167 46248
46248 46329
46329 46411
46411 46492
46492 46574
46574 46655
46655 46737
46737 46819
46819 46900
46900 46981
46981 47063
47063 47144
47144 47226
47226 47308
47308 47389
47389 47470
47470 47552
47552 47633
47633 47714
47714 47795
47795 47877
47877 47958
47958 48039
48039 48121
48121 48202
48202 48282
48282 48363
48363 48444
48444 48525
48525 48606
48606 48686
48686 48767
48767 48848
48848 48928
48928 49008
49008 49089
49089 49169
49169 49250
49250 49331
49331 49411
49411 49492
49492 49572
49572 49653
49653 49734
49734 49816
49816 49898
49898 49979
49979 50061
50061 50143
50143 50225
50225 50307
50307 50388
50388 50470
50470 50552
50552 50633
50633 50714
50714 50795
50795 50876
50876 50957
50957 51038
51038 51120
51120 51201
51201 51282
51282 51363
51363 51444
51444 51525
51525 51606
51606 51687
51687 51769
51769 51850
51850 51932
51932 52013
52013 52095
52095 52177
52177 52258
52258 52340
52340 52422
52422 52504
52504 52585
52585 52667
52667 52749
52749 52830
52830 52911
52911 52992
52992 53074
53074 53155
53155 53236
53236 53318
53318 53399
53399 53480
53480 53561
53561 53643
53643 53724
53724 53805
53805 53887
53887 53968
53968 54049
54049 54131
54131 54212
54212 54293
54293 54375
54375 54457
54457 54538
54538 54619
54619 54701
54701 54783
54783 54864
54864 54946
54946 55028
55028 55110
55110 55192
55192 55274
55274 55356
55356 55439
55439 55521
55521 55604
55687 55771
55771 55855
55855 55939
55939 56023
56023 56106
56106 56191
56191 56275
56275 56358
56358 56442
56442 56526
56526 56609
56609 56692
56692 56776
56776 56859
56859 56941
56941 57023
57023 57105
57105 57187
57187 57269
57269 57351
57351 57432
57432 57490
57490 57571
57571 57653
57653 57735
57735 57817
57817 57899
57899 57981
57981 58066
58066 58149
58149 58233
58233 58317
58317 58399
58399 58481
58481 58565
58565 58647
58647 58729
58729 58813
58813 58895
58895 58977
58977 59087
59087 59170
59170 59251
59251 59334
59334 59416
59416 59498
59498 59580
59580 59663
59663 59745
59745 59827
59827 59909
59909 59992
59992 60049
60049 60131
60131 60215
60215 60297
60297 60380
60380 60462
60462 60545
60545 60628
60628 60710
60710 60793
60793 60876
60876 60958
60958 61041
61041 61124
61124 61207
61207 61289
61289 61372
61372 61455
61455 61537
61537 61619
61619 61701
61701 61784
61784 61866
61866 61948
61948 62030
62030 62113
62113 62195
62195 62277
62277 62359
62359 62441
62441 62522
62522 62603
62603 62686
62686 62767
62767 62849
62849 62931
62931 63014
63014 63096
63096 63177
63177 63260
63260 63343
63343 63424
63424 63507
63507 63589
63589 63672
63672 63754
63754 63836
63836 63919
63919 64002
64002 64073
64073 64155
64155 64236
64236 64317
64317 64398
64398 64478
64478 64559
64559 64639
64639 64719
64719 64799
64799 64879
64879 64959
64959 65039
65039 65118
65118 65198
65198 65278
65278 65358
65358 65437
65437 65517
65517 65597
65597 65677
65677 65757
65757 65838
65838 65918
65918 65998
65998 66079
66079 66159
66159 66240
66240 66320
66320 66401
66401 66481
66481 66562
66562 66643
66643 66724
66724 66805
66805 66942
66942 67023
67672 67753
67753 67835
67835 67891
