14339 14471
25936 26014
26014 26053
27577 27656
27656 27777
27777 27855
27855 27933
27933 27987
27987 28065
28065 28143
28143 28221
28221 28300
28300 28378
28378 28456
28456 28534
28534 28612
28612 28690
28690 28767
28767 28846
28846 28923
28923 29000
29000 29078
29078 29156
29156 29233
29233 29310
29310 29388
29388 29466
29466 29543
29543 29620
29620 29698
29698 29775
29775 29852
29852 29930
29930 30007
30007 30084
30084 30162
30162 30240
30240 30317
30317 30393
30393 30471
30471 30548
30548 30625
30625 30702
30702 30780
30780 30857
30857 30934
30934 31011
31011 31089
31089 31166
31166 31243
31243 31320
31320 31397
31397 31474
31474 31550
31550 31628
31628 31706
31706 31783
31783 31860
31860 31938
31938 32016
32016 32092
32092 32170
32170 32247
32247 32324
32324 32400
32400 32478
32478 32555
32555 32632
32632 32709
32709 32787
32787 32864
32864 32940
32940 33017
33017 33095
33095 33172
33172 33248
33248 33326
33326 33403
33403 33479
33479 33556
33556 33634
33634 33710
33710 33787
33787 33864
33864 33941
33941 34018
34018 34094
34094 34171
34171 34248
34248 34324
34324 34401
34401 34478
34478 34555
34555 34631
34631 34708
34708 34786
34786 34862
34862 34939
34939 35016
35016 35093
35093 35170
35170 35246
35246 35324
35324 35401
35401 35477
35477 35554
35554 35632
35632 35708
35708 35785
35785 35862
35862 35939
35939 36015
36015 36091
36091 36168
36168 36245
36245 36321
36321 36398
36398 36476
36476 36552
36552 36629
36629 36705
36705 36783
36783 36859
36859 36936
36936 37013
37013 37090
37090 37166
37166 37243
37243 37321
37321 37397
37397 37473
37473 37550
37550 37627
37627 37703
37703 37780
37780 37857
37857 37933
37933 38010
38010 38086
38086 38164
38164 38240
38240 38317
38317 38394
38394 38471
38471 38548
38548 38624
38624 38702
38702 38779
38779 38855
38855 38932
38932 39009
39009 39086
39086 39162
39162 39239
39239 39316
39316 39392
39392 39469
39469 39547
39547 39623
39623 39700
39700 39777
39777 39854
39854 39930
39930 40006
40006 40083
40083 40160
40160 40236
40236 40312
40312 40390
40390 40466
40466 40543
40543 40619
40619 40697
40697 40773
40773 40849
40849 40926
40926 41003
41003 41080
41080 41156
41156 41234
41234 41311
41311 41387
41387 41464
41464 41541
41541 41618
41618 41694
41694 41771
41771 41848
41848 41925
41925 42001
42001 42078
42078 42154
42154 42231
42231 42307
42307 42385
42385 42462
42462 42538
42538 42615
42615 42692
42692 42769
42769 42846
42846 42923
42923 43001
43001 43077
43077 43154
43154 43232
43232 43309
43309 43386
43386 43463
43463 43540
43540 43617
43617 43694
43694 43772
43772 43849
43849 43926
43926 44003
44003 44081
44081 44158
44158 44235
44235 44312
44312 44389
44389 44466
44466 44543
44543 44620
44620 44697
44697 44774
44774 44851
44851 44929
44929 45006
45006 45082
45082 45159
45159 45237
45237 45314
45314 45390
45390 45467
45467 45545
45545 45622
45622 45699
45699 45776
45776 45853
45853 45930
45930 46007
46007 46085
46085 46162
46162 46239
46239 46316
46316 46393
46393 46470
46470 46546
46546 46623
46623 46700
46700 46777
46777 46853
46853 46931
46931 47008
47008 47084
47084 47161
47161 47239
47239 47315
47315 47392
47392 47469
47469 47546
47546 47623
47623 47700
47700 47778
47778 47855
47855 47931
47931 48008
48008 48086
48086 48163
48163 48239
48239 48317
48317 48394
48394 48470
48470 48547
48547 48625
48625 48702
48702 48778
48778 48855
48855 48932
48932 49009
49009 49086
49086 49163
49163 49240
49240 49316
49316 49393
49393 49471
49471 49547
49547 49623
49623 49700
49700 49777
49777 49854
49854 49930
49930 50007
50007 50084
50084 50161
50161 50237
50237 50314
50314 50391
50391 50468
50468 50545
50545 50623
50623 50700
50700 50776
50776 50854
50854 50932
50932 51009
51009 51085
51085 51163
51163 51240
51240 51317
51317 51395
51395 51473
51473 51550
51550 51627
51627 51704
51704 51782
51782 51859
51859 51935
51935 52013
52013 52090
52090 52167
52167 52244
52244 52322
52322 52399
52399 52475
52475 52552
52552 52630
52630 52707
52707 52784
52784 52861
52861 52938
52938 53015
53015 53091
53091 53169
53169 53246
53246 53323
53323 53399
53399 53477
53477 53554
53554 53631
53631 53707
53707 53785
53785 53862
53862 53938
53938 54015
54015 54092
54092 54168
54168 54244
54244 54322
54322 54398
54398 54475
54475 54604
54604 54680
54680 54757
54757 54833
54833 54911
54911 54988
54988 55064
55064 55141
55141 55218
55218 55294
55294 55371
55371 55448
55448 55525
55525 55601
55601 55678
55678 55755
55755 55832
55832 55908
55908 55985
55985 56062
56062 56139
56139 56215
56215 56292
56292 56369
56369 56445
56445 56521
56521 56598
56598 56675
56675 56751
56751 56828
56828 56906
56906 56982
56982 57058
57058 57135
57135 57213
57213 57289
57289 57365
57365 57442
57442 57520
57520 57596
57596 57673
57673 57750
57750 57827
57827 57904
57904 57981
57981 58059
58059 58135
58135 58212
58212 58289
58289 58367
58367 58443
58443 58520
58520 58598
58598 58675
58675 58752
58752 58829
58829 58907
58907 58984
58984 59062
59062 59139
59139 59217
59217 59294
59294 59371
59371 59449
59449 59526
59526 59603
59603 59680
59680 59757
59757 59835
59835 59911
59911 59988
59988 60066
60066 60143
60143 60220
60220 60297
60297 60375
60375 60452
60452 60529
60529 60606
60606 60683
60683 60760
60760 60837
60837 60914
60914 60992
60992 61069
61069 61146
61146 61224
61224 61301
61301 61378
61378 61455
61455 61533
61533 61610
61610 61687
61687 61764
61764 61842
61842 61919
61919 61996
61996 62074
62074 62152
62152 62229
62229 62306
62306 62385
62385 62462
62462 62539
62539 62617
62617 62695
62695 62772
62772 62849
62849 62926
62926 63004
63004 63081
63081 63158
63158 63236
63236 63313
63313 63390
63390 63468
63468 63546
63546 63624
63624 63701
63701 63778
63778 63856
63856 63934
63934 64011
64011 64088
64088 64166
64166 64242
64242 64319
64319 64397
64397 64474
64474 64551
64551 64628
64628 64706
64706 64783
64783 64860
64860 64937
64937 65015
65015 65092
65092 65168
65168 65246
65246 65323
65323 65400
65400 65476
65476 65554
65554 65631
65631 65708
65708 65785
65785 65863
65863 65940
65940 66017
66017 66095
66095 66173
66173 66250
66250 66327
66327 66405
66405 66483
66483 66560
66560 66636
66636 66713
66713 66791
66791 66868
66868 66944
66944 67021
67021 67099
67099 67175
67175 67252
67252 67329
67329 67407
67407 67483
67483 67560
67560 67638
67638 67715
67715 67791
67791 67868
67868 67945
67945 68022
68022 68099
68099 68176
68176 68253
68253 68330
68330 68407
68407 68485
68485 68562
68562 68639
68639 68716
68716 68794
68794 68871
68871 68947
68947 69025
69025 69102
69102 69179
69179 69255
69255 69333
69333 69410
69410 69487
69487 69564
69564 69642
69642 69719
69719 69796
69796 69873
69873 69951
69951 70028
70028 70105
70105 70182
70182 70260
70260 70337
70337 70413
70413 70491
70491 70569
70569 70646
70646 70723
70723 70801
70801 70878
70878 70956
70956 71033
71033 71111
71111 71188
71188 71265
71265 71343
71343 71421
71421 71498
71498 71575
71575 71652
71652 71730
71730 71807
71807 71884
71884 71962
71962 72040
72040 72117
72117 72194
72194 72272
72272 72350
72350 72427
72427 72504
72504 72583
72583 72660
72660 72737
72737 72814
72814 72893
