197 302
385 545
706 866
866 925
925 1026
1269 1430
1430 1511
1511 1592
1592 1673
1673 1754
1754 1835
1835 1916
1916 1997
1997 2078
2078 2160
2160 2217
2217 2298
2298 2380
2380 2462
2462 2544
2544 2626
2626 2708
2708 2789
2789 2871
2871 2953
2953 3034
3034 3116
3116 3197
3197 3279
3279 3360
3360 3442
3442 3524
3524 3606
3606 3687
3687 3769
3769 3851
3851 3933
3933 4014
4014 4096
4096 4179
4179 4261
4261 4343
4343 4426
4426 4507
4507 4589
4589 4671
4671 4753
4753 4834
4834 4916
4916 4997
4997 5078
5078 5159
5159 5242
5242 5323
5323 5404
5404 5486
5486 5568
5568 5649
5649 5731
5731 5814
5814 5895
5895 5977
5977 6060
6060 6142
6142 6223
6223 6304
6304 6387
6387 6468
6468 6550
6550 6633
6633 6714
6714 6795
6795 6878
6878 6960
6960 7041
7041 7103
7103 7206
8918 9164
9164 9247
9247 9329
9329 9410
9410 9494
13851 13927
14172 14255
14255 14337
14474 14583
14583 14665
14665 14745
14745 14828
14828 14909
14909 14990
14990 15078
15078 15159
15159 15239
15401 15481
15803 15965
15965 16046
18148 18309
18390 18553
18553 18634
18634 18715
18715 18796
18796 18878
18878 18959
18959 19040
19040 19121
19121 19202
19202 19264
19264 19341
20725 20804
23573 23735
23791 23900
23900 24062
24226 24306
24469 24551
24551 24688
25014 25072
25072 25153
25153 25235
25235 25317
25317 25398
25398 25479
25479 25617
25617 25698
25698 25780
25780 25862
25862 25943
25943 26024
26024 26187
26187 26268
26268 26349
26512 26594
26594 26757
26757 26839
26839 27003
27003 27047
27777 27939
27939 28022
28022 28086
28086 28169
28169 28251
28251 28331
28331 28414
28414 28496
28496 28577
28577 28657
28657 28740
28740 28821
28821 28880
28880 28985
28985 29041
29099 29205
29205 29288
29695 29856
29856 29938
29856 29938
29938 30076
30261 30423
30423 30505
30505 30585
30585 30666
30666 30747
30747 30909
30909 30991
30991 31041
31041 31124
31124 31207
31207 31289
31289 31371
31371 31453
31453 31535
31535 31617
31617 31699
31699 31781
31781 31863
