267 349
349 922
922 1177
1177 1239
1239 1494
1494 1750
1750 2009
2009 2095
2095 2352
2352 4914
4914 5597
5597 6219
6219 6305
6305 6530
6530 6644
6644 6898
6898 7117
7117 7877
7877 8080
8080 8166
8166 8419
8419 8504
8504 8672
8672 9086
9086 9171
9171 9255
9255 9338
9338 9422
9422 10011
10011 10096
10096 10433
10433 10599
10599 10685
10685 10769
10769 11020
11020 11441
11441 11777
11777 11945
11945 12029
12029 12196
12196 12698
