1965 2081
19939 20020
21926 22008
22008 22058
28917 28998
29037 29118
29118 29201
29201 29283
29283 29364
29364 29446
29446 29528
29528 29610
29610 29691
29691 29774
29774 29856
29856 29939
29939 30021
30021 30116
30116 30198
30198 30280
30280 30361
30361 30442
30442 30524
30524 30605
30605 30686
30686 30767
30767 30849
30849 30930
30930 31011
31011 31073
31073 31154
31154 31236
31236 31319
31319 31400
31400 31482
31482 31564
31564 31647
31647 31728
31728 31810
31810 31892
31892 31974
31974 32045
32045 32128
32128 32209
32209 32292
32292 32375
32375 32457
32457 32539
32539 32622
32622 32704
32704 32785
32785 32866
32866 32947
32947 33029
33029 33110
33110 33191
33191 33271
33271 33353
33353 33434
33434 33515
33515 33597
33597 33678
33678 33760
33760 33841
33841 33923
33923 34005
34005 34087
34087 34168
34168 34251
34251 34333
34333 34415
34415 34497
34497 34580
34580 34662
