106 189
2520 2604
2747 2830
2830 2914
2914 2998
2998 3075
3075 3159
3159 3242
3242 3324
3324 3406
3406 3489
3489 3572
3572 3654
3654 3736
3736 3819
3819 3901
3901 3983
3983 4066
4066 4149
4149 4231
4231 4313
4313 4396
4396 4478
4478 4560
4560 4643
4643 4726
4726 4808
4808 4890
4890 4972
4972 5100
5100 5182
5182 5265
5265 5348
5348 5431
5431 5488
5488 5546
5546 5629
5629 5712
5712 5794
5794 5876
5876 5960
5960 6042
6042 6125
6125 6207
6207 6291
6291 6374
6374 6456
6456 6539
6539 6622
6622 6704
6704 6787
6787 6870
6870 6953
6953 7035
7035 7119
7119 7201
7201 7283
7283 7366
7366 7449
7449 7507
7507 7589
7589 7672
7672 7755
7755 7812
7812 7895
7895 7978
7978 8060
8060 8143
8143 8225
8225 8308
8308 8390
8390 8472
8472 8554
8554 8637
8637 8719
8719 8801
8801 8882
8882 8965
8965 9048
9048 9130
9130 9211
9211 9295
9295 9377
9377 9459
9459 9540
9540 9623
9623 9706
9706 9788
9788 9870
9870 9953
9953 10035
10035 10117
10117 10200
10200 10283
10283 10365
10365 10423
10423 10505
10505 10588
10588 10671
10671 10753
10753 10836
10836 10918
10918 10975
10975 11058
11058 11140
11140 11223
11223 11305
11305 11387
11387 11470
11470 11552
11552 11635
11635 11718
11718 11801
11801 11883
11883 11965
11965 12048
12048 12131
12131 12214
12214 12296
12296 12379
12379 12462
12462 12545
12545 12627
12627 12710
12710 12792
12792 12875
12875 12957
12957 13040
13040 13123
13123 13205
13205 13263
13263 13346
13346 13429
13429 13511
13511 13593
13593 13677
13677 13759
13759 13842
13842 13924
13924 14007
14007 14090
14090 14173
14173 14255
14255 14339
14339 14422
14422 14504
14504 14587
14587 14670
14670 14753
14753 14835
14835 14917
14917 15000
15000 15082
15082 15164
15164 15246
15246 15329
15329 15411
15411 15493
15493 15575
15575 15658
15658 15740
15740 15822
15822 15903
15903 15986
15986 16068
16068 16150
16150 16232
16232 16315
16315 16372
16372 16454
16454 16535
16535 16618
16618 16700
16700 16782
16782 16865
16865 16947
16947 17029
17029 17111
17111 17193
17193 17275
17275 17357
17357 17439
17439 17521
17521 17603
17603 17686
17686 17769
17769 17851
17851 17934
17934 18017
18017 18095
18095 18177
18177 18260
18260 18342
18342 18424
18424 18506
18506 18588
18588 18670
18670 18752
18752 18833
18833 18916
18916 18998
18998 19080
19080 19161
19161 19244
19244 19326
19326 19408
19408 19489
19489 19572
19572 19654
19654 19735
19735 19816
19816 19899
19899 19980
19980 20061
20061 20142
20142 20224
20224 20305
20305 20386
20386 20467
20467 20549
20549 20629
20629 20710
20710 20791
20791 20872
20872 20953
20953 21034
21034 21115
21115 21196
21196 21277
21277 21358
21358 21440
21440 21520
21520 21602
21602 21683
21683 21764
21764 21845
21845 21926
21926 22007
22007 22088
22088 22169
22169 22250
22250 22331
22331 22413
22413 22493
22493 22575
22575 22657
22657 22738
22738 22818
22818 22900
22900 22982
22982 23063
23063 23144
23144 23226
23226 23308
23308 23389
23389 23470
23470 23552
23552 23634
23634 23715
23715 23796
23796 23878
23878 23960
23960 24041
24041 24122
24122 24204
24204 24286
24286 24368
24368 24449
24449 24531
24531 24613
24613 24695
24695 24776
24776 24859
24859 24940
24940 25022
25022 25103
25103 25185
25185 25267
25267 25349
25349 25430
25430 25512
25512 25593
25593 25675
25675 25756
25756 25838
25838 25919
25919 26000
26000 26081
26081 26163
26163 26245
26245 26326
26326 26408
26408 26490
26490 26572
26572 26653
26653 26735
26735 26817
26817 26899
26899 26981
26981 27063
27063 27145
27145 27227
27227 27308
27308 27391
27391 27473
27473 27554
27554 27636
27636 27718
27718 27799
27799 27881
27881 27963
27963 28045
28045 28126
28126 28207
28207 28289
28289 28371
28371 28453
28453 28534
28534 28616
28616 28698
28698 28780
28780 28862
28862 28944
28944 29027
29027 29109
29109 29191
29191 29273
29273 29355
29355 29436
29436 29518
29518 29599
29599 29681
29681 29762
29762 29843
29843 29924
29924 30006
30006 30086
30086 30167
30167 30248
30248 30329
30329 30410
30410 30492
30492 30574
30574 30656
30656 30738
30738 30820
30820 30902
30902 30984
30984 31066
31066 31147
31147 31229
31229 31311
31311 31392
31392 31473
31473 31555
31555 31635
31635 31716
31716 31798
31798 31879
31879 31960
31960 32041
32041 32122
32122 32203
32203 32284
32284 32365
32365 32447
32447 32529
