3067 3151
3151 3235
3235 3319
3319 3403
3403 3488
3488 3572
3572 3656
3656 3741
3741 3826
3826 3910
3910 3995
3995 4080
4080 4165
4165 4250
4250 4336
4336 4422
4422 4507
4507 4593
4593 4679
4679 4765
4765 4851
4851 4937
4937 5024
5024 5120
5120 5206
5206 5293
5293 5380
5380 5466
5466 5553
5553 5640
5640 5727
5727 5813
5813 5900
5900 5987
5987 6074
6074 6160
6160 6247
6247 6334
6334 6421
6421 6509
6509 6595
6595 6682
6682 6770
6770 6857
6857 6944
6944 7031
7031 7119
7119 7206
7206 7293
7293 7381
7381 7468
7468 7556
7556 7643
7643 7731
7731 7819
7819 7906
7906 7994
7994 8082
8082 8168
8168 8257
8257 8345
8345 8432
8432 8518
8518 8606
8606 8694
8694 8781
8781 8869
8869 8957
8957 9044
9044 9131
9131 9219
9219 9307
9307 9394
9394 9482
9482 9571
9571 9658
9658 9745
9745 9834
9834 9922
10042 10130
