3422 3506
3593 3764
7747 7833
7833 7918
7918 8003
8003 8111
8111 8198
8198 8285
8285 8372
8372 8458
8458 8544
8544 8631
8631 8717
8717 8803
8803 8889
8889 8975
8975 9061
9061 9147
9147 9232
9232 9318
9318 9404
9404 9490
9490 9577
9577 9664
9664 9751
9751 9837
9837 9924
9924 10011
10011 10125
10125 10211
10211 10296
10296 10383
10383 10468
10468 10557
10557 10641
10641 10729
10729 10814
10814 10900
10900 10986
10986 11033
11033 11118
11118 11204
11204 11291
11291 11376
11376 11463
11463 11549
11549 11635
11635 11721
11721 11807
11807 11892
11892 11977
11977 12031
12031 12114
12114 12197
12197 12281
12281 12365
12365 12448
12448 12531
12531 12602
12602 12685
12685 12768
12768 12852
12852 12936
12936 13019
13019 13103
13103 13187
13187 13272
13272 13356
13356 13440
13440 13525
13525 13610
13610 13696
13696 13782
13782 13868
13868 13954
13954 14040
14040 14126
14126 14211
14211 14297
14297 14383
14383 14468
14468 14554
14554 14640
14640 14726
14726 14812
14812 14897
14897 14982
14982 15068
15068 15153
15153 15238
15238 15324
15324 15409
15409 15494
15494 15579
15579 15665
15665 15750
15750 15835
15835 15921
15921 16006
16006 16092
16092 16177
16177 16262
16262 16347
16347 16433
16433 16518
16518 16603
16603 16688
16688 16773
16773 16858
16858 16943
16943 17028
17028 17133
17133 17219
17219 17304
17304 17389
17389 17472
17472 17557
17557 17641
17641 17725
17725 17809
17809 17893
17893 17977
17977 18060
18060 18144
18144 18203
18203 18286
18286 18369
18369 18453
18453 18536
18536 18620
18620 18703
18703 18786
18786 18869
18869 18953
18953 19036
19036 19119
19119 19204
19204 19288
19288 19372
19372 19455
19455 19540
19540 19625
19625 19708
19708 19793
19793 19879
19879 19963
19963 20022
20022 20065
20065 20150
20150 20234
20234 20319
20319 20404
20404 20489
20489 20574
20574 20659
20659 20744
20744 20829
20829 20913
20913 20998
20998 21083
21083 21168
21168 21253
21253 21338
21338 21398
21398 21483
21483 21567
21567 21653
21653 21738
21738 21823
21823 21908
