4812 4894
4894 4977
4977 5059
5059 5141
5141 5224
5224 5306
5306 5388
5388 5470
5470 5552
5552 5634
5634 5716
5716 5798
5798 5881
5881 5963
5963 6044
6044 6127
6127 6209
6209 6292
6292 6374
6374 6457
6457 6540
6540 6622
6622 6705
6705 6787
6787 6870
6870 6952
6952 7035
7035 7118
7118 7200
7200 7282
7282 7365
7365 7447
7447 7530
7530 7612
7612 7695
7695 7777
7777 7860
7860 7942
7942 8024
8024 8107
8107 8189
8189 8272
8272 8354
8354 8437
8437 8519
8519 8601
8601 8684
8684 8767
8767 8849
8849 8932
8932 9015
9015 9098
9098 9180
9180 9263
9263 9345
9345 9428
9428 9510
9510 9593
9593 9675
9675 9758
9758 9841
9841 9923
9923 10006
10006 10089
10089 10172
10172 10255
10255 10338
10338 10420
10420 10503
10503 10585
10585 10668
10668 10751
10751 10833
10833 10916
10916 10999
10999 11082
11082 11165
11165 11247
11247 11330
11330 11412
11412 11495
11495 11578
11578 11660
11660 11744
11744 11827
11827 11910
11910 11994
11994 12077
12077 12160
12160 12243
12243 12326
12326 12409
12409 12492
12492 12575
12575 12657
12657 12740
12740 12823
12823 12906
12906 12989
12989 13072
13072 13155
13155 13238
13238 13321
13321 13404
13404 13487
13487 13570
13570 13654
13654 13737
13737 13820
13820 13904
13904 13987
13987 14040
14040 14123
14123 14205
14205 14288
14288 14371
14371 14453
14453 14536
14536 14618
14618 14701
14701 14783
14783 14866
14866 14948
14948 15030
15030 15112
15112 15194
15194 15276
15276 15358
15358 15440
15440 15522
15522 15604
15604 15686
15686 15768
15768 15850
15850 15931
15931 16014
16014 16096
16096 16178
16178 16260
16260 16342
16342 16424
16424 16506
16506 16588
16588 16670
16670 16751
16751 16833
16833 16915
16915 16997
16997 17079
17079 17161
17161 17242
17242 17323
17323 17406
17406 17487
17487 17569
17569 17626
17626 17708
17708 17790
17790 17871
17871 17953
17953 18034
18034 18116
18116 18198
18198 18280
18280 18361
18361 18442
18442 18524
18524 18606
18606 18687
18687 18769
18769 18851
18851 18933
18933 19015
19015 19097
19097 19178
19178 19260
19260 19342
19342 19424
19424 19506
19506 19588
19588 19646
19646 19727
19727 19809
19809 19891
19891 19973
19973 20055
20055 20137
20137 20219
20219 20301
20301 20384
20384 20466
20466 20549
20549 20630
20630 20714
20714 20796
20796 20878
20878 20960
20960 21043
21043 21124
21124 21206
21206 21288
21288 21370
21370 21452
21452 21534
21534 21616
21616 21698
21698 21781
21781 21863
21863 21945
21945 22026
22026 22109
22109 22191
22191 22273
22273 22355
22355 22438
22438 22520
22520 22602
22602 22685
22685 22767
22767 22850
22850 22932
22932 23015
23015 23097
23097 23180
23180 23262
23262 23345
23345 23427
23427 23509
23509 23592
23592 23674
23674 23757
23757 23839
23839 23921
23921 24003
24003 24085
24085 24167
24167 24248
24248 24331
24331 24413
24413 24495
24495 24576
24576 24658
24658 24740
24740 24822
24822 24904
24904 24987
24987 25069
25069 25150
25150 25233
25233 25315
25315 25397
25397 25480
25480 25562
25562 25644
25644 25726
25726 25808
25808 25890
25890 25972
25972 26054
26054 26136
26136 26218
26218 26300
26300 26382
26382 26463
26463 26545
26545 26627
26627 26709
26709 26790
26790 26872
26872 26954
26954 27036
27036 27118
27118 27200
27200 27282
27282 27364
27364 27447
27447 27529
27529 27611
27611 27693
27693 27775
27775 27857
27857 27940
27940 28022
28022 28103
28103 28185
28185 28268
28268 28354
28354 28436
28436 28518
28518 28600
28600 28681
28681 28763
28763 28845
28845 28927
28927 29173
29173 29254
29254 29417
29417 29499
29417 29499
29499 29744
29744 30071
30071 30313
30313 30397
30397 30478
30478 30561
30561 30643
30643 30726
30726 30808
30808 30889
30889 30971
30971 31052
31052 31134
31134 31215
31215 31297
31297 31378
31378 31459
31459 31541
31541 31622
31622 31702
31702 31783
31783 31865
31865 31947
31947 32028
32028 32111
32111 32193
32193 32275
32275 32358
32358 32440
32440 32522
32522 32604
32604 32687
32687 32769
32769 32850
32850 32933
32933 33016
33016 33098
33098 33181
33181 33263
33263 33345
33345 33425
33425 33507
33507 33588
33588 33669
33669 33751
33751 33832
33832 33913
33913 33995
33995 34076
34076 34157
34157 34237
34237 34318
34318 34399
34399 34479
34479 34559
34559 34640
34640 34720
34720 34800
34800 34880
34880 34960
34960 35039
35039 35119
35119 35199
35199 35279
35279 35359
35359 35414
35414 35493
35493 35573
35573 35654
35654 35734
35734 35814
35814 35894
35894 35974
35974 36018
36018 36132
36132 36214
36214 36295
36295 36377
36377 36458
36458 36540
36540 36622
36622 36703
36703 36785
36785 36866
36866 36947
36947 37029
37029 37110
37110 37191
37191 37273
37273 37354
37354 37435
37435 37517
37517 37598
37598 37679
37679 37760
37760 37842
37842 37923
37923 38004
38004 38085
38085 38167
38167 38249
38249 38330
38330 38412
38412 38493
38493 38575
38575 38656
38656 38737
38737 38818
38818 38900
38900 38981
38981 39063
39063 39144
39144 39226
39226 39308
39308 39390
39390 39472
39472 39554
39554 39636
39636 39718
39718 39800
39800 39883
39883 39940
39940 40021
40021 40104
40104 40186
40186 40268
40268 40351
40351 40433
40433 40515
40515 40597
40597 40679
40679 40762
40762 40844
40844 40926
40926 41008
41008 41090
41090 41172
41172 41254
41254 41336
41336 41418
41418 41501
41501 41583
41583 41665
41665 41746
41746 41828
41828 41910
41910 41992
41992 42075
42075 42157
42157 42239
42239 42321
42321 42403
42403 42485
42485 42567
42567 42649
42649 42731
42731 42813
42813 42895
42895 42977
42977 43060
43060 43142
43142 43224
43224 43306
43306 43389
43389 43472
43472 43556
43556 43638
43638 43721
43721 43805
43805 43888
43888 43972
43972 44055
44055 44137
44137 44220
44220 44303
44303 44386
44386 44469
44469 44552
44552 44635
44635 44717
44717 44801
44801 44884
44884 44966
44966 45049
45049 45132
45132 45215
45215 45298
45298 45381
45381 45464
45464 45547
45547 45630
45630 45712
45712 45796
45796 45879
45879 45962
45962 46045
46045 46129
46129 46212
46212 46296
46296 46378
46378 46462
46462 46546
46546 46629
46629 46712
46712 46795
46795 46878
46878 46960
46960 47044
47044 47127
47127 47210
47210 47292
47292 47375
47375 47458
47458 47541
47541 47624
47624 47707
47707 47790
47790 47873
47873 47956
47956 48039
48039 48122
48122 48205
48205 48289
48289 48371
48371 48454
48454 48538
48538 48621
48621 48704
48704 48788
48788 48872
48872 48955
48955 49038
49038 49122
49122 49204
49204 49287
49287 49370
49370 49453
49453 49535
49535 49618
49618 49701
49701 49783
49783 49867
49867 49949
49949 50032
50032 50115
50115 50198
50198 50281
50281 50363
50363 50446
50446 50529
50529 50611
50611 50694
50694 50776
50776 50858
50858 50941
50941 51023
51023 51105
51105 51187
51187 51270
51270 51353
51353 51435
51435 51517
51517 51600
51600 51682
51682 51764
51764 51847
51847 51929
51929 52011
52011 52094
52094 52176
52176 52258
52258 52341
52341 52423
52423 52505
52505 52588
52588 52670
52670 52752
52752 52834
52834 52916
52916 52998
52998 53080
53080 53163
53163 53245
53245 53327
53327 53409
53409 53492
53492 53574
53574 53656
53656 53738
53738 53820
53820 53902
53902 53985
53985 54067
54067 54149
54149 54231
54231 54314
54314 54396
54396 54479
54479 54561
54561 54643
54643 54726
54726 54808
54808 54890
54890 54973
54973 55055
55055 55137
55137 55220
55220 55302
55302 55385
55385 55467
55467 55550
55550 55632
55632 55715
55715 55797
55797 55878
55878 55961
55961 56043
56043 56125
56125 56207
56207 56289
56289 56371
56371 56452
56452 56535
56535 56617
56617 56698
56698 56781
56781 56863
56863 56945
56945 57027
57027 57110
57110 57192
57192 57274
57274 57357
57357 57440
57440 57522
57522 57605
57605 57687
57687 57770
57770 57852
57852 57935
57935 58018
58018 58101
58101 58184
58184 58268
58268 58351
58351 58435
58435 58518
58518 58601
58601 58684
58684 58766
58766 58850
58850 58932
58932 59015
59015 59098
59098 59180
59180 59263
59263 59346
59346 59429
59429 59511
59511 59594
59594 59676
59676 59759
59759 59841
59841 59924
59924 60007
60007 60089
60089 60172
60172 60254
60254 60337
60337 60420
60420 60503
60503 60586
60586 60668
60668 60752
60752 60835
60835 60917
60917 61000
61000 61083
61083 61166
61166 61249
61249 61331
61331 61414
61414 61496
61496 61579
61579 61661
61661 61744
61744 61827
61827 61909
61909 61992
61992 62074
62074 62157
62157 62240
62240 62322
62322 62405
62405 62487
62487 62569
62569 62652
62652 62735
62735 62817
62817 62899
62899 62982
62982 63065
63065 63147
63147 63230
63230 63313
63313 63396
63396 63478
63478 63561
63561 63644
63644 63727
63727 63810
63810 63893
63893 63976
63976 64059
64059 64142
64142 64225
64225 64308
64308 64392
64392 64475
64475 64558
64558 64641
64641 64725
64725 64808
64808 64891
64891 64975
64975 65059
65059 65142
65142 65226
65226 65310
65310 65393
65393 65477
65477 65561
65561 65645
65645 65729
65729 65813
65813 65897
65897 65980
65980 66064
66064 66148
66148 66232
66232 66315
66315 66399
66399 66483
66483 66567
66567 66650
66650 66734
66734 66817
66817 66900
66900 66984
66984 67068
67068 67151
67151 67234
67234 67317
67317 67400
67400 67483
67483 67567
67567 67650
67650 67733
67733 67816
67816 67899
67899 67982
67982 68064
68064 68147
68147 68229
68229 68312
68312 68394
68394 68477
68477 68560
68560 68642
68642 68725
68725 68807
68807 68890
68890 68973
68973 69055
69055 69138
69138 69221
69221 69303
69303 69386
69386 69468
69468 69551
69551 69633
69633 69716
69716 69799
69799 69881
69881 69964
69964 70047
70047 70130
70130 70212
70212 70295
70295 70378
70378 70460
70460 70543
70543 70626
70626 70709
70709 70792
70792 70875
70875 70958
70958 71040
71040 71123
71123 71206
71206 71288
71288 71370
71370 71453
71453 71536
71536 71618
71618 71701
71701 71783
71783 71866
