78 159
159 241
241 323
323 404
404 487
487 568
568 650
650 730
730 812
812 894
894 976
976 1058
1058 1140
1140 1222
1222 1303
1303 1385
1385 1467
1467 1549
1549 1630
1630 1713
1713 1794
1794 1876
1876 1958
1958 2039
2039 2120
2120 2202
2202 2284
2284 2366
2366 2403
2403 2512
2512 2596
2596 2679
2679 2761
2761 2844
2844 2927
2927 3010
3010 3092
3092 3175
3175 3257
3257 3339
3339 3422
3422 3504
3504 3587
3587 3669
3669 3752
3752 3834
3834 3916
3916 3999
3999 4081
4081 4164
4164 4246
4246 4328
4328 4411
4411 4493
4493 4575
4575 4657
4657 4740
4740 4821
4821 4903
4903 4986
4986 5067
5067 5149
5149 5232
5232 5314
5314 5395
5395 5477
5477 5560
5560 5641
5641 5723
5723 5806
5806 5888
5888 5969
5969 6052
6052 6134
6134 6216
6216 6298
6298 6380
6380 6461
6461 6542
6542 6625
6625 6707
6707 6788
6788 6870
6870 6952
6952 7034
7034 7115
7115 7197
7197 7280
7280 7361
7361 7443
7443 7526
7526 7607
7607 7688
7688 7771
7771 7853
7853 7934
7934 8015
8015 8097
8097 8179
8179 8260
8260 8342
8342 8425
8425 8506
8506 8587
8587 8669
8669 8751
8751 8833
8833 8915
8915 8997
8997 9078
9078 9159
9159 9241
9241 9323
9323 9404
9404 9486
9486 9569
9569 9650
9650 9732
9732 9814
9814 9897
9897 9978
9978 10060
10060 10143
10143 10224
10224 10305
10305 10388
10388 10470
10470 10551
10551 10632
10632 10714
10714 10796
10796 10877
10877 10959
10959 11041
11041 11122
11122 11204
11204 11287
11287 11368
11368 11449
11449 11532
11532 11614
11614 11695
11695 11777
11777 11860
11860 11941
11941 12022
12022 12105
12105 12187
12187 12268
12268 12351
12351 12433
12433 12515
12515 12596
12596 12679
12679 12762
12762 12843
12843 12926
12926 13008
13008 13090
13090 13171
13171 13254
13254 13336
13336 13418
13418 13499
13499 13581
13581 13663
13663 13745
13745 13827
13827 13908
13908 13990
13990 14072
14072 14153
14153 14237
14237 14320
14320 14401
14401 14484
14484 14567
14567 14649
14649 14731
14731 14814
14814 14897
14897 14979
14979 15061
15061 15144
15144 15227
15227 15309
15309 15392
15392 15474
15474 15557
15557 15639
15639 15722
15722 15805
15805 15887
15887 15969
15969 16052
16052 16133
16133 16215
16215 16297
16297 16380
16380 16462
16462 16544
16544 16626
16626 16709
16709 16791
16791 16874
16874 16957
16957 17039
17039 17122
17122 17205
17205 17287
17287 17369
17369 17452
17452 17534
17534 17616
17616 17698
17698 17781
17781 17864
17864 17945
17945 18028
18028 18111
18111 18192
18192 18274
18274 18357
18357 18439
18439 18521
18521 18603
18603 18686
18686 18767
18767 18849
18849 18932
18932 19014
19014 19120
19120 19202
19202 19285
19285 19366
19366 19447
19447 19530
19530 19612
19612 19693
19693 19775
19775 19857
19857 19939
19939 20020
20020 20102
20102 20185
20185 20265
20265 20347
20347 20429
20429 20511
20511 20592
20592 20674
20674 20756
20756 20837
20837 20918
20918 21000
21000 21082
21082 21163
21163 21245
21245 21327
21327 21408
21408 21489
21489 21571
21571 21653
21653 21734
21734 21817
21817 21899
21899 21980
21980 22062
22062 22145
22145 22227
22227 22308
22308 22391
22391 22473
22473 22554
22554 22636
22636 22719
22719 22801
22801 22882
22882 22965
22965 23047
23047 23128
23128 23210
23210 23292
23292 23373
23373 23454
23454 23536
23536 23618
23618 23699
23699 23781
23781 23862
23862 23944
23944 24026
24026 24108
24108 24190
24190 24271
24271 24353
24353 24424
24424 24506
24506 24589
24589 24671
24671 24752
24752 24834
24834 24915
24915 24997
24997 25079
25079 25160
25160 25242
25242 25323
25323 25405
25405 25487
25487 25568
25568 25650
25650 25731
25731 25812
25812 25893
25893 25975
25975 26056
26056 26137
26137 26218
26218 26300
26300 26381
26381 26462
26462 26543
26543 26624
26624 26706
26706 26787
26787 26869
26869 26951
26951 27033
27033 27114
27114 27196
27196 27278
27278 27360
27360 27442
27442 27525
27525 27606
27606 27688
27688 27770
27770 27852
27852 27933
27933 28015
28015 28098
28098 28179
28179 28261
28261 28343
28343 28425
28425 28506
28506 28589
28589 28671
28671 28753
28753 28834
28834 28916
28916 28998
28998 29080
29080 29162
29162 29243
29243 29325
29325 29407
29407 29489
29489 29572
29572 29653
29653 29734
29734 29817
29817 29900
29900 29981
29981 30063
30063 30145
30145 30228
30228 30309
30309 30391
30391 30474
30474 30556
30556 30638
30638 30720
30720 30802
30802 30884
30884 30966
30966 31049
31049 31131
31131 31212
31212 31295
31295 31377
31377 31459
31459 31541
31541 31623
31623 31705
31705 31786
31786 31869
31869 31951
31951 32032
32032 32114
32114 32196
32196 32278
32278 32359
32359 32441
32441 32523
32523 32603
32603 32684
32684 32766
32766 32847
32847 32928
32928 33038
33038 33118
33118 33198
33198 33279
33279 33360
33360 33439
33439 33519
33519 33598
33598 33678
33678 33757
33757 33837
33837 33916
33916 33995
33995 34075
34075 34154
34154 34233
34233 34313
34313 34392
34392 34472
34472 34553
34553 34633
34633 34712
34712 34793
34793 34873
34873 34953
34953 35033
35033 35114
35114 35194
35194 35274
35274 35355
35355 35436
35436 35516
35516 35596
35596 35677
35677 35758
35758 35839
35839 35919
35919 36001
36001 36087
36087 36137
36137 36219
36219 36300
36300 36381
36381 36462
36462 36543
36543 36625
36625 36705
36705 36787
36787 36868
36868 36950
36950 37031
37031 37112
37112 37193
37193 37274
37274 37355
37355 37436
37436 37518
37518 37598
37598 37680
37680 37761
37761 37842
37842 37923
37923 38004
38004 38086
38086 38167
38167 38248
38248 38330
38330 38411
38411 38492
38492 38574
38574 38656
38656 38736
38736 38818
38818 38900
38900 38981
38981 39061
39061 39143
39143 39225
39225 39306
39306 39387
39387 39469
39469 39550
39550 39631
39631 39714
39714 39796
39796 39877
39877 39958
39958 40041
40041 40123
40123 40205
40205 40288
40288 40370
40370 40453
40453 40534
40534 40617
40617 40700
40700 40781
40781 40864
40864 40947
40947 41028
41028 41110
41110 41192
41192 41274
41274 41356
41356 41438
41438 41520
41520 41602
41602 41684
41684 41766
41766 41847
41847 41929
41929 42011
42011 42093
42093 42175
42175 42256
42256 42338
42338 42420
42420 42502
42502 42583
42583 42664
42664 42746
42746 42828
42828 42910
42910 42992
42992 43074
43074 43155
43155 43237
43237 43319
43319 43401
43401 43483
43483 43565
43565 43647
43647 43728
43728 43810
43810 43892
43892 43973
43973 44055
44055 44137
44137 44219
44219 44301
44301 44383
44383 44466
44466 44547
44547 44629
44629 44711
44711 44793
44793 44874
44874 44956
44956 45038
45038 45119
45119 45200
45200 45282
45282 45364
45364 45445
45445 45526
