2071 2205
3523 3602
5861 5940
7361 7520
11879 12040
12040 12120
12120 12199
12199 12279
12279 12358
12358 12438
12438 12517
12517 12596
12596 12675
12675 12800
12800 12879
12879 12959
12959 13073
13073 13153
13153 13231
13231 13311
13311 13390
13390 13470
13470 13550
13550 13628
13628 13708
13708 13787
13787 13866
13866 13945
13945 14025
14025 14106
14106 14186
14186 14266
14266 14346
14346 14426
14426 14505
14505 14585
14585 14666
14666 14745
14745 14825
14825 14880
14880 14960
14960 15041
15041 15121
15121 15200
15200 15279
15279 15359
15359 15439
15439 15518
15518 15597
15597 15677
15677 15756
15756 15836
15836 15916
15916 15995
15995 16075
16075 16156
16156 16235
16235 16315
16315 16395
16395 16475
16475 16554
16554 16634
16634 16714
16714 16794
16794 16875
16875 16956
16956 17036
17036 17116
17116 17194
17194 17274
17274 17354
17354 17514
17514 17594
17594 17674
17674 17754
17754 17832
