246 362
362 417
417 489
489 542
542 627
627 742
742 795
795 880
880 995
995 1049
1049 1133
1133 1218
1218 1303
1303 1388
1388 1473
1473 1558
1558 1642
1642 1757
1757 1843
1843 1897
1897 1981
1981 2066
2066 2150
2150 2234
2234 2319
2319 2403
2403 2518
2518 2571
2571 2655
2655 2770
2770 2823
2823 2907
2907 3022
3022 3085
3085 3170
3170 3254
3254 3306
3306 3390
3390 3505
3505 3588
