9 48
48 121
121 195
195 268
268 342
489 562
562 636
636 709
709 783
783 857
857 931
931 1005
1005 1062
1062 1135
1135 1209
1209 1283
1283 1357
1357 1431
1431 1504
1504 1578
1578 1651
1651 1725
1725 1799
1799 1873
1873 1946
1946 2020
2020 2109
2109 2183
2183 2257
2257 2332
2332 2406
2406 2481
2481 2555
2555 2629
2629 2703
2703 2778
2778 2853
2853 2927
2927 3002
3002 3077
3077 3152
3152 3227
3227 3302
3302 3377
3377 3427
3427 3502
3502 3577
3577 3653
3653 3728
3728 3803
3803 3878
3878 3953
3953 4028
4028 4103
4103 4178
4178 4253
4253 4328
4328 4402
4402 4477
4477 4552
4552 4627
4627 4702
4702 4776
4776 4852
4852 4926
4926 5001
5001 5076
5076 5150
5150 5225
5225 5300
5300 5376
5376 5451
5451 5527
5527 5602
5602 5678
5678 5754
5754 5829
5829 5904
5904 5979
5979 6054
6054 6128
6128 6203
6203 6278
6278 6353
6353 6427
6427 6502
6502 6577
6577 6653
6653 6728
6728 6803
6803 6879
6879 6954
6954 7030
7030 7105
7105 7182
7182 7257
7257 7333
7333 7409
7409 7485
7485 7560
7560 7636
7636 7711
7711 7787
7787 7862
7862 7937
7937 8012
8012 8087
8087 8163
8163 8238
8238 8313
8313 8388
8388 8463
8463 8538
8538 8614
8614 8689
8689 8764
8764 8839
8839 8915
8915 8990
8990 9065
9065 9140
9140 9216
9216 9292
9292 9368
9368 9443
9443 9519
9519 9595
9595 9671
9671 9747
9747 9823
9823 9899
9899 9974
9974 10050
10050 10125
10125 10200
10200 10275
10275 10352
10352 10427
10427 10503
10503 10579
10579 10655
10655 10731
10731 10807
10807 10882
10882 10959
10959 11034
11034 11110
11110 11186
11186 11262
11262 11337
11337 11413
11413 11489
11489 11565
11565 11640
11640 11716
11716 11792
11792 11868
11868 11943
11943 12019
12019 12069
12069 12145
12145 12220
12220 12295
12295 12371
12371 12446
12446 12522
12522 12598
12598 12675
12675 12751
12751 12827
12827 12902
12902 12979
12979 13055
13055 13131
13131 13207
13207 13283
13283 13358
13358 13434
13434 13509
13509 13585
13585 13661
13661 13737
13737 13813
13813 13889
13889 13965
13965 14041
14041 14117
14117 14193
14193 14269
14269 14345
14345 14421
14421 14498
14498 14574
14574 14625
14625 14701
14701 14778
14778 14854
14854 14931
14931 15007
15007 15083
15083 15159
15159 15236
15236 15311
15311 15388
15388 15463
15463 15539
15539 15614
15614 15690
15690 15765
15765 15840
15840 15915
15915 15990
15990 16065
16065 16140
16140 16214
16214 16288
16288 16362
16362 16437
16437 16511
16511 16584
16584 16658
16658 16732
16732 16806
16806 16880
16880 16954
16954 17028
17028 17101
17101 17175
17175 17249
17249 17323
17323 17397
17397 17472
17472 17547
17547 17623
17623 17698
17698 17774
17774 17849
17849 17976
17976 18052
18052 18129
18129 18205
18205 18282
18282 18358
18358 18434
18434 18510
18510 18586
18586 18662
18662 18737
18737 18863
18863 18913
18913 18988
18988 19064
19064 19139
19139 19214
19214 19289
19289 19364
19364 19439
19439 19513
19513 19588
19588 19663
19663 19738
19738 19813
19813 19888
19888 19963
19963 20038
20038 20113
20113 20187
20187 20263
20263 20338
20338 20413
20413 20487
20487 20562
20562 20637
20637 20712
20712 20786
20786 20862
20862 20937
20937 21011
21011 21107
21107 21182
21182 21257
21257 21332
21332 21407
21407 21481
21481 21556
21556 21631
21631 21706
21706 21781
21781 21856
21856 21931
21931 22006
22006 22080
22080 22156
22156 22231
22231 22306
22306 22381
22381 22456
22456 22532
22532 22607
22607 22682
22682 22758
22758 22833
22833 22908
22908 22983
22983 23059
23059 23134
23134 23209
23209 23284
23284 23359
23359 23434
23434 23509
23509 23584
23584 23660
23660 23735
23735 23811
23811 23886
23886 23962
23962 24037
24037 24112
24112 24188
24188 24263
24263 24338
24338 24414
24414 24490
24490 24565
24565 24641
24641 24717
24717 24792
24792 24868
24868 24944
24944 25019
25019 25094
25094 25170
25170 25245
25245 25320
25320 25396
25396 25471
25471 25546
25546 25622
25622 25697
25697 25773
25773 25849
25849 25925
25925 26002
26002 26078
26078 26154
26154 26231
26231 26307
26307 26384
26384 26460
26460 26537
26537 26613
26613 26689
26689 26766
26766 26842
26842 26918
26918 26993
26993 27098
27098 27172
27172 27247
27247 27321
27321 27395
27395 27470
27470 27544
27544 27618
27618 27692
27692 27767
27767 27842
27842 27918
27918 27993
27993 28068
28068 28144
28144 28219
28219 28294
28294 28370
28370 28446
28446 28521
28521 28596
28596 28672
28672 28747
28747 28822
28822 28898
28898 28974
28974 29049
29049 29125
29125 29201
29201 29277
29277 29352
29352 29428
29428 29503
29503 29579
29579 29655
29655 29730
29730 29806
29806 29882
29882 29957
29957 30033
30033 30108
30108 30185
30185 30261
30261 30337
30337 30388
30388 30465
30465 30541
30541 30616
30616 30692
30692 30768
30768 30844
30844 30920
30920 30996
30996 31072
31072 31148
31148 31224
31224 31300
31300 31376
31376 31452
31452 31528
31528 31603
31603 31679
31679 31754
31754 31829
31829 31904
31904 31979
31979 32055
32055 32130
32130 32206
32206 32282
32282 32358
32358 32434
32434 32510
32510 32586
32586 32662
32662 32738
32738 32814
32814 32891
32891 32967
32967 33043
33043 33120
33120 33197
33197 33274
33274 33351
33351 33427
33427 33505
33505 33581
33581 33658
33658 33735
33735 33813
33813 33889
33889 33966
33966 34042
34042 34119
34119 34196
34196 34273
34273 34349
34349 34426
34426 34502
34502 34579
34579 34656
34656 34731
34731 34807
34807 34883
34883 34959
34959 35034
35034 35110
35110 35186
35186 35261
35261 35336
35336 35412
35412 35488
35488 35564
35564 35640
35640 35716
35716 35791
35791 35868
35868 35944
35944 36020
36020 36096
36096 36172
36172 36248
36248 36324
36324 36400
36400 36476
36476 36552
36552 36629
36629 36705
36705 36782
36782 36858
36858 36934
36934 37011
37011 37087
37087 37163
37163 37239
37239 37316
37316 37391
37391 37467
37467 37543
37543 37618
37618 37694
37694 37769
37769 37845
37845 37920
37920 37996
37996 38071
38071 38147
38147 38223
38223 38298
38298 38374
38374 38450
38450 38526
38526 38602
38602 38678
38678 38753
38753 38829
38829 38905
38905 38981
38981 39056
39056 39133
39133 39209
39209 39285
39285 39361
39361 39437
39437 39514
39514 39590
39590 39666
39666 39742
39742 39819
39819 39895
39895 39971
39971 40047
40047 40123
40123 40199
40199 40275
40275 40350
40350 40426
40426 40501
40501 40577
40577 40652
40652 40727
40727 40801
40801 40876
40876 40950
40950 41024
41024 41098
41098 41173
41173 41247
41247 41321
41321 41396
41396 41471
41471 41546
41546 41621
41621 41695
41695 41771
41771 41846
41846 41921
41921 41996
41996 42071
42071 42146
42146 42221
42221 42295
42295 42370
42370 42444
42444 42519
42519 42594
42594 42643
42643 42717
42717 42792
42792 42866
42866 42940
42940 43015
43015 43090
43090 43164
43164 43238
43238 43313
43313 43387
43387 43462
43462 43536
43536 43611
43611 43685
43685 43760
43760 43834
43834 43909
43909 43983
43983 44057
44057 44132
44132 44206
44206 44280
44280 44355
44355 44429
44429 44504
44504 44578
44578 44653
44653 44727
44727 44802
44802 44876
44876 44950
44950 45025
45025 45099
45099 45173
45173 45247
45247 45321
45321 45395
45395 45469
45469 45543
45543 45617
45617 45692
45692 45766
45766 45839
45839 45914
45914 45987
45987 46061
46061 46135
46135 46209
46209 46282
46282 46356
46356 46429
46429 46503
46503 46577
46577 46651
46651 46724
46724 46799
46799 46873
46873 46947
46947 47021
47021 47095
47095 47170
47170 47244
47244 47318
47318 47392
47392 47466
47466 47540
47540 47615
47615 47690
47690 47764
47764 47839
47839 47913
47913 47988
47988 48062
48062 48137
48137 48211
48211 48285
48285 48360
48360 48434
48434 48509
48509 48583
48583 48657
48657 48732
48732 48806
48806 48881
48881 48955
48955 49029
49029 49104
49104 49178
49178 49252
49252 49326
49326 49400
49400 49475
49475 49549
49549 49623
49623 49698
49698 49772
49772 49846
49846 49921
49921 49995
49995 50070
50070 50144
50144 50218
50218 50292
50292 50366
50366 50441
50441 50515
50515 50589
50589 50663
50663 50738
50738 50812
50812 50886
50886 50960
50960 51035
51035 51109
51109 51183
51183 51257
51257 51331
51331 51406
51406 51480
51480 51554
51554 51628
51628 51702
51702 51777
51777 51850
51850 51925
51925 51999
51999 52073
52073 52147
52147 52222
52222 52297
52297 52371
52371 52446
52446 52520
52520 52594
52594 52668
52668 52743
52743 52817
52817 52891
52891 52965
52965 53040
53040 53114
53114 53189
53189 53263
53263 53338
53338 53413
53413 53488
53488 53563
53563 53638
53638 53713
53713 53788
53788 53863
53863 53938
53938 54013
54013 54088
54088 54163
54163 54238
54238 54313
54313 54387
54387 54462
54462 54537
54537 54612
54612 54687
54687 54761
54761 54837
54837 54912
54912 54986
54986 55061
55061 55136
55136 55211
55211 55286
55286 55360
55360 55435
55435 55510
55510 55584
55584 55659
55659 55734
55734 55809
55809 55884
55884 55958
55958 56041
56041 56116
56116 56191
56191 56267
56267 56343
56343 56418
56418 56493
56493 56569
56569 56644
56644 56719
56719 56795
56795 56871
56871 56947
56947 57023
57023 57098
57098 57175
57175 57251
57251 57327
57327 57402
57402 57479
57479 57554
57554 57629
57629 57705
57705 57781
57781 57856
57856 57932
57932 58008
58008 58084
58084 58160
58160 58236
58236 58312
58312 58388
58388 58464
58464 58539
58539 58590
58590 58666
58666 58741
58741 58816
58816 58891
58891 58967
58967 59042
59042 59117
59117 59192
59192 59267
59267 59342
59342 59416
59416 59491
59491 59567
59567 59641
59641 59716
59716 59791
59791 59866
59866 59940
59940 60015
60015 60071
60071 60146
60146 60221
60221 60297
60297 60372
60372 60447
60447 60522
60522 60597
60597 60671
60671 60746
60746 60821
60821 60896
60896 60970
60970 61045
61045 61120
61120 61195
61195 61270
61270 61345
61345 61420
61420 61495
61495 61570
61570 61645
61645 61721
61721 61796
61796 61871
61871 61946
61946 62021
62021 62097
62097 62172
62172 62248
62248 62323
62323 62398
62398 62474
62474 62549
62549 62624
62624 62700
62700 62775
62775 62850
62850 62925
62925 63000
63000 63075
63075 63151
63151 63227
63227 63302
63302 63378
63378 63453
63453 63528
63528 63604
63604 63679
63679 63755
63755 63831
63831 63906
63906 63981
63981 64057
64057 64132
64132 64207
64207 64283
64283 64358
64358 64433
64433 64508
64508 64583
64583 64659
64659 64734
