4894 4996
4996 5045
10061 10164
10164 10265
13924 14027
14027 14077
14077 14179
14179 14281
14281 14384
14384 14487
14487 14589
14589 14691
14691 14792
14792 14892
14892 14994
14994 15074
15074 15175
15175 15276
15276 15376
15376 15478
15478 15579
15579 15681
15681 15781
15781 15883
15883 15984
15984 16085
16085 16187
16187 16287
16287 16388
16388 16490
16490 16589
16589 16689
16689 16789
16789 16889
16889 16989
16989 17067
17067 17167
17167 17266
17266 17365
17365 17465
17465 17564
17564 17663
17663 17761
17761 17860
17860 17958
17958 18068
18068 18168
18168 18269
18269 18370
18370 18471
