2246 2332
2501 2585
2585 2670
2670 2755
2755 2840
2840 2924
2924 3009
3009 3094
3094 3179
3179 3264
3264 3349
3349 3433
3433 3518
3518 3603
3603 3688
3688 3773
3773 3858
3858 3943
3943 4051
4051 4139
4139 4226
4226 4313
4313 4400
4400 4486
4486 4573
4573 4659
4659 4746
4746 4833
4833 4919
4919 5006
5006 5092
5092 5178
5178 5265
5265 5351
5351 5437
5437 5523
5523 5610
5610 5696
5696 5782
5782 5868
5868 5954
5954 6040
6040 6126
6126 6212
6212 6297
6297 6383
6383 6468
6468 6554
6554 6640
6640 6725
6725 6811
6811 6897
6897 6982
6982 7068
7068 7154
7154 7240
7240 7326
7326 7411
7411 7497
7497 7583
7583 7669
7669 7755
7755 7841
7841 7927
7927 8013
8013 8099
8099 8185
8185 8271
8271 8357
8357 8443
8443 8529
8529 8615
8615 8701
8701 8788
8788 8874
8874 8960
8960 9047
9047 9133
9133 9219
9219 9305
9305 9392
9392 9479
9479 9565
9565 9652
9652 9738
9738 9825
9825 9911
9911 9997
9997 10083
10083 10169
10169 10255
10255 10342
10342 10428
10428 10513
10513 10599
10599 10685
10685 10771
10771 10857
10857 10943
10943 11029
11029 11070
11070 11156
11156 11242
11242 11329
11329 11415
11415 11501
11501 11588
11588 11675
11675 11761
11761 11847
11847 11934
11934 12021
12021 12107
12107 12194
12194 12281
12281 12367
12367 12454
12454 12540
12540 12627
12627 12713
12713 12799
12799 12886
12886 12973
12973 13059
13059 13145
13145 13232
13232 13318
13318 13404
13404 13466
13466 13552
13552 13638
13638 13724
13724 13811
13811 13897
13897 13983
13983 14069
14069 14156
14156 14242
14242 14328
14328 14414
14414 14500
14500 14586
14586 14672
14672 14759
14759 14844
14844 14930
14930 15016
15016 15102
15102 15188
15188 15274
15274 15360
15360 15446
15446 15531
15531 15617
15617 15704
15704 15790
15790 15875
15875 15962
15962 16048
16048 16134
16134 16220
16220 16306
16306 16392
16392 16478
16478 16564
16564 16650
16650 16736
16736 16822
16822 16908
16908 16994
16994 17079
17079 17166
17166 17252
17252 17338
17338 17423
17423 17510
17510 17596
17596 17681
17681 17767
17767 17854
17854 17940
17940 18025
18025 18112
18112 18198
18198 18283
18283 18369
18369 18455
18455 18541
18541 18627
18627 18713
18713 18799
18799 18884
18884 18970
18970 19056
19056 19143
19143 19229
19229 19314
19314 19401
19401 19487
19487 19573
19573 19659
19659 19746
19746 19832
19832 19918
19918 20004
20004 20091
20091 20177
20177 20263
20263 20349
20349 20435
20435 20521
20521 20608
20608 20694
20694 20780
20780 20866
20866 20952
20952 21038
21038 21124
21124 21210
21210 21297
21297 21383
21383 21469
21469 21555
21555 21642
21642 21728
21728 21814
21814 21900
21900 21986
21986 22072
22072 22159
22159 22246
22246 22332
22332 22418
22418 22505
22505 22592
22592 22678
22678 22765
22765 22852
22852 22938
22938 23024
23024 23111
23111 23198
23198 23284
23284 23370
23370 23457
23457 23544
23544 23630
23630 23717
23717 23804
23804 23890
23890 23977
23977 24064
24064 24151
24151 24237
24237 24324
24324 24411
24411 24498
24498 24585
24585 24672
24672 24759
24759 24846
24846 24933
24933 25020
25020 25107
25107 25194
25194 25281
25281 25368
25368 25455
25455 25542
25542 25629
25629 25716
25716 25803
25803 25890
25890 25977
25977 26064
26064 26151
26151 26238
26238 26325
26325 26412
26412 26499
26499 26587
26587 26674
26674 26761
26761 26848
26848 26935
26935 27022
27022 27109
27109 27196
27196 27283
27283 27370
27370 27457
27457 27545
27545 27632
27632 27719
27719 27807
27807 27894
27894 27982
27982 28069
28069 28156
28156 28243
28243 28329
28329 28416
28416 28503
28503 28589
28589 28675
28675 28762
28762 28848
28848 28934
28934 29021
29021 29107
29107 29194
29194 29280
29280 29366
29366 29453
29453 29539
29539 29626
29626 29713
29713 29799
29799 29886
29886 29973
29973 30060
30060 30146
30146 30233
30233 30320
30320 30407
30407 30493
30493 30580
30580 30667
30667 30753
30753 30839
30839 30926
30926 31013
31013 31099
31099 31185
31185 31247
31247 31333
31333 31419
31419 31505
31505 31592
31592 31678
31678 31763
31763 31849
31849 31935
31935 32021
32021 32107
32107 32193
32193 32279
32279 32365
32365 32451
32451 32537
32537 32623
32623 32708
32708 32795
32795 32880
32880 32966
32966 33052
33052 33138
33138 33224
33224 33310
33310 33395
33395 33481
33481 33567
33567 33653
33653 33739
33739 33825
33825 33910
33910 33996
33996 34083
34083 34168
34168 34254
34254 34340
34340 34426
34426 34512
34512 34597
34597 34684
34684 34769
34769 34855
34855 34941
34941 35027
35027 35113
35113 35198
35198 35284
35284 35370
35370 35455
35455 35540
35540 35626
35626 35711
35711 35796
35796 35882
35882 35968
35968 36053
36053 36138
36138 36224
36224 36310
36310 36395
36395 36480
36480 36566
36566 36652
36652 36737
36737 36823
36823 36908
36908 36994
36994 37079
37079 37165
37165 37250
37250 37335
37335 37420
37420 37506
37506 37591
37591 37676
37676 37761
37761 37847
37847 37932
37932 38017
38017 38102
38102 38187
38187 38272
38272 38357
38357 38443
38443 38529
38529 38614
38614 38699
38699 38785
38785 38870
38870 38955
38955 39041
39041 39126
39126 39212
39212 39297
39297 39383
39383 39468
39468 39553
39553 39639
39639 39725
