76 182
2137 2255
2255 2370
2370 2475
2835 2948
2948 3061
3061 3173
4484 4698
4698 4804
8008 8131
8131 8239
8239 8350
8460 8679
8895 9110
9110 9218
9218 9326
9326 9432
9432 9536
9536 9643
9643 9749
9749 9855
9855 9960
9960 10067
10067 10173
10173 10279
10279 10383
10383 10489
10489 10595
10595 10697
10697 10801
10801 10906
10906 11008
11008 11125
11125 11232
11232 11339
11339 11448
11448 11556
11556 11662
11662 11769
11769 11881
11881 11991
11991 12099
12099 12209
12209 12321
12321 12428
12428 12534
12534 12643
12643 12752
12752 12859
12859 12966
12966 13073
13073 13181
13181 13286
13286 13391
13391 13496
13496 13601
13601 13705
13705 13806
13806 13910
13910 14015
14015 14223
14223 14329
14329 14435
14435 14540
14540 14644
14644 14749
14749 14854
14854 14958
14958 15062
15062 15167
15167 15273
15273 15377
15377 15484
15484 15591
15591 15697
15697 15802
15802 15911
15911 16020
16020 16128
16128 16237
16237 16348
16348 16459
16459 16569
16569 16682
16682 16793
