10945 11108
11108 11220
11220 11328
11328 11438
11438 11556
11556 11666
11666 11774
11774 11878
11878 11980
11980 12086
12086 12194
12194 12301
12301 12407
12407 12515
12515 12624
12624 12737
12737 12845
12845 12955
12955 13070
13070 13179
13179 13283
13283 13386
13386 13493
13493 13597
13597 13699
13699 13800
13800 13902
13902 14006
14006 14111
14111 14217
14217 14323
14323 14427
14427 14533
14533 14641
14641 14748
14748 14852
14852 14956
14956 15062
15062 15166
15166 15272
15272 15377
15377 15479
15479 15583
15583 15689
15689 15795
15795 15898
15898 16001
16001 16107
16107 16213
16213 16318
16318 16422
16422 16526
16526 16630
16630 16732
16732 16835
16835 16936
16936 17033
17033 17131
17131 17228
17228 17321
17321 17416
17416 17511
17511 17608
17608 17705
17705 17806
17806 17907
17907 18004
18004 18101
18101 18202
18202 18300
18300 18399
18399 18504
18504 18610
18610 18714
18714 18820
18820 18928
18928 19076
19076 19182
19182 19284
19284 19381
19381 19481
19481 19582
19582 19680
19680 19774
19774 19872
19872 19968
19968 20063
20063 20157
20157 20253
20253 20349
20349 20444
20444 20537
20537 20635
20635 20731
20731 20828
20828 20928
20928 21030
21030 21132
21132 21232
21232 21334
21334 21440
21440 21547
21547 21653
21653 21758
21758 21859
21859 21959
21959 22056
22056 22150
22150 22244
22244 22337
22337 22433
22433 22528
22528 22625
22625 22724
22724 22826
22826 22929
22929 23030
23030 23077
23077 23180
23180 23282
23282 23388
23388 23492
23492 23595
23595 23695
23695 23796
23796 23899
23899 24005
24005 24108
24108 24206
24206 24306
24306 24405
24405 24502
24502 24599
24599 24699
24699 24800
24800 24899
24899 25000
25000 25074
25074 25186
25186 25296
25296 25410
25410 25520
25520 25630
25630 25736
25736 25840
