12 94
94 203
203 312
312 419
1838 1951
1951 2063
2063 2168
2506 2620
2620 2729
2729 2837
2944 3084
3305 3417
3417 3528
5201 5314
5314 5426
11076 11188
11627 11740
11740 11849
15878 15989
16944 17105
17105 17208
17105 17208
17420 17532
17532 17639
17639 17755
17755 17872
17872 17985
17985 18098
18098 18212
18212 18323
20889 21002
21114 21228
21228 21341
21341 21448
22413 22521
22625 22735
22735 22845
22845 22949
23060 23173
23173 23284
23391 23503
23503 23613
24155 24266
24266 24378
24378 24487
25044 25155
25155 25266
25266 25374
26241 26354
26354 26466
27006 27109
27325 27440
27440 27560
27560 27678
27678 27792
27792 27912
27912 28029
28029 28146
28146 28260
30209 30325
30325 30439
30439 30554
30554 30667
30667 30753
30979 31092
31092 31204
31204 31321
31321 31438
31438 31551
32356 32472
32472 32561
33763 33877
34859 34972
34972 35081
35745 35855
35855 35960
37003 37105
37105 37208
37884 37999
37999 38054
38277 38391
38391 38498
42221 42335
42990 43052
43168 43284
43284 43396
43396 43510
43510 43624
44187 44304
44304 44422
44422 44539
44539 44652
44652 44767
44767 44882
44882 45001
45001 45116
45116 45227
46443 46556
46891 47005
48864 48976
48976 49085
49405 49514
49514 49619
49619 49722
50119 50217
50217 50314
50314 50413
50413 50513
50513 50613
50613 50715
50715 50819
50819 50923
50923 51029
51029 51139
51139 51244
51244 51347
51347 51453
51453 51563
51563 51671
51671 51778
51778 51889
51889 52004
52004 52112
52112 52220
52220 52331
52331 52442
52442 52551
52551 52663
52663 52775
52775 52886
52886 52997
52997 53106
53106 53219
53219 53330
53330 53441
53441 53555
53555 53666
53666 53777
53777 53887
53887 54000
54000 54112
54112 54227
54227 54339
54339 54452
54452 54565
54565 54677
54677 54790
54790 54906
54906 55014
55014 55121
55121 55230
55230 55341
55341 55448
55448 55554
55554 55665
55665 55774
55774 55879
55879 55983
55983 56091
56091 56198
56198 56301
56301 56404
56404 56512
56512 56622
56622 56727
56727 56835
56835 56944
56944 57051
57051 57154
57154 57262
57262 57368
57368 57474
57474 57583
57583 57695
57695 57806
57806 57914
57914 58026
58026 58137
58137 58247
58247 58358
58358 58470
58470 58582
58582 58692
58692 58802
58802 58914
58914 59021
59021 59130
59130 59238
59238 59344
59344 59452
59452 59560
59560 59669
59669 59783
59783 59894
59894 60006
60006 60118
60118 60231
60231 60339
60339 60424
60424 60534
60534 60644
60644 60752
60752 60859
60859 60966
60966 61071
61071 61176
61176 61282
61282 61392
61392 61502
61502 61613
61613 61722
61722 61835
61835 61945
61945 62050
62050 62158
62158 62269
62269 62379
62379 62486
62486 62595
62595 62707
62707 62816
62816 62925
62925 63029
63029 63133
63133 63238
63238 63341
63341 63449
63449 63560
63560 63670
63670 63777
63777 63881
63881 63991
63991 64099
64099 64203
64203 64313
64313 64426
64426 64535
64535 64645
64645 64756
64756 64866
64866 64977
64977 65089
65089 65202
65202 65310
65310 65419
65419 65530
65530 65642
65642 65753
65753 65857
65857 65962
65962 66072
66072 66182
66182 66287
66287 66398
66398 66512
66512 66619
66619 66722
66722 66832
66832 66943
66943 67053
67053 67162
67162 67271
67271 67383
67383 67494
67494 67606
67606 67716
67716 67826
67826 67936
67936 68044
68044 68150
68150 68259
68259 68364
68364 68470
68470 68579
