350 464
464 574
574 686
2769 2881
2881 2989
3206 3322
3322 3434
3434 3540
3759 3874
3874 3983
3983 4092
6080 6195
6195 6309
6309 6420
6755 6861
6861 6906
7021 7134
7134 7240
7891 8002
8002 8106
8757 8872
8872 8980
9527 9638
9638 9748
9748 9853
16001 16113
16441 16555
16555 16661
17316 17428
17428 17535
17535 17645
18850 18961
18961 19060
