689 769
871 926
926 1005
1005 1059
1059 1128
1128 1221
1221 1300
1300 1380
1380 1459
1459 1540
1540 1619
1619 1698
1698 1778
1778 1858
1858 1938
1938 2006
2006 2107
2107 2190
2190 2272
2272 2353
2353 2436
2436 2518
2518 2599
2599 2680
2680 2762
2762 2843
2843 2923
2923 3005
3005 3085
3085 3166
3166 3245
3245 3327
3327 3407
3407 3488
3488 3568
3568 3650
3650 3730
3730 3811
3811 3892
3892 3974
3974 4055
4055 4136
4136 4217
4217 4298
4298 4379
4379 4460
4460 4543
4543 4624
4624 4705
4705 4787
4787 4869
4869 4951
4951 5033
5033 5114
5114 5197
5197 5279
5279 5361
5361 5443
5443 5525
5525 5606
5606 5687
5687 5768
5768 5849
5849 5930
5930 6010
6010 6092
6092 6173
6173 6254
6254 6334
6334 6417
6417 6499
6499 6581
6581 6663
6663 6745
6745 6827
6827 6908
6908 6991
6991 7072
7072 7153
7153 7234
7234 7317
7317 7399
7399 7480
7480 7562
7562 7645
7645 7727
7727 7809
7809 7891
7891 7974
7974 8056
8056 8138
8138 8221
8221 8304
8304 8386
8386 8469
8469 8551
8551 8634
8634 8717
8717 8798
8798 8881
8881 8964
8964 9046
9046 9127
9127 9210
9210 9292
9292 9374
9374 9455
9455 9539
9539 9621
9621 9702
9702 9784
9784 9867
9867 9950
9950 10032
10032 10114
10114 10197
10197 10279
10279 10361
10361 10443
10443 10525
10525 10607
10607 10688
10688 10770
10770 10852
10852 10933
10933 11014
11014 11105
11105 11185
11185 11266
11266 11347
11347 11427
11427 11507
11507 11587
11587 11668
11668 11748
11748 11827
11827 11908
11908 11988
11988 12068
12068 12149
12149 12229
12229 12308
12308 12389
12389 12469
12469 12549
12549 12630
12630 12712
12712 12792
12792 12873
12873 12954
12954 13035
13035 13116
13116 13197
13197 13279
13279 13360
13360 13442
13442 13523
13523 13606
13606 13688
13688 13770
13770 13851
13851 13934
13934 14016
14016 14098
14098 14180
14180 14262
14262 14344
14344 14426
14426 14508
14508 14591
14591 14672
14672 14754
14754 14836
14836 14918
14918 14999
14999 15100
15100 15180
15180 15261
15261 15343
15343 15424
15424 15505
15505 15586
15586 15668
15668 15750
15750 15831
15831 15912
15912 15994
15994 16076
16076 16137
16137 16218
16218 16301
16301 16383
16383 16464
16464 16546
16546 16628
16628 16710
16710 16791
16791 16873
16873 16955
16955 17048
17048 17129
17129 17211
17211 17293
17293 17374
17374 17456
17456 17537
17537 17620
17620 17701
17701 17782
17782 17864
17864 17946
17946 18027
18027 18109
18109 18191
18191 18273
18273 18354
18354 18435
18435 18517
18517 18599
18599 18680
18680 18761
18761 18842
18842 18925
18925 19006
19006 19088
19088 19169
19169 19251
19251 19332
19332 19414
19414 19495
19495 19578
19578 19659
19659 19740
19740 19821
19821 19903
19903 19984
19984 20064
20064 20146
20146 20226
20226 20306
20306 20386
20386 20468
20468 20548
20548 20629
20629 20710
20710 20792
20792 20872
20872 20953
20953 21034
21034 21115
21115 21196
21196 21277
21277 21358
21358 21440
21440 21521
21521 21602
21602 21683
21683 21765
21765 21846
21846 21926
21926 22008
22008 22089
22089 22171
22171 22252
22252 22334
22334 22415
22415 22497
22497 22578
22578 22660
22660 22742
22742 22824
22824 22905
22905 22987
22987 23070
23070 23151
23151 23233
23233 23316
23316 23398
23398 23479
23479 23561
23561 23644
23644 23726
23726 23808
23808 23889
23889 23972
23972 24054
24054 24136
24136 24218
24218 24301
24301 24383
24383 24465
24465 24547
24547 24630
24630 24713
24713 24795
24795 24878
24878 24960
24960 25043
25043 25125
25125 25209
25209 25291
25291 25374
25374 25457
25457 25540
25540 25622
25622 25704
25704 25787
25787 25869
25869 25951
25951 26032
26032 26114
26114 26196
26196 26277
26277 26358
26358 26440
26440 26522
26522 26603
26603 26685
26685 26767
26767 26848
26848 26929
26929 27011
27011 27092
27092 27173
27173 27254
27254 27337
27337 27418
27418 27499
27499 27581
27581 27663
27663 27745
27745 27827
27827 27909
27909 27992
27992 28074
28074 28155
28155 28238
28238 28320
28320 28402
28402 28483
28483 28567
28567 28649
28649 28731
28731 28813
28813 28896
28896 28979
28979 29061
29061 29143
29143 29227
29227 29310
29310 29393
29393 29475
29475 29559
29559 29642
29642 29724
29724 29807
29807 29890
29890 29973
29973 30055
30055 30138
30138 30221
30221 30303
30303 30385
30385 30467
30467 30550
30550 30633
30633 30715
30715 30797
30797 30880
30880 30962
30962 31044
31044 31126
31126 31208
31208 31290
31290 31371
31371 31453
31453 31535
31535 31616
31616 31697
31697 31778
31778 31860
31860 31940
31940 32021
32021 32103
32103 32184
32184 32265
32265 32346
32346 32429
32429 32510
32510 32592
32592 32673
32673 32756
32756 32838
32838 32919
32919 33000
33000 33092
33092 33174
33174 33256
33256 33337
33337 33419
33419 33500
33500 33582
33582 33663
33663 33745
33745 33827
33827 33908
33908 33990
33990 34071
34071 34153
34153 34234
34234 34316
34316 34397
34397 34478
34478 34558
34558 34639
34639 34719
34719 34800
34800 34880
34880 34959
34959 35075
35075 35155
35155 35234
35234 35313
35313 35392
35392 35472
35472 35551
35551 35629
35629 35709
35709 35788
35788 35868
35868 35947
35947 36015
36015 36083
36083 36163
36163 36243
36243 36324
36324 36405
36405 36485
36485 36566
36566 36647
36647 36728
36728 36809
36809 36891
36891 36972
36972 37037
37037 37119
37119 37201
37201 37283
37283 37365
37365 37446
37446 37528
37528 37611
37611 37692
37692 37774
37774 37855
37855 37937
37937 38018
38018 38100
38100 38182
38182 38263
38263 38344
38344 38426
38426 38508
38508 38589
38589 38671
38671 38753
38753 38995
38995 39115
39115 39194
39194 39275
39275 39354
39354 39434
39434 39513
39513 39592
39592 39672
39672 39751
39751 39829
39829 39909
39909 39988
39988 40067
40067 40145
40145 40225
40225 40304
40304 40383
40383 40462
40462 40542
40542 40621
40621 40701
40701 40780
40780 40860
40860 40941
40941 41021
41021 41101
41101 41180
41180 41261
41261 41340
41340 41420
41420 41500
41500 41581
41581 41661
41661 41740
41740 41819
41819 41900
41900 41979
41979 42073
42073 42153
42153 42232
42232 42300
42300 42393
42393 42472
42472 42551
42551 42630
42630 42711
42711 42790
42790 42870
42870 42954
42954 43059
43059 43150
43150 43229
43229 43309
43309 43387
43387 43468
43468 43547
43547 43627
43627 43706
43706 43787
43787 43866
43866 43946
43946 44025
44025 44104
44104 44184
44184 44264
44264 44343
44343 44422
44422 44503
44503 44582
44582 44652
44652 44722
44722 44803
44803 44883
44883 44962
44962 45042
45042 45123
45123 45202
45202 45282
45282 45361
45361 45440
45440 45520
45520 45600
45600 45679
45679 45758
45758 45838
45838 45918
45918 45997
45997 46102
46102 46179
46179 46256
46256 46333
46333 46409
46409 46486
46486 46562
46562 46637
46637 46712
46712 46788
46788 46862
46862 46937
46937 47012
47012 47053
47053 47125
