17 90
303 413
952 1065
1065 1174
1514 1625
1625 1736
1736 1851
1851 1949
2423 2536
2536 2651
2651 2765
2765 2875
3889 4001
4001 4115
4115 4198
4537 4647
4647 4765
4765 4881
4881 4992
4992 5098
5428 5545
6071 6176
6176 6278
6984 7051
7051 7163
7163 7278
7278 7391
7391 7505
7505 7620
7620 7735
7735 7847
7847 7959
7959 8074
8074 8185
8185 8296
8296 8409
8409 8518
8518 8629
8629 8740
8740 8852
8852 8960
8960 9069
9069 9184
9184 9296
9296 9409
9409 9521
9521 9632
9632 9741
9741 9853
9853 9961
9961 10066
10066 10172
10172 10271
10271 10368
10368 10469
10469 10573
10573 10676
10676 10777
10777 10875
10875 10974
10974 11078
11078 11181
11181 11283
11283 11380
11380 11478
11478 11578
11578 11682
11682 11784
11784 11890
11890 11995
11995 12105
12105 12214
12214 12321
12321 12430
12430 12536
12536 12645
12645 12729
12729 12835
12835 12944
12944 13052
13052 13162
13162 13273
13273 13382
13382 13486
13486 13598
13598 13709
13709 13824
13824 13939
13939 14050
14050 14159
14159 14267
14267 14376
14376 14489
14489 14601
14601 14712
14712 14824
14824 14938
14938 15054
15054 15170
15170 15283
15283 15397
15397 15510
15510 15625
15625 15738
15738 15850
15850 15966
15966 16082
16082 16194
16194 16306
16306 16424
16424 16538
16538 16646
16646 16755
16755 16866
16866 16975
16975 17081
17081 17189
17189 17299
17299 17405
17405 17510
17510 17616
17616 17725
17725 17832
17832 17938
17938 18045
18045 18151
18151 18257
18257 18364
18364 18473
18473 18582
18582 18687
18687 18794
18794 18903
18903 19007
19007 19111
19111 19216
19216 19321
19321 19425
19425 19526
19526 19625
19625 19725
