47 157
157 268
268 376
376 481
590 701
701 806
806 912
912 1020
1020 1128
1128 1234
1234 1342
1448 1552
1552 1655
1759 1865
1865 1968
2179 2284
2284 2391
2391 2498
2498 2605
2605 2714
2821 2932
2932 3038
3686 3797
3797 3903
3903 4003
4845 4954
4954 5057
5057 5165
5165 5266
5266 5371
7000 7107
7107 7216
7324 7433
7543 7655
7655 7761
7976 8082
8082 8191
8191 8301
8301 8409
8409 8515
8515 8625
8625 8738
8738 8850
8968 9079
9079 9184
9292 9398
9398 9502
9606 9715
9821 9929
9929 10039
10039 10147
10147 10256
10256 10368
10368 10481
10481 10590
10590 10703
10703 10815
10815 10922
10922 11030
11030 11113
11113 11224
11224 11337
11337 11444
11444 11550
11550 11659
11659 11765
11765 11871
11871 11982
11982 12093
12093 12199
12199 12308
12308 12422
12422 12538
12538 12651
12651 12765
12765 12883
12883 12999
12999 13112
13112 13226
13226 13340
13340 13456
13456 13570
13570 13683
13683 13790
13790 13891
13891 13994
13994 14083
14083 14187
14187 14291
14291 14394
14394 14498
14498 14604
14604 14711
14711 14820
14820 14928
14928 15039
15039 15149
15149 15261
15261 15371
15371 15483
15483 15592
15592 15702
15702 15816
15816 15932
15932 16047
16047 16160
16160 16272
16272 16385
16385 16496
16496 16580
16580 16691
16691 16798
16798 16904
16904 17013
17013 17123
17123 17233
17233 17337
17337 17447
17447 17554
17554 17659
17659 17767
17767 17876
17876 17983
17983 18085
18085 18189
18189 18297
18297 18401
18401 18506
18506 18612
18612 18715
18715 18821
18821 18929
18929 19034
19034 19142
19142 19255
19255 19361
19361 19477
19477 19590
19590 19699
19699 19807
19807 19911
19911 20014
20014 20119
20119 20224
20224 20330
20330 20435
20435 20540
20540 20640
20640 20741
20741 20846
20846 20950
20950 21116
21116 21227
21227 21337
21337 21449
22998 23108
23108 23219
24810 24916
25049 25155
25155 25259
25259 25364
25364 25469
25469 25554
25554 25661
25661 25768
25768 25873
25873 25979
25979 26079
26079 26187
26187 26299
26299 26404
26404 26511
26511 26618
26618 26723
26723 26825
26825 26926
26926 27031
27031 27134
27134 27236
27236 27338
27338 27444
27444 27552
27552 27657
27657 27759
27759 27864
27864 27965
27965 28064
28064 28166
28166 28268
28268 28373
28373 28462
28462 28563
28563 28661
28661 28759
28759 28857
28857 28955
28955 29053
29053 29155
29155 29257
29257 29358
29358 29462
29462 29568
29568 29671
29671 29774
29774 29879
29879 29987
29987 30095
30095 30202
30202 30311
30311 30418
30418 30524
30524 30632
30632 30741
30741 30846
30846 30951
30951 31058
31058 31166
31166 31270
31270 31375
31375 31480
31480 31586
31586 31688
32327 32432
34013 34122
34122 34224
35062 35170
35170 35279
35279 35387
35387 35494
35494 35605
35605 35711
35711 35819
35819 35928
35928 36033
36033 36136
36136 36241
36974 37078
37078 37183
37499 37608
37825 38033
38033 38137
38033 38137
38137 38242
38671 38774
38774 38878
39301 39412
39412 39519
39739 39851
39851 39959
40065 40167
40167 40272
41762 41873
41873 41980
42754 42865
42865 42974
44340 44445
44445 44551
44551 44658
44876 44984
44984 45094
45094 45200
45200 45311
45311 45419
45419 45531
45531 45639
45639 45750
45750 45860
45860 45968
45968 46076
46605 46713
46928 47039
47669 47775
47775 47882
47882 47986
47986 48093
48093 48201
48201 48306
48306 48417
48417 48526
48526 48635
48635 48746
48746 48855
48855 48963
48963 49064
49064 49165
49165 49266
49266 49367
49367 49466
49466 49566
49566 49668
49668 49769
49769 49874
49874 49980
49980 50086
50086 50192
50192 50294
50294 50395
50395 50500
50500 50599
50599 50700
50700 50798
50798 50898
50898 50999
50999 51098
51098 51196
51196 51293
51293 51392
51392 51494
51494 51594
51594 51696
51696 51794
51794 51896
51896 51997
51997 52097
52097 52200
52200 52306
52306 52408
52408 52512
52512 52618
52618 52726
52726 52830
52830 52936
52936 53042
53042 53145
53145 53256
53256 53367
53367 53478
53478 53589
53589 53699
53699 53799
53799 53905
53905 54010
54010 54114
54114 54218
54218 54324
54324 54431
54431 54538
54538 54642
54642 54748
54748 54854
54854 54957
54957 55063
55063 55172
55172 55278
55278 55389
55389 55492
55492 55596
55596 55701
55701 55804
55804 55908
55908 56012
56012 56113
56113 56215
56215 56317
56317 56421
56421 56530
56530 56632
56632 56737
56737 56838
56838 56940
56940 57045
57045 57147
57147 57248
57248 57354
57354 57460
57460 57564
57564 57672
57672 57777
57777 57882
57882 57985
57985 58087
58087 58191
58191 58299
58299 58403
58403 58503
58503 58609
58609 58714
58714 58819
58819 58924
58924 59030
59030 59130
59130 59236
59236 59533
59533 59638
59638 59741
59741 59841
59841 59941
59941 60012
60012 60149
60149 60250
60250 60353
60353 60453
60453 60554
60554 60652
60652 60754
60754 60855
60855 60958
60958 61061
61061 61166
61166 61269
61269 61369
61369 61469
61469 61568
61568 61665
61665 61763
61763 61859
61859 61956
61956 62052
62052 62148
62148 62247
62247 62343
62343 62438
62438 62537
62537 62637
62637 62740
62740 62842
62842 62941
62941 63041
63041 63143
63143 63245
63245 63343
63343 63441
63441 63542
63542 63644
63644 63742
63742 63838
63838 63937
63937 64035
64035 64134
64134 64231
64231 64330
64330 64426
64426 64521
64521 64617
