3906 4010
4010 4063
10493 10601
10601 10659
16929 17132
17132 17240
17240 17346
17346 17450
17450 17555
17555 17660
17660 17768
17768 17875
17875 17981
17981 18092
18092 18203
18203 18314
18314 18420
18420 18532
18532 18643
18643 18752
18752 18859
18859 18969
18969 19075
19075 19180
19180 19289
19289 19370
19370 19473
19473 19581
19581 19695
19695 19806
19806 19912
19912 20023
20023 20136
20136 20245
20245 20359
20359 20473
20473 20582
20582 20688
20688 20795
20795 20907
20907 21014
21014 21119
21119 21232
21232 21345
21345 21453
21453 21568
21568 21679
21679 21789
21789 21898
21898 22012
22012 22121
22121 22228
22228 22337
22337 22447
22447 22555
22555 22660
22660 22771
22771 22880
