5738 5837
5837 5931
5931 5992
6162 6261
6261 6361
6750 6850
6850 6946
6946 7055
7055 7153
7153 7246
7246 7340
7340 7435
7435 7528
7528 7686
7686 7743
7743 7833
7833 7925
7925 8018
8018 8114
8114 8212
8212 8311
8311 8406
8406 8503
8503 8602
8602 8700
8700 8794
8794 8887
8887 8948
8948 9056
9056 9163
9163 9267
9267 9467
9467 9567
9567 9666
9666 9763
9763 9860
9860 9960
9960 10059
10059 10155
10155 10253
10253 10351
10351 10449
10449 10544
10544 10641
10641 10738
10738 10831
10831 10924
10924 11018
11018 11112
11112 11205
11205 11301
11301 11397
11397 11493
11493 11591
11591 11690
11690 11789
11789 11886
11886 11983
11983 12081
12081 12178
12178 12276
12276 12375
12375 12472
12472 12567
12567 12660
12660 12754
12754 12849
12849 12945
12945 13040
13040 13135
13135 13229
13229 13325
13325 13422
13422 13519
13519 13621
13621 13718
13718 13818
13818 13917
13917 14017
14017 14119
14119 14222
14222 14323
14323 14424
14424 14526
14526 14626
14626 14728
14728 14831
14831 14935
14935 15038
15038 15143
15143 15242
15242 15341
15341 15442
15442 15639
15639 15738
15738 15835
15835 15929
15929 16024
16024 16118
16118 16210
16210 16303
16303 16399
16399 16495
16495 16590
16590 16687
16687 16784
16784 16880
16880 16975
16975 17157
17157 17247
17247 17518
17518 17614
17614 17708
17708 17806
17806 18003
18003 18105
18105 18209
18209 18415
18415 18522
18522 18730
18730 19139
19139 19763
19763 20079
19763 20079
20079 20817
20817 20925
20925 21132
21132 21535
21535 21836
21836 21941
21941 22825
22825 23220
23220 25330
25330 25422
25422 25516
25516 25609
25609 25794
25794 25892
25892 26095
26095 26200
26200 26402
26402 26506
26506 26816
26816 28669
28669 29515
29515 29925
29925 30325
30325 30623
30623 30724
30724 31021
31021 31317
31317 31418
31418 31617
31617 31718
31718 31822
31822 31924
31924 32027
32027 32125
32125 32227
32227 32330
32330 32435
32435 32541
32541 32645
32645 32750
32750 32860
32860 32965
32965 33126
33126 33231
33231 33341
33341 33450
33450 33552
33552 33656
33656 33762
33762 33868
33868 33968
33968 34069
34069 34177
34177 34285
34285 34389
34389 34493
34493 34598
34598 34705
34705 34808
34808 34910
34910 35012
35012 35115
35115 35217
35217 35421
35421 35520
35520 35621
35621 35725
35725 35826
35826 35935
35935 36041
36041 36146
36146 36253
36253 36354
36354 36456
36456 36552
36552 36646
36646 36740
36740 36839
36839 36932
36932 37025
37025 37111
37111 37224
37224 37327
37327 37425
37425 37527
37527 37629
37629 37730
37730 37836
37836 37940
37940 38042
38042 38147
38147 38253
38253 38366
38366 38477
38477 38580
38580 38684
38684 38794
38794 38906
38906 39016
39016 39125
39125 39237
39237 39342
39342 39443
39443 39546
39546 39650
39650 39754
39754 39856
39856 39962
39962 40066
40066 40169
40169 40274
40274 40381
40381 40486
40486 40590
40590 40695
40695 40800
40800 40908
40908 41012
41012 41114
41114 41217
41217 41319
41319 41419
41419 41520
41520 41623
41623 41725
41725 41825
41825 41927
41927 42030
42030 42131
42131 42232
42232 42333
42333 42435
42435 42534
42534 42633
42633 42732
42732 42833
42833 42931
42931 43028
43028 43149
43149 43250
43250 43349
43349 43451
43451 43556
43556 43660
43660 43760
43760 43839
43839 43945
43945 44047
44047 44144
44144 44243
44243 44345
44345 44442
44442 44539
44539 44640
44640 44738
44738 44835
44835 44933
44933 45029
45029 45124
45124 45220
45220 45317
45317 45414
45414 45509
45509 45605
45605 45702
45702 45799
45799 45896
45896 45993
45993 46109
46109 46206
46206 46308
46308 46407
46407 46506
46506 46609
46609 46712
46712 46812
46812 46911
46911 47011
47011 47110
47110 47208
47208 47308
47308 47405
47405 47502
47502 47601
47601 47701
47701 47800
47800 47901
47901 48005
48005 48051
48051 48155
48155 48255
48255 48354
48354 48455
48455 48553
48553 48649
48649 48746
48746 48846
48846 48946
48946 49056
49056 49155
49155 49253
49253 49353
49353 49449
49449 49545
49545 49641
49641 49734
49734 49828
49828 49922
49922 50015
50015 50109
50109 50204
50204 50300
50300 50399
50399 50499
50499 50596
50596 50693
50693 50792
50792 50886
50886 50982
50982 51084
51084 51159
51159 51254
51254 51347
51347 51438
51438 51530
51530 51619
51619 51711
51711 51806
51806 51903
