197 302
302 409
409 513
513 618
618 727
727 933
933 1038
1038 1143
1143 1244
1244 1351
1351 1460
1460 1567
1567 1676
1676 1788
1788 1897
1897 2009
2009 2122
2122 2342
2342 2453
2453 2560
2560 2665
2665 2771
2771 2879
2879 2986
2986 3094
3094 3204
3204 3314
3314 3421
3421 3530
3530 3641
3641 3751
3751 3859
3859 3972
3972 4107
4107 4210
4210 4314
4314 4417
4417 4520
4520 4624
4624 4730
4730 4832
4832 4929
4929 5028
5028 5146
5146 5256
5256 5367
5367 5475
5475 5585
5585 5697
5697 5914
5914 6023
6023 6135
6135 6356
6356 6468
6468 6555
6555 6769
6769 6876
6876 7034
7034 7137
7137 7245
7245 7351
7351 7455
7455 7562
7562 7673
7673 7782
7782 7892
7892 8008
8008 8124
8124 8236
8236 8347
8347 8458
8458 8567
8567 8679
8679 8790
8790 9006
9006 9111
9111 9219
9219 9325
9325 9429
9429 9537
9537 9650
9650 9862
9862 9965
9965 10067
10067 10167
10167 10269
10269 10372
10372 10576
10576 10656
10656 10785
10785 10993
10993 11097
11097 11200
11200 11402
11402 11504
11504 11810
11810 11914
11914 12119
12119 12227
12227 12440
12440 12548
12548 12759
12759 12866
12866 13077
13077 13184
13184 13494
13494 13571
13571 13762
13762 13857
13857 13951
13951 14070
14070 14189
14189 14304
14304 14421
14421 14541
14541 14657
14657 14771
14771 14887
14887 15003
15003 15228
15228 15346
15346 15683
15683 15792
15792 16110
16110 16218
16218 16510
16510 16616
16616 16934
16934 17080
17080 17186
17186 17293
17293 17400
17400 17612
17612 17720
17720 17938
17938 18034
18034 18140
18140 18253
18253 18359
18359 18462
18462 18569
18569 18675
18675 18779
18779 18882
18882 18993
18993 19106
19106 19207
19207 19312
19312 19419
19419 19526
19526 19636
19636 19749
19749 19865
19865 19975
19975 20084
20084 20197
20197 20304
20304 20413
20413 20524
20524 20633
20633 20740
20740 20852
20852 20967
20967 21058
21058 21171
21171 21283
21283 21398
21398 21508
21508 21618
21618 21817
21817 21931
21931 22047
22047 22267
22267 22383
22383 22500
22500 22609
22609 22720
22720 22835
22835 23055
23055 23170
23170 23284
23284 23502
23502 23609
23609 23715
23715 23821
23821 23928
23928 24038
24038 24246
24246 24352
24352 24467
24467 24576
24576 24687
24687 24801
24801 25023
25023 25131
25131 25347
25347 25459
25459 25779
25779 25888
25888 26103
26103 26213
26213 26328
26328 26542
26542 26658
26658 26771
26771 26990
26990 27102
27102 27313
27313 27422
27422 27529
27529 27739
27739 27854
27854 28077
28077 28189
28189 28516
28516 28633
28633 28854
