46 253
362 685
685 795
795 1114
1114 1224
1224 1433
1433 1544
1544 1866
1866 1976
1976 2051
2051 2158
2158 2265
2265 2472
2472 2583
2583 2908
2908 3017
3017 3338
3338 3450
3450 3663
3663 3770
3770 3878
3878 4085
4085 4190
4190 4297
4297 4617
4617 4727
4727 5052
5052 5167
5167 5378
5378 5487
5487 5600
5600 5807
5807 5914
5914 6050
6050 6253
6253 6363
6363 6673
6673 6778
6778 7095
7095 7206
7206 7520
7520 7626
7626 7945
7945 8053
8053 8376
8376 8484
8484 8798
8798 8907
8907 9222
9222 9327
9327 9647
9647 9756
9756 9967
9967 10078
10078 10188
10188 10506
10506 10616
10616 10934
10934 11210
11210 11322
11322 11646
11646 11754
11754 12067
12067 12177
12177 12490
12490 12596
12596 12903
12903 13011
13011 13184
13184 13291
13291 13496
13496 13603
13603 13914
13914 14017
14017 14206
14206 14316
14316 14634
14634 14744
14744 14953
14953 15060
15060 15375
15375 15484
15484 15595
15595 15802
15802 15910
15910 16022
16022 16071
16071 16176
16176 16281
16281 16488
16488 16596
16596 16704
16704 16910
16910 17015
17015 17325
17325 17430
17430 17740
17740 17846
17846 17956
17956 18335
18335 18441
18441 18758
