920 1021
1021 1144
1144 1244
1244 1343
1343 1442
1442 1540
1540 1638
1638 1737
1737 1836
1836 1934
1934 2032
2032 2130
2130 2227
2227 2323
2323 2418
2418 2513
2513 2797
2797 2892
2892 2987
2987 3174
3174 3270
3270 3367
3367 3465
3465 3560
3560 3657
3657 3755
3755 3854
3854 3951
3951 4051
4051 4150
4150 4250
4250 4347
4347 4446
4446 4543
4543 4639
4639 4736
4736 4924
4924 5019
5019 5115
5115 5211
5211 5308
5308 5407
5407 5507
5507 5607
5607 5706
5706 5807
5807 5908
5908 6010
6010 6110
6110 6212
6212 6315
6315 6416
6416 6515
6515 6616
6616 6717
6717 6818
6818 6916
6916 7015
7015 7114
7114 7312
7312 7412
7412 7512
7512 7613
7613 7712
7712 7811
7811 7911
7911 8033
8033 8137
8137 8239
8239 8341
8341 8442
8442 8544
8544 8646
8646 8747
8747 8849
8849 8950
8950 9075
9075 9263
9263 9357
9357 9453
9453 9549
9549 9647
9647 9746
9746 9845
