2228 2593
2593 2957
2957 6448
6448 6733
6733 7146
7146 8127
8127 8214
8214 8304
8304 8671
8671 9209
9209 9295
9295 9383
9383 9649
9649 9739
9739 9827
9827 9914
9914 10001
10001 10093
10093 10187
10187 10463
10463 10556
10556 10648
10648 10943
10943 11024
11024 11229
11229 11330
11330 11439
11439 11745
11745 11844
11844 11943
11943 12038
12038 12138
12138 12235
12235 12334
12334 12436
12436 12541
12541 12642
12642 12742
12742 12845
12845 13044
13044 13141
13141 13235
13235 13333
13333 13429
13429 13520
13520 13612
13612 13707
13707 13802
13802 13893
13893 13986
13986 14109
14109 14302
14302 14397
14397 14491
14491 14586
14586 14681
14681 14775
14775 14868
14868 14962
14962 15058
15058 15154
15154 15252
15252 15353
15353 15452
15452 15548
15548 15646
15646 15750
15750 15851
15851 15947
15947 16043
16043 16144
16144 16247
16247 16344
16344 16441
16441 16538
16538 16638
16638 16733
16733 16829
16829 16924
16924 17018
17018 17123
17123 17215
17215 17308
17308 17400
17400 17576
17576 17665
17665 17756
17756 17846
17846 17939
17939 18033
18033 18124
18124 18214
18214 18306
18306 18400
18400 18498
18498 18592
18592 18692
18692 18795
18795 18897
18897 18999
18999 19106
19106 19206
19206 19306
19306 19407
19407 19511
19511 19612
19612 19711
19711 19813
19813 19915
19915 20012
20012 20106
20106 20204
20204 20302
20302 20396
20396 20489
20489 20582
20582 20674
20674 20764
20764 20857
20857 20950
20950 21046
21046 21141
21141 21235
21235 21329
21329 21421
21421 21515
21515 21609
21609 21703
21703 21797
21797 21890
21890 21986
21986 22079
22079 22175
22175 22270
22270 22451
22451 22541
22541 22631
22631 22720
22720 22806
22806 22890
22890 22975
22975 23272
23272 23369
23369 23661
23661 23762
23762 23960
23960 24059
24059 24158
24158 24252
24252 24345
24345 24438
24438 24533
24533 24629
24629 24724
24724 24820
24820 24916
24916 25015
25015 25064
25064 25158
25158 25257
25257 25551
25551 25648
25648 25849
25849 25948
25948 26051
26051 26150
26150 26244
26244 26339
26339 26434
26434 26530
26530 26624
26624 26721
26721 26823
26823 26924
26924 27028
27028 27116
27116 27212
27212 27312
27312 27408
27408 27505
27505 27603
27603 27796
27796 27892
27892 27993
27993 28093
28093 28191
28191 28292
28292 28492
28492 28591
28591 28693
28693 28897
28897 29000
29000 29107
29107 29319
29319 29424
29424 29634
29634 29737
29737 29936
29936 30032
30032 30128
30128 30224
30224 30317
30317 30412
30412 30512
30512 30706
30706 30802
30802 30902
30902 30998
30998 31093
31093 31186
31186 31370
31370 31468
31468 31664
31664 31764
31764 31865
31865 31965
31965 32065
32065 32169
32169 32268
32268 32368
32368 32468
32468 32567
32567 32754
32754 32849
32849 32946
32946 33042
33042 33139
33139 33238
33238 33435
33435 33530
33530 33628
33628 33732
33732 33929
33929 34026
34026 34102
34102 34200
34200 34301
34301 34399
34399 34503
34503 34709
34709 34809
34809 35111
35111 35212
35212 35413
35413 35514
35514 35615
35615 35818
35818 35920
35920 36021
36021 36326
36326 36430
36430 36531
36531 36632
36632 36736
36736 37042
37042 37145
37145 37245
37245 37343
37343 37445
37445 37548
37548 37647
37647 37744
37744 38024
38024 38124
38124 38220
38220 38318
38318 38511
38511 38611
38611 38816
38816 38918
38918 39022
39022 39498
39498 39607
39607 39710
39710 39814
39814 40025
40025 40329
40329 40426
40426 40620
40620 40714
40714 40805
40805 40896
