392 585
585 682
682 778
778 874
874 1068
1068 1165
1165 1264
1264 1553
1553 1650
1650 1747
1747 1938
1938 2036
2036 2135
2135 2232
2232 2330
2330 2430
2430 2529
2529 2626
2626 2725
2725 2825
2825 2925
2925 3024
3024 3128
3128 3326
3326 3427
3427 3528
3528 3728
3728 3828
3828 4023
4023 4121
4121 4220
4220 4416
4416 4494
4494 4692
4692 4792
4792 4892
4892 5091
5091 5191
5191 5291
5291 5488
5488 5679
5679 5772
5772 5867
5867 5960
5960 6040
6040 6194
6194 6330
6330 6709
6709 7104
7104 7208
7208 7518
7518 7621
7621 7825
7825 7926
7926 8027
8027 8224
8224 8324
8324 8423
8423 8621
8621 8721
8721 8822
8822 9017
9017 9115
9115 9309
9309 9405
9405 9502
9502 9694
9694 9791
9791 9888
9888 10074
10074 10250
10250 10327
10327 10610
10610 10782
10782 10880
10880 10980
10980 11084
11084 11187
11187 11292
11292 11397
11397 11481
11481 11588
11588 11696
11696 11801
11801 11907
11907 12013
12013 12075
12075 12180
12180 12286
12286 12394
12394 12501
12501 12605
12605 12709
12709 12814
12814 12913
12913 13014
13014 13114
13114 13216
13216 13316
13316 13419
13419 13527
13527 13633
13633 13739
13739 13850
13850 13956
13956 14064
14064 14170
14170 14274
14274 14376
14376 14478
14478 14779
14779 14882
14882 15107
15107 15179
15179 15277
15277 15374
15374 15473
15473 15665
15665 15764
15764 15864
15864 15966
15966 16261
16261 16358
16358 16456
16456 16552
16552 16650
16650 16945
16945 17046
17046 17248
17248 17346
17346 17447
17447 17549
17549 17753
17753 17856
17856 17965
17965 18073
18073 18192
18192 18307
18307 18418
18418 18634
18634 18741
18741 18848
18848 19033
19033 19136
19136 19236
19236 19342
19342 19451
19451 19532
19532 19634
19634 19717
19717 19819
19819 19918
