28 117
117 206
358 477
477 566
566 656
656 748
748 839
839 902
902 1021
1021 1092
1326 1441
1441 1527
1527 1587
1587 1701
1701 1787
1787 1845
1845 1959
1959 2044
2044 2105
2105 2221
2221 2309
2309 2399
2399 2490
2490 2581
2581 2672
2672 2737
2737 2856
2856 2947
2947 3012
3012 3134
3134 3225
3225 3288
3378 3496
3496 3586
3586 3646
3736 3853
