479 663
1215 1399
1399 1489
1489 1580
1580 1768
1768 1864
1864 2054
2054 2148
2148 2243
2243 2429
2429 2525
2525 2623
2623 2812
2812 2909
2909 3098
3098 3189
3189 3283
3283 3376
3376 3468
3468 3563
3563 3658
3658 3750
3750 3840
3840 4023
4023 4114
4114 4206
4206 4302
4302 4397
4397 4770
4770 4861
4861 4952
4952 5047
5047 5139
5139 5234
5234 5332
5332 5427
5427 5521
5521 5618
5618 5714
5714 5811
