12761 12848
12848 12962
12962 13018
13018 13125
13125 13216
13216 13336
13336 13398
13398 13491
13491 13608
13608 13702
13702 13767
13767 13859
13859 13981
13981 14075
14075 14139
14139 14231
14231 14351
14351 14445
14445 14511
14511 14607
14607 14735
14735 14827
14827 14894
14894 14989
14989 15110
15110 15174
15174 15267
15267 15359
15359 15476
15476 15538
15538 15628
15628 15747
15747 15836
15836 15896
15896 15984
15984 16101
16101 16190
16190 16252
16252 16344
16344 16462
16462 16524
16524 16613
16613 16731
16731 16821
16821 16884
16884 16977
16977 17094
17094 17157
17157 17248
17248 17365
17365 17427
17427 17519
17519 17638
17638 17727
17727 17793
17793 17886
17886 18007
18007 18070
18070 18164
18164 18258
18258 18351
18351 18443
18443 18538
18538 18660
18660 18723
18723 18816
18816 18937
18937 19000
19000 19092
19092 19184
19184 19303
19303 19368
19368 19461
19461 19584
19584 19677
