81 181
281 381
381 477
575 677
677 772
772 868
868 962
962 1062
1062 1154
1154 1247
1429 1520
1520 1612
1612 1702
1702 1793
1793 1864
1864 1951
1951 2030
2601 2693
3690 3786
3882 3982
3982 4076
4361 4457
4646 4744
4744 4840
4840 4936
5517 5617
5617 5713
5713 5805
