84 182
182 275
275 357
357 451
640 734
734 828
828 919
1881 1979
1979 2077
2172 2268
2268 2368
2564 2660
2660 2759
2955 3106
3989 4153
4937 5037
5037 5135
5135 5233
5329 5425
5425 5522
5718 5814
6110 6210
6210 6311
6311 6409
6505 6603
6603 6701
6701 6799
6990 7088
7282 7377
7377 7475
7475 7573
7573 7671
7671 7767
7767 7862
8054 8148
8148 8243
8243 8337
9001 9126
9126 9224
9224 9319
9413 9511
9511 9607
9700 9796
9796 9882
9975 10100
10100 10196
11272 11368
12030 12121
12121 12217
12217 12315
12315 12411
12411 12507
12507 12605
12605 12701
12701 12796
12796 12894
12894 12992
12992 13088
13088 13183
13183 13281
13281 13379
13571 13671
13671 13766
14151 14251
14251 14345
14345 14441
14441 14538
14538 14634
14634 14732
14828 14926
14926 15024
15024 15128
15128 15222
15412 15507
15507 15601
15601 15695
15788 15886
15886 15982
15982 16080
16172 16269
16269 16363
16363 16459
16653 16752
16752 16856
16856 16952
16952 17048
17142 17240
17240 17338
17520 17610
17610 17702
17702 17796
17796 17889
