1604 1704
1704 1804
2202 2301
2301 2402
2402 2501
2899 2998
2998 3076
3474 3573
3872 4072
4072 4172
4864 5053
5848 5949
6546 6741
6939 7039
7039 7138
7138 7238
7337 7437
7437 7537
7537 7720
7720 7820
8915 9015
9015 9058
9357 9458
9854 9955
9955 10113
15515 15614
15515 15614
15614 15714
15918 16117
16117 16212
