30 70
263 357
357 448
448 547
547 644
644 738
832 928
1228 1324
2005 2101
2197 2292
2385 2477
2477 2568
2664 2757
2757 2849
2849 2942
2942 3030
3030 3074
4338 4436
4436 4534
4534 4629
4629 4724
4724 4822
4822 4919
4919 5017
5307 5407
5407 5503
5503 5599
5790 5891
5891 5983
6077 6174
6268 6363
6363 6455
6455 6551
6551 6646
6646 6737
6737 6829
6829 6898
7085 7174
7357 7450
7901 7993
8460 8559
8559 8654
10308 10405
10691 10789
10789 10883
11071 11165
11165 11259
