1929 2028
2028 2070
3921 4029
4029 4128
5314 5358
5358 5414
5414 5513
5513 5613
5613 5713
5713 5812
5812 5912
5912 6011
6011 6108
6108 6212
6212 6309
6309 6409
6409 6509
6509 6609
6609 6708
6708 6808
6808 6907
6907 7007
7007 7093
7093 7202
7202 7301
7301 7401
7401 7501
7501 7599
7599 7698
7698 7800
7800 7898
7898 7998
7998 8097
8097 8198
8198 8297
8297 8396
8396 8496
8496 8595
8595 8695
8695 8794
8794 8894
8894 8993
8993 9093
9093 9193
9193 9292
9292 9392
9392 9491
9491 9591
9591 9691
9691 9790
9790 9890
9890 9989
9989 10086
10086 10186
10186 10286
10286 10385
10385 10485
10485 10584
10584 10683
10683 10784
10784 10883
10883 10982
10982 11078
11078 11177
11177 11277
11277 11377
11377 11475
11475 11576
11576 11675
11675 11774
11774 11874
11874 11974
11974 12118
12118 12216
12216 12315
12315 12416
12416 12515
12515 12615
12615 12714
12714 12814
12814 12914
12914 13013
13013 13113
13113 13212
13212 13312
13312 13412
13412 13511
13511 13610
13610 13710
13710 13809
13809 13909
13909 14009
14009 14108
14108 14208
14208 14308
14308 14407
14407 14507
14507 14606
14606 14705
14705 14805
14805 14905
14905 15004
15004 15104
15104 15204
15204 15303
15303 15402
15402 15502
15502 15602
15602 15701
15701 15801
15801 15900
15900 16000
16000 16100
16100 16199
16199 16298
16298 16398
16398 16498
16498 16597
16597 16697
16697 16797
16797 16896
16896 16995
16995 17095
17095 17195
17195 17294
17294 17394
17394 17493
17493 17692
17692 17791
17791 17891
17891 17991
17991 18089
18089 18189
18189 18289
18289 18388
18388 18488
18488 18587
18587 18687
18687 18787
18787 18886
18886 18986
18986 19085
19085 19185
19185 19284
19284 19385
19385 19484
19484 19584
19584 19683
19683 19782
19782 19882
19882 19981
19981 20081
20081 20181
20181 20281
20281 20380
20380 20479
20479 20579
20579 20678
20678 20778
20778 20877
20877 20977
20977 21031
21031 21131
21131 21230
21230 21329
21329 21429
21429 21528
21528 21628
21628 21728
21728 21827
21827 21927
21927 22026
22026 22129
