94 156
156 219
219 282
282 345
345 408
534 597
597 660
660 724
724 787
787 850
850 913
913 976
976 1039
1039 1103
1103 1166
1166 1229
1229 1292
1292 1355
1355 1419
1419 1482
1482 1545
1545 1608
1608 1670
1670 1733
1733 1796
1796 1859
1859 1925
1925 1988
1988 2044
2044 2107
2107 2170
2170 2232
2232 2295
2295 2358
2358 2421
2421 2484
2484 2547
2547 2610
2610 2672
2672 2735
2735 2798
2798 2861
2861 2924
2924 2965
2965 3028
3028 3091
3091 3155
3155 3218
3218 3280
3280 3343
3343 3406
3406 3470
3470 3533
3533 3596
3596 3659
3659 3722
3722 3785
3785 3848
3848 3911
3911 3974
3974 4061
4061 4124
4124 4186
4186 4248
4248 4311
4311 4373
4373 4436
4436 4498
4498 4561
4561 4623
4623 4686
4686 4748
4748 4810
4810 4873
4873 4935
4935 4998
4998 5039
5039 5102
5102 5187
5187 5250
5250 5313
5313 5376
5376 5439
5439 5502
5502 5565
5565 5628
5628 5691
5691 5754
5754 5817
5817 5880
5880 5943
5943 6005
6005 6100
6100 6163
6163 6226
6226 6289
6289 6352
6352 6415
6415 6478
6478 6541
6541 6604
6604 6667
6667 6730
6730 6793
6793 6856
6856 6919
6919 6982
6982 7045
7045 7108
7108 7171
7171 7234
7234 7297
7297 7360
7360 7423
7423 7486
7486 7549
7549 7613
7613 7676
7676 7739
7739 7802
7802 7865
7865 7928
7928 7991
7991 8082
8082 8145
8145 8209
8209 8272
8272 8335
8335 8399
8399 8462
8462 8525
8525 8588
8588 8715
8715 8778
8778 8841
8841 8905
8905 8968
