45 112
112 180
180 248
248 316
316 383
383 519
519 586
586 655
655 723
723 789
789 857
857 925
925 993
993 1061
1061 1128
1128 1196
1196 1264
1264 1332
1332 1399
1399 1467
1467 1534
1534 1602
1602 1669
1669 1738
1738 1804
1804 1872
1872 1940
1940 2007
2007 2073
2073 2141
2141 2209
2209 2277
2277 2343
2343 2410
2410 2478
2478 2546
2546 2613
2613 2680
2680 2748
2748 2816
2816 2883
2883 2949
2949 3016
3016 3084
3084 3151
3151 3218
3218 3286
3286 3352
3352 3419
3419 3486
3486 3554
3554 3621
3621 3687
3687 3754
3754 3820
3820 3888
3888 3955
3955 4022
4022 4088
4088 4155
4155 4222
4222 4290
4290 4357
4357 4423
4423 4490
4490 4558
4558 4626
4626 4694
4694 4761
4761 4827
4827 4895
4895 4963
4963 5031
5031 5098
5098 5164
5164 5231
5231 5299
5299 5366
5366 5434
5434 5500
5500 5567
5567 5635
5635 5703
5703 5770
5770 5837
5837 5904
5904 5971
5971 6039
6039 6107
6107 6175
6175 6243
6243 6310
6310 6377
6377 6444
6444 6513
6513 6580
6580 6649
6649 6717
6717 6784
6784 6851
6851 6919
6919 6988
6988 7056
7056 7125
7125 7192
7192 7327
7327 7395
7395 7463
7463 7531
7531 7599
7599 7667
7667 7734
7734 7802
7802 7870
7870 7938
7938 8007
8007 8075
8075 8142
8142 8210
8210 8278
8278 8347
8347 8416
8416 8483
8483 8551
8551 8619
8619 8687
8687 8755
8755 8824
8824 8892
8892 8959
8959 9026
9026 9094
9094 9162
9162 9231
9231 9299
9299 9367
9367 9434
9434 9502
9502 9571
9571 9639
9639 9708
9708 9777
9777 9845
9845 9912
9912 9981
9981 10049
10049 10118
10118 10187
10187 10255
10390 10458
10390 10458
10458 10526
10526 10595
10595 10664
10664 10731
10731 10799
10799 10868
10868 10936
10936 11005
11005 11073
11073 11140
11140 11208
11208 11276
11276 11344
11344 11413
11413 11481
11481 11548
11548 11615
11615 11683
11683 11751
11751 11819
11819 11888
11888 11955
11955 12023
12023 12091
12091 12159
12159 12227
12227 12295
12295 12364
12364 12431
12431 12499
12499 12567
12567 12636
12636 12705
12705 12773
12773 12841
12841 12909
12909 12977
12977 13046
13046 13115
13115 13183
13183 13250
13250 13318
13318 13386
13386 13455
13455 13523
13523 13591
13591 13659
13659 13727
13727 13796
13796 13865
13865 13935
13935 14003
14003 14071
14071 14139
14139 14208
14208 14277
14277 14346
14346 14414
14414 14482
14482 14550
14550 14618
14618 14687
14687 14755
14755 14824
14824 14893
14893 14960
14960 15028
15028 15097
15097 15165
15165 15234
15234 15303
15303 15371
15371 15439
15439 15508
15508 15577
15577 15645
15645 15713
15713 15781
15781 15849
15849 15917
15917 15986
15986 16055
16055 16123
16123 16190
16190 16258
16258 16327
16327 16396
16396 16465
16465 16533
16533 16671
16781 16849
16849 16917
16917 16985
16985 17062
17062 17129
17129 17261
17261 17328
17328 17396
17396 17463
17463 17529
17529 17663
17663 17732
17732 17799
17799 17867
17867 18001
18001 18070
18001 18070
18070 18138
18138 18206
18206 18340
18544 18679
18815 19017
19017 19085
19085 19153
19153 19222
19222 19290
19290 19492
19492 19560
19560 19629
19629 19697
19697 19765
19765 19894
19894 19969
19969 20066
20066 20134
20134 20202
20202 20270
20270 20338
20338 20406
20406 20475
20475 20542
20542 20610
20610 20678
20678 20747
20747 20815
20815 20883
20883 20951
20951 21019
21019 21088
21088 21157
21157 21224
21224 21293
21293 21361
21361 21430
21430 21499
21499 21567
21567 21702
21702 21771
21771 21840
21840 21908
21908 21976
21976 22044
22044 22111
22111 22179
22179 22248
22248 22316
22316 22385
22385 22452
22452 22588
22588 22656
22656 22725
22725 22793
22793 22862
22862 22929
22929 22997
22997 23065
23065 23133
23133 23202
23202 23270
23270 23339
23339 23406
23406 23474
23474 23542
23542 23611
23611 23680
23680 23883
23883 23951
23951 24019
24019 24088
24088 24155
24155 24222
24222 24290
24290 24358
24358 24426
24426 24494
24494 24562
24562 24631
24631 24699
24699 24766
24766 24834
24834 24901
24901 24970
24970 25038
25038 25107
25107 25175
25175 25243
25243 25311
25311 25378
25378 25446
25446 25515
25515 25584
25584 25654
25654 25722
25722 25791
25791 25860
25860 25930
25930 25998
25998 26204
26204 26273
26273 26342
26342 26411
26411 26547
26547 26616
26616 26685
26685 26753
26753 26821
26821 26889
26889 26958
26958 27026
27026 27095
27095 27231
27231 27300
27300 27369
27369 27437
27437 27505
27505 27573
27573 27641
27641 27710
27710 27779
27779 27847
27847 27914
27914 27982
27982 28050
28050 28118
28118 28186
28186 28255
28255 28323
28323 28525
28525 28593
28593 28661
28661 28729
28729 28797
28797 28864
28864 28931
28931 28999
28999 29064
29064 29132
29132 29202
29202 29270
29270 29338
29338 29475
29475 29544
29544 29614
29614 29683
29683 29751
29751 29820
29820 29888
29888 29957
29957 30027
30027 30231
30231 30300
30300 30369
30369 30439
30439 30508
30508 30713
30713 30782
30782 30851
30851 30921
30921 30990
30990 31060
31060 31265
31265 31334
31334 31403
31403 31473
31473 31543
31543 31613
31613 31819
31819 31888
31888 31957
31957 32026
32026 32096
32096 32166
32166 32236
32236 32305
32305 32512
32512 32581
32581 32696
32696 32767
32767 32836
32836 33042
33042 33112
33112 33181
33181 33251
33251 33321
33321 33391
33391 33666
33666 33736
33736 33806
33806 33876
33876 33945
33945 34015
34015 34086
34086 34156
34156 34361
34361 34430
34430 34500
34500 34569
34569 34639
34639 34709
34709 34778
34778 34983
34983 35052
35052 35122
35122 35191
35191 35262
35262 35331
35331 35536
35536 35606
35606 35675
35675 35744
35744 35814
35814 35884
35884 35953
35953 36158
36158 36227
36227 36296
36296 36366
36366 36436
36436 36505
36505 36709
36709 36778
36778 36847
36847 36917
36917 36986
36986 37055
37055 37125
37125 37195
37195 37264
37264 37470
37470 37540
37540 37609
37609 37679
37679 37750
37750 37820
37820 37958
37958 38027
38027 38096
38096 38167
38167 38236
38236 38373
38373 38442
38442 38556
38556 38625
38625 38695
38695 38764
38764 38833
38833 38902
38902 38971
38971 39041
39041 39177
39177 39245
39245 39314
39314 39383
39383 39453
39453 39523
39523 39728
39728 39797
39797 39866
39866 39935
39935 40005
40005 40074
40074 40144
40144 40213
40213 40418
40418 40487
40487 40556
40556 40625
40625 40695
40695 40764
40764 40833
40833 40902
40902 40970
40970 41176
41176 41245
41245 41315
41315 41384
41384 41521
41521 41590
41590 41659
41659 41729
41729 41799
41799 41868
41868 42075
42075 42144
42144 42214
42214 42284
42284 42354
42354 42425
42425 42494
42494 42701
42701 42770
42770 42840
42840 42910
42910 42980
42980 43050
43050 43257
43257 43326
43326 43396
43396 43465
43465 43535
43535 43741
43741 43810
43810 43880
43880 43949
43949 44019
44019 44089
44089 44159
44159 44227
44227 44364
44364 44434
44434 44504
44504 44573
44573 44643
44643 44712
44712 44782
44782 44851
44851 44921
44921 45058
45058 45127
45127 45197
45197 45267
45267 45337
45337 45542
45542 45611
45611 45681
45681 45751
45751 45820
45820 45890
45890 45960
45960 46029
46029 46099
46099 46169
46169 46237
46237 46375
46375 46444
46444 46514
46514 46583
46583 46653
46653 46723
46723 46793
46793 46861
46861 46999
46999 47068
47068 47138
47138 47208
47208 47278
47278 47348
47348 47418
47418 47487
47487 47625
47625 47695
47695 47765
47765 47835
47835 47905
47905 47975
47975 48046
48046 48117
48117 48188
48188 48259
48259 48329
48329 48468
48468 48538
48538 48608
48608 48679
48679 48750
48750 48819
48819 49003
49003 49074
49074 49145
49145 49215
49215 49284
49284 49353
49353 49423
49423 49493
49493 49564
49564 49634
49634 49705
49705 49775
49775 49983
49983 50053
50053 50123
50123 50194
50194 50264
50264 50333
50333 50403
50403 50473
50473 50543
50543 50613
50613 50683
50683 50890
50890 50960
50960 51030
51030 51099
51099 51169
51169 51240
51240 51309
51309 51515
51515 51585
51585 51655
51655 51726
51726 51796
51796 51866
51866 52004
52004 52074
52074 52143
52143 52213
52213 52282
52282 52351
52351 52421
52421 52491
52491 52559
52559 52696
52696 52766
52766 52835
52835 52905
52905 52974
52974 53043
53043 53113
53113 53182
53182 53251
53251 53321
53321 53390
53390 53460
53460 53529
53529 53598
53598 53735
53735 53804
53804 53873
53873 53943
53943 54012
54012 54082
54082 54152
54152 54221
54221 54290
54290 54496
54496 54565
54565 54635
54635 54705
54705 54773
54773 54911
54911 54980
54980 55049
55049 55120
55120 55189
55189 55258
55258 55327
55327 55396
55396 55466
55466 55536
55536 55605
55605 55675
55675 55744
55744 55882
55882 55951
55951 56020
56020 56090
56090 56160
56160 56229
56229 56299
56299 56369
56369 56438
56438 56509
56509 56579
56579 56648
56648 56789
56789 56860
56860 56931
56931 57001
57001 57071
57071 57142
57142 57214
57214 57285
57285 57354
57354 57425
57425 57495
57495 57566
57566 57637
57637 57707
57707 57776
57776 57846
57846 57916
57916 57987
57987 58058
58058 58128
58128 58197
58197 58267
58267 58336
58336 58407
58407 58477
58477 58546
58546 58614
58614 58684
58684 58753
58753 58822
58822 58892
58892 58961
58961 59030
59030 59099
59099 59168
59168 59237
59237 59307
59307 59376
59376 59445
59445 59514
59514 59584
59584 59653
59653 59722
59722 59859
59859 59928
59928 59998
59998 60067
60067 60137
60137 60207
60207 60277
60277 60347
60347 60415
60415 60484
60484 60554
60554 60624
60624 60694
60694 60764
60764 60834
60834 60904
60904 60974
60974 61043
61043 61181
61181 61251
61251 61320
61320 61390
61390 61459
61459 61529
61529 61599
61599 61669
61669 61806
61806 61875
61875 61945
61945 62015
62015 62085
62085 62155
62155 62225
62225 62295
62295 62365
62365 62434
62434 62504
62504 62574
62574 62644
62644 62713
62713 62782
62782 62852
62852 62922
62922 62992
62992 63062
63062 63131
63131 63201
63201 63270
63270 63339
63339 63409
63409 63479
63479 63549
63549 63619
63619 63689
63689 63759
63759 63896
63896 63965
63965 64034
64034 64104
64104 64174
64174 64244
64244 64313
64313 64383
64383 64453
64453 64524
64524 64594
64594 64801
64801 64871
64871 64941
64941 65012
65012 65083
65083 65153
65153 65222
65222 65292
65292 65362
65362 65433
65433 65504
65504 65575
65575 65645
65645 65715
65715 65784
65784 65855
65855 65924
65924 65994
65994 66065
66065 66135
66135 66205
66205 66275
66275 66344
66344 66413
66413 66482
66482 66551
66551 66622
66622 66691
66691 66760
66760 66829
66829 66899
66899 66968
66968 67038
67038 67108
67108 67178
67178 67248
67248 67317
67317 67385
67385 67454
67454 67524
67524 67594
67594 67663
67663 67733
67733 67802
67802 67872
67872 67941
67941 68010
68010 68079
68079 68148
68148 68218
68218 68287
68287 68357
68357 68427
68427 68496
68496 68633
68633 68702
68702 68772
68772 68841
68841 68911
68911 68982
68982 69051
69051 69120
69120 69189
69189 69258
69258 69328
69328 69397
69397 69466
69466 69536
69536 69605
69605 69675
69675 69745
69745 69815
69815 69883
69883 69953
69953 70023
70023 70093
70093 70163
70163 70234
70234 70304
70304 70375
70375 70445
70445 70514
70514 70584
70584 70655
70655 70726
70726 70797
70797 70868
