10 179
914 1078
1078 1161
1161 1243
1243 1325
1325 1407
1407 1490
1490 1572
1572 1655
1655 1736
1736 1819
1819 1982
1982 2064
2064 2146
2146 2228
2228 2309
2309 2391
2391 2472
2472 2553
2553 2635
2635 2716
2716 2796
2796 2878
2878 2959
2959 3040
3040 3122
3122 3202
3202 3283
3283 3364
3364 3445
3445 3526
3526 3605
3605 3688
3688 3768
3768 3848
3848 3930
3930 4010
4010 4092
4092 4173
4173 4254
4254 4335
4335 4497
4497 4660
4660 4742
4742 4823
4823 4905
4905 4987
4987 5150
5150 5233
5233 5315
5315 5398
5398 5480
5480 5563
5563 5728
5728 5811
5811 5895
5895 5978
5978 6062
6062 6145
6145 6229
6229 6312
6312 6396
6396 6564
6564 6733
6733 6817
6817 7070
7070 7154
7154 7239
7239 7324
7324 7408
7408 7493
7493 7661
7661 7830
7830 7914
7914 7999
7999 8165
8165 8250
8250 8333
8333 8501
8501 8583
8583 8666
8666 8749
8749 8831
8831 8997
8997 9079
9079 9162
9162 9245
9245 9326
9326 9408
9408 9492
9492 9654
9654 9738
9738 9819
9819 9900
9900 9983
9983 10065
10065 10147
10147 10229
10229 10310
10310 10392
10392 10474
10474 10555
10555 10637
10637 10719
10719 10800
10800 10882
10882 10964
10964 11045
11045 11126
11126 11208
11208 11290
11290 11372
11372 11454
11454 11536
11536 11618
11618 11699
11699 11781
11781 11864
11864 11946
11946 12029
12029 12111
12111 12194
12194 12276
12276 12358
12358 12442
12442 12525
12525 12609
12609 12693
12693 12776
12776 12860
12860 12943
12943 13027
13027 13111
13111 13196
13196 13280
13280 13365
13365 13449
13449 13534
13534 13619
13619 13704
13704 13789
13789 13875
13875 13960
13960 14045
14045 14129
14129 14215
14215 14300
14300 14386
14386 14469
14469 14553
14553 14638
14638 14722
14722 14806
14806 14890
14890 14974
14974 15056
15056 15141
15141 15224
15224 15307
15307 15392
15392 15474
15474 15557
15557 15641
15641 15724
15724 15807
15807 15891
15891 15973
15973 16056
16056 16140
16140 16223
16223 16305
16305 16388
16388 16470
16470 16552
16552 16635
16635 16718
16718 16801
16801 16883
16883 16966
16966 17048
17048 17211
17211 17294
17294 17377
17377 17459
17459 17542
17542 17625
17625 17707
17707 17873
17873 17956
17956 18038
18038 18122
18122 18205
18205 18288
18288 18454
18454 18622
18622 18705
18705 18789
18789 18873
18873 18957
18957 19294
19294 19379
19379 19464
19464 19549
19549 19718
19718 19889
19889 19974
19974 20061
20061 20146
20146 20317
20317 20403
20403 20489
20489 20575
20575 20661
20661 20747
20747 20833
20833 20919
20919 21005
21005 21092
21092 21178
21178 21265
21265 21351
21351 21438
21438 21610
21610 21784
21784 21870
21870 22042
22042 22129
22129 22215
22215 22302
22302 22388
22388 22473
22473 22560
22560 22647
22647 22732
22732 22819
22819 22904
22904 22990
22990 23077
23077 23163
23163 23250
23250 23336
23336 23421
23421 23507
23507 23592
23592 23845
23845 23929
23929 24014
24014 24180
24180 24265
24265 24431
24431 24515
24515 24681
24681 24765
24765 24930
24930 25178
25178 25510
25510 25593
25593 25675
25675 25758
25758 25841
25841 25924
25924 26007
26007 26090
26090 26173
26173 26256
26256 26339
26339 26422
26422 26506
26506 26589
26589 26672
26672 26756
26756 26840
26840 26923
26923 27006
27006 27090
27090 27175
27175 27259
27259 27343
27343 27427
27427 27512
27512 27597
27597 27681
27681 27766
27766 27850
27850 27935
27935 28019
28019 28104
28104 28271
28271 28357
28357 28441
28441 28525
28525 28610
28610 28694
28694 28778
28778 28863
28863 29030
29030 29115
29115 29281
29281 29365
29365 29449
29449 29533
29533 29617
29617 29700
29700 29784
29784 29866
29866 29950
29950 30034
30034 30117
30117 30201
30201 30285
30285 30368
30368 30452
30452 30535
30535 30619
30619 30703
30703 30787
30787 30871
30871 30955
30955 31039
31039 31123
31123 31207
31207 31292
31292 31376
31376 31461
31461 31545
31545 31630
31630 31714
31714 31798
31798 31884
31884 31969
31969 32054
32054 32139
32139 32224
32224 32309
32309 32393
32393 32479
32479 32564
32564 32649
32649 32735
32735 32821
32821 32906
32906 32991
32991 33076
33076 33162
33162 33247
33247 33333
33333 33418
33418 33504
33504 33588
33588 33674
33674 33760
33760 33845
33845 33931
33931 33992
33992 34077
34077 34163
34163 34249
34249 34336
34336 34422
34422 34508
34508 34595
34595 34680
34680 34766
34766 34852
34852 34939
34939 35025
35025 35111
35111 35197
35197 35283
35283 35370
35370 35456
35456 35543
35543 35628
35628 35714
35714 35801
35801 35886
35886 35973
35973 36060
36060 36145
36145 36232
36232 36319
36319 36405
36405 36491
36491 36577
36577 36665
36665 36752
36752 36838
36838 36925
36925 37012
37012 37099
37099 37187
37187 37274
37274 37361
37361 37449
37449 37537
37537 37624
37624 37712
37712 37800
37800 37887
37887 37974
37974 38063
38063 38150
38150 38237
38237 38324
38324 38411
38411 38498
38498 38585
38585 38673
38673 38759
38759 38846
38846 38933
38933 39020
39020 39106
39106 39193
39193 39280
39280 39367
39367 39454
39454 39541
39541 39628
39628 39715
39715 39801
39801 39888
39888 39975
39975 40062
40062 40149
40149 40236
40236 40322
40322 40409
40409 40496
40496 40583
40583 40670
40670 40757
40757 40844
40844 40931
40931 41017
41017 41104
41104 41191
41191 41278
41278 41365
41365 41452
41452 41538
41538 41626
41626 41800
41800 41889
41889 41974
41974 42061
42061 42149
42149 42236
42236 42323
42323 42411
42411 42497
42497 42587
42587 42675
42675 42762
42762 42849
42849 42936
42936 43022
43022 43108
43108 43196
43196 43281
43281 43368
43368 43455
43455 43541
43541 43628
43628 43713
43713 43800
43800 43886
43886 43973
43973 44059
44059 44146
44146 44232
44232 44317
44317 44404
44404 44490
44490 44577
44577 44663
44663 44749
44749 44835
44835 44922
44922 45008
45008 45094
45094 45180
45180 45351
45351 45438
45438 45523
45523 45608
45608 45694
45694 45781
45781 45865
45865 45950
45950 46036
46036 46120
46120 46206
46206 46291
46291 46375
46375 46459
46459 46544
46544 46629
46629 46714
46714 46797
46797 46882
46882 46967
46967 47097
47097 47182
47182 47267
47267 47352
47352 47437
47437 47522
47522 47607
47607 47692
47692 47778
47778 47863
47863 47949
47949 48034
48034 48120
48120 48206
48206 48292
48292 48377
48377 48464
48464 48551
48551 48637
48637 48724
48724 48810
48810 48896
48896 48983
48983 49068
49068 49155
49155 49242
49242 49327
49327 49414
49414 49501
49501 49586
49586 49672
49672 49758
49758 49843
49843 49930
49930 50016
50016 50101
50101 50187
50187 50273
50273 50358
50358 50443
50443 50530
50530 50614
50614 50700
50700 50786
50786 50870
50870 50955
50955 51041
51041 51126
51126 51212
51212 51297
51297 51382
51382 51467
51467 51551
51551 51637
51637 51722
51722 51808
51808 51893
51893 51978
51978 52063
52063 52148
52148 52233
52233 52319
52319 52404
52404 52490
52490 52575
52575 52662
52662 52746
52746 52832
52832 52918
52918 53003
53003 53088
53088 53175
53175 53261
53261 53346
53346 53431
53431 53517
53517 53602
53602 53687
53687 53773
53773 53859
53859 53945
53945 54031
54031 54117
54117 54203
54203 54288
54288 54374
54374 54461
54461 54547
54547 54633
54633 54720
54720 54806
54806 54892
54892 54979
54979 55067
55067 55154
55154 55241
55241 55329
55329 55416
55416 55503
55503 55591
55591 55679
55679 55768
55768 55855
55855 55943
55943 56030
56030 56117
56117 56205
56205 56293
56293 56380
56380 56469
56469 56557
56557 56645
56645 56733
56733 56821
56821 56908
56908 56995
56995 57083
57083 57171
57171 57258
57258 57345
57345 57432
57432 57519
57519 57606
57606 57693
57693 57780
57780 57867
57867 57953
57953 58040
58040 58128
58128 58214
58214 58302
58302 58389
58389 58476
58476 58563
58563 58649
58649 58737
58737 58824
58824 58911
58911 58998
58998 59085
59085 59172
59172 59259
59259 59346
59346 59433
59433 59520
59520 59607
59607 59694
59694 59781
59781 59867
59867 59954
59954 60042
60042 60129
60129 60215
60215 60303
60303 60391
60391 60472
60472 60564
60564 60653
60653 60741
60741 60829
60829 60918
60918 61006
61006 61103
61103 61188
61188 61274
61274 61359
61359 61444
61444 61529
61529 61614
61614 61699
61699 61784
61784 61869
61869 61953
61953 62038
62038 62123
62123 62207
62207 62292
62292 62376
62376 62460
62460 62544
62544 62629
62629 62712
62712 62797
62797 62882
62882 62966
62966 63048
63048 63132
63132 63217
63217 63301
63301 63384
63384 63468
63468 63552
63552 63636
63636 63720
63720 63803
63803 63887
63887 63970
63970 64054
64054 64139
64139 64223
64223 64308
64308 64392
64392 64477
64477 64561
64561 64645
64645 64730
64730 64815
64815 64900
64900 64985
64985 65071
65071 65155
65155 65240
65240 65326
65326 65412
65412 65497
65497 65583
65583 65669
65669 65754
65754 65839
65839 65926
65926 66012
66012 66099
66099 66185
66185 66271
66271 66358
66358 66444
66444 66531
66531 66618
66618 66705
66705 66792
66792 66879
66879 66966
66966 67053
67053 67140
67140 67227
67227 67315
67315 67402
67402 67489
67489 67577
67577 67664
67664 67751
67751 67839
67839 67926
67926 68014
68014 68101
68101 68189
68189 68278
68278 68365
68365 68453
68453 68541
68541 68629
68629 68716
68716 68803
68803 68891
68891 68979
68979 69066
69066 69153
69153 69241
69241 69329
69329 69415
69415 69502
69502 69591
69591 69677
69677 69764
69764 69853
69853 69941
69941 70028
70028 70115
70115 70201
70201 70288
70288 70374
70374 70460
70460 70547
70547 70633
70633 70718
70718 70805
70805 70892
70892 70977
70977 71063
71063 71149
71149 71235
71235 71322
71322 71408
71408 71494
71494 71579
71579 71664
71664 71751
71751 71838
