775 939
18053 18195
18195 18279
18279 18361
18361 18443
18443 18527
18527 18609
18609 18692
18692 18776
18776 18860
18860 18942
18942 19025
19025 19110
19110 19194
19194 19278
19278 19361
19361 19445
19445 19529
19529 19611
19611 19695
19695 19780
19780 19863
19863 19947
19947 20032
20032 20117
20117 20200
20200 20283
20283 20367
20367 20427
20427 20508
20508 20592
20592 20676
20676 20758
20758 20842
20842 20925
20925 21010
21010 21093
21093 21177
21177 21261
21261 21345
21345 21429
21429 21513
21513 21595
21595 21679
21679 21761
21761 21844
21844 21927
21927 22010
22010 22093
22093 22176
22176 22259
22259 22342
22342 22425
22425 22509
22509 22593
22593 22676
22676 22759
22759 22843
22843 22926
22926 23009
23009 23092
23092 23176
23176 23259
23259 23342
23342 23426
23426 23509
23509 23592
23592 23675
23675 23759
23759 23843
23843 23928
23928 24032
24032 24116
24116 24201
24201 24287
24541 24624
24624 24708
24708 24793
24793 24877
24877 24960
24960 25043
25043 25126
25126 25210
25210 25292
25292 25374
25374 25457
25457 25540
25540 25622
25622 25705
25705 25788
25788 25870
25870 25952
25952 26036
26036 26118
26118 26200
26200 26283
26283 26365
26365 26448
26448 26531
26531 26614
26614 26697
26697 26780
26780 26863
26863 26945
26945 27028
27028 27112
27112 27195
27195 27278
27278 27361
27361 27445
27445 27529
27529 27612
27612 27695
27695 27779
27779 27863
27863 27947
27947 28030
28030 28100
28100 28182
28182 28264
28264 28346
28346 28428
28428 28510
28510 28592
28592 28674
28674 28756
28756 28838
28838 28921
28921 29002
29002 29084
29084 29167
29167 29248
29248 29330
29330 29413
29413 29495
29495 29577
29577 29660
29660 29741
29741 29824
29824 29905
29905 29988
29988 30071
30071 30153
30153 30235
30235 30317
30317 30399
30399 30482
30482 30564
30564 30647
30647 30730
30730 30812
30812 30895
30895 30977
30977 31060
31060 31143
31143 31226
31226 31309
31309 31392
31392 31476
31476 31559
31559 31642
31642 31726
31726 31810
31810 31894
31894 31978
31978 32061
32061 32143
32143 32227
32227 32309
32309 32393
32393 32477
32477 32559
32559 32642
32642 32727
32727 32809
32809 32893
32893 32976
32976 33059
33059 33144
33144 33226
33226 33310
33310 33395
33395 33478
33478 33562
33562 33647
33647 33731
33731 33815
33815 33899
33899 33983
33983 34067
34067 34151
34151 34236
34236 34320
34320 34404
34404 34487
34487 34571
34571 34654
34654 34737
34737 34820
34820 34904
34904 34987
34987 35044
35044 35125
35125 35207
35207 35289
35289 35371
35371 35452
35452 35534
35534 35616
35616 35698
35698 35780
35780 35861
35861 35944
35944 36026
36026 36107
36107 36190
36190 36272
36272 36354
36354 36437
36437 36519
36519 36601
36601 36684
36684 36767
36767 36850
36850 36933
36933 37015
37015 37099
37099 37182
37182 37265
37265 37348
37348 37433
37433 37516
37516 37600
37600 37684
37684 37768
37768 37852
37852 37936
37936 38018
38018 38101
38101 38184
38184 38267
38267 38351
38351 38435
38435 38518
38518 38602
38602 38687
38687 38770
38770 38854
38854 38939
38939 39023
39023 39072
39072 39155
39155 39319
39319 39401
39401 39483
39483 39564
39564 39645
39645 39727
39727 39809
39809 39889
39889 39970
39970 40105
40105 40187
40187 40267
40267 40348
40348 40429
40429 40510
40510 40590
40590 40671
40671 40752
40752 40832
40832 40912
40912 40994
40994 41074
41074 41154
41154 41235
41235 41316
41316 41397
41397 41478
41478 41559
41559 41640
41640 41720
41720 41801
41801 41883
41883 41964
41964 42045
42045 42126
42126 42208
42208 42289
42289 42369
42369 42451
42451 42533
42533 42614
42614 42696
42696 42778
42778 42860
42860 42941
42941 43022
43022 43066
43066 43147
43147 43229
43229 43312
43312 43394
43394 43475
43475 43559
43559 43640
43640 43722
43722 43804
43804 43887
43887 43968
43968 44049
44049 44133
44133 44214
44214 44296
44296 44379
44379 44460
44460 44542
44542 44625
44625 44706
44706 44787
44787 44870
44870 44951
44951 45032
45032 45115
45115 45195
45195 45276
45276 45359
45359 45440
45440 45520
45520 45602
45602 45683
45683 45764
45764 45847
45847 45927
45927 46008
46008 46089
46089 46171
46171 46251
46251 46331
46331 46412
46412 46493
46493 46574
46574 46654
46654 46735
46735 46816
46816 46895
46895 46977
46977 47058
47058 47139
47139 47219
47219 47300
47300 47381
47381 47462
47462 47542
47542 47623
47623 47705
47705 47785
47785 47865
47865 47947
47947 48082
48082 48162
48162 48243
48243 48325
48325 48405
48405 48486
48486 48568
48568 48649
48649 48731
48731 48813
48813 48894
48894 48976
48976 49057
49057 49138
49138 49220
49220 49302
49302 49384
49384 49465
49465 49547
49547 49629
49629 49710
49710 49792
49792 49874
49874 49956
49956 50038
50038 50120
50120 50202
50202 50283
50283 50366
50366 50449
50449 50531
50531 50613
50613 50696
50696 50778
50778 50860
50860 50943
50943 51026
51026 51100
51100 51183
51183 51267
51267 51349
51349 51430
51430 51513
51513 51595
51595 51678
51678 51761
51761 51842
51842 51924
51924 52007
52007 52090
52090 52170
52170 52252
52252 52335
52335 52496
52496 52578
52578 52740
52740 52822
52822 52901
52901 52982
52982 53039
53039 53119
53119 53200
53200 53280
53280 53361
53361 53440
53440 53521
53521 53602
53602 53682
53682 53762
53762 53843
53843 53923
53923 54004
54004 54108
54108 54190
54190 54270
54270 54351
54351 54433
54433 54514
54514 54594
54594 54676
54676 54756
54756 54837
54837 54919
54919 54999
54999 55079
55079 55161
55161 55241
55241 55321
55321 55402
55402 55481
55481 55563
55563 55644
55644 55724
55724 55804
55804 55886
55886 55965
55965 56044
56044 56125
56125 56206
56206 56286
56286 56367
56367 56448
56448 56528
56528 56609
56609 56689
56689 56770
56770 56850
56850 56931
56931 57012
57012 57093
57093 57173
57173 57253
57253 57335
57335 57415
57415 57495
57495 57577
57577 57658
57658 57739
57739 57818
57818 57901
57901 57981
57981 58061
58061 58142
58142 58224
58224 58304
58304 58385
58385 58465
58465 58547
58547 58682
58682 58763
58763 58844
58844 58924
58924 59004
59004 59085
59085 59166
