2979 3081
6986 7088
8908 8987
8987 9069
36419 36501
36501 36583
36583 36639
45507 45584
49943 50023
50434 50510
50510 50585
50585 50660
50660 50735
50735 50809
50809 50884
64095 64172
64172 64247
64247 64323
64400 64477
64477 64553
64553 64629
64629 64705
