955 1106
1106 1226
1226 1345
1345 1456
1456 1565
1565 1677
1677 1791
1791 1908
1908 2025
2025 2091
2091 2203
2203 2318
2318 2441
2441 2562
2562 2684
2684 2793
2793 2894
2894 3001
3001 3086
3086 3210
3210 3327
3327 3443
3443 3566
3566 3687
3687 3809
3809 3931
3931 4088
4088 4196
4196 4316
4316 4438
4438 4565
4565 4686
4686 4806
4806 4915
4915 5016
5016 5075
5075 5185
5185 5294
5294 5399
5399 5495
5495 5594
5594 5692
5692 5798
5798 5907
5907 6019
6019 6094
6094 6197
6197 6306
6306 6422
6422 6532
6532 6634
6634 6731
6731 6833
