130 200
200 269
269 341
341 411
411 479
479 550
550 621
621 689
689 761
761 828
828 898
898 968
968 1039
1039 1108
1108 1176
1176 1246
1246 1315
1315 1386
1386 1456
1456 1524
1524 1595
1595 1665
1665 1733
1733 1802
1802 1873
1873 1942
1942 2010
2010 2049
2049 2119
2119 2188
2188 2258
2258 2326
2326 2395
2395 2464
2464 2534
2534 2602
2602 2672
2672 2739
2739 2810
2810 2878
2878 2947
2947 3015
3015 3099
3099 3169
3169 3237
3237 3308
3308 3377
3377 3448
3448 3518
3518 3586
3586 3656
3656 3727
3727 3796
3796 3865
3865 3935
3935 4003
4003 4072
4072 4143
4143 4212
4212 4281
4281 4350
4350 4420
4420 4489
4489 4559
4559 4628
4628 4696
4696 4766
4766 4836
4836 4905
4905 4971
4971 5043
5043 5111
5111 5180
5180 5248
5248 5316
5316 5384
5384 5452
5452 5521
5521 5590
5590 5660
5660 5729
5729 5797
5797 5866
5866 5937
5937 6005
6005 6074
6074 6145
6145 6216
6216 6286
6286 6355
6355 6424
6424 6496
6496 6565
6565 6638
6638 6707
6707 6780
6780 6850
6850 6922
6922 6992
6992 7064
7064 7136
7136 7209
7209 7281
7281 7351
7351 7423
7423 7496
7496 7566
7566 7638
7638 7710
7710 7784
7784 7855
7855 7977
7977 8048
8048 8122
8122 8194
8194 8266
8266 8339
8339 8411
8411 8483
8483 8556
8556 8629
8629 8701
8701 8773
8773 8846
8846 8919
8919 8994
8994 9067
9067 9139
9139 9213
9213 9286
9286 9360
9360 9435
9435 9509
9509 9582
9582 9656
9656 9731
9731 9805
9805 9878
9878 9953
9953 10027
10027 10103
10103 10178
10178 10252
10252 10326
10326 10400
10400 10476
10476 10551
10551 10626
10626 10699
10699 10773
10773 10850
10850 10923
10923 10999
10999 11073
11073 11148
11148 11222
11222 11298
11298 11373
11373 11448
11448 11523
11523 11598
11598 11674
11674 11749
11749 11824
11824 11901
11901 11977
11977 12053
12053 12128
12128 12204
12204 12280
12280 12358
12358 12434
12434 12510
12510 12586
12586 12662
12662 12740
12740 12817
12817 12894
12894 12970
12970 13046
13046 13125
13125 13201
13201 13280
13280 13357
13357 13435
13435 13513
13513 13591
13591 13670
13670 13749
13749 13827
13827 13905
13905 13983
13983 14062
14062 14142
14142 14220
14220 14299
14299 14377
14377 14456
14456 14534
14534 14612
14612 14690
14690 14770
14770 14849
14849 14927
14927 15004
15004 15082
15082 15162
15162 15240
15240 15318
15318 15395
15395 15474
15474 15551
15551 15630
15630 15706
15706 15784
15784 15863
15863 15940
15940 16017
16017 16095
16095 16174
16174 16251
16251 16329
16329 16406
16406 16484
16484 16563
16563 16641
16641 16718
16718 16795
16795 16874
16874 16954
16954 17032
17032 17110
17110 17188
17188 17268
17268 17346
17346 17426
17426 17505
17505 17584
17584 17663
17663 17743
17743 17798
17798 17879
17879 17959
17959 18038
18038 18118
18118 18200
18200 18280
18280 18361
18361 18441
18441 18522
18522 18602
18602 18681
18681 18761
18761 18843
18843 18923
18923 19003
19003 19083
19083 19162
19162 19243
19243 19323
19323 19402
19402 19481
19481 19562
19562 19642
19642 19722
19722 19800
19800 19880
19880 19961
19961 20040
20040 20119
20119 20199
20199 20278
20278 20360
20360 20440
20440 20520
20520 20600
20600 20679
20679 20759
20759 20840
20840 20921
20921 21001
21001 21081
21081 21161
21161 21241
21241 21323
21323 21403
21403 21483
21483 21563
21563 21644
21644 21724
21724 21807
21807 21886
21886 21968
21968 22049
22049 22130
22130 22211
22211 22292
22292 22373
22373 22454
22454 22535
22535 22616
22616 22698
22698 22778
22778 22859
22859 22941
22941 23022
23022 23102
23102 23185
23185 23265
23265 23347
23347 23428
23428 23508
23508 23589
23589 23671
23671 23734
23734 23834
23834 23915
23915 23997
23997 24077
24077 24159
24159 24239
24239 24319
24319 24400
24400 24480
24480 24561
24561 24644
24644 24725
24725 24805
24805 24886
24886 24966
24966 25062
25062 25141
25141 25220
25220 25300
25300 25382
25382 25460
25460 25542
25542 25623
25623 25703
25703 25784
25784 25863
25863 26059
26059 26140
26140 26223
26223 26304
26304 26386
26386 26469
26469 26551
26551 26633
26633 26714
26714 26796
26796 26880
26880 26962
26962 27044
27044 27125
27125 27207
27207 27290
27290 27370
27370 27452
27452 27537
27537 27619
27619 27701
27701 27784
27784 27866
27866 27948
27948 28008
28008 28092
28092 28175
28175 28273
28273 28355
28355 28437
28437 28519
28519 28600
28600 28682
28682 28765
28765 28847
28847 28929
28929 29009
29009 29059
29059 29140
29140 29220
29220 29300
29300 29379
29379 29460
29460 29538
29538 29619
29619 29700
29700 29780
29780 29860
29860 29938
29938 30031
30031 30110
30110 30191
30191 30271
30271 30350
30350 30430
30430 30510
30510 30591
30591 30672
30672 30752
30752 30833
30833 30914
30914 30994
30994 31060
31060 31142
31142 31225
31225 31307
31307 31391
31391 31473
31473 31556
31556 31639
31639 31724
31724 31807
31807 31889
31889 31973
31973 32057
