687 756
756 826
826 895
895 964
964 1033
1033 1102
1102 1171
1171 1240
1240 1310
1310 1379
1379 1448
1448 1517
1517 1587
1587 1656
1656 1725
1725 1794
1794 1863
1863 1932
1932 2001
2001 2071
2071 2140
2140 2209
2209 2279
2279 2348
2348 2417
2417 2486
2486 2556
2556 2625
2625 2694
2694 2764
2764 2833
2833 2902
2902 2972
2972 3041
3041 3110
3110 3180
3180 3249
3249 3318
3318 3388
3388 3457
3457 3527
3527 3596
3596 3665
3665 3735
3735 3804
3804 3874
3874 3943
3943 4013
4013 4082
4082 4152
4152 4221
4221 4290
4290 4360
4360 4429
4429 4499
4499 4568
4568 4638
4638 4707
4707 4777
4777 4847
4847 4916
4916 4986
4986 5095
5095 5164
5164 5234
5234 5303
5303 5373
5373 5442
5442 5511
5511 5581
5581 5650
5650 5719
5719 5789
5789 5858
5858 5928
5928 5997
5997 6066
6066 6136
6136 6205
6205 6274
6274 6344
6344 6413
6413 6483
6483 6552
6552 6622
6622 6691
6691 6760
6760 6830
6830 6899
6899 6968
6968 7038
7038 7107
7107 7177
7177 7246
7246 7315
7315 7385
7385 7454
7454 7523
7523 7593
7593 7662
7662 7732
7732 7802
7802 7871
7871 7941
7941 8011
8011 8081
8081 8150
8150 8220
8220 8290
8290 8360
8360 8430
8430 8499
8499 8569
8569 8639
8639 8709
8709 8778
8778 8848
8848 8918
8918 8988
8988 9083
9083 9153
9153 9222
9222 9292
9292 9362
9362 9431
9431 9501
9501 9571
9571 9640
9640 9709
9709 9779
9779 9848
9848 9918
9918 9987
9987 10070
10070 10139
10139 10208
10208 10277
10277 10346
10346 10416
10416 10485
10485 10554
10554 10623
10623 10692
10692 10761
10761 10831
10831 10900
10900 10969
10969 11039
11039 11108
11108 11177
11177 11247
11247 11316
11316 11385
11385 11455
11455 11524
11524 11593
11593 11662
11662 11731
11731 11801
11801 11870
11870 11939
11939 12008
12008 12077
12077 12147
12147 12216
12216 12285
12285 12355
12355 12424
12424 12494
12494 12563
12563 12633
12633 12703
12703 12772
12772 12842
12842 12911
12911 12981
12981 13050
13050 13120
13120 13189
13189 13259
13259 13329
13329 13398
13398 13468
13468 13537
13537 13607
13607 13677
13677 13746
13746 13816
13816 13886
13886 13956
13956 14025
14025 14095
14095 14165
14165 14235
14235 14305
14305 14374
14374 14444
14444 14514
14514 14559
14559 14630
14630 14700
14700 14769
14769 14840
14840 14910
14910 15013
15013 15066
15066 15135
15135 15204
15204 15273
15273 15343
15343 15412
15412 15481
15481 15550
15550 15619
15619 15688
15688 15756
15756 15825
15825 15894
15894 15963
15963 16032
16032 16102
16102 16170
16170 16239
16239 16308
16308 16377
16377 16446
16446 16516
16516 16585
16585 16654
16654 16723
16723 16792
16792 16861
16861 16930
16930 16999
16999 17068
17068 17137
17137 17207
17207 17276
17276 17345
17345 17414
17414 17484
17484 17553
17553 17622
17622 17692
17692 17761
17761 17831
17831 17900
17900 17969
17969 18039
18039 18108
18108 18152
18152 18221
18221 18291
18291 18360
18360 18429
18429 18498
18498 18568
18568 18637
18637 18707
18707 18776
18776 18846
18846 18915
18915 18985
18985 19054
19054 19124
19124 19194
19194 19263
19263 19333
19333 19403
19403 19472
19472 19542
19542 19612
19612 19681
19681 19751
19751 19821
19821 19891
19891 19961
19961 20031
20031 20101
20101 20171
20171 20240
20240 20310
20310 20380
20380 20450
20450 20520
20520 20590
20590 20660
20660 20729
20729 20799
20799 20869
20869 20939
20939 21009
21009 21078
21078 21148
21148 21218
21218 21288
21288 21357
21357 21427
21427 21497
21497 21567
21567 21636
21636 21706
21706 21776
21776 21846
21846 21916
21916 21986
21986 22074
22074 22132
22132 22191
22191 22250
22250 22308
22308 22367
22367 22426
22426 22484
22484 22543
22543 22601
22601 22660
22660 22719
22719 22778
22778 22836
22836 22895
22895 22954
22954 23012
23012 23071
23071 23129
23129 23188
23188 23246
23246 23305
23305 23363
23363 23422
23422 23481
23481 23540
23540 23598
23598 23657
23657 23716
23716 23774
23774 23833
23833 23951
23951 24009
24009 24046
24046 24104
24104 24163
24163 24221
24221 24280
24280 24339
24339 24397
24397 24456
24456 24515
24515 24573
24573 24632
24632 24691
24691 24750
24750 24808
24808 24867
24867 24926
24926 24985
24985 25076
25076 25135
25135 25228
25228 25286
25286 25345
25345 25404
25404 25462
25462 25521
25521 25580
25580 25638
25638 25697
25697 25756
25756 25815
25815 25874
25874 25933
25933 25992
25992 26038
26038 26097
26097 26156
26156 26215
26215 26274
26274 26333
26333 26392
26392 26451
26451 26510
26510 26569
26569 26628
26628 26687
26687 26746
26746 26805
26805 26864
26864 26923
26923 26982
26982 27076
27076 27135
27135 27194
27194 27252
27252 27311
27311 27370
27370 27429
27429 27488
27488 27547
27547 27606
27606 27665
27665 27723
27723 27782
27782 27841
27841 27900
27900 27959
27959 28018
28018 28076
28076 28135
28135 28194
28194 28253
28253 28311
28311 28370
28370 28429
28429 28488
28488 28547
28547 28606
28606 28665
28665 28723
28723 28782
28782 28841
28841 28900
28900 28959
28959 29017
29017 29076
29076 29135
29135 29194
29194 29253
29253 29312
29312 29370
29370 29429
29429 29488
29488 29547
29547 29606
29606 29665
29665 29724
29724 29783
29783 29842
29842 29901
29901 29960
29960 30019
30019 30056
30056 30115
30115 30174
30174 30233
30233 30292
30292 30351
30351 30410
30410 30469
30469 30528
30528 30587
30587 30646
30646 30704
30704 30763
30763 30822
30822 30881
30881 30940
30940 30999
30999 31057
31057 31116
31116 31175
31175 31234
31234 31293
31293 31351
31351 31410
31410 31469
31469 31528
31528 31587
31587 31646
31646 31704
31704 31763
31763 31822
31822 31881
31881 31939
31939 31998
31998 32057
32057 32116
32116 32175
32175 32234
32234 32293
32293 32352
32352 32411
32411 32470
32470 32529
32529 32587
32587 32646
32646 32705
32705 32764
32764 32823
32823 32882
32882 32941
32941 33000
33000 33059
33059 33118
33118 33177
33177 33236
33236 33295
33295 33354
33354 33413
33413 33472
33472 33531
33531 33591
33591 33649
33649 33709
33709 33768
33768 33827
33827 33886
33886 33945
33945 34004
34004 34065
34065 34124
34124 34183
34183 34242
34242 34300
34300 34359
34359 34418
34418 34477
34477 34537
34537 34595
34595 34654
34654 34713
