7933 8084
8084 8191
8191 8298
8298 8404
8404 8510
8510 8614
8614 8722
8722 8831
8831 8939
8939 9048
9048 9156
9156 9266
9266 9374
9374 9484
9484 9592
9592 9703
9703 9813
9813 9923
9923 10036
10036 10150
10150 10263
10263 10377
10377 10489
10489 10600
10600 10714
10714 10821
10821 10933
10933 11043
11043 11153
11153 11264
11264 11375
11375 11486
11486 11595
11595 11701
11701 11812
11812 11922
11922 12032
12032 12137
12137 12243
12243 12350
12350 12453
12453 12561
12561 12669
12669 12776
12776 12883
12883 12990
12990 13092
13092 13198
13198 13301
13301 13409
13409 13515
13515 13625
13625 13736
13736 13847
13847 13954
13954 14065
14065 14174
14174 14288
14288 14400
14400 14514
14514 14628
14628 14740
14740 14854
14854 14964
14964 15076
15076 15187
15187 15299
15299 15409
15409 15490
15490 15600
15600 15705
15813 15922
15922 16030
16030 16094
17415 17516
21971 22103
22103 22210
22210 22313
22313 22419
22419 22526
22526 22636
22636 22742
22742 22851
22851 22958
22958 23063
23063 23167
23167 23272
23272 23376
23376 23480
23480 23588
23588 23690
23690 23797
23797 23902
23902 24039
24039 24148
24148 24254
24254 24364
24364 24473
24473 24579
24579 24686
24686 24790
24790 24895
24895 24996
24996 25105
25105 25205
25205 25305
25305 25409
25409 25515
25515 25617
25617 25721
25721 25823
25823 25924
25924 26025
26025 26154
26154 26257
26257 26360
26360 26463
