1923 1996
1996 2104
2932 3007
3007 3102
3102 3169
3169 3239
3239 3307
3307 3375
3375 3443
3443 3512
3512 3581
3581 3650
3650 3719
3719 3788
3788 3858
3858 3927
3927 3997
3997 4058
4058 4130
4130 4202
4202 4274
4274 4347
4347 4420
4420 4493
4493 4566
