1901 1997
1997 2045
9553 9646
39422 39530
39530 39628
41898 41996
41996 42070
44534 44640
44640 44738
44738 44833
44833 44927
44927 45022
45022 45117
45117 45214
45214 45309
45309 45402
45402 45498
45498 45593
45593 45687
45687 45782
45782 45878
45878 45973
45973 46068
46068 46164
46164 46261
46261 46357
46357 46455
46455 46552
46552 46651
46651 46751
46751 46849
46849 46946
46946 47043
47043 47140
47140 47237
47237 47335
47335 47431
47431 47530
47530 47628
47628 47725
47725 47824
47824 47923
47923 48020
48020 48121
48121 48219
48219 48319
48319 48417
48417 48517
48517 48615
48615 48713
48713 48811
48811 48911
48911 49010
49010 49108
49108 49205
49205 49301
49301 49397
49397 49491
49491 49584
49584 49679
49679 49771
49771 49865
49865 49957
49957 50051
50051 50143
50143 50237
50237 50328
50328 50421
50421 50514
50514 50606
50606 50699
50699 50791
50791 50884
50884 50977
50977 51070
51070 51161
51161 51253
51253 51347
51347 51439
51439 51530
51530 51621
51621 51714
51714 51808
51808 51899
51899 51992
51992 52083
52083 52175
52175 52268
52268 52359
52359 52453
52453 52545
52545 52638
52638 52731
52731 52824
52824 52917
52917 53010
53010 53103
53103 53197
53197 53290
53290 53382
53382 53476
53476 53544
53544 53639
53639 53732
53732 53824
53824 53917
53917 54011
54011 54106
54106 54197
54197 54291
54291 54383
54383 54477
54477 54570
54570 54664
54664 54757
54757 54849
54849 54944
54944 55038
55038 55130
55130 55225
55225 55318
55318 55413
55413 55508
55508 55603
55603 55696
55696 55789
55789 55885
55885 55978
55978 56072
56072 56165
56165 56257
56257 56352
56352 56446
56446 56538
56538 56632
56632 56725
56725 56819
56819 56913
56913 57006
57006 57101
57101 57194
57194 57290
57290 57384
57384 57480
57480 57575
57575 57670
57670 57764
57764 57860
57860 57954
57954 58051
58051 58146
58146 58243
58243 58342
58342 58414
58414 58511
58511 58610
58610 58708
58708 58804
58804 58902
58902 59000
59000 59095
59095 59190
59190 59286
59286 59382
59382 59478
59478 59575
59575 59669
59669 59766
59766 59860
59860 59958
59958 60053
60053 60149
60149 60246
60246 60343
60343 60439
60439 60536
60536 60634
60634 60731
60731 60828
60828 60925
60925 61023
61023 61120
61120 61217
61217 61312
61312 61410
61410 61474
61474 61587
61587 61686
61686 61783
61783 61880
61880 61977
61977 62075
62075 62173
62173 62271
62271 62366
62366 62463
62463 62522
62522 62627
62627 62725
62725 62820
62820 62915
62915 63008
63008 63102
63102 63196
63196 63289
63289 63381
63381 63475
63475 63567
63567 63659
63659 63751
63751 63844
63844 63935
63935 64028
64028 64120
64120 64213
64213 64306
64306 64399
64399 64492
64492 64586
64586 64678
64678 64773
64773 64865
64865 64958
64958 65050
65050 65142
65142 65234
65234 65327
65327 65419
65419 65511
65511 65605
65605 65699
65699 65791
65791 65883
65883 65977
65977 66072
66072 66164
66164 66259
66259 66353
66353 66448
66448 66542
66542 66636
66636 66729
66729 66825
66825 66920
66920 67012
67012 67108
67108 67175
67175 67271
67271 67365
67365 67457
67457 67551
67551 67645
67645 67738
67738 67831
67831 67924
67924 68019
68019 68111
68111 68205
68205 68300
68300 68393
68393 68486
68486 68579
68579 68742
68742 68837
68837 68930
68930 69023
69023 69118
69118 69211
69211 69306
69306 69400
69400 69495
