6409 6461
6461 6535
6619 6704
13001 13157
14490 14542
14542 14647
19257 19415
19415 19494
19494 19574
19574 19651
19651 19729
19729 19808
19808 19886
19886 19965
19965 20043
20043 20121
20121 20200
20200 20280
20280 20358
20358 20437
20437 20517
20517 20597
20597 20676
20676 20755
20755 20835
20835 20916
20916 20995
20995 21075
21075 21155
21155 21235
21235 21314
21314 21394
21394 21474
21474 21554
21554 21632
21632 21712
21712 21791
21791 21872
21872 21951
21951 22031
22031 22112
22112 22192
22192 22273
22273 22352
22352 22431
22431 22511
22511 22591
22591 22669
22669 22748
22748 22827
22827 22906
22906 22984
22984 23062
23062 23140
23140 23191
23191 23300
23300 23382
23382 23465
23465 23545
23545 23627
23627 23708
23708 23789
23789 23867
23867 23947
23947 24028
24028 24109
24109 24190
24190 24271
24271 24351
24351 24431
24431 24511
24511 24592
24592 24672
24672 24752
24752 24831
24831 24911
24911 24991
24991 25070
25070 25150
25150 25229
25229 25307
25307 25386
25386 25464
25464 25541
25541 25619
25619 25696
25696 25773
25773 25848
25848 25924
25924 26000
26000 26076
26076 26153
26153 26228
26228 26304
26304 26379
26379 26455
26455 26530
26530 26605
26605 26680
26680 26755
26755 26830
26830 26905
26905 26979
26979 27054
27054 27202
27202 27276
27276 27351
27351 27426
27426 27500
27500 27575
27575 27651
27651 27727
27727 27802
27802 27857
27857 27986
27986 28065
28065 28141
28141 28218
28218 28295
28295 28373
28373 28449
28449 28526
28526 28603
28603 28681
28681 28759
28759 28836
28836 28913
28913 28991
28991 29069
29069 29145
29145 29223
29223 29301
29301 29379
29379 29456
29456 29534
29534 29612
29612 29690
29690 29767
29767 29844
29844 29921
29921 29999
29999 30076
30076 30153
30153 30230
30230 30307
30307 30384
30384 30462
30462 30540
30540 30617
30617 30695
30695 30774
30774 30851
30851 30928
30928 31007
31007 31085
31085 31161
31161 31239
31239 31317
31317 31395
31395 31473
31473 31552
31552 31630
31630 31710
31710 31789
31789 31869
31869 31949
31949 32030
32030 32111
32111 32191
32191 32271
32271 32352
32352 32432
32432 32512
32512 32591
32591 32671
32671 32751
32751 32829
32829 32908
32908 32988
32988 33069
33069 33147
33147 33228
33228 33308
33308 33389
33389 33469
33469 33550
33550 33630
33630 33711
33711 33791
33791 33871
33871 33951
33951 34032
34032 34114
34114 34193
34193 34273
34273 34353
34353 34434
34434 34512
34512 34591
34591 34671
34671 34751
34751 34829
34829 34909
34909 34989
34989 35069
35069 35149
35149 35228
35228 35308
35308 35388
35388 35465
35465 35544
35544 35624
35624 35704
35704 35782
35782 35861
35861 35941
35941 36019
36019 36096
36096 36174
36174 36251
36251 36328
36328 36404
36404 36479
36479 36630
36630 36782
36782 36859
36859 36937
36937 37015
37015 37094
37094 37172
37172 37252
37252 37331
37331 37410
37410 37490
37490 37570
37570 37650
37650 37729
37729 37810
37810 37890
37890 37970
37970 38050
38050 38131
38131 38212
38212 38294
38294 38375
38375 38456
38456 38538
38538 38619
38619 38679
38679 38761
38761 38843
38843 38925
38925 39006
39006 39071
39071 39152
39152 39233
39233 39314
39314 39394
39394 39475
39475 39553
39553 39633
39633 39713
39713 39793
39793 39873
39873 39953
39953 40034
40034 40116
40116 40197
40197 40278
40278 40359
40359 40441
40441 40522
40522 40602
40602 40683
40683 40763
40763 40844
40844 40924
40924 41004
41004 41085
41085 41165
41165 41245
41245 41325
41325 41406
41406 41488
41488 41568
41568 41648
41648 41730
41730 41811
41811 41891
41891 41972
41972 42052
42052 42132
42132 42212
42212 42284
42284 42371
42371 42451
42451 42528
42528 42607
42607 42686
42686 42765
42765 42843
42843 42922
42922 43000
43000 43080
43080 43158
43158 43237
43237 43315
43315 43394
43394 43473
43473 43551
43551 43629
43629 43708
43708 43788
43788 43867
43867 43947
43947 44003
44003 44076
44076 44177
44177 44261
44261 44342
44342 44424
44424 44504
44504 44584
44584 44665
44665 44745
44745 44825
44825 44906
44906 44987
44987 45066
45066 45146
45146 45226
45226 45307
45307 45385
45385 45466
45466 45546
45546 45627
45627 45705
45705 45786
45786 45866
45866 45947
45947 46031
46031 46112
46112 46191
46191 46271
46271 46351
46351 46431
46431 46512
46512 46592
46592 46673
46673 46754
46754 46834
46834 46915
46915 46995
46995 47076
47076 47158
47158 47213
47213 47294
47294 47375
47375 47456
47456 47536
47536 47616
47616 47697
47697 47778
47778 47857
47857 47937
47937 48017
48017 48098
48098 48178
48178 48258
48258 48339
48339 48421
48421 48500
48500 48581
48581 48661
48661 48742
48742 48820
48820 48900
48900 48979
48979 49058
49058 49136
49136 49215
49215 49293
49293 49372
49372 49450
49450 49529
49529 49608
49608 49687
49687 49767
49767 49846
49846 49925
49925 50003
50003 50081
50081 50157
50157 50235
50235 50312
50312 50390
50390 50467
50467 50544
50544 50622
50622 50700
50700 50778
50778 50855
50855 50933
50933 51011
51011 51091
51091 51169
51169 51248
51248 51328
51328 51409
51409 51489
51489 51570
51570 51651
51651 51734
51734 51814
51814 51895
51895 51976
51976 52057
52057 52138
52138 52220
52220 52301
52301 52383
52383 52464
52464 52545
52545 52627
52627 52711
52711 52792
52792 52874
52874 52957
52957 53041
53041 53124
53124 53208
53208 53293
53293 53378
53378 53462
53462 53526
53526 53611
53611 53697
53697 53780
53780 53863
53863 53947
53947 54032
54032 54117
54117 54201
54201 54287
54287 54376
54376 54462
54462 54521
54521 54606
54606 54691
54691 54773
54773 54854
54854 54935
54935 55017
55017 55098
55098 55177
55177 55257
55257 55337
55337 55417
55417 55494
55494 55573
55573 55652
55652 55731
55731 55809
55809 55887
55887 55965
55965 56044
56044 56123
56123 56202
56202 56280
56280 56360
56360 56440
56440 56519
56519 56599
56599 56679
56679 56759
56759 56838
56838 56890
56890 56991
56991 57050
57050 57132
57132 57214
57214 57295
57295 57375
57375 57455
57455 57535
57535 57615
57615 57695
57695 57774
57774 57854
57854 57934
57934 58012
58012 58091
58091 58170
58170 58248
58248 58326
58326 58403
58403 58481
58481 58559
58559 58637
58637 58713
58713 58791
58791 58869
58869 58947
58947 59025
59025 59103
59103 59181
59181 59260
59260 59339
59339 59417
59417 59496
59496 59575
59575 59655
59655 59732
59732 59811
59811 59890
59890 59970
59970 60049
60049 60128
60128 60207
60207 60287
60287 60366
60366 60446
60446 60526
60526 60607
60607 60686
60686 60766
60766 60847
60847 60927
60927 61006
61006 61086
61086 61166
61166 61247
61247 61326
61326 61406
61406 61486
61486 61567
61567 61647
61647 61726
61726 61805
61805 61886
61886 61966
61966 62044
62044 62124
62124 62204
62204 62286
62286 62365
62365 62445
62445 62527
62527 62608
62608 62687
62687 62767
62767 62847
62847 62926
62926 63005
63005 63084
63084 63164
63164 63243
63243 63323
63323 63403
63403 63483
63483 63563
63563 63643
63643 63722
63722 63802
63802 63882
63882 63961
63961 64039
64039 64118
64118 64197
64197 64276
64276 64355
64355 64434
64434 64514
64514 64594
64594 64674
64674 64754
64754 64834
64834 64915
64915 64994
64994 65074
65074 65153
65153 65232
65232 65310
65310 65389
65389 65467
65467 65546
65546 65625
65625 65703
65703 65782
65782 65861
65861 65939
65939 66016
66016 66094
66094 66172
66172 66250
66250 66326
66326 66404
66404 66482
66482 66560
66560 66638
66638 66716
66716 66794
66794 66873
66873 66951
66951 67028
67028 67107
67107 67185
67185 67265
67265 67343
67343 67421
67421 67500
67500 67579
67579 67657
67657 67735
67735 67814
67814 67893
67893 67970
67970 68048
68048 68127
68127 68206
68206 68284
68284 68362
68362 68440
68440 68519
68519 68597
68597 68675
68675 68753
68753 68832
68832 68910
