2199 2318
2318 2378
6883 6943
14046 14106
14994 15105
16494 16611
16611 16669
21042 21147
22295 22413
22413 22472
23408 23525
23525 23585
23674 23729
23729 23836
23836 23954
23954 24016
24016 24106
24106 24193
24193 24284
24284 24374
24374 24464
24464 24526
24526 24631
24631 24723
24723 24814
24814 24901
24901 24992
24992 25083
25083 25172
25172 25263
25263 25353
25353 25443
25443 25562
25562 25623
25623 25713
25713 25800
25800 25891
25891 25979
25979 26068
26068 26132
26132 26217
26217 26305
26305 26393
26393 26507
26507 26566
26566 26652
26652 26740
26740 26857
26857 26914
26914 27002
27002 27119
27119 27179
27179 27268
27268 27358
27358 27447
27447 27534
27534 27623
27623 27740
27740 27800
27800 27889
27889 27978
27978 28067
28067 28219
28219 28309
28309 28395
28395 28485
28485 28573
28573 28662
28662 28750
28750 28836
28836 28924
28924 29040
29040 29098
29098 29187
29187 29276
29276 29391
29391 29451
29451 29539
29539 29627
29627 29743
29743 29804
29804 29893
29893 30010
30010 30071
30071 30161
30161 30251
30251 30342
30342 30430
30430 30522
30522 30642
30642 30703
30703 30794
30794 30915
30915 30976
30976 31067
31067 31158
31158 31249
31249 31338
31338 31429
31429 31520
31520 31638
31638 31699
31699 31787
31787 31876
31876 31965
31965 32052
32052 32140
32140 32229
32229 32315
32315 32403
32403 32490
32490 32578
32578 32663
32663 32751
32751 32838
32838 32922
32922 33010
33010 33125
33125 33185
33185 33272
33272 33358
33358 33447
33447 33563
33563 33621
33621 33710
33710 33797
33797 33851
33851 33956
33956 34046
34046 34135
34135 34251
34251 34310
34310 34398
34398 34486
34486 34573
34573 34658
34658 34745
34745 34833
34833 34918
34918 35006
35006 35092
35092 35180
35180 35295
35295 35354
35354 35442
35442 35530
35530 35647
35647 35705
35705 35793
35793 35910
35910 35971
35971 36089
36089 36149
36149 36239
36239 36326
36326 36417
36417 36507
36507 36595
36595 36686
36686 36777
36777 36864
36864 36955
36955 37043
37043 37133
37133 37240
37240 37310
37310 37401
37401 37519
37519 37579
37579 37669
37669 37788
37788 37848
37848 37966
37966 38027
38027 38117
38117 38205
38205 38295
38295 38385
38385 38473
38473 38564
38564 38655
38655 38772
38772 38835
38835 38926
38926 39017
39017 39137
39137 39199
39199 39290
39290 39411
39411 39472
39472 39592
39592 39654
39654 39773
39773 39833
39833 39952
39952 40040
40040 40151
40151 40245
40245 40338
40338 40429
40429 40521
40521 40642
40642 40704
40704 40795
40795 40885
40885 40976
40976 41063
41063 41154
41154 41244
41244 41359
41359 41420
41420 41509
41509 41598
41598 41716
41716 41777
41777 41866
41866 41956
41956 42074
42074 42136
42136 42227
42227 42345
42345 42407
42407 42497
42497 42587
42587 42678
42678 42766
42766 42856
42856 42947
42947 43052
43052 43168
43168 43225
43225 43342
43342 43400
43400 43488
43488 43605
43605 43666
43666 43755
43755 43871
43871 43932
43932 44021
44021 44138
44138 44197
44197 44315
44315 44375
44375 44464
44464 44550
44550 44639
44639 44727
44727 44842
44842 44903
44903 44991
44991 45080
45080 45198
45198 45258
45258 45347
45347 45465
45465 45526
45526 45644
45644 45705
45705 45795
45795 45881
45881 45970
45970 46057
46057 46146
46146 46262
46262 46321
46321 46410
46410 46527
46527 46586
46586 46675
46675 46792
46792 46853
46853 46972
46972 47109
47109 47172
47172 47264
47264 47384
47384 47447
47447 47539
47539 47631
47631 47723
47723 47813
47813 47905
47905 48024
48024 48084
48084 48174
48174 48262
48262 48351
48351 48467
48467 48527
48527 48613
48613 48701
48701 48816
48816 48874
48874 48961
48961 49074
49074 49132
49132 49246
49246 49303
49303 49389
49389 49442
49442 49546
49546 49634
49634 49747
49747 49806
49806 49892
49892 49980
49980 50095
50095 50153
50153 50240
50240 50356
50356 50414
50414 50504
50504 50592
50592 50707
50707 50768
50768 50857
50857 50974
50974 51033
51033 51122
51122 51210
51210 51298
51298 51415
51415 51476
51476 51566
51566 51656
51656 51747
51747 51838
51838 51930
51930 52022
52022 52113
52113 52205
52205 52327
52327 52391
52391 52484
52484 52578
52578 52672
52672 52763
52763 52856
52856 52977
52977 53041
53041 53134
53134 53227
53227 53320
53320 53409
53409 53501
53501 53593
53593 53682
53682 53774
53774 53865
53865 53982
53982 54044
54044 54134
54134 54224
54224 54312
54312 54403
54403 54522
54522 54582
54582 54672
54672 54761
54761 54851
54851 54970
54970 55030
55030 55119
55119 55209
55209 55327
55327 55386
55386 55503
55503 55562
55562 55650
55650 55735
55735 55822
55822 55939
55939 55995
55995 56083
56083 56172
56172 56259
56259 56348
56348 56436
56436 56526
56526 56645
56645 56706
56706 56797
56797 56886
56886 56977
56977 57067
57067 57159
57159 57251
57251 57340
57340 57433
57433 57526
57526 57616
57616 57709
57709 57803
57803 57894
57894 57962
57962 58055
58055 58148
58148 58270
58270 58334
58334 58427
58427 58520
58520 58609
58609 58701
58701 58794
58794 58884
58884 58976
58976 59039
59039 59130
59130 59216
59216 59307
59307 59397
59397 59483
59483 59573
59573 59661
59661 59750
59750 59866
59866 59926
59926 60043
60043 60103
60103 60192
60192 60278
60278 60366
60366 60455
60455 60540
60540 60628
60628 60715
60715 60803
60803 60892
60892 60979
60979 61068
61068 61184
61184 61244
61244 61361
61361 61420
61420 61508
61508 61593
61593 61681
61681 61769
61769 61853
61853 61941
61941 62027
62027 62114
62114 62231
62231 62290
62290 62379
62379 62496
62496 62555
62555 62645
62645 62764
62764 62824
62824 62915
62915 63006
63006 63097
63097 63185
63185 63277
63277 63368
63368 63484
63484 63546
63546 63635
63635 63725
63725 63842
63842 63903
63903 63991
63991 64080
64080 64196
64196 64254
64254 64342
64342 64459
64459 64517
64517 64634
