6275 6348
7286 7360
7360 7408
9550 9624
9624 9672
21358 21483
37974 38067
42339 42432
42432 42489
43027 43102
43483 43558
43635 43710
43787 43861
43938 44012
44012 44088
44088 44164
44164 44239
44239 44288
44288 44364
44364 44438
44438 44513
44513 44588
44588 44664
44664 44738
44738 44812
44812 44887
44887 44961
44961 45012
45012 45086
45086 45160
45160 45234
45234 45309
45309 45383
45383 45458
45458 45533
45533 45607
45607 45682
45682 45756
45756 45831
45831 45904
45904 45979
45979 46052
46052 46127
46127 46201
46201 46274
46274 46349
46349 46423
46423 46496
46496 46571
46571 46644
46644 46692
46692 46766
46766 46839
46839 46914
46914 46987
46987 47061
47061 47135
47135 47208
47208 47283
47283 47356
47356 47431
47431 47505
47505 47578
47578 47652
47652 47726
47726 47801
47801 47874
47874 47948
47948 48021
48021 48096
48096 48169
48169 48244
48244 48316
48316 48391
48391 48464
48464 48538
48538 48611
48611 48684
48684 48758
48758 48832
48832 48906
48906 48980
48980 49054
49054 49128
49128 49202
49202 49277
49277 49350
49350 49425
49425 49499
49499 49573
49573 49648
49648 49722
49722 49797
49797 49871
49871 49945
49945 50019
50019 50094
50094 50169
50169 50244
50244 50318
50318 50393
50393 50467
50467 50517
50517 50591
50591 50665
50740 50815
50815 50889
50889 50963
50963 51038
51038 51112
51112 51187
51187 51261
51261 51336
51336 51411
51411 51484
51634 51708
51933 52007
52108 52182
52182 52259
52259 52333
52333 52409
52409 52484
52484 52611
54492 54569
54798 54873
54873 54950
54950 55024
55024 55076
55076 55150
55150 55226
55226 55301
55301 55377
55377 55451
55451 55527
55527 55602
55602 55678
55678 55753
55753 55829
55829 55903
55979 56054
56054 56130
56130 56205
56205 56280
56280 56329
56329 56405
56405 56479
56479 56555
56555 56629
56629 56705
56705 56779
56779 56855
56855 56929
56929 57004
57004 57078
57078 57153
57153 57227
57227 57302
57302 57375
57375 57451
57451 57525
57525 57600
57676 57751
57751 57825
57825 57900
58051 58125
58125 58200
58200 58275
58275 58350
58350 58424
58424 58499
58499 58573
58573 58648
58648 58722
58722 58796
58871 58947
58947 59021
59021 59097
59097 59171
59171 59246
59246 59321
59321 59396
59396 59471
59547 59621
59621 59696
59696 59771
59771 59846
59846 59921
59921 59996
59996 60071
60071 60146
60221 60296
60296 60370
60446 60520
60596 60670
60670 60745
60895 60969
61646 61720
61870 61945
61945 62018
62169 62242
62317 62391
62391 62467
62467 62541
62541 62615
62615 62691
62691 62765
62765 62841
62841 62915
62915 62990
62990 63066
63066 63142
63142 63216
63216 63291
63291 63366
63366 63442
63442 63516
63516 63592
63592 63666
63666 63742
63742 63816
63893 63967
63967 64043
64043 64118
64195 64270
64270 64346
64346 64421
64421 64498
64498 64574
64574 64649
66176 66251
66251 66327
66327 66402
66478 66554
66554 66628
66628 66704
66704 66780
66780 66854
66854 66930
66930 67005
67005 67110
