65 134
134 201
201 271
271 338
338 406
550 619
756 812
812 885
885 957
957 1030
1030 1096
1096 1171
1171 1239
1239 1309
1309 1373
1373 1444
1444 1516
1516 1585
1585 1655
1655 1726
1726 1798
1798 1871
1871 1942
1942 2014
2014 2069
2069 2139
2139 2216
2216 2290
2290 2364
2364 2438
2438 2511
2511 2584
2584 2658
2658 2733
2733 2808
2808 2881
2881 2955
2955 3029
3029 3102
3102 3175
3175 3248
3248 3321
3321 3394
3394 3466
3466 3540
3540 3613
3613 3685
3685 3756
3756 3827
3827 3899
3899 3970
3970 4043
4043 4115
4115 4170
4170 4253
4253 4318
4318 4382
4382 4450
4450 4519
4519 4587
4587 4656
4656 4724
4724 4794
4794 4859
4859 4931
4931 5012
5012 5103
5103 5173
5173 5247
5247 5316
5316 5386
5386 5454
5454 5523
5523 5597
5597 5667
5667 5734
5734 5804
5804 5879
5879 5957
5957 6025
6025 6090
6090 6166
6166 6246
6246 6324
6324 6401
6401 6477
6477 6552
6552 6628
6628 6705
6705 6781
6781 6858
6858 6934
6934 7010
7010 7087
7087 7161
7161 7235
7235 7309
7309 7383
7383 7458
7458 7532
7532 7607
7607 7681
7681 7756
7756 7832
7832 7907
7907 7982
7982 8056
8056 8130
8130 8203
8203 8278
8278 8354
8354 8429
8429 8505
8505 8581
8581 8657
8657 8706
8706 8780
8780 8853
8853 8928
8928 9004
9004 9078
9078 9154
9154 9230
9230 9307
9307 9382
9382 9458
9458 9534
9534 9608
9608 9682
9682 9756
9756 9831
9831 9907
9907 9983
9983 10060
10060 10136
10136 10211
10211 10285
10285 10360
10360 10435
10435 10510
10510 10584
10584 10660
10660 10735
10735 10810
10810 10856
10856 10934
10934 11004
11004 11056
11056 11127
11127 11197
11197 11267
11267 11337
11337 11408
11408 11480
11480 11553
11553 11626
11626 11699
11699 11772
11772 11845
11845 11918
11918 11991
11991 12064
12064 12141
12141 12219
12219 12296
12296 12373
12373 12450
12450 12526
12526 12603
12603 12679
12679 12755
12755 12833
12833 12909
12909 12985
12985 13061
13061 13137
13137 13212
13212 13288
13288 13365
13365 13441
13441 13518
13518 13593
13593 13669
13669 13745
13745 13820
13820 13896
13896 13971
13971 14047
14047 14123
14123 14197
14197 14271
14271 14344
14344 14417
14417 14490
14490 14561
14561 14633
14633 14707
14707 14782
14782 14857
14857 14932
14932 15007
15007 15081
15081 15154
15154 15227
15227 15300
15300 15373
15373 15448
15448 15524
15524 15600
15600 15675
15675 15751
15751 15825
15825 15899
15899 15973
15973 16048
16048 16126
16126 16202
16202 16280
16280 16357
16357 16434
16434 16511
16511 16588
16588 16665
16665 16740
16740 16814
16814 16890
16890 16966
16966 17042
17042 17118
17118 17194
17194 17270
17270 17345
17345 17419
17419 17492
17492 17564
17564 17637
17637 17710
17710 17782
17782 17855
17855 17927
17927 17999
17999 18071
18071 18145
18145 18220
18220 18295
18295 18370
18370 18446
18446 18522
18522 18598
18598 18673
18673 18747
18747 18821
18821 18896
18896 18971
18971 19048
19048 19125
19125 19203
19203 19282
19282 19361
19361 19441
19441 19520
19520 19599
19599 19678
19678 19756
19756 19835
19835 19914
19914 19993
19993 20052
20052 20127
20127 20201
20201 20275
20275 20349
20349 20424
20424 20499
20499 20574
20574 20649
20649 20724
20724 20799
20799 20872
20872 20946
20946 21032
21032 21108
21108 21184
21184 21259
21259 21333
21333 21408
21408 21482
21482 21556
21556 21629
21629 21702
21702 21774
21774 21845
21845 21917
21917 21988
21988 22059
22059 22129
22129 22200
22200 22270
22270 22340
22340 22410
22410 22479
22479 22549
22549 22618
22618 22688
22688 22758
22758 22827
22827 22898
22898 22969
22969 23038
23038 23108
23108 23177
23177 23249
23249 23320
23320 23390
23390 23463
23463 23536
23536 23582
23582 23661
23661 23728
23728 23791
23791 23858
23858 23926
23926 23998
23998 24051
24051 24128
24128 24204
24204 24279
24279 24354
24354 24430
24430 24506
24506 24582
24582 24658
24658 24734
24734 24810
24810 24885
24885 24959
24959 25033
25033 25107
25107 25181
25181 25256
25256 25332
25332 25405
25405 25479
25479 25552
25552 25624
25624 25697
25697 25770
25770 25842
25842 25913
25913 25985
25985 26056
26056 26126
26126 26197
26197 26267
26267 26337
26337 26408
26408 26478
26478 26548
26548 26618
26618 26687
26687 26757
26757 26826
26826 26896
26896 26965
26965 27034
27034 27103
27103 27173
27173 27242
27242 27312
27312 27381
27381 27450
27450 27519
27519 27589
27589 27660
27660 27730
27730 27801
27801 27872
27872 27942
27942 28014
28014 28056
28056 28126
28126 28196
28196 28263
28263 28334
28334 28404
28404 28472
28472 28541
28541 28607
28607 28678
28678 28750
28750 28822
28822 28889
28889 28952
28952 29019
29019 29060
29060 29133
29133 29209
29209 29283
29283 29358
29358 29436
29436 29512
29512 29588
29588 29664
29664 29740
29740 29814
29814 29888
29888 29962
29962 30036
30036 30110
30110 30183
30183 30258
30258 30332
30332 30406
30406 30481
30481 30556
30556 30633
30633 30712
30712 30792
30792 30872
30872 30950
30950 31027
31027 31104
31104 31182
31182 31260
31260 31340
31340 31419
31419 31500
31500 31579
31579 31658
31658 31738
31738 31816
31816 31893
31893 31970
31970 32080
32080 32154
32154 32227
32227 32300
32300 32374
32374 32423
32423 32497
32497 32571
32571 32645
32645 32720
32720 32796
32796 32870
32870 32944
32944 33018
33018 33092
33092 33167
33167 33242
33242 33319
33319 33394
33394 33469
33469 33542
