103 159
159 215
215 271
326 382
382 438
550 605
605 661
661 717
717 773
773 829
829 884
884 940
940 996
996 1042
1042 1099
1099 1155
1155 1212
1212 1268
1268 1324
1324 1381
1381 1437
1437 1493
1493 1550
1550 1606
1606 1663
1663 1719
1719 1776
1776 1832
1832 1889
1889 1945
1945 2002
2002 2058
2058 2146
2146 2202
2202 2258
2258 2314
2314 2371
2371 2427
2427 2483
2483 2539
2539 2595
2595 2651
2651 2707
2707 2764
2764 2820
2820 2876
2876 2932
2932 2988
2988 3044
3044 3101
3101 3157
3157 3213
3213 3270
3270 3326
3326 3382
3382 3438
3438 3494
3494 3550
3550 3607
3607 3663
3663 3719
3719 3775
3775 3831
3831 3888
3888 3944
3944 4001
4001 4057
4057 4113
4113 4170
4170 4226
4226 4283
4283 4340
4340 4396
4396 4453
4453 4509
4509 4566
4566 4622
4622 4679
4679 4735
4735 4792
4792 4848
4848 4904
4904 4960
4960 5016
5016 5072
5072 5128
5128 5185
5185 5241
5241 5297
5297 5354
5354 5410
5410 5466
5466 5523
5523 5579
5579 5635
5635 5691
5691 5748
5748 5804
5804 5860
5860 5916
5916 5973
5973 6029
6029 6085
6085 6141
6141 6197
6197 6253
6253 6310
6310 6366
6366 6423
6423 6479
6479 6535
6535 6591
6591 6648
6648 6704
6704 6760
6760 6817
6817 6873
6873 6929
6929 6985
6985 7041
7041 7097
7097 7153
7153 7209
7209 7266
7266 7322
7322 7378
7378 7434
7434 7491
7491 7547
7547 7604
7604 7660
7660 7717
7717 7773
7773 7830
7830 7887
7887 7943
7943 8000
8000 8056
8056 8113
8113 8169
8169 8226
8226 8282
8282 8339
8339 8396
8396 8452
8452 8508
8508 8565
8565 8621
8621 8677
8677 8733
8733 8790
8790 8846
8846 8902
8902 8959
8959 9015
9015 9072
9072 9128
9128 9185
9185 9241
9241 9298
9298 9354
9354 9411
9411 9467
9467 9523
9523 9580
9580 9636
9636 9693
9693 9749
9749 9806
9806 9862
9862 9919
9919 9975
9975 10032
10032 10089
10089 10145
10145 10202
10202 10258
10258 10315
10315 10372
10372 10428
10428 10485
10485 10541
10541 10598
10598 10655
10655 10711
10711 10767
10767 10824
10824 10881
10881 10937
10937 10994
10994 11050
11050 11106
11106 11162
11162 11219
11219 11275
11275 11332
11332 11388
11388 11444
11444 11500
11500 11557
11557 11613
11613 11669
11669 11726
11726 11782
11782 11838
11838 11894
11894 11951
11951 12007
12007 12063
12063 12120
12120 12176
12176 12233
12233 12289
12289 12345
12345 12402
12402 12458
12458 12515
12515 12572
12572 12628
12628 12685
12685 12741
12741 12798
12798 12854
12854 12910
12910 12967
12967 13024
13024 13080
13080 13137
13137 13193
13193 13249
13249 13306
13306 13362
13362 13419
13419 13475
13475 13531
13531 13588
13588 13644
13644 13700
13700 13757
13757 13814
13814 13870
13870 13927
13927 13983
13983 14039
14039 14096
14096 14152
14152 14208
14208 14265
14265 14322
14322 14379
14379 14435
14435 14492
14492 14549
14549 14605
14605 14662
14662 14719
14719 14776
14776 14833
14833 14889
14889 14946
14946 15003
15003 15059
15059 15116
15116 15173
15173 15230
15230 15286
15286 15342
15342 15398
15398 15455
15455 15512
15512 15568
15568 15624
15624 15681
15681 15738
15738 15795
15795 15851
15851 15908
15908 15965
15965 16022
16022 16079
16079 16136
16136 16193
16193 16249
16249 16306
16306 16363
16363 16420
16420 16477
16477 16534
16534 16591
16591 16648
16648 16705
16705 16762
16762 16819
16819 16876
16876 16933
16933 16990
16990 17046
17046 17103
17103 17160
17160 17217
17217 17274
17274 17330
17330 17387
17387 17444
17444 17501
17501 17558
17558 17615
17615 17671
17671 17728
17728 17784
17784 17841
17841 17897
17897 17954
17954 18010
18010 18066
18066 18122
18122 18179
18179 18235
18235 18292
18292 18348
18348 18405
18405 18462
18462 18519
18519 18576
18576 18634
18634 18691
18691 18748
18748 18805
18805 18862
18862 18919
18919 18976
18976 19033
19033 19090
19090 19147
19147 19204
19204 19261
19261 19318
19318 19374
19374 19432
19432 19488
19488 19545
19545 19602
19602 19659
19659 19715
19715 19772
19772 19829
19829 19886
19886 19942
19942 19999
19999 20056
20056 20113
20113 20170
20170 20227
20227 20284
20284 20341
20341 20398
20398 20455
20455 20512
20512 20569
20569 20625
20625 20682
20682 20739
20739 20796
20796 20853
20853 20910
20910 20967
20967 21023
21023 21080
21080 21138
21138 21195
21195 21251
21251 21308
21308 21365
21365 21422
21422 21511
21511 21568
21568 21625
21625 21682
21682 21738
21738 21795
21795 21852
21852 21908
21908 21965
21965 22022
22022 22091
22091 22147
22147 22204
22204 22261
22261 22317
22317 22373
22373 22430
22430 22487
22487 22543
22543 22599
22599 22655
22655 22712
22712 22768
22768 22824
22824 22881
22881 22937
22937 22994
22994 23033
23033 23089
23089 23145
23145 23202
23202 23258
23258 23314
23314 23371
23371 23428
23428 23485
23485 23542
23542 23599
23599 23656
23656 23713
23713 23770
23770 23827
23827 23884
23884 23941
23941 23998
23998 24055
24055 24112
24112 24169
24169 24226
24226 24282
24282 24339
24339 24428
24428 24485
24485 24542
24542 24599
24599 24656
24656 24713
24713 24769
24769 24826
24826 24883
24883 24940
24940 24997
24997 25054
25054 25111
25111 25168
25168 25224
25224 25281
25281 25338
25338 25394
25394 25450
25450 25507
25507 25563
25563 25619
25619 25675
25675 25731
25731 25788
25788 25844
25844 25901
25901 25958
25958 26014
26014 26072
26072 26129
26129 26186
26186 26243
26243 26300
26300 26357
26357 26449
26449 26506
26506 26563
26563 26620
26620 26677
26677 26734
26734 26791
26791 26848
26848 26906
26906 26963
26963 27020
27020 27103
27103 27160
27160 27217
27217 27274
27274 27331
27331 27388
27388 27445
27445 27501
27501 27558
27558 27615
27615 27671
27671 27728
27728 27785
27785 27843
27843 27900
27900 27957
27957 28014
28014 28070
28070 28128
28128 28185
28185 28241
28241 28298
28298 28355
28355 28412
28412 28469
28469 28526
28526 28582
28582 28639
28639 28696
28696 28753
28753 28810
28810 28867
28867 28924
28924 28981
28981 29037
29037 29094
29094 29151
29151 29207
29207 29264
29264 29321
29321 29378
29378 29435
29435 29492
29492 29549
29549 29606
29606 29662
29662 29719
29719 29775
29775 29832
29832 29888
29888 29944
29944 30000
30000 30080
30080 30137
30137 30195
30195 30252
30252 30309
30309 30366
30366 30423
30423 30480
30480 30537
30537 30594
30594 30651
30651 30708
30708 30765
30765 30822
30822 30879
30879 30937
30937 30994
30994 31051
31051 31108
31108 31166
31166 31223
31223 31281
31281 31338
31338 31395
31395 31452
31452 31510
31510 31567
31567 31623
31623 31680
31680 31738
31738 31795
31795 31851
31851 31909
31909 31966
31966 32023
32023 32080
32080 32137
32137 32194
32194 32251
32251 32308
32308 32365
32365 32422
32422 32478
32478 32535
32535 32592
32592 32648
32648 32704
32704 32761
32761 32817
32817 32873
32873 32930
32930 32986
32986 33043
33043 33099
33099 33156
33156 33213
33213 33269
33269 33326
33326 33383
33383 33440
33440 33497
33497 33554
33554 33611
33611 33668
33668 33725
33725 33782
33782 33838
33838 33894
33894 33951
33951 34007
34007 34063
34063 34118
34118 34174
34174 34230
34230 34286
34286 34343
34343 34399
34399 34455
34455 34511
34511 34568
34568 34625
34625 34681
34681 34738
34738 34795
34795 34852
34852 34909
34909 34966
34966 35023
35023 35079
35079 35135
35135 35192
35192 35248
35248 35304
35304 35360
35360 35416
35416 35472
35472 35528
35528 35585
35585 35641
35641 35698
35698 35755
35755 35811
35811 35868
35868 35925
35925 35983
35983 36040
36040 36097
36097 36154
36154 36211
36211 36269
36269 36326
36326 36383
36383 36440
36440 36498
36498 36554
36554 36612
36612 36669
36669 36726
36726 36783
36783 36840
36840 36896
36896 36953
36953 37010
37010 37075
37075 37131
37131 37187
37187 37242
37242 37299
37299 37355
37355 37411
37411 37468
37468 37524
37524 37581
37581 37637
37637 37694
37694 37751
37751 37808
37808 37864
37864 37921
37921 37978
37978 38034
38034 38091
38091 38148
38148 38204
38204 38261
38261 38317
38317 38374
38374 38430
38430 38487
38487 38543
38543 38600
38600 38656
38656 38713
38713 38770
38770 38826
38826 38883
38883 38939
38939 38996
38996 39071
39071 39128
39128 39185
39185 39242
39242 39299
39299 39356
39356 39413
39413 39470
39470 39527
39527 39584
39584 39641
39641 39697
39697 39754
39754 39811
39811 39868
39868 39925
39925 39982
39982 40039
40039 40096
40096 40153
40153 40210
40210 40267
40267 40324
40324 40381
40381 40438
40438 40495
40495 40552
40552 40609
40609 40666
40666 40722
40722 40779
40779 40836
40836 40893
40893 40950
40950 41006
41006 41045
41045 41102
41102 41158
41158 41214
41214 41271
41271 41327
41327 41383
41383 41440
41440 41496
41496 41552
41552 41609
41609 41665
41665 41721
41721 41778
41778 41835
41835 41892
41892 41948
41948 42005
42005 42062
42062 42119
42119 42176
42176 42232
42232 42289
42289 42346
42346 42403
42403 42460
42460 42518
42518 42575
42575 42632
42632 42689
42689 42746
42746 42804
42804 42861
42861 42918
42918 42975
42975 43032
43032 43089
43089 43145
43145 43202
43202 43259
43259 43315
43315 43372
43372 43428
