391 444
444 497
497 550
550 604
604 657
657 710
710 763
816 869
869 922
922 975
975 1028
1028 1081
1081 1134
1134 1187
1187 1240
1240 1293
1293 1346
1346 1399
1399 1452
1452 1505
1505 1558
1558 1611
1611 1664
1664 1718
1718 1771
1771 1824
1824 1877
1877 1931
1931 1984
1984 2037
2037 2090
2090 2144
2144 2197
2197 2250
2250 2303
2303 2357
2357 2410
2410 2463
2463 2516
2516 2569
2569 2622
2622 2675
2675 2728
2728 2781
2781 2834
2834 2887
2887 2940
2940 2993
2993 3046
3046 3099
3099 3153
3153 3206
3206 3258
3258 3311
3364 3418
3418 3471
3471 3523
3523 3577
3577 3630
3630 3683
3683 3736
3736 3789
3789 3842
3842 3895
3895 3948
3948 4001
4001 4054
4054 4107
4107 4160
4160 4213
4213 4266
4266 4319
4319 4372
4372 4425
4425 4479
4479 4532
4532 4585
4585 4638
4638 4691
4691 4744
4744 4797
4797 4851
4851 4904
4904 4957
4957 5010
5010 5079
5079 5132
5132 5186
5186 5240
5240 5294
5294 5348
5348 5402
5402 5457
5457 5511
5511 5566
5566 5620
5620 5675
5675 5729
5729 5784
5784 5837
5837 5891
5891 5945
5945 5999
5999 6037
6037 6090
6090 6144
6144 6197
6197 6250
6250 6303
6303 6357
6357 6410
6410 6463
6463 6517
6517 6570
6570 6624
6624 6677
6677 6730
6730 6784
6784 6838
6838 6891
6891 6944
6944 6997
6997 7050
7050 7104
7104 7157
7157 7210
7210 7263
7263 7317
7317 7370
7370 7423
7423 7476
7476 7529
7529 7583
7583 7636
7636 7689
7689 7742
7742 7795
7795 7848
7848 7901
7901 7954
7954 8008
8008 8082
8082 8135
8135 8189
8189 8242
8242 8294
8294 8347
8347 8401
8401 8454
8454 8507
8507 8559
8559 8613
8613 8666
8666 8719
8719 8772
8772 8825
8825 8878
8878 8931
8931 8984
8984 9037
9037 9090
9090 9144
9144 9197
9197 9250
9250 9303
9303 9356
9356 9409
9409 9463
9463 9516
9516 9569
9569 9622
9622 9675
9675 9728
9728 9781
9781 9834
9834 9888
9888 9941
9941 9994
9994 10079
10079 10132
10132 10185
10185 10238
10238 10292
10292 10345
10345 10398
10398 10451
10451 10504
10504 10558
10558 10611
10611 10664
10664 10717
10717 10770
10770 10824
10824 10877
10877 10930
10930 10983
10983 11036
11036 11089
11089 11142
11142 11195
11195 11248
11248 11301
11301 11354
11354 11407
11407 11461
11461 11514
11514 11567
11567 11620
11620 11673
11673 11727
11727 11780
11780 11833
11833 11886
11886 11940
11940 11993
11993 12075
12075 12128
12128 12181
12181 12234
12234 12287
12287 12340
12340 12393
12393 12446
12446 12499
12499 12552
12552 12605
12605 12658
12658 12711
12711 12764
12764 12817
12817 12870
12870 12923
12923 12976
12976 13029
13029 13082
13082 13135
13135 13189
13189 13242
13242 13295
13295 13348
13348 13401
13401 13454
13454 13507
13507 13561
13561 13614
13614 13667
13667 13720
13720 13774
13774 13827
13827 13880
13880 13933
13933 13986
13986 14040
14040 14093
14093 14146
14146 14199
14199 14252
14252 14305
14305 14358
14358 14411
14411 14464
14464 14518
14518 14571
14571 14623
14623 14676
14676 14729
14729 14782
14782 14835
14835 14888
14888 14941
14941 14994
14994 15041
15041 15094
15094 15147
15147 15200
15200 15254
15254 15307
15307 15360
15360 15413
15413 15466
15466 15520
15520 15573
15573 15626
15626 15679
15679 15732
15732 15786
15786 15839
15839 15892
15892 15945
15945 15998
15998 16078
16078 16131
16131 16185
16185 16238
16238 16291
16291 16344
16344 16397
16397 16450
16450 16503
16503 16556
16556 16609
16609 16663
16663 16716
16716 16769
16769 16822
