27 128
334 403
883 951
951 1020
1020 1062
1199 1247
1247 1330
1330 1401
1539 1607
1607 1675
1675 1743
1743 1811
1811 1879
1879 1947
1947 2015
2015 2084
2084 2152
2152 2220
2220 2288
2288 2356
2356 2425
2425 2493
2493 2561
2561 2630
2630 2698
2698 2766
2766 2835
2835 2903
2903 2972
2972 3040
3040 3109
3109 3178
3178 3246
3246 3315
3315 3384
3384 3453
3453 3521
3521 3590
3590 3659
3659 3727
3727 3796
3796 3865
3865 3933
3933 4002
4002 4071
4071 4139
4139 4208
4208 4277
4277 4346
4346 4415
4415 4462
4462 4546
4546 4617
4617 4687
4687 4757
4757 4826
4826 4874
4874 4958
4958 5029
5029 5099
5099 5168
5168 5238
5238 5307
5307 5375
5375 5444
5444 5513
5513 5581
5581 5650
5650 5719
5719 5788
5788 5857
5857 5925
5925 5994
5994 6063
6063 6132
6132 6201
6201 6270
6270 6340
6340 6409
6409 6478
6478 6547
6547 6617
6617 6686
6686 6755
6755 6825
6825 6894
6894 6964
6964 7034
7034 7104
7104 7174
7174 7244
7244 7314
7314 7384
7384 7454
7454 7524
7524 7594
7594 7663
7663 7733
7733 7803
7803 7872
7872 7942
7942 8012
8012 8082
8082 8152
8152 8201
8201 8286
8286 8359
8359 8431
8431 8501
8501 8572
8572 8642
8642 8713
8713 8783
8783 8853
8853 8923
8923 8993
8993 9063
9063 9132
9132 9202
9202 9272
9272 9341
9341 9411
9411 9481
9481 9550
9550 9620
9620 9690
9690 9760
9760 9830
9830 9900
9900 9971
9971 10041
10041 10112
10112 10182
10182 10252
10252 10323
10323 10393
10393 10463
10463 10533
10533 10604
10604 10674
10674 10744
10744 10814
10814 10884
10884 10954
10954 11024
11024 11094
11094 11164
11164 11234
11234 11304
11304 11375
11375 11445
11445 11515
11515 11585
11585 11655
11655 11725
11725 11794
11794 11864
11864 11934
11934 12004
12004 12074
12074 12144
12144 12214
12214 12283
12283 12353
12353 12423
12423 12492
12492 12562
12562 12631
12631 12700
12700 12769
12769 12839
12839 12908
12908 12977
12977 13046
13046 13114
13114 13183
13183 13252
13252 13320
13320 13389
13389 13458
13458 13526
13526 13595
13595 13664
13664 13732
13732 13801
13801 13870
13870 13939
13939 14007
14007 14076
14076 14145
14145 14213
14213 14282
14282 14351
14351 14419
14419 14488
14488 14556
14556 14625
14625 14694
14694 14762
14762 14831
14831 14899
14899 14968
14968 15037
15037 15106
15106 15174
15174 15243
15243 15312
15312 15381
15381 15450
15450 15519
15519 15588
15588 15657
15657 15726
15726 15796
15796 15865
15865 15934
15934 16003
16003 16073
16073 16142
16142 16211
16211 16281
16281 16350
16350 16420
16420 16489
16489 16558
16558 16628
16628 16698
16698 16767
16767 16837
16837 16906
16906 16976
16976 17045
17045 17114
17114 17184
17184 17253
17253 17322
17322 17391
17391 17460
17460 17530
17530 17599
17599 17668
17668 17738
17738 17807
17807 17877
17877 17946
17946 18105
18105 18175
18175 18244
18244 18313
18313 18383
18383 18452
18452 18521
18521 18590
18590 18659
18659 18728
18728 18797
18797 18866
18866 18936
18936 19005
19005 19046
19046 19115
19115 19185
19185 19255
19255 19325
19325 19394
