91 185
304 364
364 423
1197 1257
1257 1316
1316 1376
1376 1436
1436 1496
1496 1555
1555 1615
1615 1674
1674 1734
1734 1793
1793 1853
1853 1912
1912 1972
1972 2037
2037 2096
2096 2156
2156 2215
2215 2275
2275 2334
2334 2394
2394 2453
2453 2513
2513 2572
2572 2632
2632 2691
2691 2750
2750 2810
2810 2870
2870 2929
2929 2989
2989 3048
3048 3107
3107 3167
3167 3226
3226 3285
3285 3345
3345 3404
3404 3464
3464 3524
3524 3583
3583 3643
3643 3702
3702 3761
3761 3821
3821 3915
3915 3975
3975 4044
4044 4103
4103 4162
4162 4222
4222 4281
4281 4341
4341 4400
4400 4460
4460 4519
4519 4579
4579 4639
4639 4699
4699 4758
4758 4818
4818 4878
4878 4937
4937 4997
4997 5056
5056 5116
5116 5175
5175 5235
5235 5294
5294 5354
5354 5414
5414 5474
5474 5533
5533 5593
5593 5653
5653 5712
5712 5772
5772 5831
5831 5891
5891 5950
5950 6010
6010 6069
6069 6128
6128 6188
6188 6247
6247 6307
6307 6367
6367 6427
6427 6487
6487 6546
6546 6606
6606 6666
6666 6725
6725 6785
6785 6844
6844 6904
6904 6964
6964 7024
7024 7062
7062 7122
7122 7181
7181 7241
7241 7300
7300 7360
7360 7419
7419 7479
7479 7539
7539 7598
7598 7658
7658 7718
7718 7778
7778 7838
7838 7897
7897 7992
7992 8033
8033 8092
8092 8152
8152 8211
8211 8271
8271 8330
8330 8390
8390 8449
8449 8509
8509 8569
8569 8628
8628 8688
8688 8747
8747 8807
8807 8866
8866 8926
8926 8985
8985 9045
9045 9095
9095 9164
9164 9224
9224 9284
9284 9343
9343 9403
9403 9497
9497 9557
9557 9616
9616 9676
9676 9735
9735 9795
9795 9854
9854 9914
9914 9974
9974 10063
10063 10122
10122 10182
10182 10241
10241 10301
10301 10361
10361 10420
10420 10480
10480 10539
10539 10599
10599 10658
10658 10718
10718 10778
10778 10837
10837 10897
10897 10957
10957 11017
11017 11057
11057 11116
11116 11176
11176 11236
11236 11296
11296 11355
11355 11415
11415 11474
11474 11534
11534 11594
11594 11653
11653 11713
11713 11773
11773 11832
11832 11892
11892 11952
11952 12012
12012 12071
12071 12131
12131 12191
12191 12250
12250 12310
12310 12369
12369 12429
12429 12489
12489 12549
12549 12608
12608 12668
12668 12728
12728 12788
12788 12848
12848 12907
12907 12967
12967 13027
13027 13087
13087 13146
13146 13206
13206 13266
13266 13325
13325 13385
13385 13444
13444 13504
13504 13564
13564 13623
13623 13683
13683 13742
13742 13802
13802 13862
13862 13922
13922 13981
13981 14041
14041 14101
14101 14161
14161 14221
14221 14281
14281 14340
14340 14400
14400 14460
14460 14520
14520 14579
14579 14639
14639 14699
14699 14759
14759 14818
14818 14878
14878 14938
14938 14997
14997 15089
15089 15149
15149 15209
15209 15269
15269 15328
15328 15388
15388 15448
15448 15508
15508 15567
15567 15627
15627 15687
15687 15747
15747 15806
15806 15866
15866 15926
15926 15985
15985 16059
16059 16119
16119 16179
16179 16238
16238 16298
16298 16357
16357 16417
16417 16476
16476 16536
16536 16595
16595 16655
16655 16714
16714 16774
16774 16833
16833 16893
16893 16953
16953 17012
17012 17072
17072 17132
17132 17191
17191 17251
17251 17311
17311 17370
17370 17430
17430 17489
17489 17549
17549 17608
17608 17668
17668 17728
17728 17787
17787 17847
17847 17907
17907 17966
17966 18026
18026 18086
18086 18146
18146 18205
18205 18265
18265 18325
18325 18384
18384 18444
18444 18504
18504 18563
18563 18623
18623 18682
18682 18742
18742 18802
18802 18861
18861 18921
18921 18980
18980 19040
19040 19100
19100 19159
19159 19219
19219 19279
19279 19339
19339 19398
19398 19458
19458 19518
19518 19578
19578 19637
19637 19697
19697 19757
19757 19817
19817 19876
19876 19936
19936 19996
19996 20056
20056 20115
20115 20175
20175 20235
20235 20295
20295 20355
20355 20415
20415 20474
20474 20534
20534 20594
20594 20654
20654 20714
20714 20774
20774 20834
20834 20893
20893 20942
20942 21002
21002 21077
21077 21137
21137 21197
21197 21256
21256 21316
21316 21376
21376 21435
21435 21495
21495 21555
21555 21614
21614 21674
21674 21734
21734 21793
21793 21853
21853 21913
21913 21972
21972 22032
22032 22091
22091 22151
22151 22211
22211 22270
22270 22330
22330 22390
22390 22449
22449 22509
22509 22569
22569 22628
22628 22688
22688 22747
22747 22807
22807 22866
22866 22926
22926 22985
22985 23045
23045 23105
23105 23164
23164 23224
23224 23284
23284 23343
23343 23403
23403 23462
23462 23522
23522 23581
23581 23641
23641 23700
23700 23760
23760 23820
23820 23879
23879 23939
23939 23999
23999 24059
24059 24118
24118 24178
24178 24237
24237 24297
24297 24357
24357 24416
24416 24476
24476 24535
24535 24595
24595 24654
24654 24714
24714 24774
24774 24834
24834 24893
24893 24953
24953 25013
25013 25073
25073 25132
25132 25192
25192 25252
25252 25311
25311 25371
25371 25431
25431 25490
25490 25550
25550 25609
25609 25669
25669 25729
25729 25789
25789 25848
25848 25908
25908 25968
25968 26028
26028 26078
26078 26138
26138 26198
26198 26257
26257 26317
26317 26377
26377 26436
26436 26496
26496 26556
26556 26616
26616 26676
26676 26736
26736 26796
26796 26855
26855 26915
26915 27010
27010 27075
27075 27134
27134 27194
27194 27254
27254 27313
27313 27373
27373 27433
27433 27492
27492 27552
27552 27612
27612 27671
27671 27731
27731 27790
27790 27850
27850 27910
27910 27969
27969 28029
28029 28088
28088 28148
28148 28208
28208 28268
28268 28327
28327 28387
28387 28447
28447 28506
28506 28566
28566 28626
28626 28685
28685 28745
28745 28805
28805 28864
28864 28924
28924 28984
28984 29061
29061 29121
29121 29181
29181 29240
29240 29300
29300 29359
29359 29419
29419 29478
29478 29538
29538 29598
29598 29657
29657 29717
29717 29776
29776 29836
29836 29895
29895 29955
29955 30015
30015 30109
30109 30169
30169 30228
30228 30288
30288 30348
30348 30407
30407 30467
30467 30527
30527 30586
