335 403
403 472
472 540
540 609
609 676
676 745
745 813
813 882
1018 1088
1088 1157
1157 1224
1224 1293
1293 1360
1360 1430
1430 1498
1498 1567
1567 1635
1635 1703
1703 1771
1771 1838
1838 1908
1908 1975
1975 2044
2044 2113
2113 2180
2180 2249
2249 2316
2316 2385
2385 2452
2452 2521
2521 2589
2589 2658
2658 2725
2725 2794
2794 2860
2860 2930
2930 2997
2997 3066
3066 3134
3134 3202
3202 3271
3271 3340
3340 3407
3407 3477
3477 3545
3545 3613
3613 3682
3682 3751
3751 3820
3820 3887
3887 3956
3956 4024
4024 4092
4092 4161
4161 4229
4229 4296
4296 4365
4365 4432
4432 4501
4501 4569
4569 4637
4637 4704
4704 4773
4773 4839
4839 4908
4908 4975
4975 5044
5044 5155
5155 5223
5223 5292
5292 5359
5359 5429
5429 5497
5497 5566
5566 5635
5635 5704
5704 5771
5771 5841
5841 5909
5909 5977
5977 6047
6047 6116
6116 6184
6184 6252
6252 6322
6322 6365
6365 6434
6434 6503
6503 6572
6572 6640
6640 6707
6707 6777
6777 6844
6844 6913
6913 6981
6981 7049
7049 7117
7117 7187
7187 7254
7254 7323
7323 7391
7391 7461
7461 7528
7528 7597
7597 7664
7664 7732
7732 7800
7800 7867
7867 7937
7937 8004
8004 8073
8073 8141
8141 8209
8209 8277
8277 8343
8343 8413
8413 8481
8481 8549
8549 8618
8618 8686
8686 8756
8756 8824
8824 8893
8893 8961
8961 9029
9029 9098
9098 9167
9167 9234
9234 9304
9304 9371
9371 9440
9440 9507
9507 9576
9576 9644
9644 9712
9712 9781
9781 9848
9848 9915
9915 9984
9984 10053
10053 10121
10121 10189
10189 10257
10257 10326
10326 10392
10392 10461
10461 10530
10530 10599
10599 10667
10667 10736
10736 10804
10804 10873
10873 10941
10941 11011
11011 11079
11079 11148
11148 11217
11217 11285
11285 11355
11355 11422
11422 11491
11491 11559
11559 11628
11628 11697
11697 11766
11766 11833
11833 11903
11903 11969
11969 12039
12039 12106
12106 12176
12176 12244
12244 12311
12311 12379
12379 12448
12448 12515
12515 12584
12584 12653
12653 12722
12722 12789
12789 12858
12858 12925
12925 12993
12993 13062
13062 13130
13130 13199
13199 13267
13267 13335
13335 13403
13403 13472
13472 13539
13539 13609
13609 13677
13677 13745
13745 13814
13814 13883
13883 13951
13951 14019
14019 14089
14089 14156
14156 14225
14225 14294
14294 14361
14361 14429
14429 14496
14496 14565
14565 14633
14633 14702
14702 14770
14770 14837
14837 14906
14906 14973
14973 15040
15040 15110
15110 15177
15177 15246
15246 15314
15314 15382
15382 15450
15450 15518
15518 15587
15587 15655
15655 15725
15725 15793
15793 15862
15862 15930
15930 16000
16000 16068
16068 16138
16138 16206
16206 16275
16275 16343
16343 16413
16413 16481
16481 16550
16550 16617
16617 16688
16688 16755
16755 16825
16825 16893
16893 16961
16961 17031
17031 17099
17099 17166
17166 17235
17235 17304
17304 17373
17373 17441
17441 17509
17509 17578
17578 17645
17645 17714
17714 17782
17782 17852
17852 17920
17920 17989
17989 18058
18058 18127
18127 18195
18195 18265
18265 18334
18334 18403
18403 18473
18473 18542
18542 18610
18610 18680
18680 18748
18748 18818
18818 18886
18886 18956
18956 19024
19024 19093
19093 19161
19161 19230
19230 19299
19299 19367
19367 19436
19436 19505
19505 19573
19573 19642
19642 19710
19710 19778
19778 19846
19846 19890
19890 19960
19960 20028
20028 20096
20096 20141
20141 20208
20208 20278
20278 20348
20348 20416
20416 20485
20485 20555
20555 20623
20623 20692
20692 20761
20761 20830
20830 20874
20874 20944
20944 21012
21012 21081
21081 21150
21150 21218
21218 21288
21288 21356
21356 21426
21426 21494
21494 21562
21562 21631
21631 21699
21699 21767
21767 21836
21836 21905
21905 21974
21974 22042
22042 22110
22110 22180
22180 22247
22247 22316
22316 22385
22385 22455
22455 22523
22523 22591
22591 22660
22660 22729
22729 22796
22796 22866
22866 22934
22934 23003
23003 23073
23073 23141
23141 23209
23209 23278
23278 23345
23345 23415
23415 23483
23483 23552
23552 23620
23620 23687
23687 23755
23755 23824
23824 23892
23892 23960
23960 24028
24028 24098
24098 24165
24165 24233
24233 24301
24301 24370
24370 24412
24412 24481
24481 24550
24550 24619
24619 24687
24687 24756
24756 24824
24824 24892
24892 24962
24962 25031
25031 25100
25100 25168
25168 25238
25238 25305
25305 25373
25373 25442
25442 25511
25511 25580
25580 25648
25648 25692
25692 25760
25760 25828
25828 25897
25897 25966
25966 26035
26035 26104
26104 26172
26172 26241
26241 26309
26309 26377
26377 26446
26446 26516
26516 26584
26584 26652
26652 26721
26721 26789
26789 26857
26857 26926
26926 26995
26995 27065
27065 27133
27133 27202
27202 27271
27271 27338
27338 27409
27409 27477
27477 27547
27547 27616
27616 27685
27685 27755
27755 27823
27823 27891
27891 27961
27961 28029
28029 28098
28098 28167
28167 28235
28235 28305
28305 28372
28372 28441
28441 28509
28509 28577
28577 28646
28646 28715
28715 28782
28782 28851
28851 28919
28919 28986
28986 29055
29055 29125
29125 29193
29193 29261
29261 29329
29329 29398
29398 29466
29466 29535
29535 29604
29604 29674
29674 29742
29742 29812
29812 29880
29880 29949
29949 30018
30018 30087
30087 30157
30157 30226
30226 30295
30295 30363
30363 30431
30431 30502
30502 30570
30570 30640
30640 30710
30710 30778
30778 30848
30848 30916
30916 30984
30984 31029
31029 31097
31097 31167
31167 31235
31235 31304
31304 31374
31374 31441
31441 31511
31511 31580
31580 31648
31648 31716
31716 31784
31784 31854
31854 31922
31922 31990
31990 32059
32059 32127
32127 32196
32196 32264
32264 32332
32332 32401
32401 32469
32469 32539
32539 32606
32606 32676
32676 32744
32744 32812
32812 32881
32881 32949
32949 33017
33017 33086
33086 33155
33155 33225
33225 33293
33293 33363
33363 33431
33431 33499
33499 33569
33569 33638
33638 33708
33708 33776
33776 33847
33847 33915
33915 33983
33983 34053
34053 34122
34122 34192
34192 34260
34260 34331
34331 34398
34398 34468
34468 34537
34537 34582
34582 34650
34650 34719
34719 34787
34787 34857
34857 34923
34923 34993
34993 35061
35061 35131
35131 35198
35198 35267
35267 35335
35335 35404
35404 35471
35471 35541
35541 35585
35585 35653
35653 35722
35722 35790
35790 35860
35860 35926
35926 35996
35996 36065
36065 36133
36133 36201
36201 36271
36271 36339
36339 36408
36408 36476
36476 36545
36545 36613
36613 36681
36681 36751
36751 36819
36819 36888
36888 36955
36955 37024
37024 37093
37093 37161
37161 37231
37231 37300
37300 37367
37367 37436
37436 37504
37504 37572
37572 37640
37640 37710
37710 37778
37778 37847
37847 37914
37914 37984
37984 38051
38051 38120
38120 38188
38188 38257
38257 38325
38325 38395
38395 38462
38462 38531
38531 38598
38598 38668
38668 38736
38736 38805
38805 38873
38873 38941
38941 39010
39010 39077
39077 39147
39147 39214
39214 39283
39283 39352
39352 39421
39421 39488
39488 39558
39558 39626
39626 39694
39694 39763
39763 39833
39833 39901
39901 39970
39970 40038
40038 40108
40108 40175
40175 40245
40245 40313
40313 40382
40382 40450
40450 40520
40520 40588
40588 40656
40656 40725
40725 40794
40794 40861
40861 40930
40930 40999
40999 41066
41066 41135
41135 41203
41203 41271
41271 41340
41340 41409
41409 41477
41477 41547
41547 41613
41613 41683
41683 41751
41751 41820
41820 41890
41890 41959
41959 42029
42029 42097
42097 42166
42166 42211
42211 42280
42280 42350
42350 42419
42419 42487
42487 42557
42557 42625
42625 42693
42693 42762
42762 42832
42832 42901
42901 42969
42969 43037
43037 43107
43107 43175
43175 43245
43245 43313
43313 43382
43382 43451
43451 43520
43520 43588
43588 43658
43658 43726
43726 43794
43794 43863
43863 43931
43931 44001
44001 44070
44070 44138
44138 44208
44208 44276
44276 44345
44345 44414
44414 44484
44484 44553
44553 44623
44623 44691
44691 44761
44761 44829
44829 44898
44898 44968
44968 45035
45035 45103
45103 45173
45173 45242
45242 45312
45312 45381
45381 45450
45450 45520
45520 45589
45589 45659
45659 45727
45727 45798
45798 45866
45866 45935
45935 46006
46006 46074
46074 46142
46142 46213
46213 46281
46281 46350
46350 46421
46421 46489
46489 46558
46558 46629
46629 46697
46697 46766
46766 46836
46836 46905
46905 46974
46974 47042
47042 47111
47111 47180
47180 47249
47249 47318
47318 47388
47388 47455
47455 47526
47526 47594
47594 47663
47663 47733
47733 47801
47801 47871
47871 47938
47938 48008
48008 48077
48077 48146
48146 48216
48216 48284
48284 48327
48327 48397
48397 48466
48466 48535
48535 48605
48605 48674
48674 48742
48742 48812
48812 48881
48881 48949
48949 49020
49020 49089
49089 49158
49158 49229
49229 49297
49297 49367
49367 49437
49437 49505
49505 49576
49576 49644
49644 49714
49714 49782
49782 49852
49852 49920
49920 49990
49990 50059
50059 50128
50128 50198
50198 50267
50267 50337
50337 50406
50406 50474
50474 50545
50545 50614
50614 50684
50684 50754
50754 50823
50823 50892
50892 50963
50963 51032
51032 51102
51102 51172
51172 51242
51242 51311
51311 51381
51381 51451
51451 51520
51520 51590
51590 51660
51660 51729
51729 51799
51799 51870
51870 51937
51937 52008
52008 52077
52077 52147
52147 52217
52217 52287
52287 52355
52355 52424
52424 52493
52493 52561
52561 52630
52630 52699
52699 52769
52769 52836
52836 52906
52906 52975
52975 53043
53043 53113
53113 53182
53182 53250
53250 53320
53320 53389
53389 53458
53458 53527
53527 53597
53597 53666
53666 53735
53735 53803
53803 53874
53874 53942
53942 54012
54012 54082
54082 54151
54151 54220
54220 54290
54290 54359
54359 54429
54429 54498
54498 54567
54567 54636
54636 54705
54705 54775
54775 54844
54844 54912
54912 54982
54982 55050
55050 55120
55120 55188
55188 55258
55258 55326
55326 55396
55396 55463
55463 55533
55533 55601
55601 55670
55670 55740
55740 55809
55809 55877
55877 55947
55947 56014
56014 56084
56084 56153
56153 56224
56224 56293
56293 56362
56362 56431
56431 56501
56501 56571
56571 56640
56640 56711
56711 56780
56780 56850
56850 56920
56920 56989
56989 57059
57059 57128
57128 57197
57197 57267
57267 57336
57336 57406
57406 57475
57475 57544
57544 57614
57614 57683
57683 57752
57752 57822
57822 57891
57891 57961
57961 58074
58074 58145
58145 58213
58213 58284
58284 58353
58353 58422
58422 58493
58493 58562
58562 58631
58631 58702
58702 58771
58771 58840
58840 58910
58910 58980
58980 59050
59050 59119
59119 59188
59188 59258
59258 59327
59327 59396
59396 59465
59465 59536
59536 59604
59604 59674
59674 59743
59743 59811
59811 59881
59881 59949
59949 60020
60020 60088
60088 60157
60157 60227
60227 60295
60295 60364
60364 60434
60434 60502
60502 60573
60573 60642
60642 60710
60710 60780
60780 60849
60849 60918
