102 170
170 239
239 307
307 376
376 442
442 511
511 581
581 623
623 693
693 761
761 830
830 874
874 942
942 1011
1011 1078
1078 1148
1148 1217
1217 1284
1284 1353
1353 1421
1421 1489
1489 1558
1558 1627
1627 1694
1694 1762
1762 1831
1831 1900
1900 1967
1967 2036
2036 2103
2103 2173
2173 2240
2240 2309
2309 2378
2378 2447
2447 2515
2515 2583
2583 2653
2653 2722
2722 2791
2791 2859
2859 2927
2927 2996
2996 3066
3066 3134
3134 3204
3204 3272
3272 3342
3342 3410
3410 3480
3480 3549
3549 3616
3616 3685
3685 3754
3754 3822
3822 3890
3890 3959
3959 4028
4028 4095
4095 4163
4163 4231
4231 4300
4300 4367
4367 4437
4437 4504
4504 4572
4572 4641
4641 4708
4708 4778
4778 4844
4844 4914
4914 4981
4981 5051
5051 5118
5118 5186
5186 5256
5256 5325
5325 5394
5394 5438
5438 5506
5506 5574
5574 5643
5643 5713
5713 5781
5781 5851
5851 5919
5919 5987
5987 6057
6057 6125
6125 6195
6195 6264
6264 6332
6332 6400
6400 6470
6470 6537
6537 6607
6607 6674
6674 6743
6743 6811
6811 6879
6879 6948
6948 7015
7015 7085
7085 7152
7152 7221
7221 7290
7290 7358
7358 7426
7426 7494
7494 7563
7563 7629
7629 7699
7699 7766
7766 7835
7835 7903
7903 7972
7972 8041
8041 8109
8109 8178
8178 8245
8245 8314
8314 8383
8383 8453
8453 8521
8521 8590
8590 8658
8658 8726
8726 8794
8794 8863
8863 8931
8931 8999
8999 9068
9068 9136
9136 9205
9205 9273
9273 9342
9342 9409
9409 9479
9479 9547
9547 9614
9614 9683
9683 9751
9751 9820
9820 9888
9888 9957
9957 10067
10067 10137
10137 10203
10203 10272
10272 10340
10340 10409
10409 10478
10478 10547
10547 10616
10616 10685
10685 10754
10754 10821
10821 10891
10891 10959
10959 11029
11029 11096
11096 11165
11165 11233
11233 11300
11300 11369
11369 11437
11437 11506
11506 11574
11574 11642
11642 11710
11710 11779
11779 11847
11847 11916
11916 11983
11983 12052
12052 12120
12120 12190
12190 12257
12257 12327
12327 12395
12395 12465
12465 12532
12532 12602
12602 12670
12670 12738
12738 12807
12807 12876
12876 12945
12945 13013
13013 13082
13082 13150
13150 13220
13220 13288
13288 13358
13358 13425
13425 13495
13495 13564
13564 13632
13632 13702
13702 13770
13770 13840
13840 13909
13909 13977
13977 14046
14046 14114
14114 14184
14184 14251
14251 14321
14321 14389
14389 14457
14457 14526
14526 14595
14595 14664
14664 14731
14731 14801
14801 14869
14869 14937
14937 15005
15005 15073
15073 15118
15118 15186
15186 15254
15254 15322
15322 15391
15391 15460
15460 15529
15529 15597
15597 15666
15666 15735
15735 15805
15805 15874
15874 15942
15942 16012
16012 16082
16082 16151
16151 16219
16219 16289
16289 16356
16356 16426
16426 16493
16493 16563
16563 16631
16631 16699
16699 16767
16767 16835
16835 16905
16905 16972
16972 17042
17042 17110
17110 17178
17178 17245
17245 17314
17314 17382
17382 17451
17451 17519
17519 17587
17587 17657
17657 17725
17725 17794
17794 17862
17862 17932
17932 18001
18001 18069
18069 18138
18138 18208
18208 18277
18277 18345
18345 18414
18414 18483
18483 18553
18553 18622
18622 18691
18691 18760
18760 18828
18828 18898
18898 18966
18966 19036
19036 19103
19103 19173
19173 19241
19241 19308
19308 19378
19378 19446
19446 19514
19514 19583
19583 19652
19652 19720
19720 19788
19788 19856
19856 19925
19925 19993
19993 20062
20062 20131
20131 20199
20199 20269
20269 20337
20337 20406
20406 20518
20518 20588
20588 20658
20658 20726
20726 20795
20795 20866
20866 20935
20935 21003
21003 21072
21072 21141
21141 21209
21209 21277
21277 21346
21346 21414
21414 21483
21483 21551
21551 21618
21618 21687
21687 21755
21755 21822
21822 21891
21891 21959
21959 22027
22027 22094
22094 22163
22163 22231
22231 22299
22299 22368
22368 22435
22435 22504
22504 22573
22573 22641
22641 22710
22710 22779
22779 22849
22849 22918
22918 22986
22986 23056
23056 23124
23124 23194
23194 23263
23263 23331
23331 23401
23401 23469
23469 23539
23539 23606
23606 23676
23676 23744
23744 23812
23812 23880
23880 23949
23949 24016
24016 24085
24085 24154
24154 24221
24221 24290
24290 24358
24358 24427
24427 24494
24494 24563
24563 24631
24631 24699
24699 24768
24768 24837
24837 24907
24907 24975
24975 25045
25045 25113
25113 25183
25183 25251
25251 25296
25296 25364
25364 25435
25435 25503
25503 25573
25573 25641
25641 25711
25711 25781
25781 25849
25849 25920
25920 25988
25988 26056
26056 26125
26125 26194
26194 26263
26263 26331
26331 26399
26399 26468
26468 26536
26536 26604
26604 26673
26673 26740
26740 26809
26809 26878
26878 26945
26945 27014
27014 27081
27081 27150
27150 27219
27219 27288
27288 27356
27356 27426
27426 27494
27494 27564
27564 27632
27632 27702
27702 27772
27772 27840
27840 27910
27910 27978
27978 28048
28048 28116
28116 28184
28184 28252
28252 28321
28321 28388
28388 28456
28456 28523
28523 28592
28592 28658
28658 28727
28727 28794
28794 28863
28863 28929
28929 28998
28998 29064
29064 29132
29132 29199
29199 29268
29268 29334
29334 29401
29401 29470
29470 29537
29537 29605
29605 29673
29673 29740
29740 29809
29809 29876
29876 29945
29945 30012
30012 30081
30081 30149
30149 30217
30217 30287
30287 30354
30354 30423
30423 30490
30490 30559
30559 30627
30627 30696
30696 30763
30763 30832
30832 30899
30899 30968
30968 31035
31035 31105
31105 31173
31173 31240
31240 31308
31308 31376
31376 31446
31446 31514
31514 31582
31582 31650
31650 31719
31719 31787
31787 31855
31855 31923
31923 31993
31993 32061
32061 32130
32130 32198
32198 32264
32264 32333
32333 32402
32402 32473
32473 32542
32542 32611
32611 32723
32723 32793
32793 32863
32863 32931
32931 33000
33000 33068
33068 33138
33138 33206
33206 33276
33276 33344
33344 33413
33413 33482
33482 33551
33551 33619
33619 33687
33687 33757
33757 33824
33824 33893
33893 33962
33962 34030
34030 34099
34099 34168
34168 34235
34235 34304
34304 34372
34372 34442
34442 34509
34509 34579
34579 34648
34648 34715
34715 34785
34785 34855
34855 34924
34924 34992
34992 35062
35062 35132
35132 35200
35200 35271
35271 35340
35340 35410
35410 35478
35478 35548
35548 35617
35617 35686
35686 35755
35755 35825
35825 35894
35894 35962
35962 36031
36031 36101
36101 36169
36169 36238
36238 36306
36306 36376
36376 36444
36444 36512
36512 36581
36581 36650
36650 36720
36720 36788
36788 36858
36858 36925
36925 36996
36996 37066
37066 37134
37134 37203
37203 37273
37273 37342
37342 37411
37411 37480
37480 37549
37549 37619
37619 37687
37687 37758
37758 37826
37826 37896
37896 37964
37964 38034
38034 38103
38103 38171
38171 38240
38240 38308
38308 38378
38378 38447
38447 38515
38515 38582
38582 38651
38651 38717
38717 38786
38786 38855
38855 38923
38923 38993
38993 39061
39061 39130
39130 39198
39198 39266
39266 39336
39336 39405
39405 39475
39475 39543
39543 39612
39612 39680
39680 39750
39750 39819
39819 39887
39887 39955
39955 40024
40024 40093
40093 40161
40161 40229
40229 40298
40298 40365
40365 40435
40435 40502
40502 40572
40572 40639
40639 40708
40708 40776
40776 40845
40845 40913
40913 40982
40982 41052
41052 41119
41119 41189
41189 41258
41258 41327
41327 41395
41395 41465
41465 41533
41533 41603
41603 41671
41671 41740
41740 41809
41809 41877
41877 41946
41946 42016
42016 42084
42084 42152
42152 42221
42221 42290
42290 42359
42359 42428
42428 42498
42498 42566
42566 42635
42635 42704
42704 42773
42773 42843
42843 42912
42912 42981
42981 43049
43049 43118
43118 43186
43186 43256
43256 43324
43324 43392
43392 43460
43460 43528
43528 43597
43597 43665
43665 43733
43733 43801
43801 43870
43870 43939
43939 44006
44006 44076
44076 44144
44144 44213
44213 44281
44281 44350
44350 44419
44419 44489
44489 44557
44557 44627
44627 44695
44695 44765
44765 44834
44834 44902
44902 44971
44971 45040
45040 45110
45110 45179
45179 45247
45247 45316
45316 45383
45383 45454
45454 45522
45522 45591
45591 45659
45659 45728
45728 45797
45797 45865
45865 45933
45933 46001
46001 46070
46070 46138
46138 46207
46207 46275
46275 46345
46345 46413
46413 46483
46483 46550
46550 46621
46621 46690
46690 46733
46733 46802
46802 46872
46872 46942
46942 47011
47011 47079
47079 47148
47148 47218
47218 47286
47286 47356
47356 47425
47425 47537
47537 47607
47607 47675
47675 47745
47745 47813
47813 47882
47882 47950
47950 48018
48018 48087
48087 48155
48155 48224
48224 48292
48292 48361
48361 48428
48428 48498
48498 48566
48566 48634
48634 48703
48703 48747
48747 48815
48815 48885
48885 48951
48951 49021
49021 49090
49090 49158
49158 49227
49227 49297
49297 49366
49366 49434
49434 49504
49504 49572
49572 49642
49642 49710
49710 49780
49780 49850
49850 49918
49918 49987
49987 50056
50056 50126
50126 50194
50194 50263
50263 50331
50331 50401
50401 50469
50469 50538
50538 50606
50606 50675
50675 50743
50743 50810
50810 50879
50879 50947
50947 51015
51015 51083
51083 51152
51152 51220
51220 51289
51289 51356
51356 51425
51425 51492
51492 51562
51562 51630
51630 51699
51699 51769
51769 51838
51838 51906
51906 51975
51975 52054
52054 52121
52121 52191
52191 52258
52258 52328
52328 52396
52396 52465
52465 52533
52533 52603
52603 52670
52670 52739
52739 52809
52809 52876
52876 52946
52946 53013
53013 53082
53082 53150
53150 53219
53219 53286
53286 53356
53356 53424
53424 53492
53492 53561
53561 53630
53630 53697
53697 53767
53767 53835
53835 53904
53904 53973
53973 54042
54042 54110
54110 54178
54178 54247
54247 54314
54314 54384
54384 54451
54451 54520
54520 54588
54588 54658
54658 54725
54725 54795
54795 54863
54863 54931
54931 55000
55000 55092
55092 55162
55162 55231
55231 55300
55300 55369
55369 55440
55440 55508
55508 55580
55580 55649
55649 55719
55719 55788
55788 55859
55859 55929
55929 55999
55999 56069
56069 56138
56138 56208
56208 56278
56278 56347
56347 56418
56418 56484
56484 56555
56555 56624
56624 56668
56668 56736
56736 56805
56805 56873
56873 56944
56944 57012
57012 57083
57083 57152
57152 57221
57221 57290
57290 57360
57360 57430
57430 57500
57500 57570
57570 57640
57640 57710
57710 57779
57779 57849
57849 57918
57918 57987
57987 58055
58055 58125
58125 58193
58193 58262
58262 58331
58331 58399
58399 58466
58466 58534
58534 58602
58602 58670
58670 58739
58739 58806
58806 58874
58874 58943
58943 59011
59011 59078
59078 59146
59146 59215
