430 496
1099 1166
1166 1233
1233 1301
1301 1366
1366 1435
1435 1502
1502 1568
1568 1636
1636 1702
1702 1770
1770 1835
1835 1901
1901 1969
1969 2035
2035 2103
2103 2169
2169 2236
2236 2302
2302 2367
2367 2410
2410 2476
2476 2543
2543 2610
2610 2652
2652 2719
2719 2784
2784 2851
2851 2919
2919 2984
2984 3052
3052 3118
3118 3185
3185 3251
3251 3316
3316 3384
3384 3450
3450 3517
3517 3584
3584 3650
3650 3717
3717 3782
3782 3850
3850 3892
3892 3957
3957 4025
4025 4091
4091 4159
4159 4224
4224 4290
4290 4358
4358 4424
4424 4492
4492 4559
4559 4624
4624 4692
4692 4757
4757 4824
4824 4891
4891 4957
4957 5025
5025 5091
5091 5157
5157 5223
5223 5291
5291 5357
5357 5399
5399 5467
5467 5534
5534 5601
5601 5643
5643 5709
5709 5777
5777 5843
5843 5911
5911 5977
5977 6045
6045 6111
6111 6178
6178 6246
6246 6313
6313 6380
6380 6447
6447 6514
6514 6580
6580 6648
6648 6715
6715 6780
6780 6848
6848 6915
6915 6981
6981 7048
7048 7113
7113 7181
7181 7248
7248 7314
7314 7382
7382 7448
7448 7514
7514 7581
7581 7646
7646 7715
7715 7781
7781 7848
7848 7914
7914 7982
7982 8047
8047 8114
8114 8156
8156 8222
8222 8290
8290 8357
8357 8423
8423 8491
8491 8557
8557 8624
8624 8692
