5947 6049
6049 6117
6117 6186
6573 6684
6684 6753
6753 6797
6797 6866
6866 6935
6935 7003
7003 7073
7073 7143
7143 7211
7211 7281
7281 7351
7351 7419
7419 7489
7489 7558
7558 7626
7626 7695
7695 7765
7765 7833
7833 7877
7877 7945
7945 8015
8015 8102
8102 8171
8171 8240
8240 8309
8309 8378
8378 8447
8447 8560
8560 8628
8628 8697
8697 8766
8766 8836
8836 8904
8904 8975
8975 9031
9031 9100
9100 9168
9168 9237
9237 9349
9349 9418
9418 9487
9487 9556
9556 9624
9624 9736
9736 9846
9846 9960
9960 10071
10071 10142
10142 10209
10209 10279
10279 10391
10391 10460
10460 10530
10530 10600
10600 10668
10668 10738
10738 10807
10807 10850
10850 10919
10919 10988
10988 11056
11056 11125
11125 11195
11195 11264
11264 11333
11333 11403
11403 11447
11447 11514
11514 11583
11583 11627
11627 11696
11696 11739
11739 11807
11807 11876
11876 11944
11944 12038
12038 12108
12108 12175
12175 12244
12244 12314
12314 12383
12383 12452
12452 12522
12522 12591
12591 12658
12658 12728
12728 12796
12796 12864
12864 12932
12932 13001
13001 13096
13096 13166
13166 13234
13234 13304
13304 13372
13372 13441
13441 13511
13511 13578
13578 13647
13647 13717
13717 13784
13784 13853
13853 13923
13923 13992
13992 14060
14060 14130
14130 14199
14199 14267
14267 14337
14337 14381
14381 14448
14448 14518
14518 14586
14586 14656
14656 14724
14724 14794
14794 14863
14863 14931
14931 14999
14999 15068
15068 15137
15137 15204
15204 15248
15248 15318
15318 15386
15386 15454
15454 15499
15499 15568
15568 15636
15636 15704
15704 15775
15775 15842
15842 15912
15912 16024
16024 16094
16094 16162
16162 16231
16231 16343
16343 16413
16413 16481
16481 16549
16549 16619
16619 16686
16686 16755
16755 16823
16823 16892
16892 16934
16934 17003
17003 17114
17114 17183
17183 17251
17251 17320
17320 17389
17389 17459
17459 17528
17528 17595
17595 17665
17665 17734
17734 17800
17800 17869
17869 17939
17939 18007
18007 18075
18075 18145
18145 18214
18214 18281
18281 18351
18351 18420
18420 18488
18488 18556
18556 18626
18626 18695
18695 18764
18764 18833
18833 18904
18904 18971
18971 19040
19040 19084
19084 19151
19151 19221
19221 19290
19290 19358
19358 19426
19426 19495
19495 19563
19563 19631
19631 19674
19674 19742
19742 19811
19811 19879
19879 19948
19948 20016
20016 20089
20089 20132
20132 20200
20200 20270
20270 20337
20337 20406
20406 20476
20476 20545
20545 20612
20612 20657
20657 20727
20727 20794
20794 20863
20863 20932
20932 21001
21001 21069
21069 21139
21139 21208
21208 21275
21275 21344
21344 21414
21414 21482
21482 21552
21552 21596
21596 21664
21664 21733
21733 21802
21802 21872
21872 21939
21939 22009
22009 22120
22120 22189
22189 22258
22258 22326
22326 22394
22394 22506
22506 22575
22575 22642
22642 22712
22712 22781
22781 22849
22849 22918
22918 22988
22988 23055
23055 23124
23124 23194
23194 23263
23263 23332
23332 23377
23377 23446
23446 23514
23514 23583
23583 23653
23653 23720
23720 23790
23790 23859
23859 23928
23928 23996
23996 24065
24065 24134
24134 24201
24201 24270
24270 24340
24340 24408
24408 24476
24476 24546
24546 24615
24615 24683
24683 24752
24752 24821
24821 24888
24888 24956
24956 25026
25026 25095
25095 25162
25162 25231
25231 25301
25301 25368
25368 25437
25437 25506
25506 25574
25574 25643
25643 25713
25713 25782
25782 25893
25893 25963
25963 26031
26031 26099
26099 26169
26169 26238
26238 26306
26306 26374
26374 26444
26444 26511
26511 26580
26580 26650
26650 26719
26719 26787
26787 26856
26856 26924
26924 26991
26991 27059
27059 27128
27128 27197
27197 27264
27264 27333
27333 27402
27402 27469
27469 27537
27537 27582
27582 27650
27650 27719
27719 27790
27790 27859
27859 27928
27928 27972
27972 28042
28042 28110
28110 28179
28179 28250
28250 28319
28319 28387
28387 28455
28455 28525
28525 28593
28593 28661
28661 28731
28731 28799
28799 28867
28867 28911
28911 28979
28979 29048
29048 29116
29116 29185
29185 29253
29253 29321
29321 29390
29390 29459
29459 29527
29527 29595
29595 29665
29665 29708
29708 29776
29776 29844
29844 29914
29914 29983
29983 30057
30057 30126
30126 30194
30194 30263
30263 30332
30332 30400
30400 30444
30444 30513
30513 30582
30582 30650
30650 30720
30720 30788
30788 30856
30856 30924
30924 30994
30994 31038
31038 31106
31106 31176
31176 31245
31245 31312
31312 31381
31381 31451
31451 31519
31519 31588
31588 31658
31658 31728
31728 31795
31795 31864
31864 31934
31934 32002
32002 32070
32070 32140
32140 32209
32209 32277
32277 32345
32345 32415
32415 32482
32482 32550
32550 32620
32620 32689
32689 32757
32757 32827
32827 32896
32896 32964
32964 33033
33033 33103
33103 33171
33171 33240
33240 33309
33309 33378
33378 33445
33445 33514
33514 33583
33583 33652
33652 33720
33720 33789
33789 33857
33857 33926
33926 33995
33995 34064
34064 34132
34132 34202
34202 34270
34270 34339
34339 34407
34407 34477
34477 34545
34545 34614
34614 34682
34682 34750
34750 34818
34818 34887
34887 34956
34956 35024
35024 35093
35093 35162
35162 35231
35231 35299
35299 35369
35369 35438
35438 35508
35508 35577
35577 35647
35647 35715
35715 35785
35785 35854
35854 35924
35924 35995
35995 36063
36063 36134
36134 36205
36205 36250
36250 36319
36319 36389
36389 36459
36459 36528
36528 36598
36598 36666
36666 36711
36711 36780
36780 36850
36850 36920
36920 36988
36988 37058
37058 37128
37128 37171
37171 37240
37240 37310
37310 37380
37380 37449
37449 37519
37519 37588
37588 37659
37659 37728
37728 37799
37799 37867
37867 37937
37937 38008
38008 38078
38078 38147
38147 38217
38217 38287
38287 38357
38357 38427
38427 38495
38495 38566
38566 38635
38635 38705
38705 38773
38773 38843
38843 38888
38888 38956
38956 39026
39026 39094
39094 39164
39164 39232
39232 39302
39302 39371
39371 39440
39440 39510
39510 39578
39578 39648
39648 39717
39717 39787
39787 39856
39856 39926
39926 39996
39996 40066
40066 40135
40135 40204
40204 40274
40274 40345
40345 40389
40389 40457
40457 40528
40528 40597
40597 40667
40667 40736
40736 40806
40806 40876
40876 40945
40945 41015
41015 41068
41068 41135
41135 41204
41204 41272
41272 41340
41340 41407
41407 41475
41475 41544
41544 41611
41611 41678
41678 41746
41746 41815
41815 41882
41882 41951
41951 42019
42019 42083
42083 42151
42151 42220
42220 42289
42289 42359
42359 42427
42427 42497
42497 42610
42610 42680
42680 42748
42748 42818
42818 42887
42887 42957
42957 43069
43069 43138
43138 43250
43250 43319
43319 43431
43431 43500
43500 43568
43568 43638
43638 43707
43707 43751
43751 43819
43819 43889
43889 43958
43958 44028
44028 44096
44096 44165
44165 44235
44235 44306
44306 44375
44375 44444
44444 44515
44515 44586
44586 44655
44655 44726
44726 44796
44796 44867
44867 44936
44936 45007
45007 45097
45097 45168
45168 45238
45238 45307
45307 45378
45378 45448
45448 45519
45519 45564
45564 45633
45633 45704
45704 45775
45775 45843
45843 45913
45913 45983
45983 46055
46055 46123
46123 46195
46195 46264
46264 46335
46335 46404
46404 46475
46475 46544
46544 46615
46615 46684
46684 46754
46754 46825
46825 46896
46896 46965
46965 47034
47034 47105
47105 47176
47176 47244
47244 47315
47315 47385
47385 47456
47456 47524
47524 47595
47595 47664
47664 47735
47735 47804
47804 47875
47875 47945
47945 48016
48016 48085
48085 48157
48157 48227
48227 48299
48299 48368
48368 48439
48439 48510
48510 48581
48581 48651
48651 48722
48722 48792
48792 48864
48864 48978
48978 49079
49079 49151
49151 49222
49222 49292
49292 49363
49363 49433
49433 49505
49505 49574
49574 49645
49645 49714
49714 49786
49786 49855
49855 49924
49924 49996
49996 50041
50041 50110
50110 50181
50181 50250
50250 50322
50322 50391
50391 50461
50461 50532
50532 50601
50601 50671
50671 50742
50742 50856
50856 50927
50927 51041
51041 51112
51112 51181
51181 51252
51252 51322
51322 51391
51391 51461
51461 51532
51532 51603
51603 51672
51672 51742
51742 51813
51813 51882
51882 51952
51952 52023
52023 52094
52094 52163
52163 52233
52233 52302
52302 52372
52372 52441
52441 52512
52512 52581
52581 52650
52650 52719
52719 52790
52790 52860
52860 52930
52930 53001
53001 53071
53071 53140
53140 53210
53210 53256
53256 53326
53326 53395
53395 53466
53466 53536
53536 53604
53604 53674
53674 53744
53744 53812
53812 53881
53881 53952
53952 54021
54021 54089
54089 54159
54159 54229
54229 54297
54297 54367
54367 54412
54412 54481
54481 54550
54550 54619
54619 54689
54689 54757
54757 54826
54826 54896
54896 54966
54966 55035
55035 55105
55105 55174
55174 55242
55242 55311
55311 55382
55382 55452
55452 55520
55520 55590
55590 55660
55660 55728
55728 55797
55797 55868
55868 55936
55936 56006
56006 56076
56076 56121
56121 56189
56189 56259
56259 56329
56329 56397
56397 56467
56467 56537
56537 56582
56582 56650
56650 56720
56720 56788
56788 56858
56858 56926
56926 56996
56996 57040
57040 57108
57108 57179
57179 57248
57248 57316
57316 57386
57386 57455
57455 57524
57524 57593
57593 57663
57663 57732
57732 57802
57802 57872
57872 57941
57941 58011
58011 58079
58079 58150
58150 58218
58218 58288
58288 58357
58357 58426
58426 58494
58494 58564
58564 58633
58633 58701
58701 58770
58770 58840
58840 58909
