4992 5095
5095 5188
6169 6261
6261 6353
6353 6445
6445 6535
6535 6628
6628 6719
6719 6810
6810 6901
6901 6993
6993 7084
7084 7176
7176 7268
7268 7359
7359 7451
7451 7543
7543 7634
7634 7727
7727 7818
7818 7910
7910 8002
8002 8095
8095 8188
8188 8279
8279 8372
8372 8463
8463 8554
8554 8647
8647 8737
8737 8830
8921 8988
8988 9079
9079 9171
9171 9263
9263 9354
9354 9446
9446 9539
9539 9630
9630 9723
9723 9815
9815 9906
9906 9999
9999 10091
10091 10182
10182 10273
10273 10365
10365 10456
10456 10548
10548 10640
10640 10731
10731 10822
10822 10915
10915 11006
11006 11062
11062 11152
11152 11245
11245 11336
11336 11428
11428 11520
11520 11611
11611 11704
11704 11796
11796 11886
11886 11979
11979 12070
12070 12161
12161 12253
12253 12344
12344 12434
12434 12525
12525 12617
12617 12708
12708 12798
12798 12889
12889 12980
12980 13070
13070 13162
13162 13253
13253 13344
13344 13437
13437 13529
13529 13621
13621 13714
13714 13806
13806 13897
13897 13990
13990 14082
14082 14173
14173 14266
14266 14358
14358 14449
14449 14541
14541 14632
14632 14724
14724 14815
14815 14906
14906 14997
14997 15088
15088 15179
15179 15271
15271 15362
15362 15454
15454 15546
15546 15637
15637 15729
15729 15821
15821 15912
15912 16004
16004 16096
16096 16187
16187 16280
16280 16372
16372 16463
16463 16555
16555 16647
16647 16739
16739 16830
16830 16922
16922 17014
17014 17104
17104 17196
17196 17288
17288 17379
17379 17471
17471 17564
17564 17655
17655 17747
17747 17840
17840 17932
17932 18023
18023 18097
18097 18188
18188 18278
18278 18369
18369 18460
18460 18551
18551 18641
18641 18734
18734 18825
18825 18916
18916 19008
19008 19101
19101 19192
19192 19285
19285 19377
19377 19468
19468 19560
19560 19653
19653 19745
19745 19836
19836 19928
19928 20019
20019 20090
20090 20181
20181 20273
20273 20364
20364 20456
20456 20546
20546 20637
20637 20704
20704 20794
20794 20886
20886 20977
20977 21067
21067 21159
21159 21251
21251 21341
21341 21433
21433 21525
21525 21616
21616 21707
21707 21799
21799 21890
21890 21981
21981 22049
22049 22140
22140 22232
22232 22322
22322 22414
22414 22505
22505 22596
22596 22688
22688 22779
22779 22870
22870 22961
22961 23053
23053 23119
23119 23187
23187 23277
23277 23368
23368 23459
23459 23550
23550 23641
23641 23732
23732 23823
23823 23913
23913 24004
24004 24095
24095 24185
24185 24277
24277 24369
24369 24459
24459 24552
24552 24643
24643 24734
24734 24827
24827 24918
24918 25010
25010 25107
25107 25198
25198 25289
25289 25380
25380 25471
25471 25563
25563 25654
25654 25744
25744 25836
25836 25926
25926 26016
26016 26108
26108 26199
26199 26289
26289 26381
26381 26473
26473 26564
26564 26654
26654 26746
26746 26836
26836 26927
26927 27018
27018 27110
27110 27200
27200 27291
27291 27383
27383 27473
27473 27566
27566 27657
27657 27748
27748 27840
27840 27931
27931 28022
28022 28114
28114 28206
28206 28297
28297 28389
28389 28482
28482 28574
28574 28665
28665 28757
28757 28848
28848 28939
28939 29031
29031 29122
29122 29212
29212 29303
29303 29394
29394 29484
29484 29576
29576 29667
29667 29757
29757 29849
29849 29940
29940 30105
30105 30195
30195 30287
30287 30378
30378 30468
30468 30558
30558 30649
30649 30739
30739 30830
30830 30922
30922 31046
31046 31137
31137 31229
31229 31320
31320 31410
31410 31502
31502 31592
31592 31683
31683 31773
31773 31865
31865 31956
31956 32060
32060 32151
32151 32241
32241 32331
32331 32423
32423 32512
32512 32604
32604 32695
32695 32785
32785 32876
32876 32967
32967 33057
33057 33148
33148 33239
33239 33331
33331 33421
33421 33513
33513 33604
33604 33694
33694 33785
33785 33877
33877 33967
33967 34061
34061 34152
34152 34244
34244 34336
34336 34427
34427 34519
34519 34611
34611 34702
34702 34769
34769 34861
34861 34951
34951 35044
35044 35136
35136 35226
35226 35319
35319 35410
35410 35501
35501 35594
35594 35685
35685 35776
35776 35867
35867 35958
35958 36051
36051 36144
36144 36235
36235 36326
36326 36419
36419 36512
36512 36603
36603 36696
36696 36788
36788 36879
36879 36973
36973 37065
37065 37156
37156 37249
37249 37341
37341 37432
37432 37524
37524 37617
37617 37708
37708 37799
37799 37891
37891 37982
37982 38073
38073 38164
38164 38255
38255 38344
38344 38436
38436 38527
38527 38617
38617 38709
38709 38801
38801 38891
38891 38984
38984 39075
39075 39167
39167 39258
39258 39348
39348 39439
39439 39531
39531 39622
39622 39713
39713 39804
39804 39896
39896 39987
39987 40078
40078 40170
40170 40261
40261 40351
40351 40444
40444 40535
40535 40626
40626 40718
40718 40810
40810 40902
40902 40993
40993 41040
41040 41131
41131 41223
41223 41313
41313 41404
41404 41495
41495 41586
41586 41678
41678 41769
41769 41860
41860 41951
41951 42043
42043 42134
42134 42226
42226 42318
42318 42409
42409 42500
42500 42593
42593 42685
42685 42775
42775 42867
42867 42959
42959 43049
43049 43141
43141 43232
43232 43322
43322 43414
43414 43504
43504 43570
43570 43661
43661 43752
43752 43843
43843 43935
43935 44026
44026 44079
44079 44170
44170 44261
44261 44353
44353 44444
44444 44534
44534 44626
44626 44717
44717 44807
44807 44899
44899 44992
44992 45083
45083 45175
45175 45267
45267 45360
45360 45452
45452 45545
45545 45637
45637 45729
45729 45822
45822 45913
45913 46004
46004 46097
46097 46188
46188 46279
46279 46371
46371 46463
46463 46553
46553 46646
46646 46737
46737 46828
46828 46920
46920 47012
47012 47103
47103 47195
47195 47287
47287 47379
47379 47470
47470 47563
47563 47655
47655 47746
47746 47838
47838 47931
47931 48022
48022 48062
48062 48153
48153 48245
48245 48338
48338 48430
48430 48520
48520 48613
48613 48704
48704 48794
48794 48886
48886 48977
48977 49068
49068 49158
49158 49249
49249 49341
49341 49431
49431 49522
49522 49614
49614 49704
49704 49796
49796 49887
49887 49978
49978 50070
50070 50162
50162 50253
50253 50346
