3629 3704
3704 3777
3777 3852
3852 3924
3924 3999
3999 4072
4072 4144
4144 4220
4368 4440
4440 4516
4516 4588
4588 4663
4663 4736
4736 4808
4808 4882
4882 4957
4957 5030
5030 5071
5071 5149
5149 5224
5224 5299
5299 5376
5376 5451
5451 5528
5528 5602
5602 5680
5680 5754
5754 5831
5831 5905
5905 5983
5983 6037
6037 6109
6109 6185
6185 6257
6257 6333
6333 6406
6406 6481
6481 6554
6554 6627
6627 6703
6703 6775
6775 6851
6851 6923
6923 6998
6998 7072
7072 7144
7144 7219
7219 7291
7291 7367
7367 7440
7440 7514
7514 7587
7587 7660
7660 7735
7735 7807
7807 7882
7882 7954
7954 8029
8029 8102
8102 8175
8175 8250
8250 8322
8322 8397
8397 8470
8470 8545
8545 8618
8618 8690
8690 8766
8766 8839
8839 8915
8915 8988
8988 9064
9064 9138
9138 9211
9211 9287
9287 9360
9360 9436
9436 9510
9510 9585
9585 9659
9659 9733
9733 9809
9809 9882
9882 9958
9958 10032
10032 10107
10107 10180
10180 10252
10252 10327
10327 10399
10399 10474
10474 10546
10546 10622
10622 10694
10694 10770
10770 10843
10843 10967
10967 11046
11046 11122
11122 11195
11195 11271
11271 11345
11345 11421
11421 11495
11495 11570
11570 11645
11645 11717
11717 11792
11792 11865
11865 11941
11941 12015
12015 12090
12090 12164
12164 12239
12239 12314
12314 12387
12387 12464
12464 12537
12537 12614
12614 12687
12687 12764
12764 12838
12838 12913
12913 12987
12987 13060
13060 13136
13136 13208
13208 13284
13284 13357
13357 13433
13433 13506
13506 13580
13580 13653
13653 13727
13727 13801
13801 13873
13873 13948
13948 14021
14021 14102
14102 14174
14174 14249
14249 14322
14322 14396
14396 14469
14469 14544
14544 14618
14618 14690
14690 14765
14765 14837
14837 14912
14912 14986
14986 15061
15061 15133
15133 15206
15206 15281
15281 15353
15353 15428
15428 15501
15501 15576
15576 15649
15649 15723
15723 15798
15798 15870
15870 15945
15945 16018
16018 16093
16093 16166
16166 16241
16241 16314
16314 16387
16387 16459
16459 16531
16531 16606
16606 16678
16678 16753
16753 16825
16825 16900
16900 16973
16973 17041
17041 17115
17115 17187
17187 17261
17261 17334
17334 17406
17406 17481
17481 17552
17552 17627
17627 17700
17700 17774
17774 17847
17847 17920
17920 17994
17994 18066
18066 18141
18141 18213
18213 18288
18288 18361
18361 18436
18436 18509
18509 18584
18584 18657
18657 18732
18732 18804
18804 18878
18878 18953
18953 19025
19025 19100
19100 19172
19172 19247
19247 19320
19320 19394
19394 19466
19466 19539
19539 19612
19612 19683
19683 19757
19757 19803
19803 19878
19878 19949
19949 20024
20024 20096
20096 20169
20169 20242
20242 20313
20313 20388
20388 20459
20459 20533
20533 20606
20606 20680
20680 20751
20751 20824
20824 20898
20898 20970
20970 21044
21044 21116
21116 21191
21191 21263
21263 21337
21337 21410
21410 21481
21481 21555
21555 21627
21627 21701
21701 21774
21774 21848
21848 21921
21921 21991
21991 22065
22065 22138
22138 22211
22211 22283
22283 22355
22355 22429
22429 22500
22500 22574
22574 22646
22646 22721
22721 22793
22793 22865
22865 22940
22940 23012
23012 23088
23088 23161
23161 23235
23235 23309
23309 23381
23381 23456
23456 23528
23528 23603
23603 23674
23674 23746
23746 23820
23820 23891
23891 23965
23965 24037
24037 24110
24110 24181
24181 24252
24252 24326
24326 24396
24396 24470
24470 24541
24541 24614
24614 24687
24687 24758
24758 24832
24832 24903
24903 24977
24977 25049
25049 25121
25121 25194
25194 25266
25266 25340
25340 25412
25412 25485
25485 25558
25558 25629
25629 25703
25703 25775
25775 25848
25848 25920
25920 25991
25991 26077
26077 26149
26149 26225
26225 26297
26297 26373
26373 26446
26446 26520
26520 26593
26593 26664
26664 26738
26738 26810
26810 26884
26884 26955
26955 27027
27027 27101
27101 27172
27172 27246
27246 27318
27318 27391
27391 27463
27463 27535
27535 27609
27609 27680
27680 27754
27754 27825
27825 27899
27899 27971
27971 28039
28039 28111
28111 28185
28185 28259
28259 28331
28331 28405
28405 28477
28477 28552
28552 28624
28624 28699
28699 28771
28771 28847
28847 28920
28920 28995
28995 29067
29067 29140
29140 29215
29215 29287
29287 29362
29362 29434
29434 29509
29509 29581
29581 29655
29655 29728
29728 29800
29800 29874
29874 29945
29945 30165
30165 30236
30236 30310
30310 30382
30382 30455
30455 30528
30528 30599
30599 30673
30673 30745
30745 30819
30819 30891
30891 30965
30965 31038
31038 31112
31112 31185
31185 31256
31256 31331
31331 31402
31402 31477
31477 31548
31548 31623
31623 31695
31695 31769
31769 31841
31841 31915
31915 31987
31987 32059
32059 32134
32134 32206
32206 32278
32278 32353
32353 32425
32425 32500
32500 32572
32572 32646
32646 32719
32719 32794
32794 32866
32866 32942
32942 33014
33014 33089
33089 33161
33161 33237
33237 33309
33309 33384
33384 33457
33457 33532
33532 33605
33605 33678
33678 33754
33754 33826
33826 33901
33901 33973
33973 34048
34048 34120
34120 34195
34195 34267
34267 34341
34341 34414
34414 34485
34485 34559
34559 34630
34630 34703
34703 34775
34775 34847
34847 34920
34920 34990
34990 35064
35064 35135
35135 35208
35208 35280
35280 35353
35353 35425
35425 35495
35495 35569
35569 35640
35640 35713
35713 35784
35784 35856
35856 35928
35928 35999
35999 36054
36054 36127
36127 36199
36199 36273
36273 36345
36345 36417
36417 36492
36492 36564
36564 36639
36639 36712
36712 36785
36785 36859
36859 36931
36931 37005
37005 37076
37076 37151
37151 37198
37198 37273
37273 37346
37346 37420
37420 37493
37493 37565
37565 37640
37640 37712
37712 37787
37787 37859
37859 37933
37933 38006
38006 38079
38079 38152
38152 38223
38223 38297
38297 38368
38368 38442
38442 38514
38514 38588
38588 38660
38660 38734
38734 38805
38805 38878
38878 38949
38949 39022
39022 39095
39095 39166
39166 39240
39240 39311
39311 39385
39385 39457
39457 39531
39531 39605
39605 39676
39676 39751
39751 39823
39823 39897
39897 39970
39970 40044
40044 40116
40116 40190
40190 40263
40263 40335
40335 40410
40410 40482
40482 40557
40557 40630
40630 40703
40703 40775
40775 40849
40849 40921
40921 40994
40994 41067
41067 41137
41137 41212
41212 41283
41283 41357
41357 41429
41429 41503
41503 41575
41575 41649
41649 41721
41721 41794
41794 41867
41867 41937
41937 42011
42011 42083
42083 42157
42157 42228
42228 42302
42302 42374
42374 42448
42448 42520
42520 42593
42593 42666
42666 42737
42737 42811
42811 42883
42883 42956
42956 43028
43028 43101
43101 43172
43172 43244
43244 43317
43317 43388
43388 43462
43462 43533
43533 43606
43606 43677
43677 43750
43750 43821
43821 43892
43892 43965
43965 44036
44036 44110
44110 44181
44181 44255
44255 44327
44327 44401
44401 44473
44473 44545
44545 44619
44619 44691
44691 44765
44765 44836
44836 44911
44911 44983
44983 45056
45056 45128
45128 45199
45199 45273
45273 45343
45343 45417
45417 45488
45488 45561
45561 45632
45632 45702
45702 45775
45775 45846
45846 45919
45919 45990
45990 46063
46063 46134
46134 46206
46206 46278
46278 46349
46349 46423
46423 46494
46494 46567
46567 46639
46639 46712
46712 46785
46785 46855
46855 46928
46928 46999
46999 47072
47072 47144
47144 47215
47215 47289
47289 47360
47360 47434
47434 47506
47506 47579
47579 47650
47650 47721
47721 47794
47794 47864
47864 47938
47938 48009
48009 48063
48063 48135
48135 48206
48206 48279
48279 48351
48351 48423
48423 48496
48496 48567
48567 48640
48640 48711
48711 48784
48784 48854
48854 48926
48926 48998
48998 49068
49068 49140
49140 49211
49211 49284
49284 49354
49354 49426
49426 49497
49497 49567
49567 49640
49640 49711
49711 49783
49783 49900
49900 49973
49973 50043
50043 50116
50116 50186
50186 50257
50257 50330
50330 50400
50400 50473
50473 50544
50544 50617
50617 50689
50689 50759
50759 50832
50832 50903
50903 50973
50973 51077
51077 51149
51149 51221
51221 51296
51296 51367
51367 51442
51442 51514
51514 51588
51588 51662
51662 51733
51733 51807
51807 51879
51879 51953
51953 52025
52025 52100
52100 52172
52172 52245
52245 52319
52319 52389
52389 52463
52463 52534
52534 52608
52608 52679
52679 52752
52752 52823
52823 52897
52897 52968
52968 53041
53041 53112
53112 53184
53184 53257
53257 53328
53328 53402
53402 53473
53473 53546
53546 53617
53617 53691
53691 53762
53762 53836
53836 53907
53907 53981
53981 54052
54052 54125
54125 54198
54198 54268
54268 54342
54342 54413
54413 54487
54487 54558
54558 54632
54632 54703
54703 54776
54776 54847
54847 54921
54921 54992
54992 55063
55063 55136
55136 55207
55207 55281
55281 55352
55352 55426
55426 55497
55497 55571
55571 55643
55643 55717
55717 55789
55789 55862
55862 55936
55936 56007
56007 56082
56082 56153
56153 56227
56227 56299
56299 56373
56373 56444
56444 56516
56516 56591
56591 56662
