10911 11013
11013 11070
11997 12060
12060 12163
12163 12267
12267 12371
12371 12475
12475 12580
12580 12684
12684 12786
12786 12890
12890 12995
12995 13098
13098 13204
13204 13307
13307 13412
13412 13516
13516 13621
13621 13728
13728 13831
13831 13937
13937 14040
14040 14145
14145 14249
14249 14353
14353 14459
14459 14562
14562 14667
14667 14770
14770 14875
14875 14980
14980 15083
15083 15187
15187 15289
15289 15393
15393 15498
15498 15600
15600 15705
15705 15807
15807 15913
15913 16015
16015 16118
16118 16222
16222 16324
16324 16429
16429 16531
16531 16636
16636 16738
16738 16843
16843 16944
16944 17049
17049 17150
17150 17254
17254 17359
17359 17461
17461 17564
17564 17668
17668 17770
17770 17874
17874 17976
17976 18081
18081 18183
18183 18287
18287 18390
18390 18494
18494 18596
18596 18701
18701 18804
18804 18907
18907 19011
19011 19112
19112 19216
19216 19317
19317 19418
19418 19520
19520 19620
19620 19722
19722 19823
19823 19923
19923 20026
20026 20125
20125 20228
20228 20329
20329 20432
20432 20534
20534 20634
20634 20738
20738 20839
20839 20943
20943 21044
21044 21147
21147 21251
21251 21353
21353 21457
21457 21559
21559 21662
21662 21742
21742 21844
21844 21948
21948 22050
22050 22155
22155 22256
22256 22361
22361 22464
22464 22567
22567 22671
22671 22775
22775 22875
22875 22978
22978 23081
23081 23182
23182 23284
23284 23385
23385 23488
23488 23589
23589 23692
23692 23794
23794 23897
23897 23999
23999 24101
24101 24205
24205 24307
24307 24413
24413 24515
24515 24620
24620 24723
24723 24825
24825 24930
24930 25033
25033 25134
25134 25237
25237 25340
25340 25443
25443 25543
25543 25645
25645 25745
25745 25847
25847 25947
25947 26049
26049 26149
26149 26248
26248 26349
26349 26447
26447 26548
26548 26647
26647 26748
26748 26847
26847 26949
26949 27049
27049 27147
27147 27249
27249 27348
27348 27450
27450 27550
27550 27651
27651 27753
27753 27858
27858 27960
27960 28062
28062 28165
28165 28268
28268 28373
28373 28475
28475 28578
28578 28683
28683 28785
28785 28891
28891 28993
28993 29101
29101 29201
29201 29305
29305 29406
29406 29508
29508 29608
29608 29711
29711 29813
29813 29913
29913 30016
30016 30118
30118 30222
30222 30324
30324 30429
30429 30532
30532 30633
30633 30737
30737 30838
30838 30942
30942 31043
31043 31146
31146 31247
31247 31349
31349 31452
31452 31554
31554 31656
31656 31756
31756 31858
31858 31959
31959 32061
32061 32161
32161 32264
32264 32365
32365 32467
32467 32568
32568 32670
32670 32773
32773 32873
32873 32976
32976 33078
33078 33182
33182 33286
33286 33392
33392 33498
33498 33604
33604 33710
33710 33818
33818 33923
33923 34029
34029 34121
34121 34220
34220 34317
34317 34418
34418 34516
34516 34618
34618 34717
34717 34819
34819 34919
34919 35017
35017 35119
35119 35218
35218 35319
35319 35420
35420 35521
35521 35623
35623 35722
35722 35824
35824 35923
35923 36024
36024 36125
36125 36223
36223 36324
36324 36424
36424 36524
36524 36626
36626 36726
36726 36828
36828 36928
36928 37030
37030 37131
37131 37232
37232 37335
37335 37434
37434 37537
37537 37636
37636 37738
37738 37839
37839 37938
37938 38040
38040 38140
38140 38241
38241 38343
38343 38443
38443 38543
38543 38643
38643 38745
38745 38855
38855 38965
38965 39094
39094 39201
39201 39308
39308 39416
39416 39521
39521 39629
39629 39733
39733 39841
39841 39945
39945 40053
40053 40159
40159 40262
40262 40369
40369 40473
40473 40579
40579 40682
40682 40785
40785 40890
40890 40991
40991 41096
41096 41199
41199 41302
41302 41406
41406 41510
41510 41614
41614 41715
41715 41819
41819 41920
41920 42022
42022 42126
42126 42227
42227 42331
42331 42433
42433 42535
42535 42641
42641 42742
42742 42846
42846 42948
42948 43051
43051 43155
43155 43256
43256 43360
43360 43461
43461 43563
43563 43667
43667 43767
43767 43870
43870 43971
43971 44073
44073 44176
44176 44277
44277 44381
44381 44482
44482 44588
44588 44690
44690 44793
44793 44899
44899 45002
45002 45072
45072 45174
45174 45279
45279 45381
45381 45486
45486 45587
45587 45690
45690 45794
45794 45895
45895 45999
45999 46099
46099 46200
46200 46302
46302 46401
46401 46504
46504 46604
46604 46701
46701 46801
46801 46901
46901 47002
47002 47102
47102 47201
47201 47304
47304 47404
47404 47509
47509 47612
47612 47715
47715 47819
47819 47923
47923 48029
48029 48131
48131 48237
48237 48340
48340 48445
48445 48550
48550 48652
48652 48758
48758 48859
48859 48962
48962 49065
49065 49167
49167 49271
49271 49371
49371 49473
49473 49576
49576 49677
49677 49781
49781 49882
49882 49986
49986 50087
50087 50189
50189 50293
50293 50395
50395 50499
50499 50602
50602 50705
50705 50810
50810 50913
50913 51018
51018 51122
51122 51224
51224 51330
51330 51431
51431 51536
51536 51639
51639 51741
51741 51843
51843 51945
51945 52049
52049 52149
52149 52253
52253 52353
52353 52455
52455 52558
52558 52658
52658 52761
52761 52862
52862 52961
52961 53064
53064 53163
53163 53266
53266 53365
53365 53466
53466 53570
53570 53670
53670 53773
53773 53875
53875 53975
53975 54079
54079 54180
54180 54283
54283 54384
54384 54488
54488 54589
54589 54692
54692 54796
54796 54897
54897 55001
55001 55102
55102 55205
55205 55308
55308 55409
55409 55512
55512 55612
55612 55715
55715 55817
55817 55917
55917 56021
56021 56121
56121 56223
56223 56326
56326 56426
56426 56528
56528 56627
56627 56727
56727 56830
56830 56930
56930 57032
57032 57132
57132 57233
57233 57335
57335 57435
57435 57537
57537 57637
57637 57740
57740 57840
57840 57943
57943 58045
58045 58145
58145 58247
58247 58346
58346 58447
58447 58550
58550 58649
58649 58751
58751 58850
58850 58950
58950 59052
59052 59149
59149 59250
59250 59350
59350 59448
59448 59549
59549 59647
59647 59749
59749 59848
59848 59948
59948 60025
60025 60124
60124 60228
60228 60327
60327 60432
60432 60532
60532 60633
60633 60737
60737 60838
60838 60944
60944 61047
61047 61149
61149 61254
61254 61357
61357 61461
61461 61563
61563 61667
61667 61772
61772 61874
61874 61977
61977 62079
62079 62181
62181 62284
62284 62387
62387 62489
62489 62589
62589 62693
62693 62794
62794 62897
62897 62998
62998 63097
63097 63198
63198 63299
63299 63401
63401 63502
63502 63600
63600 63703
63703 63802
63802 63904
63904 64004
64004 64104
64104 64207
64207 64307
64307 64409
64409 64510
64510 64613
64613 64716
64716 64816
64816 64918
64918 65019
65019 65121
65121 65222
65222 65323
65323 65426
65426 65526
65526 65629
65629 65728
65728 65830
65830 65931
65931 66031
66031 66132
66132 66231
66231 66333
66333 66433
66433 66536
