4982 5087
43704 43806
47014 47101
47101 47193
59882 59984
59984 60074
60074 60166
60166 60257
60257 60348
60348 60440
60440 60531
60531 60622
60622 60713
60713 60805
60805 60896
60896 60988
60988 61079
61079 61171
61171 61262
61262 61353
61353 61445
61445 61536
61536 61628
61628 61719
61719 61810
61810 61902
61902 61993
61993 62065
62065 62168
62168 62263
62263 62354
62354 62445
62445 62536
62536 62628
62628 62719
62719 62810
62810 62901
62901 62993
62993 63084
63084 63176
63176 63267
63267 63359
63359 63450
63450 63541
63541 63633
63633 63724
63724 63816
