3943 4060
4060 4141
4141 4223
4223 4305
4305 4387
4387 4469
4469 4551
4551 4633
4633 4715
4715 4797
4797 4879
4879 4961
4961 5043
5043 5125
5125 5207
5207 5289
5289 5371
5371 5452
5452 5535
5535 5617
5617 5698
5698 5780
5780 5862
5862 5944
5944 6025
6025 6077
6077 6159
6159 6241
6241 6323
6323 6405
6405 6487
6487 6569
6569 6651
6651 6733
6733 6815
6815 6897
6897 6979
6979 7061
7061 7143
7143 7225
7225 7307
7307 7389
7389 7471
7471 7553
7553 7635
7635 7716
7716 7799
7799 7881
7881 7962
7962 8044
8044 8126
8126 8208
8208 8289
8289 8370
8370 8453
8453 8534
8534 8616
8616 8697
8697 8779
8779 8861
8861 8942
8942 9023
9023 9106
9106 9187
9187 9268
9268 9349
9349 9431
9431 9513
9513 9594
9594 9675
9675 9757
9757 9838
9838 9919
9919 10000
10000 10098
10098 10180
10180 10262
10262 10344
10344 10427
10427 10509
10509 10591
10591 10673
10673 10755
10755 10837
10837 10919
10919 11001
11001 11084
11084 11166
11166 11248
11248 11330
11330 11413
11413 11495
11495 11577
11577 11659
11659 11741
11741 11824
11824 11906
11906 11988
11988 12070
12070 12153
12153 12235
12235 12317
12317 12399
12399 12481
12481 12563
12563 12646
12646 12728
12728 12810
12810 12892
12892 12974
12974 13056
13056 13138
13138 13220
13220 13302
13302 13385
13385 13467
13467 13548
13548 13630
13630 13712
13712 13794
13794 13876
13876 13958
13958 14040
14040 14122
14122 14204
14204 14286
14286 14368
14368 14450
14450 14532
14532 14614
14614 14696
14696 14777
14777 14859
14859 14941
14941 15023
15023 15105
15105 15186
15186 15268
15268 15350
15350 15432
15432 15513
15513 15596
15596 15677
15677 15759
15759 15841
15841 15923
15923 16004
16004 16086
16086 16168
16168 16250
16250 16331
16331 16413
16413 16494
16494 16576
16576 16658
16658 16740
16740 16821
16821 16903
16903 16985
16985 17067
17067 17148
17148 17230
17230 17312
17312 17394
17394 17475
17475 17557
17557 17639
17639 17721
17721 17803
17803 17885
17885 17967
17967 18049
18049 18130
18130 18212
18212 18294
18294 18376
18376 18458
18458 18540
18540 18622
18622 18704
18704 18786
18786 18868
18868 18950
18950 19032
19032 19114
19114 19196
19196 19278
19278 19360
19360 19442
19442 19524
19524 19606
19606 19688
19688 19770
19770 19852
19852 19934
19934 20016
20016 20098
20098 20180
20180 20262
20262 20344
20344 20426
20426 20508
20508 20590
20590 20672
20672 20754
20754 20836
20836 20918
20918 21000
21000 21082
21082 21164
21164 21246
21246 21327
21327 21409
21409 21491
21491 21573
21573 21655
21655 21737
21737 21818
21818 21900
21900 21982
21982 22064
22064 22146
22146 22228
22228 22309
22309 22391
22391 22473
22473 22555
22555 22636
22636 22718
22718 22800
22800 22882
22882 22963
22963 23045
23045 23127
23127 23209
23209 23291
23291 23372
23372 23454
23454 23536
23536 23618
23618 23700
23700 23782
23782 23864
23864 23945
23945 24027
24027 24109
24109 24191
24191 24272
24272 24354
24354 24436
24436 24518
24518 24600
24600 24682
24682 24764
24764 24846
24846 24928
24928 25010
25010 25092
25092 25174
25174 25256
25256 25338
25338 25420
25420 25502
25502 25584
25584 25666
25666 25748
25748 25830
25830 25912
25912 25994
25994 26059
26059 26140
26140 26222
26222 26304
26304 26386
26386 26468
26468 26550
26550 26632
26632 26714
26714 26795
26795 26877
26877 26959
26959 27040
27040 27122
27122 27203
27203 27286
27286 27367
27367 27448
27448 27530
27530 27612
27612 27694
27694 27775
27775 27857
27857 27939
27939 28021
28021 28102
28102 28183
28183 28266
28266 28347
28347 28428
28428 28509
28509 28591
28591 28673
28673 28754
28754 28835
28835 28917
28917 28998
28998 29080
29080 29161
29161 29243
29243 29324
29324 29405
29405 29487
29487 29569
29569 29650
29650 29731
29731 29813
29813 29895
29895 29976
29976 30057
30057 30138
30138 30221
30221 30302
30302 30383
30383 30464
30464 30547
30547 30628
30628 30709
30709 30791
30791 30873
30873 30954
30954 31036
31036 31117
31117 31200
31200 31281
31281 31363
31363 31444
31444 31527
31527 31608
31608 31690
31690 31771
31771 31854
31854 31935
31935 32016
32016 32098
32098 32180
32180 32262
32262 32343
32343 32425
32425 32507
32507 32589
32589 32670
32670 32751
32751 32834
32834 32915
32915 32997
32997 33078
33078 33160
33160 33242
33242 33323
33323 33405
33405 33487
33487 33569
33569 33650
33650 33732
33732 33814
33814 33896
33896 33977
33977 34059
34059 34141
34141 34223
34223 34304
34304 34386
34386 34468
34468 34550
34550 34632
34632 34713
34713 34795
34795 34877
34877 34959
34959 35041
35041 35123
35123 35205
35205 35286
35286 35368
35368 35450
35450 35532
35532 35613
35613 35695
35695 35777
35777 35859
35859 35941
35941 36022
36022 36104
36104 36186
36186 36268
36268 36349
36349 36431
36431 36513
36513 36594
36594 36676
36676 36758
36758 36840
36840 36922
36922 37004
37004 37086
37086 37167
37167 37249
37249 37331
37331 37413
37413 37495
37495 37577
37577 37659
37659 37741
37741 37822
37822 37904
37904 37986
37986 38042
38042 38124
38124 38205
38205 38287
38287 38369
38369 38451
38451 38533
38533 38615
38615 38697
38697 38779
38779 38861
38861 38943
38943 39025
39025 39107
39107 39189
39189 39271
39271 39353
39353 39435
39435 39517
39517 39599
39599 39681
39681 39763
39763 39845
39845 39927
39927 40009
40009 40091
40091 40173
40173 40255
40255 40338
40338 40420
40420 40502
40502 40584
40584 40666
40666 40748
40748 40830
40830 40912
40912 40994
40994 41076
41076 41158
41158 41240
41240 41322
41322 41404
41404 41485
41485 41567
41567 41649
41649 41731
41731 41813
41813 41895
41895 41977
41977 42059
42059 42140
42140 42222
42222 42304
42304 42386
42386 42467
42467 42549
42549 42631
42631 42713
42713 42794
42794 42876
42876 42958
42958 43040
43040 43121
43121 43203
43203 43285
43285 43367
43367 43448
43448 43530
43530 43612
43612 43693
43693 43775
43775 43857
43857 43938
43938 44020
44020 44102
44102 44183
44183 44265
44265 44347
44347 44429
44429 44510
44510 44592
44592 44674
44674 44756
44756 44838
44838 44920
44920 45002
45002 45083
45083 45165
45165 45247
45247 45329
45329 45411
45411 45492
45492 45574
45574 45656
45656 45738
45738 45820
45820 45902
45902 45983
45983 46065
46065 46125
46125 46215
46462 46543
49915 49997
54044 54138
54220 54301
