30 81
26285 26359
26359 26438
26438 26516
26516 26594
26594 26673
26673 26751
26751 26829
26829 26907
26907 26985
26985 27063
27063 27140
27140 27219
27219 27296
27296 27374
27374 27451
27451 27502
27502 27540
27540 27622
27622 27698
27698 27775
27775 27852
27852 27930
27930 28007
28007 28084
28084 28161
28161 28239
28239 28317
28317 28395
28395 28472
28472 28550
28550 28628
28628 28706
28706 28783
28783 28861
28861 28939
28939 29017
29017 29094
29094 29172
29172 29250
29250 29328
29328 29405
29405 29484
29484 29562
29562 29639
29639 29717
29717 29795
29795 29874
29874 29952
29952 30031
30031 30108
30108 30187
30187 30265
30265 30343
30343 30421
30421 30499
30499 30577
30577 30655
30655 30732
30732 30811
30811 30889
30889 30967
30967 31044
31044 31123
31123 31201
31201 31279
31279 31357
31357 31435
31435 31513
31513 31591
31591 31670
31670 31748
31748 31826
31826 31904
31904 31983
31983 32061
32061 32140
32140 32218
32218 32297
32297 32375
32375 32454
32454 32533
32533 32611
32611 32690
32690 32769
32769 32848
32848 32927
32927 33005
33005 33085
33085 33165
33165 33244
33244 33324
33324 33404
33404 33484
33484 33564
33564 33644
33644 33725
33725 33806
33806 33885
33885 33966
33966 34046
34046 34127
34127 34206
34206 34289
34289 34368
34368 34450
34450 34529
34529 34612
34612 34690
34690 34772
34772 34851
34851 34934
34934 35012
35012 35095
35095 35174
35174 35257
35257 35336
35336 35418
35418 35497
35497 35581
35581 35659
35659 35742
35742 35821
35821 35904
35904 35983
35983 36029
36029 36131
36131 36211
36211 36295
36295 36373
36373 36456
36456 36535
36535 36619
36619 36697
36697 36780
36780 36859
36859 36942
36942 37022
37022 37103
37103 37184
37184 37265
37265 37345
37345 37425
37425 37504
37504 37583
37583 37663
37663 37743
37743 37822
37822 37900
37900 37979
37979 38058
38058 38136
38136 38214
38214 38293
38293 38371
38371 38449
38449 38527
38527 38605
38605 38683
38683 38760
38760 38838
38838 38915
38915 38993
38993 39070
39070 39147
39147 39224
39224 39301
39301 39378
39378 39455
39455 39531
39531 39607
39607 39684
39684 39760
39760 39837
39837 39913
39913 39990
39990 40066
40066 40143
40143 40219
40219 40295
40295 40372
40372 40448
40448 40524
40524 40600
40600 40677
40677 40753
40753 40828
40828 40905
40905 40981
40981 41057
41057 41133
41133 41209
41209 41286
41286 41362
41362 41439
41439 41514
41514 41591
41591 41667
41667 41744
41744 41820
41820 41896
41896 41973
41973 42049
42049 42125
42125 42202
42202 42279
42279 42355
42355 42432
42432 42508
42508 42585
42585 42661
42661 42738
42738 42814
42814 42866
42866 42905
42905 42978
42978 43055
43055 43132
43132 43209
43209 43286
43286 43362
43362 43438
43438 43515
43515 43591
43591 43668
43668 43744
43744 43821
43821 43898
43898 43974
43974 44051
44051 44128
44128 44205
44205 44281
44281 44358
44358 44434
44434 44511
44511 44588
44588 44665
44665 44741
44741 44791
44791 44829
44829 44908
44908 44984
44984 45060
45060 45136
45136 45213
45213 45290
45290 45367
45367 45444
45444 45521
45521 45598
45598 45675
45675 45752
45752 45829
45829 45906
45906 45983
45983 46060
46060 46138
46138 46215
46215 46292
46292 46369
46369 46447
46447 46524
46524 46601
46601 46678
46678 46756
46756 46833
46833 46910
46910 46988
46988 47065
47065 47143
47143 47220
47220 47298
47298 47375
47375 47453
47453 47530
47530 47608
47608 47684
47684 47762
47762 47839
47839 47917
47917 47994
47994 48071
48071 48149
48149 48226
48226 48304
48304 48381
48381 48459
48459 48536
48536 48614
48614 48691
48691 48769
48769 48847
48847 48925
48925 49002
49002 49053
49053 49091
49091 49172
49172 49248
49248 49325
49325 49402
49402 49479
49479 49556
49556 49633
49633 49711
49711 49789
49789 49866
49866 49944
49944 50022
50022 50100
50100 50177
50177 50256
50256 50333
50333 50411
50411 50489
50489 50567
50567 50645
50645 50723
50723 50801
50801 50880
50880 50958
50958 51036
51036 51114
51114 51193
51193 51270
51270 51349
51349 51427
51427 51505
51505 51583
51583 51661
51661 51739
51739 51817
51817 51896
51896 51943
51943 51981
51981 52052
52052 52130
52130 52208
52208 52286
52286 52364
52364 52442
52442 52521
52521 52599
52599 52677
52677 52756
52756 52834
52834 52912
52912 52990
52990 53068
53068 53147
53147 53224
53224 53303
53303 53381
53381 53459
53459 53537
53537 53616
53616 53694
53694 53773
53773 53851
53851 53900
53900 53939
53939 54014
54014 54092
54092 54170
54170 54248
54248 54326
54326 54404
54404 54483
54483 54561
54561 54639
54639 54718
54718 54796
54796 54874
54874 54952
54952 55031
55031 55109
55109 55187
55187 55265
55265 55344
55344 55422
55422 55500
55500 55578
55578 55657
55657 55735
55735 55812
55812 55891
55891 55969
55969 56048
56048 56126
56126 56204
56204 56282
56282 56360
56360 56439
56439 56516
56516 56595
56595 56673
56673 56751
56751 56829
56829 56908
56908 56986
56986 57064
57064 57141
57141 57220
57220 57298
57298 57376
57376 57453
57453 57532
57532 57610
57610 57688
57688 57766
57766 57844
57844 57922
57922 58000
58000 58078
58078 58156
58156 58234
58234 58312
58312 58390
58390 58468
58468 58547
58547 58625
58625 58703
58703 58780
58780 58859
58859 58937
58937 59015
59015 59092
59092 59142
59142 59181
59181 59262
59262 59339
59339 59415
59415 59493
59493 59571
59571 59649
59649 59726
59726 59805
59805 59883
59883 59961
59961 60039
60039 60117
60117 60196
60196 60274
60274 60352
60352 60430
60430 60508
60508 60586
60586 60665
60665 60743
60743 60821
60821 60899
60899 60977
60977 61055
61055 61133
61133 61211
61211 61290
61290 61367
61367 61446
61446 61524
61524 61602
61602 61679
61679 61758
61758 61836
61836 61914
61914 61992
61992 62070
62070 62148
62148 62226
62226 62305
62305 62383
62383 62461
62461 62540
62540 62618
62618 62696
62696 62775
62775 62853
62853 62931
62931 63009
63009 63088
63088 63166
63166 63244
63244 63322
63322 63400
63400 63479
63479 63557
63557 63634
63634 63713
63713 63791
63791 63869
63869 63947
63947 64025
64025 64103
64103 64181
64181 64260
64260 64338
64338 64416
64416 64494
64494 64572
64572 64650
64650 64729
64729 64807
64807 64885
64885 64963
64963 65041
65041 65119
65119 65197
65197 65275
65275 65324
65324 65362
65362 65437
65437 65514
65514 65592
65592 65670
65670 65748
65748 65826
65826 65904
65904 65983
65983 66061
66061 66139
66139 66217
66217 66295
66295 66373
66373 66452
66452 66530
66530 66608
66608 66687
66687 66765
66765 66843
66843 66920
66920 66999
66999 67077
67077 67155
67155 67232
67232 67311
67311 67389
67389 67467
67467 67544
67544 67623
67623 67701
67701 67779
67779 67857
67857 67935
67935 68013
68013 68091
68091 68169
68169 68217
68217 68255
68255 68327
68327 68405
68405 68483
68483 68560
68560 68638
68638 68716
68716 68769
68769 68807
68807 68890
68890 68967
68967 69044
69044 69122
69122 69198
69198 69276
69276 69354
69354 69432
69432 69509
69509 69561
69561 69600
69600 69680
69680 69757
69757 69834
69834 69911
69911 69989
69989 70067
70067 70144
70144 70222
70222 70300
70300 70378
70378 70456
70456 70534
70534 70612
70612 70690
70690 70768
70768 70845
70845 70923
