25 62
2333 2409
2409 2485
2485 2561
2561 2636
2636 2712
2712 2788
2788 2863
2863 2939
2939 3015
3015 3091
3091 3166
3166 3241
3241 3317
3317 3393
3393 3469
3469 3544
3544 3620
3620 3695
3695 3770
3770 3845
3845 3921
3921 3996
3996 4071
4071 4146
4146 4221
4221 4296
4296 4372
4372 4447
4447 4522
4522 4597
4597 4672
4672 4748
4748 4823
4823 4899
4899 4974
4974 5049
5049 5125
5125 5200
5200 5275
5275 5351
5351 5426
5426 5502
5502 5578
5578 5653
5653 5728
5728 5803
5803 5879
5879 5954
5954 6029
6029 6104
6104 6180
6180 6255
6255 6331
6331 6406
6406 6481
6481 6557
6557 6633
6633 6708
6708 6784
6784 6859
6859 6935
6935 7010
7010 7086
7086 7162
7162 7238
7238 7313
7313 7389
7389 7465
7465 7541
7541 7617
7617 7693
7693 7769
7769 7845
7845 7922
7922 7998
7998 8073
8073 8149
8149 8225
8225 8300
8300 8377
8377 8452
8452 8528
8528 8604
8604 8680
8680 8755
8755 8832
8832 8908
8908 8983
8983 9059
9059 9135
9135 9211
9211 9287
9287 9363
9363 9438
9438 9514
9514 9589
9589 9664
9664 9740
9740 9816
9816 9892
9892 9967
9967 10043
10043 10118
10118 10194
10194 10270
10270 10346
10346 10421
10421 10496
10496 10572
