19939 20109
37977 38131
50929 51074
51074 51175
51175 51286
51286 51385
51385 51497
51497 51597
51597 51708
51708 51803
51803 51912
51912 52013
52013 52122
52122 52216
52216 52326
52326 52424
52424 52539
52539 52638
52638 52750
52750 52854
52854 52965
52965 53065
53065 53175
53175 53277
53277 53387
53387 53481
53481 53593
53593 53693
53693 53804
53804 53902
53902 54017
54017 54114
54114 54227
54227 54322
54322 54433
