1903 2020
2020 2099
2898 3014
3014 3070
3888 4006
4006 4060
4294 4411
4411 4528
5932 6101
6101 6218
6925 7097
7917 8091
8091 8208
8208 8326
8326 8443
8443 8561
8561 8679
8679 8796
8796 8914
8914 9030
9030 9085
9085 9202
9202 9318
9318 9435
9435 9552
9552 9648
9648 9765
9765 9882
9882 10000
10000 10075
10075 10190
10190 10305
10305 10419
10419 10534
10534 10649
10649 10763
10763 10879
10879 10994
10994 11110
11110 11226
11226 11341
11341 11457
11457 11573
11573 11689
11689 11804
11804 11919
11919 12081
12081 12198
12198 12315
12315 12431
12431 12545
12545 12660
12660 12775
12775 12890
12890 13005
13005 13076
13076 13193
13193 13310
13310 13428
13428 13546
13546 13664
13664 13782
13782 13900
13900 14018
14018 14137
14137 14255
14255 14374
14374 14492
14492 14610
14610 14729
14729 14847
14847 14965
14965 15083
15083 15202
15202 15321
15321 15439
15439 15558
15558 15676
15676 15796
15796 15913
15913 16032
16032 16150
16150 16269
16269 16387
16387 16506
16506 16624
16624 16742
16742 16861
16861 16979
16979 17097
17097 17216
17216 17334
17334 17452
17452 17570
17570 17688
17688 17805
17805 17922
17922 18102
18102 18220
18220 18337
18337 18455
18455 18573
18573 18690
18690 18808
18808 18925
18925 19096
19096 19213
19213 19330
19330 19448
19448 19566
19566 19684
19684 19802
19802 19921
19921 20039
20039 20157
20157 20275
20275 20394
20394 20512
20512 20631
20631 20749
20749 20868
20868 20986
20986 21105
21105 21224
21224 21343
21343 21462
21462 21581
21581 21700
21700 21820
21820 21938
21938 22134
22134 22251
22251 22369
22369 22486
22486 22604
22604 22723
22723 22841
22841 22959
22959 23078
23078 23197
23197 23317
23317 23436
23436 23555
23555 23675
23675 23794
23794 23914
23914 24034
24034 24154
24154 24273
24273 24393
24393 24512
24512 24632
24632 24751
24751 24870
24870 24989
24989 25108
25108 25227
25227 25347
25347 25467
25467 25587
25587 25708
25708 25829
25829 25950
25950 26070
26070 26191
26191 26312
26312 26433
26433 26553
26553 26674
26674 26794
26794 26915
26915 27127
27127 27248
27248 27369
27369 27490
27490 27610
27610 27732
27732 27853
27853 27974
27974 28096
28096 28216
28216 28337
28337 28458
28458 28579
28579 28700
28700 28821
28821 28942
28942 29064
29064 29184
29184 29305
29305 29426
29426 29547
29547 29668
29668 29788
29788 29909
29909 30030
30030 30121
30121 30241
30241 30362
30362 30482
30482 30602
30602 30723
30723 30844
30844 30965
30965 31085
31085 31206
31206 31327
31327 31447
31447 31568
31568 31689
31689 31810
31810 31930
31930 32051
32051 32171
32171 32290
32290 32411
32411 32531
32531 32651
32651 32749
32749 32869
32869 32989
32989 33073
33073 33194
33194 33314
33314 33435
33435 33556
33556 33678
33678 33798
33798 33918
33918 34093
34093 34214
34214 34334
34334 34434
34434 34554
34554 34674
34674 34795
