211 333
333 455
455 578
578 701
701 799
799 922
922 1045
3751 3874
3874 3998
3998 4072
5921 6118
6118 6242
6242 6365
6365 6489
6489 6613
6613 6736
6736 6858
6858 6980
6980 7102
7102 7224
7224 7345
7345 7468
7468 7589
7589 7712
7712 7834
7834 7957
7957 8078
8078 8199
8199 8321
8321 8443
8443 8565
8565 8687
8687 8810
8810 8933
8933 9056
9056 9180
9180 9303
9303 9427
9427 9550
9550 9672
9672 9794
9794 9915
9915 10036
10036 10158
10158 10279
10279 10401
10401 10522
10522 10645
10645 10768
10768 10890
10890 11012
11012 11095
11095 11219
11219 11342
11342 11467
11467 11590
11590 11714
11714 11837
11837 11959
11959 12081
12081 12202
12202 12323
12323 12443
12443 12564
12564 12687
12687 12808
12808 12931
12931 13054
13054 13177
13177 13301
13301 13424
13424 13548
13548 13646
13646 13769
13769 13892
13892 14013
14013 14136
14136 14258
14258 14381
14381 14503
14503 14625
14625 14747
14747 14869
14869 14990
14990 15076
15076 15198
15198 15319
15319 15439
15439 15560
15560 15680
15680 15802
15802 15924
15924 16109
16109 16228
16228 16347
16347 16467
16467 16588
16588 16709
16709 16829
16829 16951
16951 17072
17072 17195
17195 17317
17317 17438
17438 17538
17538 17658
17658 17778
17778 17898
17898 18017
18017 18137
18137 18257
18257 18378
18378 18498
18498 18618
18618 18737
18737 18856
18856 18973
18973 19091
19091 19208
19208 19326
19326 19445
19445 19563
19563 19682
19682 19801
19801 19919
19919 20078
20078 20200
20200 20321
20321 20442
20442 20562
20562 20680
20680 20800
20800 20918
20918 21135
21135 21256
21256 21378
21378 21499
21499 21619
21619 21740
21740 21860
21860 21983
21983 22103
22103 22224
22224 22345
22345 22465
22465 22587
22587 22708
22708 22829
22829 22950
22950 23070
23070 23192
23192 23313
23313 23434
23434 23555
23555 23676
23676 23796
23796 23915
23915 24035
24035 24156
24156 24275
24275 24395
24395 24514
24514 24635
24635 24755
24755 24875
24875 24995
24995 25115
25115 25236
25236 25357
25357 25478
25478 25600
25600 25721
25721 25844
25844 25967
25967 26062
26062 26183
26183 26305
26305 26426
26426 26547
26547 26669
26669 26791
26791 26914
26914 27037
27037 27158
27158 27280
27280 27401
27401 27519
27519 27638
27638 27757
27757 27878
27878 27998
27998 28119
28119 28241
28241 28362
28362 28486
28486 28608
28608 28731
28731 28855
28855 28977
28977 29101
29101 29223
29223 29345
29345 29467
29467 29589
29589 29711
29711 29833
29833 29955
29955 30078
30078 30200
30200 30301
30301 30422
30422 30544
30544 30665
30665 30786
30786 30908
30908 31029
31029 31151
31151 31273
31273 31396
31396 31519
31519 31641
31641 31764
31764 31885
31885 32007
32007 32128
32128 32249
32249 32372
32372 32495
32495 32619
32619 32744
32744 32868
32868 32995
32995 33119
33119 33244
33244 33368
33368 33491
33491 33614
33614 33736
33736 33860
33860 33982
33982 34106
34106 34231
34231 34355
34355 34480
34480 34603
34603 34726
34726 34849
34849 34972
34972 35095
35095 35217
35217 35341
35341 35464
35464 35586
35586 35708
35708 35827
35827 35948
35948 36069
36069 36190
36190 36312
36312 36433
36433 36556
36556 36679
36679 36803
36803 36927
36927 37049
37049 37173
37173 37296
37296 37421
37421 37544
37544 37667
37667 37790
37790 37911
37911 38034
38034 38156
38156 38277
38277 38399
38399 38519
38519 38641
38641 38762
38762 38884
38884 39006
39006 39059
39059 39178
39178 39298
39298 39419
39419 39540
39540 39662
39662 39785
39785 39907
39907 40029
40029 40151
40151 40274
40274 40395
40395 40516
40516 40638
40638 40758
40758 40878
40878 40999
40999 41119
41119 41240
41240 41361
41361 41482
41482 41603
41603 41724
41724 41846
41846 41967
41967 42133
42133 42242
42242 42350
42350 42460
42460 42570
42570 42679
42679 42790
42790 42902
42902 43013
43013 43125
43125 43237
43237 43349
43349 43460
43460 43573
43573 43685
43685 43798
43798 43910
43910 44022
44022 44082
44082 44195
44195 44308
44308 44422
44422 44537
44537 44651
44651 44766
44766 44882
44882 44997
44997 45114
45114 45230
45230 45347
45347 45464
45464 45581
45581 45699
45699 45816
45816 45934
45934 46051
46051 46168
46168 46285
46285 46402
46402 46519
46519 46635
46635 46752
46752 46869
46869 46986
46986 47103
47103 47222
47222 47340
47340 47459
47459 47579
47579 47699
47699 47820
47820 47940
47940 48060
48060 48180
48180 48300
48300 48420
48420 48540
48540 48661
48661 48782
48782 48902
48902 49023
49023 49093
49093 49214
49214 49334
49334 49455
49455 49576
49576 49697
49697 49818
49818 49917
49917 50039
50039 50161
50161 50283
50283 50406
50406 50527
50527 50650
50650 50771
50771 50892
50892 51015
51015 51136
51136 51257
51257 51379
51379 51500
51500 51622
51622 51744
51744 51868
51868 51991
51991 52115
52115 52239
52239 52363
52363 52487
52487 52610
52610 52734
52734 52857
