5238 5321
5321 5402
9832 9914
9914 9971
9971 10044
10044 10125
10125 10207
10207 10289
10289 10370
10370 10450
10450 10532
10532 10614
10614 10695
10695 10775
10775 10857
10857 10938
10938 11020
11020 11100
11100 11181
11181 11263
11263 11344
11344 11426
11426 11507
11507 11590
11590 11670
11670 11753
11753 11836
11836 11918
11918 12000
12000 12082
12082 12165
12165 12248
12248 12330
12330 12414
12414 12497
12497 12578
