1012 1090
3451 3529
3529 3607
3607 3686
3686 3766
3766 3843
3843 3921
3921 4061
4061 4138
4138 4214
4214 4291
4291 4368
4368 4445
4445 4521
4521 4598
4598 4677
4677 4752
4752 4829
4829 4906
4906 4985
4985 5063
5063 5138
5138 5216
5216 5294
5294 5373
5373 5451
5451 5528
5528 5606
5606 5684
5684 5763
5763 5840
5840 5918
5918 5996
5996 6075
6075 6154
6154 6231
6231 6308
6308 6387
6387 6467
6467 6544
6544 6621
6621 6700
6700 6779
6779 6855
6855 6933
6933 7012
7012 7090
7090 7166
7166 7244
7244 7323
7323 7400
7400 7477
7477 7555
7555 7633
7633 7709
7709 7786
7786 7864
7864 7940
7940 8017
8017 8094
8094 8172
8172 8249
8249 8326
8326 8404
8404 8482
8482 8558
8558 8636
8636 8714
8714 8793
8793 8869
8869 8947
8947 9026
9026 9105
9105 9183
9183 9261
9261 9341
9341 9420
9420 9500
9500 9578
9578 9656
9656 9736
9736 9815
9815 9895
9895 9974
9974 10052
10052 10131
10131 10211
10211 10348
10348 10427
10427 10506
10506 10587
10587 10724
10724 10802
10802 10881
10881 10962
10962 11033
11033 11112
11112 11188
11188 11265
11265 11344
11344 11421
11421 11498
11498 11575
11575 11653
11653 11733
11733 11785
11785 11865
11865 11942
11942 12019
12019 12097
12097 12175
12175 12253
12253 12328
12328 12406
12406 12484
12484 12562
12562 12638
12638 12715
12715 12793
12793 12872
12872 12950
12950 13026
13026 13105
13105 13183
13183 13262
13262 13339
13339 13417
13417 13496
13496 13575
13575 13654
13654 13731
13731 13810
13810 13889
13889 13969
13969 14046
14046 14125
14125 14204
14204 14283
14283 14363
14363 14441
14441 14519
14519 14599
14599 14679
14679 14758
14758 14836
14836 14915
14915 14996
14996 15073
15073 15151
15151 15231
15231 15310
15310 15387
15387 15465
15465 15544
15544 15622
15622 15698
15698 15776
15776 15854
15854 15932
15932 16008
16008 16086
16086 16165
16165 16242
16242 16318
16318 16396
16396 16475
16475 16552
16552 16629
16629 16707
16707 16786
16786 16863
16863 16940
16940 17018
17018 17097
17097 17175
17175 17252
17252 17330
17330 17410
17410 17487
17487 17565
17565 17643
17643 17723
17723 17800
17800 17877
17877 17956
17956 18035
18035 18112
18112 18189
18189 18267
18267 18347
18347 18423
18423 18501
18501 18580
18580 18658
18658 18734
18734 18812
18812 18891
18891 18968
18968 19033
19033 19110
19110 19188
19188 19267
19267 19346
19346 19423
19423 19501
19501 19579
19579 19659
19659 19737
19737 19814
19814 19893
19893 19972
19972 20052
20052 20130
20130 20208
20208 20287
20287 20367
20367 20447
20447 20526
20526 20605
20605 20684
20684 20764
20764 20845
20845 20924
20924 21003
21003 21082
21082 21162
21162 21243
21243 21323
21323 21402
21402 21481
21481 21562
21562 21641
21641 21719
21719 21798
21798 21879
21879 21957
21957 22035
22035 22115
22115 22194
22194 22270
22270 22349
22349 22428
22428 22507
22507 22584
22584 22662
22662 22741
22741 22819
22819 22894
22894 22972
22972 23050
23050 23128
23128 23204
23204 23281
23281 23359
23359 23438
23438 23516
23516 23593
23593 23671
23671 23750
23750 23829
23829 23905
23905 23983
23983 24061
24061 24140
24140 24219
24219 24296
24296 24374
24374 24453
24453 24533
24533 24610
24610 24689
24689 24768
24768 24848
24848 24925
24925 25004
25004 25083
25083 25159
25159 25237
25237 25314
25314 25393
25393 25470
25470 25547
25547 25624
25624 25702
25702 25781
25781 25858
25858 25936
25936 26014
26014 26092
26092 26171
26171 26250
26250 26326
26326 26405
26405 26482
26482 26561
26561 26641
26641 26717
26717 26796
26796 26874
26874 26953
26953 27033
27033 27111
27111 27189
27189 27268
27268 27346
27346 27427
27427 27506
27506 27583
27583 27662
27662 27742
27742 27822
27822 27898
27898 27977
27977 28055
28055 28135
28135 28212
28212 28289
28289 28368
28368 28444
28444 28521
28521 28598
28598 28677
28677 28756
28756 28832
28832 28909
28909 28987
28987 29066
29066 29142
29142 29219
29219 29298
29298 29374
29374 29451
29451 29528
29528 29606
29606 29685
29685 29763
29763 29839
29839 29917
29917 29994
29994 30054
30054 30105
30105 30183
30183 30262
30262 30341
30341 30417
30417 30496
30496 30575
30575 30653
30653 30730
30730 30809
30809 30888
30888 30965
30965 31043
31043 31122
31122 31198
31198 31276
31276 31354
31354 31408
31408 31484
31484 31561
31561 31639
31639 31715
31715 31792
31792 31870
31870 31948
31948 32025
32025 32102
32102 32180
32180 32256
32256 32334
32334 32412
32412 32490
32490 32565
32565 32643
32643 32721
32721 32799
32799 32876
32876 32954
