233 319
2169 2232
2551 2615
2615 2679
2996 3059
3059 3123
3123 3187
3187 3250
3250 3313
3313 3377
3377 3440
3440 3504
3504 3567
3567 3630
3630 3694
3694 3758
3758 3821
3821 3885
3885 3949
3949 4012
4012 4075
4075 4139
4139 4203
4203 4266
4266 4329
4329 4393
4393 4457
4457 4521
4521 4584
4584 4647
4647 4712
4712 4775
4775 4838
9148 9211
9211 9274
9274 9337
9337 9401
9401 9463
9463 9526
9526 9590
9590 9653
9653 9717
9717 9779
9779 9843
9843 9906
9906 9969
9969 10032
10032 10095
10095 10158
10158 10221
10221 10284
10284 10347
10347 10411
10411 10473
10473 10537
10537 10600
10600 10663
10663 10725
10725 10789
10789 10852
10852 10915
10915 10978
10978 11055
11055 11119
11119 11182
11182 11245
11245 11308
11308 11372
11372 11436
11436 11499
11499 11562
11562 11625
11625 11664
11664 11727
11854 11917
11917 11980
11980 12044
12044 12107
12107 12171
12171 12234
12234 12297
12297 12361
12361 12423
12423 12486
12486 12550
12550 12613
12613 12675
12675 12739
12739 12802
12802 12865
12865 12928
12928 12991
12991 13069
13069 13132
13132 13196
13196 13258
13258 13322
13322 13385
13385 13448
13448 13511
13511 13575
13575 13638
13638 13701
13701 13764
13764 13827
13827 13890
13890 13953
13953 14016
14016 14080
14080 14143
14143 14206
14206 14269
14269 14333
14333 14396
14396 14458
14458 14522
14522 14585
14585 14648
14648 14711
14711 14775
14775 14838
14838 14901
14901 14964
14964 15028
15028 15091
15091 15154
15154 15217
15217 15280
15280 15344
15344 15407
15407 15471
15471 15534
15534 15597
15597 15661
15661 15724
15724 15787
15787 15851
15851 15914
15914 15977
15977 16041
16041 16104
16104 16167
16167 16231
16231 16294
16294 16358
16358 16421
16421 16484
16484 16523
16523 16586
16586 16650
16650 16713
16713 16777
16777 16840
16840 16904
16904 16967
16967 17031
17031 17094
17094 17158
17158 17221
17221 17285
17285 17348
17348 17412
17412 17475
17475 17538
17538 17602
17602 17666
17666 17729
17729 17767
17767 17831
17831 17894
17894 17957
17957 18020
18020 18084
18084 18148
18148 18211
18211 18274
18274 18338
18338 18401
18401 18464
18464 18528
18528 18591
18591 18654
18654 18718
18718 18781
18781 18844
18844 18907
18907 18971
18971 19034
19034 19098
19098 19160
19160 19224
19224 19287
19287 19351
19351 19414
19414 19478
19478 19541
19541 19604
19604 19667
19667 19731
19731 19794
19794 19857
19857 19920
19920 19984
19984 20023
20023 20086
20086 20149
20149 20213
20213 20276
20276 20340
20340 20403
20403 20467
20467 20530
20530 20594
20594 20657
20657 20721
20721 20784
20784 20848
20848 20911
20911 20974
20974 21013
21013 21051
21051 21114
21114 21177
21177 21241
21241 21303
21303 21367
21367 21430
21430 21494
21494 21556
21556 21619
21619 21683
21683 21746
21746 21809
21809 21872
21872 21935
21935 21998
21998 22062
22062 22125
22125 22188
22188 22251
22251 22314
22314 22378
22378 22441
22441 22504
22504 22568
22568 22630
22630 22693
22693 22757
22757 22820
22820 22883
22883 22946
22946 23010
23010 23073
23073 23136
23136 23199
23199 23262
23262 23325
23325 23389
23389 23452
23452 23516
23516 23579
23579 23643
23643 23706
23706 23770
23770 23808
23808 23872
23872 23935
23935 23999
23999 24062
24062 24126
24126 24189
24189 24253
24253 24291
24291 24355
24355 24417
24417 24481
24481 24544
24544 24608
24608 24671
24671 24734
24734 24798
24798 24861
24861 24925
24925 24988
24988 25053
25053 25116
25116 25180
25180 25244
25244 25308
25308 25372
25372 25436
25436 25500
25500 25563
25563 25628
25628 25692
25692 25756
25756 25820
25820 25884
25884 25948
25948 26012
26012 26076
26076 26140
26140 26204
26204 26269
26269 26333
26333 26398
26398 26462
26462 26527
26527 26593
26593 26657
26657 26721
26721 26786
26786 26825
26825 26890
26890 26954
26954 27019
27019 27083
27083 27147
27147 27211
27211 27276
27276 27340
27340 27404
27404 27468
27468 27531
27531 27570
27570 27634
27634 27698
27698 27761
27761 27825
27825 27889
27889 27952
27952 28016
28016 28080
28080 28144
28144 28208
28208 28271
28271 28335
28335 28398
28398 28463
28463 28527
28527 28591
28591 28654
28654 28718
28718 28782
28782 28846
28846 28909
28909 28973
28973 29037
29037 29101
29101 29165
29165 29228
29228 29292
29292 29355
29355 29420
29420 29484
29484 29547
29547 29610
29610 29675
29675 29738
29738 29802
29802 29866
29866 29930
29930 29994
29994 30057
30057 30121
30121 30184
30184 30248
30248 30311
30311 30375
30375 30439
30439 30502
30502 30567
30567 30630
30630 30694
30694 30758
30758 30822
30822 30886
30886 30949
30949 31012
31012 31077
31077 31141
31141 31204
31204 31268
31268 31331
31331 31395
31395 31458
31458 31522
31522 31585
31585 31649
31649 31713
31713 31776
31776 31839
31839 31903
31903 31967
31967 32030
32030 32093
32093 32157
32157 32220
32220 32283
32283 32347
32347 32411
32411 32474
32474 32537
32537 32601
32601 32665
32665 32728
32728 32791
32791 32855
32855 32918
32918 32981
32981 33044
33044 33109
33109 33172
33172 33235
33235 33299
33299 33363
33363 33425
33425 33488
33488 33552
33552 33615
33615 33679
33679 33741
33741 33805
33805 33868
33868 33931
33931 33994
33994 34058
34058 34121
34121 34184
34184 34247
34247 34310
34310 34373
34373 34437
34437 34499
34499 34563
34563 34625
34625 34699
34699 34762
34762 34824
34824 34887
34887 34951
34951 35014
35014 35078
35078 35140
35140 35204
35204 35267
35267 35330
35330 35393
35393 35457
35457 35520
35520 35583
35583 35646
35646 35709
35709 35772
35772 35835
35835 35898
35898 35961
35961 36024
36024 36088
36088 36150
36150 36213
36213 36276
36276 36339
36339 36402
36402 36465
36465 36527
36527 36591
36591 36629
36629 36691
36691 36755
36755 36817
36817 36881
36881 36944
36944 37006
37006 37069
37069 37132
37132 37195
37195 37258
37258 37322
37322 37384
37384 37447
37447 37511
37511 37574
37574 37637
37637 37701
37701 37764
37764 37828
37828 37891
37891 37955
37955 38019
38019 38082
38082 38146
38146 38209
38209 38272
38272 38336
38336 38399
38399 38463
38463 38526
38526 38589
38589 38653
38653 38716
38716 38780
38780 38844
38844 38907
38907 38970
38970 39033
39033 39098
39098 39161
39161 39224
39224 39288
39288 39351
39351 39389
39389 39453
39453 39517
39517 39580
39580 39643
39643 39706
39706 39770
39770 39833
39833 39897
39897 39960
39960 40023
40023 40062
40062 40125
40125 40189
40189 40252
40252 40316
40316 40353
40353 40416
40416 40480
40480 40543
40543 40606
40606 40669
40669 40733
40733 40796
40796 40859
40859 40923
40923 40987
40987 41050
41050 41113
41113 41178
41178 41241
41241 41305
41305 41368
41368 41432
41432 41496
41496 41559
41559 41622
41622 41686
41686 41749
41749 41812
41812 41875
41875 41939
41939 42002
42002 42066
42066 42129
42129 42193
42193 42256
42256 42320
42320 42383
42383 42447
42447 42510
42510 42574
42574 42636
42636 42700
42700 42764
42764 42827
42827 42890
42890 42953
42953 43017
43017 43080
43080 43143
43143 43207
43207 43270
43270 43334
43334 43396
43396 43460
43460 43523
43523 43586
43586 43649
43649 43713
43713 43776
43776 43840
43840 43902
43902 43966
43966 44030
44030 44094
44094 44157
44157 44220
44220 44284
44284 44348
44348 44411
44411 44474
44474 44538
44538 44602
44602 44666
44666 44729
44729 44793
44793 44857
44857 44920
44920 44983
44983 45047
45047 45111
45111 45174
45174 45238
45238 45302
45302 45366
45366 45428
45428 45492
45492 45556
45556 45619
45619 45682
45682 45746
45746 45809
45809 45872
45872 45935
45935 45999
45999 46062
46062 46125
46125 46189
46189 46252
46252 46315
46315 46378
46378 46442
46442 46505
46505 46568
46568 46630
46630 46694
46694 46757
46757 46820
46820 46884
46884 46947
46947 47011
47011 47074
47074 47138
47138 47202
47202 47266
47266 47329
47329 47393
47393 47432
47432 47495
47495 47559
47559 47622
47622 47686
47686 47749
47749 47812
47812 47876
47876 47939
47939 48001
48001 48065
48065 48128
48128 48191
48191 48230
48230 48292
48292 48356
48356 48419
48419 48482
48482 48546
48546 48609
48609 48672
48672 48735
48735 48799
48799 48862
48862 48925
48925 48963
48963 49026
49026 49090
49090 49153
49153 49217
49217 49279
49279 49343
49343 49406
49406 49470
49470 49533
49533 49597
49597 49660
49660 49723
49723 49762
49762 49825
49825 49887
49887 49951
49951 50014
50014 50077
50077 50140
50140 50203
50203 50266
50266 50329
50329 50391
50391 50455
50455 50518
50518 50581
50581 50644
50644 50707
50707 50771
50771 50834
50834 50897
50897 50960
50960 51024
51024 51086
51086 51149
51149 51213
51213 51276
51276 51339
51339 51402
51402 51465
51465 51528
51528 51591
51591 51654
51654 51717
51717 51780
51780 51843
51843 51906
51906 51970
51970 52032
52032 52096
52096 52159
52159 52221
52221 52284
52284 52347
52347 52410
52410 52473
52473 52536
52536 52599
52599 52662
52662 52724
52724 52763
52763 52826
52826 52889
52889 52951
52951 53015
53015 53078
53078 53141
53141 53204
53204 53267
53267 53331
53331 53394
53394 53457
53457 53521
53521 53583
53583 53646
53646 53709
53709 53773
53773 53835
53835 53899
53899 53962
53962 54025
54025 54088
54088 54151
54151 54214
54214 54277
54277 54340
54340 54403
54403 54466
54466 54529
54529 54592
54592 54654
54654 54717
54717 54780
54780 54843
54843 54905
54905 54969
54969 55032
55032 55095
55095 55157
55157 55221
55221 55283
55283 55346
55346 55409
55409 55472
55472 55534
55534 55597
55597 55660
55660 55723
55723 55785
55785 55848
55848 55911
55911 55974
55974 56036
56036 56100
56100 56163
56163 56225
56225 56288
56288 56350
56350 56412
56412 56475
56475 56538
56538 56600
56600 56663
56663 56726
56726 56789
56789 56826
56826 56889
56889 56952
56952 57015
57015 57078
57078 57141
57141 57204
57204 57267
57267 57330
57330 57393
57393 57456
57456 57519
57519 57582
57582 57645
57645 57708
57708 57771
57771 57833
57833 57897
57897 57960
57960 58023
58023 58086
58086 58149
58149 58213
58213 58276
58276 58339
58339 58402
58402 58466
58466 58529
58529 58592
58592 58656
58656 58720
58720 58783
58783 58846
58846 58909
58909 58972
58972 59035
59035 59098
59098 59161
59161 59225
59225 59287
59287 59350
59350 59414
59414 59477
59477 59540
59540 59604
59604 59667
59667 59730
59730 59793
59793 59856
59856 59920
59920 59982
59982 60046
60046 60109
60109 60172
60172 60234
60234 60297
60297 60360
60360 60423
60423 60486
60486 60549
60549 60612
60612 60674
60674 60738
60738 60801
60801 60863
60863 60926
60926 60989
60989 61052
61052 61115
61115 61178
61178 61241
61241 61303
61303 61366
61366 61429
61429 61492
61492 61554
61554 61617
61617 61680
61680 61742
61742 61804
61804 61868
61868 61930
61930 61993
61993 62055
62055 62118
62118 62181
62181 62243
62243 62306
62306 62369
62369 62431
62431 62493
62493 62556
62556 62619
62619 62681
62681 62744
62744 62806
62806 62869
62869 62932
62932 62995
62995 63032
63032 63095
63095 63158
63158 63221
63221 63283
63283 63346
63346 63409
63409 63472
63472 63534
63534 63598
63598 63661
63661 63724
63724 63787
63787 63850
63850 63913
63913 63976
63976 64039
64039 64102
64102 64165
64165 64228
64228 64291
64291 64354
64354 64418
64418 64481
64481 64544
64544 64608
64608 64670
64670 64734
64734 64797
64797 64860
64860 64924
64924 64987
64987 65050
65050 65113
65113 65176
65176 65239
65239 65303
65303 65366
65366 65429
65429 65492
65492 65555
65555 65618
65618 65681
65681 65745
65745 65807
65807 65870
65870 65934
65934 65996
65996 66059
66059 66122
66122 66185
66185 66247
66247 66311
66311 66374
66374 66436
66436 66499
66499 66563
66563 66626
66626 66688
66688 66751
66751 66815
66815 66878
66878 66941
66941 67005
67005 67068
67068 67131
67131 67194
67194 67257
67257 67320
67320 67384
67384 67446
67446 67510
67510 67573
67573 67636
67636 67698
67698 67762
67762 67825
67825 67888
67888 67950
67950 68014
68014 68077
68077 68140
68140 68202
68202 68265
68265 68329
68329 68392
68392 68455
68455 68518
68518 68581
68581 68644
68644 68706
68706 68770
68770 68808
68808 68871
