208 270
270 332
332 395
395 458
458 521
521 583
583 647
647 710
710 773
773 836
836 898
898 962
962 1031
1031 1094
1094 1156
1156 1220
1220 1282
1282 1345
1345 1408
1408 1470
1470 1534
1534 1597
1597 1660
1660 1722
1722 1785
1785 1848
1848 1911
1911 1973
1973 2036
2036 2098
2098 2160
2160 2223
2223 2286
2286 2348
2348 2411
2411 2473
2473 2536
2536 2598
2598 2661
2661 2723
2723 2786
2786 2848
2848 2911
2911 2974
2974 3079
3079 3142
3142 3205
3205 3268
3268 3331
3331 3393
3393 3456
3456 3519
3519 3581
3581 3645
3645 3708
3708 3771
3771 3834
3834 3897
3897 3960
3960 4023
4023 4086
4086 4150
4150 4213
4213 4276
4276 4339
4339 4402
4402 4465
4465 4527
4527 4591
4591 4654
4654 4717
4717 4780
4780 4843
4843 4906
4906 4969
4969 5032
5032 5095
5095 5158
5158 5221
5221 5284
5284 5347
5347 5410
5410 5473
5473 5536
5536 5599
5599 5662
5662 5725
5725 5787
5787 5850
5850 5913
5913 5976
5976 6039
6039 6102
6102 6164
6164 6228
6228 6291
6291 6354
6354 6416
6416 6479
6479 6542
6542 6605
6605 6667
6667 6731
6731 6793
6793 6856
6856 6918
6918 6982
6982 7044
7044 7107
7107 7170
7170 7234
7234 7297
7297 7360
7360 7423
7423 7487
7487 7550
7550 7614
7614 7677
7677 7741
7741 7806
7806 7870
7870 7933
7933 7998
7998 8062
8062 8126
8126 8190
8190 8255
8255 8318
8318 8382
8382 8446
8446 8510
8510 8574
8574 8637
8637 8701
8701 8765
8765 8828
8828 8891
8891 8955
8955 9019
9019 9082
9082 9145
9145 9209
9209 9272
9272 9336
9336 9399
9399 9462
9462 9525
9525 9588
9588 9650
9650 9713
9713 9777
9777 9840
9840 9903
9903 9966
9966 10029
10029 10092
10092 10154
10154 10217
10217 10281
10281 10343
10343 10406
10406 10469
10469 10532
10532 10595
10595 10659
10659 10721
10721 10784
10784 10847
10847 10911
10911 10973
10973 11036
11036 11100
11100 11163
11163 11226
11226 11288
11288 11351
11351 11415
11415 11478
11478 11541
11541 11604
11604 11667
11667 11731
11731 11793
11793 11856
11856 11920
11920 11982
11982 12046
12046 12109
12109 12172
12172 12234
12234 12298
12298 12360
12360 12423
12423 12486
12486 12549
12549 12612
12612 12675
12675 12738
12738 12801
12801 12863
12863 12927
12927 12990
12990 13053
13053 13116
13116 13179
13179 13242
13242 13305
13305 13367
13367 13431
13431 13494
13494 13557
13557 13620
13620 13683
13683 13746
13746 13809
13809 13872
13872 13935
13935 13998
13998 14061
14061 14124
14124 14187
14187 14250
14250 14314
14314 14377
14377 14440
14440 14504
14504 14566
14566 14629
14629 14693
14693 14756
14756 14819
14819 14882
14882 14945
14945 15008
15008 15072
15072 15135
15135 15197
15197 15261
15261 15324
15324 15388
15388 15450
15450 15514
15514 15577
15577 15641
15641 15703
15703 15767
15767 15830
15830 15893
15893 15957
15957 16019
16019 16083
16083 16121
16121 16183
16183 16246
16246 16310
16310 16373
16373 16436
16436 16499
16499 16562
16562 16625
16625 16689
16689 16751
16751 16814
16814 16877
16877 16941
16941 17004
17004 17067
17067 17131
17131 17193
17193 17257
17257 17321
17321 17384
17384 17447
17447 17510
17510 17574
17574 17637
17637 17701
17701 17764
17764 17827
17827 17890
17890 17954
17954 18017
18017 18079
18079 18142
18142 18205
18205 18268
18268 18331
18331 18395
18395 18458
18458 18521
18521 18584
18584 18647
18647 18711
18711 18774
18774 18837
18837 18900
18900 18963
18963 19027
19027 19090
19090 19152
19152 19216
19216 19279
19279 19341
19341 19405
19405 19443
19443 19506
19506 19568
19568 19631
19631 19694
19694 19756
19756 19820
19820 19883
19883 19946
19946 20008
20008 20071
20071 20134
20134 20197
20197 20260
20260 20324
20324 20387
20387 20450
20450 20513
20513 20577
20577 20639
20639 20703
20703 20766
20766 20829
20829 20892
20892 20955
20955 21019
21019 21070
21070 21132
21132 21196
21196 21259
21259 21322
21322 21385
21385 21449
21449 21512
21512 21574
21574 21637
21637 21700
21700 21763
21763 21826
21826 21888
21888 21952
21952 22014
22014 22078
22078 22141
22141 22204
22204 22267
22267 22330
22330 22392
22392 22455
22455 22519
22519 22581
22581 22644
22644 22707
22707 22770
22770 22833
22833 22896
22896 22959
22959 23022
23022 23085
23085 23148
23148 23211
23211 23274
23274 23337
23337 23400
23400 23462
23462 23525
23525 23588
23588 23650
23650 23714
23714 23777
23777 23839
23839 23903
23903 23965
23965 24029
24029 24092
24092 24154
24154 24218
24218 24280
24280 24344
24344 24407
24407 24470
24470 24533
24533 24596
24596 24659
24659 24722
24722 24760
24760 24823
24823 24886
24886 24949
24949 25012
25012 25075
25075 25138
25138 25202
25202 25265
25265 25327
25327 25391
25391 25454
25454 25518
25518 25581
25581 25644
25644 25707
25707 25770
25770 25833
25833 25896
25896 25959
25959 26022
26022 26085
26085 26149
26149 26212
26212 26274
26274 26337
26337 26401
26401 26464
26464 26527
26527 26590
26590 26654
26654 26717
26717 26780
26780 26843
26843 26907
26907 26970
26970 27033
27033 27096
27096 27160
27160 27223
27223 27287
27287 27350
27350 27413
27413 27477
27477 27541
27541 27603
27603 27667
27667 27706
27706 27769
27769 27832
27832 27895
27895 27959
27959 28023
28023 28086
28086 28149
28149 28213
28213 28276
28276 28339
28339 28402
28402 28466
28466 28529
28529 28593
28593 28655
28655 28719
28719 28783
28783 28845
28845 28908
28908 28972
28972 29035
29035 29098
29098 29161
29161 29224
29224 29288
29288 29351
29351 29413
29413 29477
29477 29540
29540 29603
29603 29666
29666 29730
29730 29793
29793 29857
29857 29920
29920 29983
29983 30046
30046 30109
30109 30173
30173 30236
30236 30299
30299 30362
30362 30426
30426 30489
30489 30552
30552 30590
30590 30653
30653 30716
30716 30779
30779 30843
30843 30906
30906 30970
30970 31032
31032 31096
31096 31159
31159 31223
31223 31286
31286 31349
31349 31413
31413 31477
31477 31540
31540 31603
31603 31667
31667 31730
31730 31794
31794 31856
31856 31920
31920 31983
31983 32047
32047 32110
32110 32173
32173 32237
32237 32300
32300 32363
32363 32427
32427 32490
32490 32553
32553 32616
32616 32680
32680 32743
32743 32806
32806 32869
32869 32932
32932 32995
32995 33058
33058 33121
33121 33185
33185 33248
33248 33312
33312 33375
33375 33439
33439 33502
33502 33566
33566 33629
33629 33692
33692 33756
33756 33820
33820 33883
33883 33946
33946 34010
34010 34074
34074 34138
34138 34201
34201 34264
34264 34328
34328 34367
34367 34430
34430 34494
34494 34557
34557 34621
34621 34685
34685 34748
34748 34812
34812 34876
34876 34940
34940 35003
35003 35067
35067 35131
35131 35195
35195 35258
35258 35323
35323 35386
35386 35450
35450 35514
35514 35578
35578 35642
35642 35705
35705 35769
35769 35832
35832 35897
35897 35960
35960 36025
36025 36088
36088 36152
36152 36190
36190 36254
36254 36318
36318 36381
36381 36445
36445 36509
36509 36572
36572 36635
36635 36699
36699 36763
36763 36826
36826 36890
36890 36929
36929 36993
36993 37056
37056 37120
37120 37184
37184 37247
37247 37311
37311 37374
37374 37438
37438 37502
37502 37565
37565 37629
37629 37692
37692 37757
37757 37821
37821 37884
37884 37947
37947 38012
38012 38075
38075 38139
38139 38202
38202 38266
38266 38330
38330 38394
38394 38458
38458 38521
38521 38585
38585 38649
38649 38713
38713 38776
38776 38840
38840 38904
38904 38967
38967 39031
39031 39094
39094 39159
39159 39222
39222 39286
39286 39350
39350 39414
39414 39452
39452 39516
39516 39579
39579 39644
39644 39707
39707 39772
39772 39835
39835 39899
39899 39963
39963 40056
40056 40119
40119 40183
40183 40247
40247 40310
40310 40374
40374 40438
40438 40502
40502 40565
40565 40629
40629 40692
40692 40756
40756 40819
40819 40883
40883 40948
40948 41012
41012 41076
41076 41139
41139 41203
41203 41267
41267 41331
41331 41395
41395 41459
41459 41523
41523 41586
41586 41651
41651 41715
41715 41778
41778 41842
41842 41906
41906 41970
41970 42035
42035 42098
42098 42162
42162 42226
42226 42291
42291 42355
42355 42420
42420 42483
42483 42549
42549 42613
42613 42677
42677 42742
42742 42805
42805 42870
42870 42934
42934 42999
42999 43063
43063 43126
43126 43191
43191 43255
43255 43320
43320 43384
43384 43448
43448 43513
43513 43577
43577 43642
43642 43706
43706 43770
43770 43835
43835 43899
43899 43964
43964 44027
44027 44092
44092 44156
44156 44220
44220 44285
44285 44348
44348 44412
44412 44477
44477 44542
44542 44605
44605 44669
44669 44734
44734 44798
44798 44863
44863 44927
44927 44991
44991 45054
45054 45119
45119 45183
45183 45247
45247 45310
45310 45375
45375 45439
45439 45502
45502 45566
45566 45630
45630 45694
45694 45758
45758 45822
45822 45885
45885 45949
45949 46013
46013 46078
46078 46141
46141 46205
46205 46269
46269 46333
46333 46398
46398 46462
46462 46525
46525 46590
46590 46654
46654 46718
46718 46757
46757 46821
46821 46885
46885 46950
46950 47014
47014 47078
47078 47142
47142 47206
47206 47270
47270 47334
47334 47398
47398 47462
47462 47525
47525 47589
47589 47654
47654 47718
47718 47781
47781 47845
47845 47910
47910 47974
47974 48038
48038 48101
48101 48166
48166 48230
48230 48294
48294 48357
48357 48421
48421 48486
48486 48525
48525 48589
48589 48653
48653 48717
48717 48781
48781 48845
48845 48909
48909 48972
48972 49037
49037 49100
49100 49164
49164 49228
49228 49292
49292 49356
49356 49420
49420 49483
49483 49547
49547 49610
49610 49674
49674 49739
49739 49801
49801 49865
49865 49930
49930 49994
49994 50032
50032 50096
50096 50160
50160 50223
50223 50288
50288 50352
50352 50415
50415 50480
50480 50544
50544 50608
50608 50673
50673 50736
50736 50801
50801 50865
50865 50929
50929 50993
50993 51057
51057 51121
51121 51186
51186 51250
51250 51289
51289 51353
51353 51418
51418 51482
51482 51521
51521 51585
51585 51649
51649 51713
51713 51778
51778 51842
51842 51905
51905 51970
51970 52009
52009 52048
52048 52112
52112 52176
52176 52240
52240 52305
52305 52368
52368 52433
52433 52471
52471 52536
52536 52600
52600 52663
52663 52727
52727 52792
52792 52856
52856 52920
52920 52958
52958 53023
53023 53087
53087 53151
53151 53214
53214 53278
53278 53343
53343 53406
53406 53470
53470 53534
53534 53598
53598 53662
53662 53701
53701 53765
53765 53828
53828 53893
53893 53957
53957 54021
54021 54085
54085 54150
54150 54213
54213 54278
54278 54342
54342 54406
54406 54471
54471 54535
54535 54600
54600 54664
54664 54728
54728 54793
54793 54857
54857 54922
54922 54985
54985 55050
55050 55114
55114 55179
55179 55243
55243 55308
55308 55372
55372 55436
55436 55500
55500 55564
55564 55629
55629 55693
55693 55757
55757 55821
55821 55885
55885 55950
55950 56015
56015 56079
56079 56142
56142 56207
56207 56272
56272 56336
56336 56400
56400 56465
56465 56529
56529 56593
56593 56657
56657 56721
56721 56785
56785 56849
56849 56913
56913 56977
56977 57041
57041 57105
57105 57169
57169 57233
57233 57297
57297 57362
57362 57426
57426 57489
57489 57554
57554 57618
57618 57682
57682 57746
57746 57810
57810 57874
57874 57939
57939 58003
58003 58042
58042 58105
58105 58170
58170 58234
58234 58298
58298 58362
58362 58426
58426 58491
58491 58555
58555 58619
58619 58658
58658 58722
58722 58785
58785 58850
58850 58913
58913 58977
58977 59040
59040 59105
59105 59168
59168 59232
59232 59296
59296 59360
59360 59424
59424 59488
59488 59552
59552 59616
59616 59680
59680 59744
59744 59808
59808 59871
59871 59935
59935 59999
59999 60063
60063 60126
60126 60191
60191 60255
60255 60318
60318 60382
60382 60446
60446 60510
60510 60574
60574 60638
60638 60703
60703 60767
60767 60831
60831 60895
60895 60959
60959 61023
61023 61087
61087 61151
61151 61215
61215 61280
61280 61344
61344 61407
61407 61471
61471 61536
61536 61600
61600 61665
61665 61728
61728 61793
61793 61857
61857 61922
61922 61986
61986 62050
62050 62115
62115 62179
62179 62243
62243 62308
62308 62372
62372 62437
62437 62501
62501 62566
62566 62630
62630 62694
62694 62759
62759 62823
62823 62888
62888 62952
62952 63017
63017 63081
63081 63146
63146 63211
63211 63275
63275 63340
63340 63405
63405 63469
63469 63534
63534 63599
63599 63663
63663 63728
