9 63
1858 1926
1926 1992
1992 2059
2059 2126
2126 2192
2192 2260
2260 2326
2326 2393
2393 2460
2460 2527
2527 2594
2594 2660
2660 2727
2727 2794
2794 2860
2860 2928
2928 2994
2994 3061
3061 3127
3127 3194
3327 3395
3395 3461
3461 3527
3527 3594
3594 3660
3660 3727
3727 3794
3794 3860
3860 3927
3927 3993
3993 4059
4059 4126
4126 4192
4192 4259
4259 4325
4325 4392
4392 4458
4458 4525
4525 4592
4592 4658
4658 4724
4724 4791
4791 4857
4857 4924
4924 4990
4990 5057
5057 5123
5123 5190
5190 5257
5257 5323
5323 5389
5389 5456
5456 5524
5524 5590
5590 5657
5657 5724
5724 5791
5791 5858
5858 5925
5925 5992
5992 6083
6083 6150
6083 6150
6150 6216
6216 6282
6282 6349
6349 6415
6415 6482
6482 6548
6548 6614
6614 6682
6682 6748
6748 6814
6814 6880
6880 6946
6946 7013
7013 7079
7079 7146
7146 7212
7212 7278
7278 7345
7345 7411
7411 7477
7477 7544
7544 7610
7610 7677
7677 7743
7743 7809
7809 7876
7876 7942
7942 8009
8009 8075
8075 8141
8141 8207
8207 8275
8275 8340
8340 8407
8407 8474
8474 8540
8540 8607
8607 8674
8674 8740
8740 8806
8806 8874
8874 8940
8940 9007
9007 9074
9074 9141
9141 9208
9208 9275
9275 9342
9342 9409
9409 9475
9475 9543
9543 9610
9610 9676
9676 9743
9743 9810
9810 9876
9876 9943
9943 10010
10010 10076
10076 10143
10143 10210
10210 10276
10276 10343
10343 10410
10410 10476
10476 10543
10543 10609
10609 10676
10676 10743
10743 10809
10809 10876
10876 10942
10942 11009
11009 11076
11076 11142
11142 11209
11209 11276
11276 11343
11343 11409
11409 11476
11476 11542
11542 11610
11610 11677
11677 11743
11743 11810
11810 11877
11877 11943
11943 12010
12010 12076
12076 12143
12143 12210
12210 12276
12276 12343
12343 12409
12409 12476
12476 12542
12542 12608
12608 12674
12674 12741
12741 12807
12807 12873
12873 12939
12939 13006
13006 13044
13044 13111
13111 13178
13178 13244
13244 13311
13311 13377
13377 13444
13444 13509
13509 13576
13576 13642
13642 13708
13708 13775
13775 13840
13840 13907
13907 13973
13973 14039
14039 14105
14237 14303
14303 14370
14370 14435
14435 14502
14502 14567
14567 14634
14634 14700
14700 14767
14767 14833
14833 14899
14899 14965
14965 15031
15031 15097
15097 15162
15162 15229
15229 15295
15295 15360
15360 15426
15426 15493
15493 15558
15558 15624
15624 15689
15689 15756
15756 15821
15821 15887
15887 15953
15953 16019
16019 16086
16086 16151
16151 16218
16218 16283
16283 16350
16350 16416
16416 16482
