12646 12709
12773 12837
12837 12900
12900 12964
12964 13027
13027 13091
13091 13155
13155 13218
13218 13282
13282 13345
13345 13409
13409 13472
13472 13536
13536 13600
13600 13663
13663 13726
13726 13790
13790 13853
13853 13916
13916 13980
13980 14043
14043 14107
14107 14170
14170 14233
14233 14297
14297 14360
14360 14424
14424 14487
14487 14550
14550 14613
14613 14677
14677 14740
14740 14803
14803 14866
14866 14930
14930 14993
14993 15056
15056 15120
15120 15183
15183 15246
15246 15309
15309 15372
15372 15436
15436 15500
15500 15562
15562 15626
15626 15689
15689 15753
15753 15816
15816 15880
15880 15943
15943 16006
16006 16070
16070 16133
16133 16196
16196 16260
16260 16323
16323 16387
16387 16450
16450 16488
16488 16551
16551 16615
16615 16679
16679 16742
16742 16806
16806 16869
16869 16933
16933 16997
16997 17060
17060 17124
17124 17187
17187 17250
17250 17314
17314 17377
17377 17441
17441 17504
17504 17567
17567 17631
17631 17695
17695 17758
17758 17821
17821 17885
17885 17949
17949 18013
18013 18076
18076 18140
18140 18203
18203 18266
18266 18330
18330 18394
18394 18458
18458 18521
18521 18585
18585 18648
18648 18712
18712 18776
18776 18840
18840 18903
18903 18967
18967 19031
19031 19095
19095 19159
19159 19222
19222 19286
19286 19350
19350 19414
19414 19477
19477 19540
19540 19604
19604 19667
19667 19730
19730 19794
19794 19858
19858 19921
19921 19984
19984 20048
20048 20112
20112 20174
20174 20238
20238 20301
20301 20364
20364 20427
20427 20491
20491 20554
20554 20617
20617 20680
20680 20743
20743 20806
20806 20869
20869 20933
20933 20996
20996 21059
21059 21122
21122 21185
21185 21248
21248 21311
21311 21374
21374 21438
21438 21501
21501 21564
21564 21627
21627 21690
21690 21754
21754 21818
21818 21880
21880 21944
21944 22008
22008 22071
22071 22134
22134 22198
22198 22261
22261 22324
22324 22387
22387 22451
22451 22514
22514 22577
22577 22640
22640 22704
22704 22766
22766 22829
22829 22893
22893 22956
22956 23019
23019 23082
23082 23146
23146 23209
23209 23272
23272 23335
23335 23399
23399 23462
23462 23525
23525 23589
23589 23652
23652 23716
23716 23778
23778 23842
23842 23905
23905 23968
23968 24031
24031 24095
24095 24158
24158 24220
24220 24284
24284 24347
24347 24410
24410 24473
24473 24536
24536 24599
24599 24662
24662 24726
24726 24789
24789 24852
24852 24915
24915 24978
24978 25042
25042 25105
25105 25169
25169 25232
25232 25296
25296 25359
25359 25422
25422 25486
25486 25550
25550 25613
25613 25677
25677 25740
25740 25803
25803 25867
25867 25930
25930 25993
25993 26057
26057 26120
26120 26183
26183 26247
26247 26310
26310 26373
26373 26436
26436 26500
26500 26563
26563 26626
26626 26690
26690 26753
26753 26816
26816 26879
26879 26942
26942 27006
27006 27068
27068 27131
27131 27195
27195 27258
27258 27321
27321 27384
27384 27447
27447 27510
27510 27573
27573 27636
27636 27699
27699 27762
27762 27825
27825 27888
27888 27950
27950 28014
28014 28076
28076 28139
28139 28202
28202 28265
28265 28327
28327 28390
28390 28453
28453 28516
28516 28579
28579 28642
28642 28705
28705 28768
28768 28831
28831 28894
28894 28957
28957 29020
29020 29084
29084 29147
29147 29210
29210 29273
29273 29337
29337 29400
29400 29463
29463 29527
29527 29590
29590 29654
29654 29717
29717 29781
29781 29844
29844 29908
29908 29971
29971 30035
30035 30099
30099 30162
30162 30225
30225 30289
30289 30353
30353 30416
30416 30479
30479 30542
30542 30606
30606 30669
30669 30732
30732 30796
30796 30858
30858 30922
30922 30985
30985 31049
31049 31111
31111 31174
31174 31238
31238 31301
31301 31364
31364 31427
31427 31490
31490 31554
31554 31617
31617 31680
31680 31743
31743 31806
31806 31870
31870 31933
31933 31996
31996 32060
32060 32123
32123 32187
32187 32250
32250 32314
32314 32378
32378 32441
32441 32504
32504 32568
32568 32632
32632 32694
32694 32758
32758 32821
32821 32885
32885 32948
32948 33011
33011 33075
33075 33138
33138 33201
33201 33264
33264 33328
33328 33390
33390 33454
33454 33517
33517 33581
33581 33644
33644 33707
33707 33770
33770 33834
33834 33897
33897 33960
33960 34023
34023 34087
34087 34150
34150 34213
34213 34277
34277 34339
34339 34402
34402 34466
34466 34529
34529 34591
34591 34655
34655 34718
34718 34781
34781 34844
34844 34907
34907 34970
34970 35044
35044 35106
35106 35169
35169 35233
35233 35295
35295 35358
35358 35421
35421 35484
35484 35547
35547 35610
35610 35673
35673 35736
35736 35799
35799 35862
35862 35925
35925 35988
35988 36050
36050 36113
36113 36176
36176 36239
36239 36302
36302 36365
36365 36428
36428 36491
36491 36554
36554 36617
36617 36680
36680 36743
36743 36805
36805 36868
36868 36931
36931 36994
36994 37057
37057 37120
37120 37183
37183 37246
37246 37309
37309 37372
37372 37435
37435 37498
37498 37561
37561 37624
37624 37687
37687 37750
37750 37813
37813 37876
37876 37939
37939 38002
38002 38065
38065 38128
38128 38191
38191 38254
38254 38317
38317 38379
38379 38443
38443 38505
38505 38569
38569 38632
38632 38695
38695 38758
38758 38821
38821 38884
38884 38948
38948 39049
39049 39113
39113 39176
39176 39240
39240 39303
39303 39366
39366 39430
39430 39493
39493 39557
39557 39620
39620 39684
39684 39747
39747 39811
39811 39874
39874 39938
39938 40001
40001 40065
40065 40128
40128 40191
40191 40255
40255 40318
40318 40382
40382 40445
40445 40508
40508 40572
40572 40635
40635 40699
40699 40762
40762 40825
40825 40889
40889 40952
40952 41016
41016 41080
41080 41144
41144 41208
41208 41272
41272 41335
41335 41399
41399 41462
41462 41526
41526 41589
41589 41652
41652 41716
41716 41780
41780 41843
41843 41906
41906 41970
41970 42033
42033 42096
42096 42160
42160 42223
42223 42287
42287 42350
42350 42413
42413 42476
42476 42539
42539 42602
42602 42666
42666 42729
42729 42792
42792 42855
42855 42919
42919 42982
42982 43045
43045 43108
43108 43172
43172 43234
43234 43298
43298 43361
43361 43425
43425 43487
43487 43551
43551 43614
43614 43677
43677 43741
43741 43804
43804 43867
43867 43931
43931 43994
43994 44057
44057 44096
44096 44159
44159 44223
44223 44286
44286 44349
44349 44412
44412 44475
44475 44539
44539 44602
44602 44665
44665 44728
44728 44791
44791 44854
44854 44917
44917 44980
44980 45043
45043 45106
45106 45169
45169 45232
45232 45294
45294 45358
45358 45420
45420 45484
45484 45547
45547 45610
45610 45673
45673 45736
45736 45799
45799 45862
45862 45925
45925 45988
45988 46051
46051 46115
46115 46177
46177 46240
46240 46303
46303 46367
46367 46430
46430 46493
46493 46557
46557 46620
46620 46683
46683 46747
46747 46811
46811 46873
46873 46937
46937 47000
47000 47063
47063 47126
47126 47190
47190 47253
47253 47316
47316 47379
47379 47442
47442 47505
47505 47568
47568 47631
47631 47694
47694 47757
47757 47819
47819 47882
47882 47945
47945 48008
48008 48071
48071 48134
48134 48197
48197 48260
48260 48322
48322 48386
48386 48423
48423 48486
48486 48549
48549 48612
48612 48675
48675 48738
48738 48801
48801 48864
48864 48927
48927 48990
48990 49053
49053 49116
49116 49179
49179 49242
49242 49305
49305 49368
49368 49431
49431 49494
49494 49557
49557 49621
49621 49684
49684 49747
49747 49810
49810 49873
49873 49936
49936 49999
49999 50063
50063 50125
50125 50188
50188 50251
50251 50314
50314 50377
50377 50440
50440 50503
50503 50566
50566 50629
50629 50692
50692 50756
50756 50819
50819 50882
50882 50945
50945 51008
51008 51071
51071 51135
51135 51198
51198 51261
51261 51324
51324 51388
51388 51451
51451 51514
51514 51577
51577 51641
51641 51704
51704 51768
51768 51831
51831 51894
51894 51957
51957 52021
52021 52084
52084 52147
52147 52211
52211 52274
52274 52338
52338 52401
52401 52465
52465 52528
52528 52592
52592 52655
52655 52718
52718 52782
52782 52846
52846 52909
52909 52972
52972 53036
53036 53099
53099 53162
53162 53225
53225 53288
53288 53352
53352 53414
53414 53478
53478 53540
53540 53604
53604 53667
53667 53730
53730 53793
53793 53855
53855 53918
53918 53981
53981 54044
54044 54106
54106 54169
54169 54232
54232 54270
54270 54333
54333 54396
54396 54459
54459 54522
54522 54585
54585 54648
54648 54710
54710 54774
54774 54836
54836 54899
54899 54962
54962 55025
55025 55087
55087 55150
55150 55213
55213 55276
55276 55339
55339 55401
55401 55464
55464 55527
55527 55589
55589 55652
55652 55714
55714 55777
55777 55839
55839 55902
55902 55964
55964 56027
56027 56090
56090 56152
56152 56215
56215 56278
56278 56340
56340 56403
56403 56466
56466 56529
56529 56591
56591 56654
56654 56717
56717 56780
56780 56842
56842 56906
56906 56969
56969 57032
57032 57095
57095 57158
57158 57221
57221 57284
57284 57348
57348 57411
57411 57474
57474 57537
57537 57601
57601 57664
57664 57727
57727 57790
57790 57854
57854 57916
57916 57979
57979 58043
58043 58106
58106 58169
58169 58232
58232 58295
58295 58358
58358 58422
58422 58484
58484 58547
58547 58610
58610 58674
58674 58736
58736 58799
58799 58862
58862 58926
58926 58989
58989 59052
59052 59115
59115 59178
59178 59241
59241 59304
59304 59367
59367 59430
59430 59493
59493 59556
59556 59619
59619 59682
59682 59745
59745 59809
59809 59871
59871 59935
59935 59998
59998 60061
60061 60124
60124 60187
60187 60250
60250 60313
60313 60376
60376 60439
60439 60502
60502 60565
60565 60628
60628 60691
60691 60754
60754 60817
60817 60880
60880 60943
60943 61006
61006 61068
61068 61132
61132 61194
61194 61257
61257 61320
61320 61383
61383 61446
61446 61508
61508 61572
61572 61635
61635 61697
61697 61761
61761 61823
61823 61886
61886 61949
61949 62013
62013 62076
62076 62139
62139 62202
62202 62265
62265 62328
62328 62391
62391 62454
62454 62517
62517 62581
62581 62644
62644 62707
62707 62770
62770 62833
62833 62897
62897 62959
62959 63023
63023 63086
63086 63149
63149 63212
63212 63275
63275 63338
63338 63401
63401 63465
63465 63527
63527 63591
63591 63654
63654 63717
63717 63780
63780 63844
63844 63907
63907 63971
63971 64034
64034 64097
64097 64160
64160 64224
64224 64287
64287 64350
64350 64413
64413 64476
64476 64539
64539 64603
64603 64666
64666 64729
64729 64791
64791 64855
64855 64918
64918 64981
64981 65051
65051 65113
65113 65177
65177 65240
65240 65302
65302 65366
65366 65429
65429 65492
65492 65555
65555 65618
65618 65682
65682 65745
65745 65808
65808 65871
65871 65934
65934 65997
65997 66060
66060 66123
66123 66186
66186 66249
66249 66313
66313 66376
66376 66439
66439 66502
66502 66566
66566 66629
66629 66692
66692 66755
66755 66818
66818 66882
66882 66944
66944 67008
67008 67071
67071 67134
67134 67197
67197 67260
67260 67324
67324 67387
67387 67450
67450 67513
67513 67576
67576 67640
67640 67702
67702 67766
67766 67829
67829 67892
67892 67956
67956 68019
68019 68082
68082 68146
68146 68210
68210 68273
68273 68336
68336 68400
68400 68463
68463 68527
68527 68590
68590 68653
68653 68717
68717 68780
68780 68843
68843 68907
68907 68970
68970 69033
69033 69096
69096 69159
69159 69222
69222 69285
69285 69349
69349 69412
69412 69474
69474 69538
69538 69601
69601 69664
69664 69726
69726 69790
69790 69853
69853 69916
69916 69978
69978 70041
70041 70103
70103 70166
70166 70229
70229 70292
70292 70355
70355 70417
70417 70480
70480 70543
