8079 8141
8141 8203
8203 8264
8264 8327
8327 8388
8388 8449
8449 8511
8511 8572
8572 8635
8635 8696
8696 8757
8757 8820
8820 8881
8881 8942
8942 9005
9005 9066
9066 9127
9127 9189
9189 9252
9252 9313
9313 9375
9375 9437
9437 9498
9498 9561
9561 9623
9623 9684
9684 9746
9746 9809
9809 9871
9871 9932
9932 9995
9995 10056
10056 10118
10118 10182
10182 10244
10244 10305
10305 10369
10369 10431
10431 10493
10493 10556
10556 10618
10618 10680
10680 10743
10743 10805
10805 10867
10867 10930
10930 10993
10993 11054
11054 11118
11118 11180
11180 11242
11242 11306
11306 11368
11368 11431
11431 11494
11494 11557
11557 11620
11620 11683
11683 11745
11745 11809
11809 11872
11872 11934
11934 11999
11999 12062
12062 12125
12125 12189
12189 12253
12253 12317
12317 12381
12510 12574
12574 12637
12637 12701
12701 12764
12764 12828
12828 12891
12891 12955
12955 13018
13018 13081
13081 13144
13144 13246
13246 13308
13308 13372
13372 13434
13434 13497
13497 13560
13560 13623
13623 13686
13686 13749
13749 13811
13811 13875
13875 13937
13937 13999
13999 14062
14062 14125
14125 14188
14188 14250
14250 14312
14312 14375
14375 14437
14437 14500
14500 14563
14563 14625
14625 14688
14688 14750
14750 14813
14813 14875
14875 14938
14938 14999
14999 15063
15063 15125
15125 15187
15187 15249
15249 15312
15312 15374
15374 15438
15438 15500
15500 15562
15562 15624
15624 15687
15687 15749
15749 15811
15811 15874
15874 15935
15935 15998
15998 16060
16060 16122
16122 16185
16185 16246
16246 16310
16310 16372
16372 16433
16433 16495
16495 16559
16559 16621
16621 16682
16682 16745
16745 16808
16808 16869
16869 16933
16933 16994
16994 17057
17057 17120
17120 17182
17182 17245
17245 17307
17307 17369
17369 17431
17431 17494
17494 17557
17557 17618
17618 17681
17681 17744
17744 17806
17806 17869
17869 17931
17931 17994
17994 18055
18055 18119
18119 18181
18181 18243
18243 18306
18306 18369
18369 18431
18431 18495
18495 18557
18557 18620
18620 18682
18682 18744
18744 18806
18806 18869
18869 18931
18931 18994
18994 19056
19056 19119
19119 19181
19181 19244
19244 19307
19307 19370
19370 19432
19432 19495
19495 19558
19558 19620
19620 19683
19683 19746
19746 19808
19808 19872
19872 19934
19934 19997
19997 20060
20060 20122
20122 20185
20185 20248
20248 20310
20310 20373
20373 20436
20436 20497
20497 20561
20561 20623
20623 20685
20685 20748
20748 20811
20811 20873
20873 20936
20936 20998
20998 21061
21061 21124
21124 21187
21187 21249
21249 21313
21313 21376
21376 21438
21438 21502
21502 21565
21565 21627
21627 21690
21690 21754
21754 21816
21816 21879
21879 21943
21943 22006
22006 22068
22068 22131
22131 22194
22194 22256
22256 22319
22319 22383
22383 22446
22446 22508
22508 22572
22572 22634
22634 22697
22697 22761
22761 22823
22823 22886
22886 22949
22949 23012
23012 23075
23075 23137
23137 23201
23201 23264
23264 23326
23326 23389
23389 23453
23453 23516
23516 23578
23578 23642
23642 23705
23705 23768
23768 23832
23832 23895
23895 23957
23957 24020
24020 24085
24085 24148
24148 24211
24211 24275
24275 24339
24339 24401
24401 24466
24466 24529
24529 24592
24592 24656
24656 24719
24719 24783
24783 24847
24847 24911
24911 24975
24975 25039
25039 25102
25102 25166
25166 25231
25231 25294
25294 25359
25359 25423
25423 25487
25487 25550
25550 25615
25615 25679
25679 25742
25742 25807
25807 25871
25871 25934
25934 25999
25999 26062
26062 26125
26125 26190
26190 26253
26253 26317
26317 26381
26381 26444
26444 26507
26507 26572
26572 26635
26635 26698
26698 26762
26762 26826
26826 26888
26888 26953
26953 27016
27016 27079
27079 27142
27142 27206
27206 27270
27270 27308
27308 27371
27371 27435
27435 27498
27498 27562
27562 27626
27626 27689
27689 27752
27752 27817
27817 27880
27880 27943
27943 28007
28007 28071
28071 28133
28133 28198
28198 28261
28261 28324
28324 28388
28388 28451
28451 28514
28514 28579
28579 28642
28642 28705
28705 28768
28768 28833
28833 28896
28896 28959
28959 29023
29023 29087
29087 29150
29150 29214
29214 29277
29277 29340
29340 29405
29405 29468
29468 29531
29531 29595
29595 29659
29659 29722
29722 29785
29785 29850
29850 29913
29913 29976
29976 30041
30041 30104
30104 30167
30167 30232
30232 30295
30295 30358
30358 30422
30422 30486
30486 30549
30549 30613
30613 30678
30678 30741
30741 30804
30804 30868
30868 30932
30932 30995
30995 31058
31058 31123
31123 31186
31186 31249
31249 31314
31314 31378
31378 31440
31440 31505
31505 31569
31569 31632
31632 31695
31695 31760
31760 31823
31823 31886
31886 31951
31951 32014
32014 32077
32077 32142
32142 32205
32205 32269
32269 32332
32332 32395
32395 32460
32460 32522
32522 32587
32587 32650
32650 32713
32713 32777
32777 32841
32841 32903
32903 32968
32968 33031
33031 33094
33094 33158
33158 33222
33222 33284
33284 33348
33348 33412
33412 33475
33475 33538
33538 33603
33603 33666
33666 33729
33729 33793
33793 33856
33856 33919
33919 33983
33983 34047
34047 34109
34109 34173
34173 34237
34237 34299
34299 34363
34363 34427
34427 34489
34489 34553
34553 34617
34617 34679
34679 34742
34742 34806
34806 34870
34870 34932
34932 34996
34996 35060
35060 35122
35122 35186
35186 35250
35250 35312
35312 35376
35376 35440
35440 35503
35503 35566
35566 35630
35630 35694
35694 35757
35757 35820
35820 35885
35885 35947
35947 36010
36010 36075
36075 36138
36138 36201
36201 36264
36264 36328
36328 36391
36391 36455
36455 36519
36519 36582
36582 36646
36646 36709
36709 36772
36772 36836
36836 36899
36899 36962
36962 37026
37026 37090
37090 37153
37153 37217
37217 37318
37318 37383
37383 37446
37446 37509
37509 37574
37574 37637
37637 37700
37700 37765
37765 37829
37829 37893
37893 37957
37957 38022
38022 38064
38064 38126
38126 38190
38190 38253
38253 38316
38316 38379
38379 38442
38442 38506
38506 38568
38568 38632
38632 38695
38695 38757
38757 38820
38820 38883
38883 38945
38945 39009
39009 39071
39071 39134
39134 39198
39198 39261
39261 39323
39323 39387
39387 39450
39450 39512
39512 39575
39575 39639
39639 39701
39701 39764
39764 39828
39828 39891
39891 39953
39953 40016
40016 40080
40080 40142
40142 40206
40206 40269
40269 40331
40331 40394
40394 40458
40458 40521
40521 40583
40583 40647
40647 40710
40710 40772
40772 40836
40836 40898
40898 40961
40961 41023
41023 41087
41087 41149
41149 41212
41212 41276
41276 41338
41338 41400
41400 41464
41464 41526
41526 41588
41588 41652
41652 41715
41715 41777
41777 41840
41840 41903
41903 41965
41965 42029
42029 42091
42091 42153
42153 42217
42217 42279
42279 42342
42342 42405
42405 42466
42466 42529
42529 42592
42592 42654
42654 42717
42717 42780
42780 42842
42842 42904
42904 42968
42968 43030
43030 43092
43092 43156
43156 43218
43218 43280
43280 43344
43344 43407
43407 43468
43468 43532
43532 43594
43594 43656
43656 43720
43720 43782
43782 43844
43844 43907
43907 43969
43969 44032
44032 44094
44094 44156
44156 44218
44218 44281
44281 44343
44343 44405
44405 44469
44469 44531
44531 44593
44593 44632
44632 44694
44694 44756
44756 44820
44820 44882
44882 44944
44944 45007
45007 45069
45069 45132
45132 45195
45195 45257
45257 45320
45320 45383
45383 45445
45445 45508
45508 45571
45571 45632
45632 45696
45696 45758
45758 45820
45820 45883
45883 45945
45945 46007
46007 46070
46070 46133
46133 46194
46194 46257
46257 46319
46319 46381
46381 46444
46444 46506
46506 46568
46568 46631
46631 46693
46693 46755
46755 46818
46818 46880
46880 46942
46942 47005
47005 47067
47067 47129
47129 47192
47192 47254
47254 47316
47316 47379
47379 47416
47416 47478
47478 47541
47541 47603
47603 47665
47665 47728
47728 47790
47790 47851
47851 47914
47914 47977
47977 48038
48038 48101
48101 48163
48163 48225
48225 48288
48288 48350
48350 48412
48412 48474
48474 48537
48537 48599
48599 48662
48662 48724
48724 48786
48786 48848
48848 48911
48911 48972
48972 49034
49034 49098
49098 49159
49159 49222
49222 49284
49284 49345
49345 49408
49408 49469
49469 49531
49531 49595
49595 49657
49657 49718
49718 49781
49781 49843
49843 49904
49904 49968
49968 50030
50030 50091
50091 50154
50154 50216
50216 50278
50278 50341
50341 50402
50402 50465
50465 50527
50527 50590
50590 50652
50652 50713
50713 50775
50775 50838
50838 50899
50899 50962
50962 51024
51024 51085
51085 51148
51148 51209
51209 51270
51270 51333
51333 51394
51394 51457
51457 51519
51519 51580
51580 51643
51643 51704
51704 51767
51767 51828
51828 51889
51889 51952
51952 52013
52013 52076
52076 52137
52137 52198
52198 52261
52261 52323
52323 52384
52384 52447
52447 52508
52508 52570
52570 52633
52633 52694
52694 52755
52755 52818
52818 52880
52880 52941
52941 53004
53004 53066
53066 53127
53127 53190
53190 53252
53252 53313
53313 53376
53376 53438
53438 53499
53499 53563
53563 53625
53625 53687
53687 53749
53749 53812
53812 53874
53874 53936
53936 54000
54000 54062
54062 54124
54124 54187
54187 54249
54249 54312
54312 54375
54375 54438
54438 54500
54500 54563
54563 54625
54625 54687
54687 54751
54751 54814
54814 54876
54876 54939
54939 55001
55001 55064
55064 55127
55127 55189
55189 55252
55252 55315
55315 55378
55378 55440
55440 55503
55503 55566
55566 55628
55628 55691
55691 55754
55754 55816
55816 55879
55879 55943
55943 56005
56005 56068
56068 56131
56131 56194
56194 56257
56257 56319
56319 56384
56384 56447
56447 56509
56509 56573
56573 56636
56636 56699
56699 56761
56761 56825
56825 56888
56888 56952
56952 57015
57015 57077
57077 57140
57140 57205
57205 57268
57268 57330
57330 57394
57394 57458
57458 57520
57520 57584
57584 57647
57647 57710
57710 57774
57774 57837
57837 57899
57899 57963
57963 58026
58026 58089
58089 58153
58153 58216
58216 58278
58278 58341
58341 58405
58405 58468
58468 58531
58531 58595
58595 58658
58658 58720
58720 58783
58783 58847
58847 58910
58910 58973
58973 59037
59037 59100
59100 59163
59163 59226
59226 59290
59290 59353
59353 59416
59416 59480
59480 59543
59543 59606
59606 59669
59669 59733
59733 59796
59796 59859
59859 59922
59922 59986
59986 60050
60050 60113
60113 60177
60177 60241
60241 60304
60304 60367
60367 60432
60432 60495
60495 60560
60560 60623
60623 60688
60688 60752
60752 60816
60816 60879
60879 60944
60944 61008
61008 61072
61072 61135
61135 61200
61200 61264
61264 61327
61327 61392
61392 61456
61456 61520
61520 61584
61584 61649
61649 61713
61713 61777
61777 61842
61842 61906
61906 61970
61970 62035
62035 62098
62098 62162
62162 62227
62227 62291
62291 62355
62355 62418
62418 62483
62483 62546
62546 62610
62610 62674
62674 62739
62739 62802
62802 62866
62866 62931
62931 62995
62995 63058
63058 63122
63122 63187
63187 63251
63251 63314
63314 63379
63379 63443
63443 63506
63506 63570
63570 63635
63635 63698
63698 63762
63762 63826
63826 63890
63890 63953
63953 64017
64017 64082
64082 64145
64145 64208
64208 64273
64273 64337
64337 64400
64400 64463
64463 64528
64528 64592
64592 64655
64655 64719
64719 64784
64784 64847
64847 64912
64912 64976
64976 65040
65040 65104
65104 65167
65167 65231
65231 65296
65296 65360
65360 65425
65425 65489
65489 65552
65552 65616
65616 65681
65681 65745
