2434 2497
2883 2946
3083 3148
3148 3210
3210 3275
3275 3337
3337 3402
3402 3465
3465 3529
3529 3593
3593 3657
3657 3720
3720 3784
3784 3849
3849 3913
3913 3976
3976 4041
4041 4106
4106 4169
4169 4235
4235 4298
4298 4363
4363 4426
4426 4492
4492 4556
4556 4621
4621 4685
4685 4751
4751 4815
4815 4879
4879 4943
4943 5009
5009 5089
5089 5154
5154 5217
5217 5282
5282 5345
5345 5410
5410 5473
5473 5537
5537 5601
5601 5666
5666 5729
5729 5793
5793 5858
5858 5921
5921 5986
5986 6031
6031 6094
6094 6159
6159 6222
6222 6288
6288 6351
6351 6416
6416 6480
6480 6544
6544 6608
6608 6673
6673 6738
6738 6801
6801 6866
6866 6931
6931 6995
6995 7078
7078 7144
7144 7207
7207 7271
7271 7337
7337 7402
7402 7466
7466 7531
7531 7595
7595 7659
7659 7724
7724 7789
7789 7853
7853 7918
7918 7982
7982 8035
8035 8098
8098 8163
8163 8226
8226 8290
