90 155
1934 1998
1998 2077
2077 2141
3787 3851
3851 3914
3914 3977
3977 4031
4031 4093
4093 4157
4157 4220
4220 4284
4284 4348
4348 4411
4411 4475
4475 4539
4539 4602
4602 4666
4666 4731
4858 4922
4922 4987
4987 5051
5051 5115
5115 5180
5180 5244
5244 5307
5307 5372
5372 5437
5437 5501
5501 5564
5564 5629
5629 5694
5694 5757
5757 5821
5821 5886
5886 5950
5950 6014
6014 6078
6078 6143
6143 6207
6207 6271
6271 6335
6335 6400
6400 6464
6464 6527
6527 6592
6592 6656
6656 6719
6719 6783
6783 6848
6848 6912
6912 6975
6975 7034
7034 7099
7099 7162
7162 7225
7225 7290
7290 7353
7353 7416
7416 7480
7480 7545
7545 7608
7608 7671
7671 7736
7736 7800
7800 7863
7863 7927
7927 7991
7991 8054
8054 8118
8118 8183
8183 8246
8246 8309
8309 8374
8374 8437
8437 8500
8500 8564
8564 8629
8629 8692
8692 8756
8756 8821
8821 8885
8885 8948
8948 9012
9012 9077
9077 9140
9140 9204
9204 9269
9269 9333
9333 9396
9396 9461
9461 9525
9525 9588
9588 9652
9652 9717
9717 9780
9780 9844
9844 9909
9909 9973
9973 10037
10037 10101
10101 10166
10166 10230
10230 10294
10294 10358
10358 10423
10423 10486
10486 10551
10551 10616
10616 10680
10680 10744
10744 10808
10808 10874
10874 10938
10938 11002
11002 11090
11090 11155
11155 11218
11218 11283
11283 11347
11347 11410
11410 11474
11474 11538
11538 11602
11602 11666
11666 11730
11730 11795
11795 11859
11859 11922
11922 11987
11987 12051
12051 12115
12115 12178
12178 12243
12243 12307
12307 12370
12370 12435
12435 12498
12498 12562
12562 12626
12626 12690
12690 12752
12752 12816
12816 12880
12880 12943
12943 13006
13006 13080
13080 13144
13144 13210
13210 13274
13274 13338
13338 13402
13402 13468
13468 13532
13532 13596
13596 13660
13660 13725
13725 13789
13789 13852
13852 13917
13917 13981
13981 14045
14045 14109
14109 14174
14174 14237
14237 14300
14300 14365
14365 14429
14429 14492
14492 14557
14557 14621
14621 14685
14685 14748
14748 14813
14813 14878
14878 14942
14942 15006
15006 15088
15088 15152
15152 15216
15216 15281
15281 15345
15345 15409
15409 15474
15474 15539
15539 15602
15602 15667
15667 15732
15732 15796
15796 15860
15860 15925
15925 15990
15990 16085
16085 16151
16151 16214
16214 16279
16279 16343
16343 16408
