331 394
394 457
457 523
523 586
586 649
649 714
714 778
778 841
841 905
905 970
970 1034
1034 1099
1099 1162
1291 1356
1356 1419
1419 1483
1483 1549
1549 1613
1613 1676
1676 1741
1741 1804
1804 1869
1869 1933
1933 1998
1998 2061
2061 2126
2126 2189
2189 2255
2255 2318
2318 2384
2384 2447
2447 2513
2513 2577
2577 2640
2640 2705
2705 2771
2771 2835
2835 2899
2899 2964
2964 3030
3030 3095
3095 3158
3158 3223
3223 3288
3288 3354
3354 3417
3417 3482
3482 3548
3548 3613
3613 3676
3676 3740
3740 3806
3806 3846
3846 3909
3909 3975
3975 4038
4038 4104
4104 4167
4167 4231
4231 4297
4297 4361
4361 4424
4424 4490
4490 4554
4554 4617
4617 4681
4681 4747
4747 4809
4809 4875
4875 4938
4938 5003
5003 5091
5091 5157
5157 5220
5220 5285
5285 5348
5348 5413
5413 5478
5478 5542
5542 5605
5605 5671
5671 5735
5735 5799
5799 5862
5862 5928
5928 5992
5992 6046
6046 6111
6111 6176
6176 6240
6240 6303
6303 6369
6369 6432
6432 6497
6497 6560
6560 6626
6626 6689
6689 6753
6753 6818
6818 6881
6881 6946
6946 7010
7010 7073
7073 7138
7138 7202
7202 7265
7265 7328
7328 7392
7392 7457
7457 7519
7519 7583
7583 7647
7647 7712
7712 7775
7775 7840
7840 7904
7904 7968
7968 8030
8030 8094
8094 8160
8160 8224
8224 8287
8287 8352
8352 8416
8416 8479
8479 8543
8543 8609
8609 8673
8673 8736
8736 8800
8800 8866
8866 8930
8930 8994
8994 9061
9061 9126
9126 9189
9189 9253
9253 9317
9317 9382
9382 9445
9445 9509
9509 9574
9574 9636
9636 9700
9700 9765
9765 9828
9828 9892
9892 9955
9955 10020
10020 10083
10083 10147
10147 10212
10212 10275
10275 10338
10338 10401
10401 10466
10466 10528
10528 10592
10592 10657
10657 10720
10720 10782
10782 10847
10847 10910
10910 10973
10973 11036
11036 11100
11100 11162
11162 11226
11226 11289
11289 11354
11354 11417
11417 11479
11479 11544
11544 11608
11608 11671
11671 11733
11733 11798
11798 11862
11862 11925
11925 11988
11988 12051
12051 12116
12116 12180
12180 12242
12242 12306
12306 12371
12371 12434
12434 12497
12497 12562
12562 12624
12624 12689
12689 12753
12753 12816
12816 12881
12881 12944
12944 13008
13008 13071
13071 13135
13135 13200
13200 13264
13264 13326
13326 13391
13391 13455
13455 13519
13519 13582
13582 13647
13647 13711
13711 13775
13775 13838
13838 13904
13904 13966
13966 14031
14031 14097
14097 14160
14160 14225
14225 14287
14287 14353
14353 14417
14417 14479
14479 14544
14544 14607
14607 14672
14672 14736
14736 14798
14798 14863
14863 14927
14927 14991
14991 15053
15053 15118
15118 15182
15182 15246
15246 15308
15308 15373
15373 15437
15437 15499
15499 15563
15563 15628
15628 15691
15691 15754
15754 15818
15818 15883
15883 15945
15945 16009
16009 16073
16073 16137
16137 16200
16200 16263
16263 16328
16328 16392
16392 16454
16454 16518
16518 16583
16583 16646
16646 16708
16708 16773
16773 16837
16837 16900
16900 16962
16962 17027
17027 17066
17066 17128
17128 17192
17192 17256
17256 17320
17320 17383
17383 17447
17447 17511
17511 17575
17575 17638
17638 17701
17701 17766
17766 17829
17829 17892
17892 17957
17957 18020
18020 18083
18083 18146
18146 18211
18211 18274
18274 18338
18338 18400
18400 18464
18464 18528
18528 18592
18592 18654
18654 18719
18719 18781
18781 18846
18846 18909
18909 18974
18974 19037
19037 19100
19100 19164
19164 19229
19229 19293
19293 19355
19355 19419
19419 19484
19484 19547
19547 19612
19612 19676
19676 19739
19739 19804
19804 19868
19868 19932
19932 19995
19995 20060
20060 20124
20124 20188
20188 20251
20251 20316
20316 20381
20381 20444
20444 20508
20508 20573
20573 20637
20637 20701
20701 20739
20739 20805
20805 20869
20869 20932
20932 20997
20997 21060
21060 21123
21123 21187
21187 21252
21252 21316
21316 21378
21378 21442
21442 21507
21507 21570
21570 21633
21633 21697
21697 21762
21762 21825
21825 21888
21888 21953
21953 22016
22016 22079
22079 22143
22143 22207
22207 22270
22270 22335
22335 22373
22373 22436
22436 22500
22500 22564
22564 22626
22626 22691
22691 22754
22754 22817
22817 22882
22882 22945
22945 23007
23007 23071
23071 23136
23136 23199
23199 23261
23261 23324
23324 23389
23389 23452
23452 23515
23515 23578
23578 23642
23642 23704
23704 23769
23769 23831
23831 23895
23895 23957
23957 24022
24022 24067
24067 24130
24130 24194
24194 24257
24257 24321
24321 24383
24383 24448
24448 24510
24510 24575
24575 24637
24637 24702
24702 24765
24765 24829
24829 24891
24891 24956
24956 25020
25020 25083
25083 25146
25146 25211
25211 25273
25273 25337
25337 25400
25400 25465
25465 25527
25527 25591
25591 25655
25655 25719
25719 25781
25781 25845
25845 25908
25908 25971
25971 26035
26035 26097
26097 26161
26161 26225
26225 26288
26288 26352
26352 26414
26414 26478
26478 26540
26540 26604
26604 26666
26666 26731
26731 26794
26794 26856
26856 26920
26920 26981
26981 27040
27040 27101
27101 27165
27165 27229
27229 27291
27291 27355
27355 27417
27417 27482
27482 27543
27543 27608
27608 27670
27670 27734
27734 27798
27798 27860
27860 27924
27924 28025
28025 28090
28090 28152
28152 28217
28217 28279
28279 28344
28344 28407
28407 28471
28471 28534
28534 28597
28597 28637
28637 28700
28700 28765
28765 28828
28828 28892
28892 28954
28954 29017
29017 29082
29082 29144
29144 29207
29207 29272
29272 29334
29334 29399
29399 29462
29462 29524
29524 29587
29587 29651
29651 29714
29714 29777
29777 29839
29839 29904
29904 29966
29966 30028
30028 30091
30091 30155
30155 30217
30217 30280
30280 30319
30319 30382
30382 30443
30443 30508
30508 30571
30571 30607
30607 30671
30671 30735
30735 30798
30798 30860
30860 30924
30924 30988
30988 31051
31051 31113
31113 31178
31178 31241
31241 31304
31304 31367
31367 31432
31432 31495
31495 31557
31557 31622
31622 31685
31685 31747
31747 31812
31812 31875
31875 31937
31937 32001
32001 32064
32064 32129
32129 32191
32191 32254
32254 32319
32319 32382
32382 32446
32446 32508
32508 32573
32573 32637
32637 32699
32699 32763
32763 32828
32828 32890
32890 32955
32955 33018
33018 33083
33083 33147
33147 33211
33211 33274
33274 33339
33339 33402
33402 33465
33465 33528
33528 33593
33593 33657
33657 33719
33719 33784
33784 33847
33847 33910
33910 33974
33974 34037
34037 34100
34100 34165
34165 34227
34227 34292
34292 34354
34354 34419
34419 34482
34482 34544
34544 34607
34607 34670
34670 34709
34709 34772
34772 34835
34835 34899
34899 34962
34962 35024
35024 35087
35087 35152
35152 35214
35214 35277
35277 35342
35342 35405
35405 35468
35468 35531
35531 35596
35596 35660
35660 35722
35722 35786
35786 35851
35851 35913
35913 35977
35977 36042
36042 36105
36105 36167
36167 36231
36231 36295
36295 36358
36358 36422
36422 36485
36485 36549
36549 36614
36614 36676
36676 36740
36740 36804
36804 36867
36867 36931
36931 36996
36996 37059
37059 37122
37122 37185
37185 37248
37248 37313
37313 37377
37377 37439
37439 37503
37503 37567
37567 37631
37631 37693
37693 37758
37758 37821
37821 37883
37883 37947
37947 38011
38011 38073
38073 38137
38137 38201
38201 38264
38264 38326
38326 38389
38389 38454
38454 38516
38516 38580
38580 38643
38643 38705
38705 38768
38768 38832
38832 38895
38895 38958
38958 39021
39021 39083
39083 39146
39146 39210
39210 39272
39272 39335
39335 39397
39397 39460
39460 39523
39523 39561
39561 39623
39623 39685
39685 39748
39748 39812
39812 39875
39875 39938
39938 40001
40001 40063
40063 40125
40125 40189
40189 40252
40252 40314
40314 40377
40377 40441
40441 40503
40503 40565
40565 40628
40628 40693
40693 40756
40756 40819
40819 40880
40880 40943
40943 41006
41006 41071
41071 41132
41132 41195
41195 41260
41260 41321
41321 41384
41384 41447
41447 41511
41511 41573
41573 41636
41636 41699
41699 41762
41762 41825
41825 41889
41889 41951
41951 42015
42015 42078
42078 42141
42141 42203
42203 42267
42267 42328
42328 42392
42392 42455
42455 42516
42516 42580
42580 42643
42643 42705
42705 42767
42767 42831
42831 42894
42894 42956
42956 43018
43018 43082
43082 43144
43144 43208
43208 43270
43270 43331
43331 43369
43369 43432
43432 43495
43495 43557
43557 43620
43620 43683
43683 43744
43744 43808
43808 43869
43869 43933
43933 43994
43994 44057
44057 44095
44095 44156
44156 44219
44219 44281
44281 44344
44344 44406
44406 44444
44444 44505
44505 44569
44569 44631
44631 44693
44693 44757
44757 44818
44818 44880
44880 44944
44944 45006
45006 45067
45067 45131
45131 45193
45193 45254
45254 45316
45316 45355
45355 45417
45417 45478
45478 45542
45542 45579
45579 45640
45640 45703
45703 45766
45766 45827
45827 45889
45889 45953
45953 46015
46015 46076
46076 46140
46140 46201
46201 46264
46264 46327
46327 46390
46390 46426
46426 46488
46488 46550
46550 46614
46614 46676
46676 46738
46738 46800
46800 46862
46862 46925
46925 46987
46987 47048
47048 47110
47110 47174
47174 47236
47236 47297
47297 47361
47361 47423
47423 47485
47485 47546
47546 47610
47610 47647
47647 47708
47708 47772
47772 47833
47833 47897
47897 47958
47958 48020
48020 48084
48084 48125
48125 48186
48186 48249
48249 48313
48313 48374
48374 48437
48437 48500
48500 48564
48564 48625
48625 48688
48688 48751
48751 48814
48814 48875
48875 48937
48937 49001
49001 49062
49062 49126
49126 49188
49188 49250
49250 49313
49313 49374
49374 49437
49437 49498
49498 49561
49561 49624
49624 49686
49686 49747
49747 49809
49809 49873
49873 49910
49910 49971
49971 50035
50035 50096
50096 50158
50158 50221
50221 50283
50283 50344
50344 50408
50408 50470
50470 50531
50531 50593
50593 50655
50655 50719
50719 50780
50780 50843
50843 50906
50906 50967
50967 51030
51030 51093
51093 51154
51154 51217
51217 51278
51278 51340
51340 51403
51403 51464
51464 51528
51528 51588
51588 51651
51651 51714
51714 51776
51776 51837
51837 51900
51900 51961
51961 52024
52024 52085
52085 52149
52149 52210
52210 52272
52272 52335
52335 52397
52397 52458
52458 52521
52521 52583
52583 52644
52644 52708
52708 52770
52770 52831
52831 52893
52893 52957
52957 52994
52994 53055
53055 53118
53118 53180
53180 53242
53242 53304
53304 53368
53368 53430
53430 53491
53491 53553
53553 53617
53617 53678
53678 53742
53742 53803
53803 53866
53866 53928
53928 53990
53990 54037
54037 54099
54099 54161
54161 54224
54224 54285
54285 54348
54348 54411
54411 54474
54474 54535
54535 54599
