122 182
182 241
241 301
301 360
360 420
420 479
479 539
539 599
599 659
659 753
753 812
812 872
872 932
932 991
991 1051
1051 1111
1111 1170
1170 1229
1229 1289
1289 1349
1349 1408
1408 1469
1469 1528
1528 1588
1588 1648
1648 1708
1708 1767
1767 1828
1828 1887
1887 1947
1947 2007
2007 2067
2067 2127
2127 2187
2187 2247
2247 2308
2308 2368
2368 2428
2428 2489
2489 2549
2549 2609
2609 2670
2670 2730
2730 2790
2790 2851
2851 2911
2911 2971
2971 3031
3031 3092
3092 3152
3152 3212
3212 3273
3273 3333
3333 3394
3394 3455
3455 3515
3515 3575
3575 3636
3636 3697
3697 3757
3757 3818
3818 3913
3913 3974
3974 4034
4034 4095
4095 4155
4155 4216
4216 4276
4276 4337
4337 4397
4397 4457
4457 4518
4518 4579
4579 4639
4639 4700
4700 4761
4761 4821
4821 4881
4881 4942
4942 5003
5003 5064
5064 5124
5124 5185
5185 5245
5245 5305
5305 5367
5367 5427
5427 5488
5488 5548
5548 5609
5609 5669
5669 5730
5730 5790
5790 5851
5851 5911
5911 5972
5972 6033
6033 6094
6094 6154
6154 6215
6215 6276
6276 6337
6337 6397
6397 6459
6459 6519
6519 6581
6581 6641
6641 6702
6702 6763
6763 6823
6823 6885
6885 6946
6946 7007
7007 7067
7067 7128
7128 7189
7189 7250
7250 7311
7311 7372
7372 7433
7433 7494
7494 7555
7555 7615
7615 7677
7677 7738
7738 7798
7798 7860
7860 7921
7921 7981
7981 8042
8042 8104
8104 8165
8165 8225
8225 8287
8287 8348
8348 8409
8409 8470
8470 8532
8532 8592
8592 8653
8653 8714
8714 8775
8775 8836
8836 8897
8897 8958
8958 9019
9019 9080
9080 9142
9142 9203
9203 9264
9264 9325
9325 9386
9386 9448
9448 9509
9509 9570
9570 9631
9631 9692
9692 9754
9754 9814
9814 9875
9875 9936
9936 9998
9998 10058
10058 10120
10120 10180
10180 10241
10241 10302
10302 10363
10363 10423
10423 10485
10485 10545
10545 10607
10607 10668
10668 10728
10728 10789
10789 10850
10850 10911
10911 11033
11033 11093
11093 11154
11154 11214
11214 11274
11274 11335
11335 11395
11395 11455
11455 11516
11516 11576
11576 11636
11636 11697
11697 11757
11757 11818
11818 11878
11878 11939
11939 11999
11999 12060
12060 12121
12121 12181
12181 12242
12242 12303
12303 12364
12364 12424
12424 12485
12485 12546
12546 12606
12606 12668
12668 12728
12728 12789
12789 12851
12851 12911
12911 12972
12972 13033
13033 13094
13094 13154
13154 13216
13216 13277
13277 13337
13337 13398
13398 13459
13459 13520
13520 13581
13581 13642
13642 13702
13702 13764
13764 13824
13824 13885
13885 13946
13946 14006
14006 14068
14068 14128
14128 14189
14189 14250
14250 14311
14311 14372
14372 14433
14433 14494
14494 14555
14555 14616
14616 14677
14677 14739
14739 14800
14800 14860
14860 14922
14922 14982
14982 15043
15043 15105
15105 15165
15165 15226
15226 15287
15287 15348
15348 15409
15409 15470
15470 15530
15530 15592
15592 15653
15653 15713
15713 15774
15774 15835
15835 15958
15958 16019
16019 16080
16080 16142
16142 16203
16203 16264
16264 16325
16325 16386
16386 16447
16447 16509
16509 16570
16570 16631
16631 16692
16692 16753
16753 16814
16814 16874
16874 16935
16935 16995
16995 17056
17056 17117
17117 17177
17177 17238
17238 17299
17299 17360
17360 17420
17420 17481
17481 17542
17542 17603
17603 17663
17663 17723
17723 17785
17785 17845
17845 17905
17905 17966
17966 18027
18027 18088
18088 18149
18149 18209
18209 18269
18269 18330
18330 18391
18391 18452
18452 18513
18513 18574
18574 18635
18635 18696
18696 18756
18756 18817
18817 18878
18878 18938
18938 18999
18999 19060
19060 19121
19121 19181
19181 19242
19242 19303
19303 19364
19364 19425
19425 19486
19486 19546
19546 19606
19606 19667
19667 19728
19728 19788
19788 19849
19849 19910
19910 19970
19970 20031
20031 20092
20092 20152
20152 20214
20214 20274
20274 20335
20335 20396
20396 20456
20456 20517
20517 20578
20578 20638
20638 20699
20699 20760
20760 20820
20820 20881
20881 20942
20942 21003
21003 21063
21063 21125
21125 21185
21185 21246
21246 21307
21307 21368
21368 21428
21428 21489
21489 21551
21551 21612
21612 21672
21672 21734
21734 21794
21794 21855
21855 21917
21917 21977
21977 22038
22038 22099
22099 22159
22159 22220
22220 22281
22281 22342
22342 22403
22403 22464
22464 22525
22525 22585
22585 22647
22647 22708
22708 22769
22769 22830
22830 22892
22892 22953
22953 23014
23014 23055
23055 23115
23115 23175
23175 23235
23235 23296
23296 23356
23356 23416
23416 23477
23477 23538
23538 23598
23598 23658
23658 23719
23719 23779
23779 23839
23839 23900
23900 23959
23959 24020
24020 24080
24080 24140
24140 24200
24200 24261
24261 24321
24321 24381
24381 24441
24441 24501
24501 24562
24562 24622
24622 24683
24683 24744
24744 24804
24804 24865
24865 24926
24926 24986
24986 25046
25046 25107
25107 25167
25167 25228
25228 25289
25289 25350
25350 25410
25410 25471
25471 25531
25531 25592
25592 25653
25653 25713
25713 25775
25775 25835
25835 25895
25895 25957
25957 26018
26018 26090
26090 26152
26152 26213
26213 26275
26275 26336
26336 26396
26396 26458
26458 26519
26519 26580
26580 26641
26641 26702
26702 26763
26763 26825
26825 26886
26886 26947
26947 27007
27007 27069
27069 27130
27130 27191
27191 27252
27252 27314
27314 27375
27375 27436
27436 27497
27497 27557
27557 27619
27619 27679
27679 27740
27740 27802
27802 27862
27862 27923
27923 27985
27985 28045
28045 28106
28106 28167
28167 28228
28228 28288
28288 28350
28350 28410
28410 28471
28471 28532
28532 28592
28592 28654
28654 28714
28714 28774
28774 28836
28836 28896
28896 28958
28958 29018
29018 29079
29079 29140
29140 29201
29201 29261
29261 29323
29323 29384
29384 29444
29444 29506
29506 29566
29566 29627
29627 29689
29689 29749
29749 29811
29811 29872
29872 29932
29932 29994
29994 30055
30055 30115
30115 30177
30177 30238
30238 30298
30298 30360
30360 30421
30421 30481
30481 30543
30543 30604
30604 30665
30665 30726
30726 30787
30787 30848
30848 30909
30909 30970
30970 31031
31031 31091
31091 31153
31153 31214
31214 31274
31274 31335
31335 31396
31396 31456
31456 31518
31518 31578
31578 31639
31639 31700
31700 31761
31761 31821
31821 31883
31883 31943
31943 32004
32004 32065
32065 32125
32125 32186
32186 32248
32248 32308
32308 32369
32369 32430
32430 32491
32491 32551
32551 32613
32613 32674
32674 32735
32735 32796
32796 32858
32858 32918
32918 32980
32980 33041
33041 33102
33102 33164
33164 33225
33225 33286
33286 33348
33348 33408
33408 33470
33470 33532
33532 33593
33593 33654
33654 33715
33715 33777
33777 33838
33838 33900
33900 33961
33961 34022
34022 34083
34083 34145
34145 34205
34205 34267
34267 34328
34328 34389
34389 34451
34451 34512
34512 34573
34573 34635
34635 34696
34696 34757
34757 34819
34819 34880
34880 34941
34941 35003
35003 35064
35064 35125
35125 35186
35186 35247
35247 35309
35309 35370
35370 35432
35432 35493
35493 35555
35555 35616
35616 35676
35676 35738
35738 35799
35799 35860
35860 35922
35922 35982
35982 36043
36043 36104
36104 36166
36166 36227
36227 36288
36288 36349
36349 36409
36409 36471
36471 36531
36531 36593
36593 36654
36654 36715
36715 36776
36776 36836
36836 36897
36897 36958
36958 37019
37019 37090
37090 37151
37151 37211
37211 37272
37272 37332
37332 37393
37393 37454
37454 37514
37514 37574
37574 37611
37611 37671
37671 37767
37767 37828
37828 37889
37889 37949
37949 38010
38010 38065
38065 38124
38124 38220
38220 38279
38279 38340
38340 38399
38399 38460
38460 38520
38520 38579
38579 38639
38639 38699
38699 38760
38760 38819
38819 38879
38879 38940
38940 38999
38999 39059
39059 39120
39120 39180
39180 39240
39240 39302
39302 39361
39361 39423
39423 39483
39483 39543
39543 39603
39603 39664
39664 39724
39724 39786
39786 39846
39846 39906
39906 39968
39968 40028
40028 40088
40088 40150
40150 40210
40210 40270
40270 40332
40332 40392
40392 40453
40453 40514
40514 40574
40574 40635
40635 40697
40697 40757
40757 40819
40819 40879
40879 40940
40940 41002
41002 41062
41062 41124
41124 41185
41185 41245
41245 41306
41306 41368
41368 41428
41428 41489
41489 41550
41550 41611
41611 41672
41672 41732
