1614 1676
4257 4318
4318 4380
4750 4811
4811 4873
4873 4934
4934 4996
4996 5058
5058 5119
5119 5180
5180 5242
5242 5304
5304 5365
5365 5426
5426 5488
5488 5549
5549 5611
5611 5672
5672 5734
5734 5795
5795 5857
5857 5919
5919 5980
5980 6041
6041 6103
6103 6164
6164 6226
6226 6288
6288 6349
6349 6410
6410 6471
6594 6656
6656 6718
6718 6779
6779 6840
6840 6901
6901 6963
6963 7025
7025 7086
7086 7148
7148 7184
7184 7245
7245 7307
7307 7369
7369 7429
7429 7491
7491 7553
7553 7614
7614 7675
7675 7737
7737 7797
7797 7859
7859 7920
7920 7982
7982 8044
8044 8105
8105 8166
8166 8229
8229 8290
8290 8352
8352 8414
8414 8475
8475 8537
8537 8599
8599 8661
8661 8723
8723 8838
8838 8900
8900 8962
8962 9025
9025 9087
9897 9958
10144 10206
10206 10268
10268 10329
10329 10390
10390 10453
10453 10514
10514 10576
10576 10637
10637 10699
10699 10760
10760 10822
10822 10884
10884 10945
10945 11006
11006 11068
11068 11129
11129 11191
11191 11253
11253 11314
11314 11375
11375 11437
11437 11498
11498 11559
11559 11620
11620 11682
11682 11743
11743 11804
11804 11866
11866 11927
11927 11988
11988 12051
12051 12112
12112 12173
12173 12235
12235 12296
12296 12358
12358 12418
12418 12480
12480 12542
12542 12602
12602 12664
12664 12726
12726 12786
12786 12848
12848 12910
12910 12971
12971 13031
13031 13093
13093 13155
13155 13215
13215 13277
13277 13339
13339 13400
13400 13461
13461 13523
13523 13584
13584 13645
13645 13707
13707 13769
13769 13830
13830 13892
13892 13954
13954 14015
14015 14077
14077 14139
14139 14201
14201 14262
14262 14325
14325 14386
14386 14448
14448 14510
14510 14572
14572 14634
14634 14695
14695 14758
14758 14819
14819 14881
14881 14943
14943 15005
15005 15066
15066 15128
15128 15191
15191 15252
15252 15314
15314 15376
15376 15438
15438 15500
15500 15561
15561 15623
15623 15685
15685 15747
15747 15808
15808 15871
15871 15932
15932 15993
15993 16056
16056 16117
16117 16178
16178 16241
16241 16302
16302 16363
16363 16425
16425 16487
16487 16548
16548 16610
16610 16671
16671 16732
16732 16793
16793 16856
16856 16917
16917 16978
16978 17041
17041 17102
17102 17164
17164 17225
17225 17287
17287 17349
17349 17410
17410 17472
17472 17534
17534 17595
17595 17658
17658 17719
17719 17780
17780 17842
17842 17904
17904 17965
17965 18027
18027 18090
18090 18151
18151 18212
18212 18274
18274 18336
18336 18398
18398 18459
18459 18522
18522 18583
18583 18644
18644 18707
18707 18768
18768 18829
18829 18892
18892 18953
18953 19014
19014 19075
19075 19137
19137 19198
19198 19260
19260 19322
19322 19383
19383 19444
19444 19506
19506 19568
19568 19629
19629 19690
19690 19753
19753 19814
19814 19875
19875 19937
19937 19999
19999 20060
20060 20122
20122 20184
20184 20245
20245 20306
20306 20368
20368 20430
20430 20492
20492 20553
20553 20615
20615 20676
20676 20737
20737 20799
20799 20861
20861 20921
20921 20983
20983 21045
21045 21106
21106 21168
21168 21229
21229 21290
21290 21351
21351 21413
21413 21475
21475 21536
21536 21597
21597 21660
21660 21721
21721 21783
21783 21845
21845 21907
21907 21968
21968 22031
22031 22093
22093 22154
22154 22217
22217 22279
22279 22341
22341 22403
22403 22465
22465 22527
22527 22589
22589 22651
22651 22714
22714 22776
22776 22838
22838 22900
22900 22963
22963 23025
23025 23088
23088 23150
23150 23212
23212 23274
23274 23337
23337 23400
23400 23462
23462 23524
23524 23587
23587 23649
23649 23712
23712 23775
23775 23837
23837 23899
23899 23961
23961 24024
24024 24085
24085 24147
24147 24208
24208 24271
24271 24332
24332 24394
24394 24455
24455 24518
24518 24579
24579 24640
24640 24703
24703 24764
24764 24826
24826 24888
24888 24949
24949 25010
25010 25073
25073 25134
25134 25195
25195 25257
25257 25319
25319 25380
25380 25441
25441 25503
25503 25565
25565 25626
25626 25688
25688 25748
25748 25810
25810 25871
25871 25933
25933 25994
25994 26055
26055 26116
26116 26178
26178 26240
26240 26300
26300 26362
26362 26424
26424 26484
26484 26545
26545 26607
26607 26669
26669 26729
26729 26791
26791 26852
26852 26913
26913 26975
26975 27037
27037 27098
27098 27159
27159 27220
27220 27282
27282 27343
27343 27404
27404 27466
27466 27527
27527 27588
27588 27650
27650 27711
27711 27772
27772 27834
27834 27896
27896 27957
27957 28019
28019 28080
28080 28141
28141 28202
28202 28264
28264 28326
28326 28386
28386 28448
28448 28510
28510 28571
28571 28632
28632 28694
28694 28755
28755 28817
28817 28879
28879 28940
28940 29001
29001 29063
29063 29124
29124 29186
29186 29247
29247 29309
29309 29371
29371 29432
29432 29494
29494 29555
29555 29617
29617 29679
29679 29740
29740 29801
29801 29864
29864 29925
29925 29986
29986 30048
30048 30110
30110 30171
30171 30232
30232 30293
30293 30355
30355 30416
30416 30477
30477 30539
30539 30601
30601 30662
30662 30723
30723 30785
30785 30846
30846 30907
30907 30969
30969 31031
31031 31092
31092 31153
31153 31216
31216 31277
31277 31339
31339 31400
31400 31463
31463 31525
31525 31587
31587 31649
31649 31712
31712 31773
31773 31836
31836 31898
31898 31960
31960 32023
32023 32084
32084 32147
32147 32209
32209 32270
32270 32333
32333 32394
32394 32456
32456 32519
32519 32581
32581 32642
32642 32704
32704 32766
32766 32827
32827 32889
32889 32950
32950 33011
33011 33073
33073 33135
33135 33171
33171 33232
33232 33294
33294 33356
33356 33417
33417 33478
33478 33540
33540 33601
33601 33663
33663 33725
33725 33787
33787 33848
33848 33909
33909 33971
33971 34033
34033 34094
34094 34156
34156 34218
34218 34278
34278 34340
34340 34402
34402 34464
34464 34524
34524 34587
34587 34648
34648 34709
34709 34770
34770 34832
34832 34893
34893 34954
34954 35016
35016 35077
35077 35137
35137 35198
35198 35260
35260 35321
35321 35382
35382 35444
35444 35505
35505 35566
35566 35628
35628 35689
35689 35751
35751 35812
35812 35874
35874 35935
35935 35996
35996 36059
36059 36120
36120 36181
36181 36243
36243 36304
36304 36365
36365 36427
36427 36488
36488 36549
36549 36611
36611 36673
36673 36734
36734 36795
36795 36857
36857 36918
36918 36980
36980 37032
37032 37093
37093 37155
37155 37215
37215 37277
37277 37337
37337 37398
37398 37459
37459 37520
37520 37580
37580 37641
37641 37702
37702 37763
37763 37824
37824 37885
37885 37946
37946 38007
38007 38057
38057 38118
38118 38179
38179 38239
38239 38300
38300 38361
38361 38421
38421 38482
38482 38543
38543 38604
38604 38664
38664 38725
38725 38786
38786 38847
38847 38907
38907 38968
38968 39029
39029 39089
39089 39151
39151 39211
39211 39273
39273 39333
39333 39394
39394 39454
39454 39515
39515 39576
39576 39636
39636 39698
39698 39758
39758 39819
39819 39880
39880 39916
39916 39976
39976 40038
40038 40098
40098 40158
40158 40220
40220 40280
40280 40341
40341 40403
40403 40463
40463 40524
40524 40585
40585 40646
40646 40707
40707 40769
40769 40829
40829 40890
40890 40952
40952 41013
41013 41074
41074 41135
41135 41196
41196 41257
41257 41319
41319 41380
41380 41441
41441 41503
41503 41564
41564 41625
41625 41687
41687 41748
41748 41809
41809 41871
41871 41932
41932 41994
41994 42046
42046 42107
42107 42168
42168 42229
42229 42290
42290 42351
42351 42413
42413 42473
42473 42535
42535 42596
42596 42657
42657 42719
42719 42779
42779 42840
42840 42902
42902 42963
42963 43024
43024 43086
43086 43147
43147 43207
43207 43269
43269 43330
43330 43391
43391 43452
43452 43513
43513 43574
43574 43635
43635 43697
43697 43757
43757 43819
43819 43880
43880 43940
43940 44002
44002 44063
44063 44124
44124 44186
44186 44246
44246 44307
44307 44369
44369 44430
44430 44490
44490 44552
44552 44613
44613 44674
44674 44735
44735 44796
44796 44857
44857 44919
44919 44979
44979 45040
45040 45102
45102 45162
45162 45224
45224 45285
45285 45346
45346 45406
45406 45468
45468 45528
45528 45590
45590 45651
45651 45711
45711 45773
45773 45834
45834 45894
45894 45956
45956 46017
46017 46077
46077 46139
46139 46200
46200 46260
46260 46322
46322 46382
46382 46443
46443 46505
46505 46565
46565 46627
46627 46688
46688 46748
46748 46810
46810 46870
