722 783
968 1029
1029 1090
1090 1152
1090 1152
1152 1213
1213 1274
1274 1335
1335 1396
1396 1457
1457 1518
1518 1579
1579 1640
1640 1701
1701 1762
1762 1822
1822 1884
1884 1944
1944 2005
2005 2066
2066 2127
2127 2188
2188 2248
2248 2310
2310 2370
2370 2431
2431 2492
2492 2553
2553 2613
2735 2796
2796 2857
2857 2918
2918 2978
2978 3039
3039 3075
3075 3135
3135 3197
3197 3257
3257 3318
3318 3379
3379 3440
3440 3501
3501 3562
3562 3623
3623 3684
3684 3745
3745 3806
3806 3867
3867 3928
3928 3989
3989 4050
4050 4112
4112 4173
4173 4234
4234 4296
4296 4357
4357 4419
4419 4480
4480 4542
4542 4604
4604 4665
4665 4727
4727 4788
4788 4850
4850 4911
4911 4972
4972 5033
5033 5094
5094 5155
5155 5217
5217 5277
5277 5374
5374 5435
5435 5496
5496 5557
5557 5618
5618 5679
5679 5739
5739 5801
5801 5861
5861 5922
5922 5983
5983 6044
6044 6080
6080 6141
6141 6202
6202 6262
6262 6323
6323 6384
6384 6445
6445 6505
6505 6566
6566 6627
6627 6688
6688 6748
6748 6809
6809 6870
6870 6930
6930 6991
6991 7052
7052 7113
7113 7173
7173 7234
7234 7295
7295 7355
7355 7417
7417 7477
7477 7538
7538 7599
7599 7660
7660 7721
7721 7781
7781 7842
7842 7903
7903 7964
7964 8025
8025 8086
8086 8147
8147 8208
8208 8269
8269 8330
8330 8391
8391 8452
8452 8513
8513 8574
8574 8635
8635 8696
8696 8757
8757 8819
8819 8880
8880 8940
8940 9002
9002 9063
9063 9124
9124 9185
9185 9246
9246 9308
9308 9369
9369 9430
9430 9491
9491 9552
9552 9614
9614 9676
9676 9737
9737 9798
9798 9860
9860 9922
9922 9983
9983 10045
10045 10106
10106 10142
10142 10203
10203 10265
10265 10326
10326 10387
10387 10448
10448 10509
10509 10570
10570 10631
10631 10691
10691 10753
10753 10813
10813 10873
10873 10935
10935 10995
10995 11056
11056 11117
11117 11178
11178 11238
11238 11300
11300 11360
11360 11421
11421 11482
11482 11543
11543 11604
11604 11665
11665 11726
11726 11787
11787 11847
11847 11909
11909 11969
11969 12030
12030 12091
12091 12152
12152 12212
12212 12273
12273 12334
12334 12395
12395 12456
12456 12517
12517 12578
12578 12639
12639 12700
12700 12761
12761 12822
12822 12883
12883 12943
12943 13005
13005 13066
13066 13127
13127 13188
13188 13249
13249 13310
13310 13371
13371 13432
13432 13493
13493 13555
13555 13616
13616 13677
13677 13738
13738 13799
13799 13860
13860 13921
13921 13982
13982 14043
14043 14104
14104 14165
14165 14225
14225 14287
14287 14347
14347 14408
14408 14469
14469 14530
14530 14591
14591 14652
14652 14713
14713 14774
14774 14835
14835 14896
14896 14956
14956 15017
15017 15078
15078 15139
15139 15200
15200 15261
15261 15321
15321 15383
15383 15444
15444 15505
15505 15566
15566 15627
15627 15689
15689 15750
15750 15812
15812 15873
15873 15934
15934 15996
15996 16057
16057 16118
16118 16180
16180 16241
16241 16302
16302 16364
16364 16425
16425 16486
16486 16547
16547 16609
16609 16670
16670 16731
16731 16793
16793 16854
16854 16915
16915 16976
16976 17038
17038 17099
17099 17160
17160 17222
17222 17284
17284 17345
17345 17406
17406 17468
17468 17530
17530 17592
17592 17653
17653 17715
17715 17776
17776 17838
17838 17900
17900 17961
17961 18023
18023 18084
18084 18145
18145 18206
18206 18267
18267 18328
18328 18389
18389 18450
18450 18511
18511 18572
18572 18633
18633 18694
18694 18755
18755 18815
18815 18876
18876 18937
18937 18998
18998 19059
19059 19120
19120 19181
19181 19241
19241 19303
19303 19363
19363 19424
19424 19485
19485 19545
19545 19606
19606 19667
19667 19728
19728 19789
19789 19850
19850 19911
19911 19972
19972 20032
20032 20094
20094 20154
20154 20215
20215 20276
20276 20337
20337 20398
20398 20458
20458 20519
20519 20580
20580 20641
20641 20702
20702 20763
20763 20823
20823 20884
20884 20945
20945 21006
21006 21066
21066 21128
21128 21188
21188 21250
21250 21310
21310 21371
21371 21433
21433 21494
21494 21555
21555 21616
21616 21677
21677 21739
21739 21800
21800 21858
21858 21920
21920 21981
21981 22043
22043 22105
22105 22166
22166 22228
22228 22289
22289 22351
22351 22412
22412 22473
22473 22534
22534 22596
22596 22657
22657 22718
22718 22779
22779 22840
22840 22901
22901 22962
22962 23023
23023 23083
23083 23144
23144 23241
23241 23302
23302 23363
23363 23424
23424 23485
23485 23546
23546 23607
23607 23667
23667 23729
23729 23790
23790 23851
23851 23912
23912 23973
23973 24033
24033 24094
24094 24155
24155 24216
24216 24277
24277 24337
24337 24398
24398 24459
24459 24519
24519 24581
24581 24641
24641 24701
24701 24763
24763 24823
24823 24884
24884 24945
24945 25005
25005 25066
25066 25127
25127 25188
25188 25248
25248 25309
25309 25369
25369 25430
25430 25491
25491 25552
25552 25612
25612 25674
25674 25734
25734 25795
25795 25856
25856 25917
25917 25977
25977 26038
26038 26099
26099 26159
26159 26219
26219 26280
26280 26340
26340 26401
26401 26462
26462 26522
26522 26582
26582 26643
26643 26703
26703 26764
26764 26825
26825 26885
26885 26946
26946 27006
27006 27067
27067 27127
27127 27188
27188 27249
27249 27309
27309 27370
27370 27431
27431 27492
27492 27553
27553 27614
27614 27675
