1032 1108
1108 1183
1183 1258
1258 1334
1334 1409
1409 1484
1484 1560
1560 1634
1634 1710
1710 1786
1786 1861
1861 1936
1936 2012
2012 2094
2094 2168
2168 2243
2243 2318
2318 2393
2393 2469
2469 2545
2545 2620
2620 2696
2696 2771
2771 2846
2846 2922
2922 2997
2997 3104
3104 3180
3180 3255
3255 3330
3330 3405
3405 3481
