993 1037
3659 3736
3736 3813
3813 3890
3890 3967
3967 4044
4044 4121
4121 4198
4198 4275
4275 4352
4352 4429
4429 4506
4506 4584
4584 4661
4661 4738
4738 4815
4815 4892
4892 4969
4969 5046
5046 5123
5123 5200
5200 5277
5277 5354
5354 5431
5431 5508
5508 5586
5586 5663
5663 5741
5741 5818
5818 5972
5972 6051
6051 6130
6130 6207
6207 6285
6285 6363
6363 6442
6442 6520
6520 6598
6598 6676
6676 6755
6755 6834
6834 6913
6913 6992
6992 7070
7070 7148
7148 7227
7227 7305
7305 7383
7383 7461
7461 7538
7538 7616
7616 7693
7693 7771
7771 7848
7848 7926
7926 8003
8003 8080
8080 8158
8158 8235
8235 8312
8312 8389
8389 8466
8466 8543
8543 8620
8620 8697
8697 8774
8774 8851
8851 8928
8928 9005
9005 9083
9083 9160
9160 9238
9238 9316
9316 9394
9394 9472
9472 9551
9551 9629
9629 9709
9709 9788
9788 9866
9866 9953
9953 10030
10030 10105
10105 10183
10183 10261
10261 10339
10339 10417
10417 10496
10496 10574
10574 10653
10653 10732
10732 10811
10811 10890
10890 10969
10969 11047
11047 11126
11126 11205
11205 11284
11284 11363
11363 11442
11442 11520
11520 11599
11599 11678
11678 11758
11758 11838
11838 11917
11917 11997
11997 12077
12077 12156
12156 12235
12235 12315
12315 12394
12394 12474
12474 12553
12553 12632
12632 12711
12711 12791
12791 12870
12870 12950
12950 13029
13029 13106
13106 13186
13186 13265
13265 13344
13344 13424
13424 13503
13503 13584
13584 13664
13664 13744
13744 13824
13824 13904
13904 13984
13984 14065
14065 14144
14144 14225
14225 14306
14306 14386
14386 14465
14465 14545
14545 14625
14625 14704
14704 14784
14784 14895
14895 14953
14953 15051
15051 15132
15132 15212
15212 15293
15293 15372
15372 15452
15452 15531
15531 15611
15611 15690
15690 15769
15769 15847
15847 15926
15926 16005
16005 16065
16065 16144
16144 16223
16223 16301
16301 16380
16380 16459
16459 16538
16538 16616
16616 16694
16694 16772
16772 16851
16851 16929
16929 17008
17008 17086
17086 17164
17164 17242
17242 17321
17321 17399
17399 17477
17477 17556
17556 17634
17634 17712
17712 17791
17791 17869
17869 17947
17947 18044
18044 18122
18122 18201
18201 18280
18280 18359
18359 18437
18437 18516
18516 18594
18594 18673
18673 18751
18751 18830
18830 18909
18909 18986
18986 19064
19064 19142
19142 19220
19220 19299
19299 19377
19377 19456
19456 19535
19535 19612
19612 19691
19691 19770
19770 19847
19847 19926
19926 20004
20004 20047
20047 20125
20125 20204
20204 20283
20283 20362
20362 20440
20440 20519
20519 20598
20598 20677
20677 20756
20756 20835
20835 20913
20913 20991
20991 21070
21070 21149
21149 21227
21227 21306
21306 21385
21385 21463
21463 21541
21541 21620
21620 21699
21699 21778
21778 21857
21857 21936
21936 22014
22014 22113
22113 22192
22192 22269
22269 22348
22348 22425
22425 22504
22504 22581
22581 22660
22660 22738
22738 22816
22816 22894
22894 22972
22972 23092
23092 23169
23169 23248
23248 23327
23327 23405
23405 23484
23484 23562
23562 23641
23641 23719
23719 23798
23798 23877
23877 23955
23955 24076
24076 24155
24155 24234
24234 24313
24313 24392
24392 24471
24471 24549
24549 24628
24628 24707
24707 24786
24786 24864
24864 24943
24943 25021
25021 25100
25100 25179
25179 25257
25257 25335
25335 25414
25414 25492
25492 25571
25571 25650
25650 25729
25729 25808
25808 25887
25887 25966
25966 26045
26045 26124
26124 26202
26202 26280
26280 26359
26359 26437
26437 26515
26515 26593
26593 26671
26671 26749
26749 26826
26826 26903
26903 26981
26981 27059
27059 27136
27136 27215
27215 27292
27292 27370
27370 27448
27448 27526
27526 27604
27604 27682
27682 27760
27760 27838
27838 27916
27916 27995
27995 28044
28044 28121
28121 28199
28199 28277
28277 28355
28355 28432
28432 28509
28509 28588
28588 28665
28665 28744
28744 28821
28821 28900
