614 709
709 802
7420 7514
7514 7609
7609 7704
7704 7797
7797 7892
7892 7989
7989 8086
8086 8180
8180 8275
8275 8369
8369 8465
8465 8559
8559 8653
8653 8743
8743 8838
8838 8933
8933 9027
9027 9121
9121 9220
9220 9316
9316 9414
9414 9513
9513 9614
9614 9710
9710 9807
9807 9903
9903 10003
10003 10132
10132 10229
10229 10325
10325 10420
10420 10518
10518 10612
10612 10706
10706 10798
10798 10896
10896 10993
10993 11086
11086 11179
11179 11270
11270 11365
11365 11460
11460 11552
11552 11645
11645 11739
11739 11836
11836 11929
11929 12023
12023 12115
12115 12208
12208 12301
12301 12395
12395 12486
12486 12578
12578 12675
12675 12769
12769 12863
12863 12955
12955 13050
13050 13146
13146 13240
13240 13332
13332 13425
13425 13518
13518 13611
13611 13703
13703 13796
13796 13890
13890 13984
13984 14078
14078 14169
14169 14266
14266 14363
14363 14458
14458 14551
14551 14642
14642 14735
14735 14826
14826 14975
14975 15063
15063 15154
15154 15244
15244 15395
15395 15485
15485 15580
15580 15676
15676 15771
15771 15868
15868 15967
15967 16075
16075 16170
16170 16268
16268 16366
16366 16464
16464 16558
16558 16651
16651 16743
16743 16838
16838 16932
16932 17027
17027 17129
17129 17226
17226 17327
17327 17423
17423 17519
17519 17615
17615 17714
17714 17808
17808 17902
17902 17997
17997 18092
18092 18187
18187 18280
18280 18376
18376 18479
18479 18574
18574 18671
18671 18767
18767 18867
18867 18964
18964 19059
19059 19153
19153 19246
19246 19342
19342 19435
19435 19529
19529 19622
19622 19718
19718 19813
19813 19908
19908 20001
20001 20095
20095 20193
20193 20287
20287 20380
20380 20472
20472 20564
20564 20659
20659 20751
20751 20843
20843 20932
20932 21022
21022 21111
21111 21199
21199 21286
21286 21373
21373 21461
21461 21548
21548 21637
21637 21726
21726 21819
21819 21909
21909 22002
22002 22094
22094 22187
22187 22276
22276 22367
22367 22458
22458 22548
22548 22636
22636 22723
22723 22810
22810 22898
22898 22984
22984 23071
23071 23159
23159 23248
23248 23335
23335 23423
23423 23513
23513 23602
23602 23690
23690 23778
23778 23867
23867 23956
23956 24045
24045 24133
24133 24222
24222 24312
24312 24402
24402 24490
24490 24580
24580 24671
24671 24762
24762 24850
24850 24940
24940 25033
25033 25192
25192 25281
25281 25373
25373 25465
25465 25556
25556 25646
25646 25739
25739 25832
25832 25924
25924 26015
26015 26132
26132 26228
26228 26319
26319 26412
26412 26506
26506 26602
26602 26697
26697 26793
26793 26890
26890 26989
26989 27097
27097 27188
27188 27280
27280 27374
27374 27538
27538 27634
27634 27731
27731 27899
27899 27996
27996 28122
28122 28213
28213 28308
28308 28401
28401 28495
28495 28588
28588 28682
28682 28778
28778 28872
28872 28966
28966 29076
29076 29172
29172 29269
29269 29362
29362 29454
29454 29552
29552 29649
29649 29745
29745 29838
29838 29931
29931 30026
30026 30123
30123 30216
30216 30309
30309 30404
30404 30501
30501 30598
30598 30695
30695 30791
30791 30894
30894 30991
30991 31087
31087 31186
31186 31283
31283 31378
31378 31473
31473 31568
31568 31665
31665 31760
31760 31852
31852 31946
31946 32035
32035 32124
32124 32212
32212 32301
32301 32388
32388 32476
32476 32564
32564 32653
32653 32741
32741 32829
32829 32918
32918 33004
33004 33090
33090 33174
33174 33262
33262 33345
33345 33430
33430 33514
33514 33600
33600 33684
33684 33770
33770 33854
33854 33939
33939 34026
34026 34095
34095 34186
34186 34279
34279 34370
34370 34463
34463 34557
34557 34650
34650 34740
34740 34835
34835 34929
34929 35043
35043 35133
35133 35222
35222 35314
35314 35405
35405 35494
35494 35584
35584 35674
35674 35764
35764 35853
35853 35942
35942 36008
36008 36097
36097 36185
36185 36274
36274 36365
36365 36455
36455 36546
36546 36637
36637 36735
36735 36829
36829 36923
36923 37036
37036 37127
37127 37221
37221 37316
37316 37409
37409 37501
37501 37597
37597 37693
37693 37785
37785 37876
37876 37967
37967 38059
38059 38150
38150 38241
38241 38329
38329 38419
38419 38509
38509 38599
38599 38689
38689 38783
38783 38878
38878 38971
38971 39064
39064 39158
39158 39253
39253 39347
39347 39441
39441 39533
39533 39628
39628 39725
39725 39818
39818 39911
39911 40003
40003 40098
40098 40193
40193 40289
40289 40379
40379 40471
40471 40566
40566 40657
40657 40749
40749 40842
40842 40938
40938 41033
41033 41128
41128 41224
41224 41324
41324 41420
41420 41515
41515 41610
41610 41706
41706 41801
41801 41896
41896 41988
41988 42085
42085 42180
42180 42274
42274 42367
42367 42461
42461 42553
42553 42645
42645 42735
42735 42829
42829 42923
42923 43014
43014 43055
43055 43159
43159 43255
43255 43352
43352 43459
43459 43555
43555 43656
43656 43753
43753 43849
43849 43943
43943 44042
44042 44139
44139 44234
44234 44326
44326 44420
44420 44514
44514 44606
44606 44698
44698 44792
44792 44887
44887 44981
44981 45073
45073 45169
45169 45263
45263 45357
45357 45450
45450 45547
45547 45645
45645 45739
45739 45832
45832 45924
45924 46018
46018 46087
46087 46180
46180 46274
46274 46369
46369 46530
46530 46621
46621 46718
46718 46813
46813 46905
46905 46999
46999 47038
47038 47131
47131 47222
47222 47315
47315 47407
47407 47498
47498 47587
47587 47677
47677 47770
47770 47860
47860 47951
47951 48040
48040 48131
48131 48221
48221 48312
48312 48400
48400 48490
48490 48591
48591 48679
48679 48772
48772 48863
48863 48956
48956 49047
49047 49137
49137 49227
