661 736
661 736
736 810
810 860
1008 1074
1074 1150
1150 1225
1225 1300
1300 1375
1375 1451
1451 1526
1526 1601
1601 1676
1676 1752
1752 1828
1828 1904
1904 1980
1980 2056
2056 2133
2133 2210
2210 2286
2286 2363
2363 2439
2439 2516
2516 2593
2593 2670
2670 2747
2747 2824
2824 2876
2876 2953
2953 3029
3029 3105
3105 3181
3181 3257
3257 3333
3333 3409
3409 3485
3485 3562
3562 3638
3638 3714
3714 3789
3789 3865
3865 3941
3941 4017
4017 4093
4093 4169
4169 4245
4245 4320
4320 4397
4397 4473
4473 4548
4548 4625
4625 4702
4702 4778
4778 4854
4854 4930
4930 5007
5007 5082
5082 5159
5159 5234
5234 5310
5310 5387
5387 5462
5462 5539
5539 5614
5614 5690
5690 5766
5766 5841
5841 5917
5917 5993
5993 6069
6069 6145
6145 6220
6220 6296
6296 6372
6372 6448
6448 6524
6524 6600
6600 6675
6675 6752
6752 6827
6827 6903
6903 6979
6979 7055
7055 7131
7131 7207
7207 7283
7283 7358
7358 7435
7435 7510
7510 7587
7587 7663
7663 7739
7739 7816
7816 7892
7892 7969
7969 8046
8046 8124
8124 8201
8201 8277
8277 8354
8354 8431
8431 8507
8507 8584
8584 8659
8659 8711
8711 8787
8787 8862
8862 8938
8938 9034
9034 9111
9111 9189
9189 9266
9266 9344
9344 9422
9422 9500
9500 9578
9578 9655
9655 9733
9733 9811
9811 9888
9888 9967
9967 10045
10045 10124
10124 10204
10204 10283
10283 10362
10362 10442
10442 10521
10521 10601
10601 10682
10682 10762
10762 10843
10843 10924
10924 11003
11003 11083
11083 11162
11162 11242
11242 11322
11322 11401
11401 11481
11481 11561
11561 11640
11640 11719
11719 11799
11799 11878
11878 11956
11956 12036
12036 12115
12115 12194
12194 12272
12272 12351
12351 12429
12429 12507
12507 12585
12585 12664
12664 12742
12742 12821
12821 12900
12900 12977
12977 13055
13055 13133
13133 13210
13210 13288
13288 13366
13366 13444
13444 13522
13522 13598
13598 13676
13676 13752
13752 13829
13829 13906
13906 13983
13983 14060
14060 14137
14137 14213
14213 14290
14290 14366
14366 14444
14444 14520
14520 14597
14597 14674
14674 14751
14751 14828
14828 14905
14905 14981
14981 15053
15053 15128
15128 15205
15205 15280
15280 15356
15356 15433
15433 15508
15508 15585
15585 15661
15661 15737
15737 15813
15813 15890
15890 15966
15966 16042
16042 16118
16118 16170
16170 16245
16245 16322
16322 16398
16398 16474
16474 16550
16550 16627
16627 16703
16703 16778
16778 16855
16855 16931
16931 17007
17007 17083
17083 17160
17160 17237
17237 17314
17314 17391
17391 17467
17467 17544
17544 17619
17619 17696
17696 17773
17773 17849
17849 17926
17926 18002
18002 18053
18053 18142
18142 18212
18212 18281
18281 18352
18352 18421
18421 18492
18492 18563
18563 18633
18633 18705
18705 18777
18777 18850
18850 18922
18922 18995
18995 19069
19069 19143
19143 19217
19217 19292
19292 19367
19367 19442
19442 19518
19518 19594
19594 19645
19645 19720
19720 19796
19796 19872
19872 19948
19948 20023
20023 20099
20099 20174
20174 20249
20249 20325
20325 20400
20400 20475
20475 20550
20550 20675
20675 20749
20749 20824
20824 20899
20899 20973
20973 21058
21058 21107
21107 21179
21179 21252
21252 21324
21324 21396
21396 21469
21469 21541
21541 21589
21589 21661
21661 21733
21733 21806
21806 21879
