2954 3105
3105 3165
4060 4150
5500 5589
5589 5678
5859 5949
5949 6016
9040 9125
9125 9210
9210 9296
9296 9382
9382 9468
9468 9554
9554 9640
9640 9728
9728 9815
9815 9902
9902 9989
9989 10076
10076 10163
10163 10251
10251 10338
10338 10425
10425 10512
10512 10599
10599 10686
10686 10748
10748 10834
10834 10922
10922 11009
11009 11096
11096 11183
11183 11270
11270 11356
11356 11442
11442 11527
11527 11613
11613 11698
11698 11783
11783 11869
11869 11954
11954 12041
12041 12127
12127 12215
12215 12303
12303 12391
12391 12480
12480 12569
12569 12657
12657 12746
12746 12836
12836 12926
12926 13015
13015 13104
13104 13193
13193 13282
13282 13370
13370 13459
13459 13547
13547 13636
13636 13725
13725 13814
13814 13903
13903 13990
13990 14077
14077 14164
14164 14251
14251 14337
14337 14422
14422 14508
14508 14593
14593 14679
14679 14764
14764 14849
14849 14935
14935 15021
15021 15108
15108 15194
15194 15281
15281 15368
15368 15455
15455 15542
15542 15629
15629 15717
15717 15804
15804 15892
15892 15979
15979 16066
16066 16153
16153 16239
16239 16325
16325 16409
16409 16493
16493 16576
16576 16658
16658 16740
16740 16821
16821 16903
16903 16985
16985 17081
17081 17171
17171 17260
17260 17350
17350 17440
17440 17530
17530 17620
17620 17709
17709 17799
17799 17888
17888 17977
17977 18066
18066 18155
18155 18244
18244 18334
18334 18424
18424 18512
18512 18600
18600 18688
18688 18777
18777 18866
18866 18955
18955 19045
19045 19135
19135 19225
19225 19315
19315 19405
19405 19496
19496 19587
19587 19677
19677 19767
19767 19857
19857 19947
19947 20031
20031 20121
20121 20212
20212 20305
20305 20397
20397 20489
20489 20580
20580 20672
20672 20762
20762 20853
20853 20945
20945 21037
21037 21130
21130 21223
21223 21316
21316 21408
21408 21501
21501 21592
21592 21684
21684 21776
21776 21869
21869 21963
21963 22057
22057 22152
22152 22245
22245 22338
22338 22431
22431 22525
22525 22618
22618 22712
22712 22805
22805 22899
22899 22992
22992 23084
23084 23176
23176 23268
23268 23358
23358 23449
23449 23541
23541 23633
23633 23725
23725 23818
23818 23910
23910 24003
24003 24100
24100 24194
24194 24286
24286 24377
24377 24469
