9947 10015
26044 26133
45902 45971
46041 46111
46111 46180
46180 46250
46250 46319
46319 46389
46389 46458
46458 46527
46527 46596
46596 46665
46665 46734
46734 46803
46803 46872
46872 46942
46942 47010
47010 47079
47079 47149
47149 47219
47219 47288
47288 47357
47357 47427
47427 47496
47496 47565
47565 47635
47635 47704
47704 47774
47774 47843
47843 47912
47912 47981
47981 48051
48051 48120
48120 48189
48189 48258
48258 48327
48327 48396
48396 48465
48465 48533
48533 48602
48602 48671
48671 48740
48740 48808
48808 48877
48877 48946
48946 49015
49015 49083
49083 49151
49151 49220
49220 49289
49289 49357
49357 49426
49426 49494
49494 49563
49563 49632
49632 49700
49700 49769
49769 49837
49837 49906
49906 49974
49974 50042
50042 50111
50111 50179
50179 50247
50247 50316
50316 50385
50385 50453
50453 50521
50521 50589
50589 50658
50658 50727
50727 50795
50795 50863
50863 50931
50931 50999
50999 51067
51067 51135
51135 51202
51202 51270
51270 51338
51338 51406
51406 51474
51474 51542
51542 51610
51610 51678
51678 51747
51747 51815
51815 51883
51883 51952
51952 52021
52021 52090
52090 52159
52159 52227
52227 52297
52297 52366
52366 52435
52435 52503
52503 52572
52572 52641
52641 52710
52710 52779
52779 52848
52848 52917
52917 52986
52986 53054
53054 53123
53123 53192
53192 53261
53261 53329
53329 53398
53398 53467
53467 53536
53536 53605
53605 53673
53673 53743
53743 53812
53812 53881
53881 53949
53949 54018
54018 54086
54086 54155
54155 54223
54223 54291
54291 54360
54360 54428
54428 54496
54496 54564
54564 54632
54632 54701
54701 54770
54770 54838
54838 54906
54906 54975
54975 55044
55044 55113
55113 55181
55181 55249
55249 55318
55318 55387
55387 55455
55455 55523
55523 55592
55592 55661
55661 55729
55729 55798
55798 55866
55866 55934
55934 56003
56003 56071
56071 56139
56139 56207
56207 56275
56275 56343
56343 56411
56411 56478
56478 56546
56546 56614
56614 56681
56681 56748
56748 56816
56816 56884
56884 56952
56952 57020
57020 57088
57088 57156
57156 57225
57225 57295
57295 57364
57364 57433
57433 57502
57502 57571
57571 57640
57640 57709
57709 57778
57778 57847
57847 57917
57917 57986
57986 58059
58059 58128
58128 58197
58197 58267
58267 58336
58336 58406
58406 58475
58475 58545
58545 58615
58615 58684
58684 58754
58754 58824
58824 58894
58894 58963
58963 59032
59032 59101
59101 59170
59170 59239
59239 59307
59307 59376
59376 59445
59445 59514
59514 59582
59582 59650
59650 59719
59719 59787
59787 59855
59855 59923
59923 59990
59990 60057
60057 60125
60125 60193
60193 60260
60260 60327
60327 60394
60394 60462
60462 60530
60530 60598
60598 60666
60666 60733
60733 60802
60802 60871
60871 60939
60939 61008
61008 61077
61077 61147
61147 61217
61217 61287
61287 61358
61358 61428
61428 61499
61499 61571
61571 61642
61642 61713
61713 61785
61785 61856
61856 61927
61927 61999
61999 62070
62070 62141
62141 62212
62212 62284
62284 62356
62356 62427
62427 62498
62498 62569
62569 62641
62641 62712
62712 62783
62783 62854
62854 62925
62925 62995
62995 63065
63065 63135
63135 63206
63206 63276
63276 63346
63346 63415
63415 63485
63485 63554
63554 63623
63623 63693
63693 63762
63762 63830
63830 63899
63899 63968
63968 64037
64037 64081
64081 64150
64150 64220
64220 64289
64289 64358
64358 64427
64427 64496
64496 64566
64566 64635
64635 64703
64703 64772
64772 64841
64841 64909
64909 64978
64978 65047
65047 65116
65116 65185
65185 65254
65254 65323
65323 65393
65393 65463
65463 65532
65532 65602
65602 65672
65672 65742
65742 65811
65811 65881
65881 65951
65951 66021
66021 66090
66090 66161
66161 66230
66230 66300
66300 66369
66369 66439
66439 66508
66508 66577
66577 66646
66646 66715
66715 66784
66784 66852
66852 66920
66920 66989
66989 67057
67057 67125
67125 67193
67193 67262
67262 67331
67331 67400
67400 67469
67469 67538
67538 67608
67608 67677
67677 67746
67746 67815
67815 67885
67885 67954
67954 68023
68023 68091
68091 68160
68160 68228
68228 68297
68297 68366
68366 68434
68434 68503
68503 68571
68571 68639
68639 68707
