8937 9114
9114 9207
9207 9300
9300 9392
9392 9485
9485 9578
9578 9670
9670 9763
9763 9856
9856 9948
9948 10041
10041 10135
10135 10227
10227 10320
10320 10414
10414 10506
10506 10600
10600 10693
10693 10786
10786 10879
10879 10973
10973 11067
11067 11162
11162 11256
11256 11351
11351 11444
11444 11538
11538 11632
11632 11725
11725 11819
11819 11913
11913 12006
12006 12099
12099 12193
12193 12286
12286 12379
12379 12474
12474 12566
12566 12660
12660 12754
12754 12846
12846 12940
12940 13086
13086 13179
13179 13273
13273 13366
13366 13459
13459 13553
13553 13646
13646 13739
13739 13833
13833 13925
13925 14018
14018 14111
14111 14203
14203 14297
14297 14390
14390 14484
14484 14577
14577 14671
14671 14764
14764 14857
14857 14951
14951 15043
15043 15136
15136 15229
15229 15321
15321 15414
15414 15506
15506 15598
15598 15691
15691 15784
15784 15875
15875 15968
15968 16060
16060 16153
16153 16245
16245 16339
16339 16431
16431 16524
16524 16618
16618 16711
16711 16804
16804 16897
16897 16990
16990 17084
17084 17177
17177 17270
17270 17364
17364 17457
17457 17549
17549 17642
17642 17736
17736 17829
17829 17922
17922 18016
18016 18109
18109 18203
18203 18297
18297 18390
18390 18483
18483 18577
18577 18670
18670 18764
18764 18857
18857 18950
18950 19043
19043 19136
19136 19229
19229 19322
19322 19416
19416 19508
19508 19601
19601 19695
19695 19788
19788 19882
19882 19975
19975 20051
20051 20144
20144 20237
20237 20330
20330 20422
20422 20515
20515 20607
20607 20700
20700 20793
20793 20887
20887 20980
20980 21073
21073 21167
21167 21260
21260 21353
21353 21446
21446 21539
21539 21633
21633 21726
21726 21819
21819 21913
21913 22006
22006 22099
22099 22192
22192 22286
22286 22379
22379 22472
22472 22565
22565 22659
22659 22753
22753 22846
22846 22941
22941 23034
23034 23128
23128 23222
23222 23316
23316 23408
23408 23502
23502 23595
23595 23687
23687 23780
23780 23873
23873 23965
23965 24058
24058 24151
24151 24244
24244 24337
24337 24430
24430 24522
24522 24615
24615 24709
24709 24802
24802 24895
24895 24988
24988 25082
25082 25176
25176 25269
25269 25362
25362 25455
25455 25548
25548 25641
25641 25735
25735 25827
25827 25921
25921 26015
26015 26107
26107 26201
26201 26294
26294 26387
26387 26481
26481 26575
26575 26668
26668 26762
26762 26855
26855 26949
26949 27089
27089 27182
27182 27275
27275 27367
27367 27460
27460 27554
27554 27646
27646 27739
27739 27831
27831 27923
27923 28016
28016 28109
28109 28201
28201 28293
28293 28386
28386 28479
28479 28571
28571 28664
28664 28756
28756 28849
