966 1037
1037 1106
1106 1174
1174 1243
1243 1311
1311 1379
1379 1447
1447 1516
1516 1585
1585 1653
1653 1721
1721 1790
1790 1859
1859 1928
1928 1996
1996 2068
2068 2136
2136 2204
2204 2272
2272 2340
2340 2408
2408 2476
2476 2544
2544 2612
2612 2680
2680 2747
2747 2816
2816 2884
2884 2952
2952 3020
3020 3089
3089 3157
3157 3226
3226 3295
3295 3363
3363 3432
3432 3500
3500 3569
3569 3637
3637 3705
3705 3774
3774 3842
3842 3911
3911 3978
3978 4047
4047 4116
4116 4184
4184 4252
4252 4321
4321 4389
4389 4458
4458 4526
4526 4594
4594 4663
4663 4732
4732 4801
4801 4869
4869 4937
4937 5006
5006 5074
5074 5142
5142 5211
5211 5279
5279 5348
5348 5417
5417 5485
5485 5554
5554 5623
5623 5692
5692 5760
5760 5828
5828 5897
5897 5965
5965 6033
6033 6100
6100 6168
6168 6237
6237 6306
6306 6374
6374 6443
6443 6512
6512 6581
6581 6650
6650 6719
6719 6789
6789 6859
6859 6928
6928 6997
6997 7067
7067 7137
7137 7206
7206 7274
7274 7343
7343 7412
7412 7480
7480 7548
7548 7616
7616 7684
7684 7753
7753 7820
7820 7889
7889 7956
7956 8024
8024 8093
8093 8161
8161 8228
8228 8296
8296 8364
8364 8433
8433 8502
8502 8570
8570 8639
8639 8707
8707 8776
8776 8844
8844 8911
8911 8980
8980 9044
9044 9113
9249 9316
9316 9384
9384 9453
9453 9521
9521 9588
9588 9656
9656 9724
9724 9793
9793 9860
9860 9928
9928 9997
9997 10039
10039 10107
10107 10175
10175 10244
10244 10312
10312 10381
10381 10449
10449 10517
10517 10586
10586 10655
10655 10724
10724 10792
10792 10861
10861 10930
10930 10998
10998 11040
11040 11109
11109 11177
11177 11244
11244 11313
11313 11382
11382 11450
11450 11518
11518 11586
11586 11654
11654 11723
11723 11791
11791 11859
11859 11928
11928 11997
11997 12065
12065 12132
12132 12201
12201 12269
12269 12337
12337 12405
12405 12472
12472 12540
12540 12609
12609 12676
12676 12744
12744 12812
12812 12881
12881 12949
12949 13045
13045 13114
13114 13184
13184 13255
13255 13324
13324 13395
13395 13466
13466 13537
13537 13607
13607 13677
13677 13747
13747 13818
13818 13889
13889 13961
13961 14031
14031 14101
14101 14172
14172 14244
14244 14315
14315 14386
14386 14456
14456 14528
14528 14599
14599 14670
14670 14740
14740 14810
14810 14879
14879 14950
14950 15020
15020 15109
15109 15177
15177 15247
15247 15316
15316 15386
15386 15455
15455 15523
15523 15593
15593 15662
15662 15731
15731 15800
15800 15869
15869 15938
15938 16008
16008 16049
16049 16118
16118 16189
16189 16259
16259 16329
16329 16399
16399 16469
16469 16539
16539 16610
16610 16679
16679 16748
16748 16818
16818 16888
16888 16957
16957 17027
17027 17096
17096 17166
17166 17236
17236 17305
17305 17373
17373 17443
17443 17513
17513 17583
17583 17652
17652 17721
17721 17791
17791 17860
17860 17929
17929 17998
17998 18101
18101 18169
18169 18237
18237 18306
18306 18375
18375 18444
18444 18513
18513 18581
18581 18651
18651 18721
18721 18791
18791 18860
18860 18931
18931 19001
19001 19041
19041 19111
19111 19180
19180 19250
19250 19320
19320 19389
19389 19459
19459 19530
19530 19601
19601 19672
19672 19742
19742 19811
19811 19882
19882 19953
19953 20036
20036 20105
20105 20174
20174 20243
20243 20312
20312 20381
20381 20450
20450 20520
20520 20590
20590 20660
20660 20729
20729 20799
20799 20869
20869 20939
20939 21009
21009 21101
21101 21173
