7078 7156
7156 7234
9817 9894
9894 9972
9972 10024
10180 10257
10257 10335
10335 10412
10412 10490
10490 10568
10568 10646
10646 10724
10724 10801
10801 10880
10880 10958
10958 11036
11036 11114
11114 11193
11193 11272
11272 11350
11350 11428
11428 11506
11506 11585
11585 11663
11663 11741
11741 11819
11819 11897
11897 11975
11975 12052
12052 12130
12130 12207
12207 12284
12284 12362
12362 12439
12439 12517
12517 12594
12594 12671
12671 12748
12748 12826
12826 12903
12903 12980
12980 13057
13057 13135
13135 13212
13212 13290
13290 13367
13367 13444
13444 13522
13522 13599
13599 13677
13677 13754
13754 13832
13832 13909
13909 13987
13987 14065
14065 14142
14142 14220
14220 14297
14297 14375
14375 14452
14452 14529
14529 14607
14607 14684
14684 14762
14762 14839
14839 14916
14916 14994
14994 15071
15071 15149
15149 15226
15226 15303
15303 15380
15380 15458
15458 15535
15535 15612
15612 15689
15689 15767
15767 15844
15844 15922
15922 15999
15999 16077
16077 16155
16155 16232
16232 16310
16310 16387
16387 16465
16465 16543
16543 16620
16620 16698
16698 16775
16775 16853
16853 16931
16931 17008
17008 17085
17085 17163
17163 17240
17240 17318
17318 17396
17396 17473
17473 17550
17550 17628
17628 17706
17706 17783
17783 17861
17861 17938
17938 18016
18016 18094
18094 18171
18171 18249
18249 18326
18326 18404
18404 18481
18481 18558
18558 18635
18635 18713
18713 18790
18790 18867
18867 18945
18945 19022
19022 19099
19099 19176
19176 19254
19254 19331
19331 19408
19408 19485
19485 19563
19563 19641
19641 19718
19718 19795
19795 19873
19873 19950
19950 20028
20028 20105
20105 20183
20183 20260
20260 20338
20338 20416
20416 20493
20493 20571
20571 20649
20649 20726
20726 20804
20804 20881
20881 20959
20959 21037
21037 21115
21115 21193
21193 21270
21270 21348
21348 21426
21426 21504
21504 21581
21581 21659
21659 21737
21737 21814
21814 21892
21892 21969
21969 22047
22047 22125
22125 22202
22202 22280
22280 22357
22357 22434
22434 22512
22512 22589
22589 22666
22666 22743
22743 22820
22820 22897
22897 22974
22974 23051
23051 23128
23128 23205
23205 23282
23282 23360
23360 23437
23437 23514
23514 23592
23592 23670
23670 23748
23748 23825
23825 23903
23903 23981
23981 24058
24058 24136
24136 24213
24213 24290
24290 24368
24368 24445
24445 24522
24522 24599
24599 24676
24676 24754
24754 24831
24831 24908
24908 24985
24985 25045
25045 25122
25122 25199
25199 25277
25277 25354
25354 25431
25431 25508
25508 25586
25586 25663
25663 25740
25740 25817
25817 25894
25894 25972
25972 26049
26049 26126
26126 26203
26203 26281
26281 26358
26358 26435
26435 26513
26513 26589
26589 26666
26666 26744
26744 26821
26821 26898
26898 26975
26975 27052
27052 27129
27129 27206
27206 27283
27283 27360
27360 27437
27437 27515
27515 27592
27592 27669
27669 27746
27746 27824
27824 27901
27901 27978
27978 28056
28056 28133
28133 28210
28210 28288
28288 28365
28365 28442
28442 28519
28519 28597
28597 28674
28674 28752
28752 28829
28829 28906
28906 28984
28984 29043
29043 29121
29121 29199
29199 29276
29276 29353
29353 29431
29431 29509
29509 29586
29586 29664
29664 29741
29741 29819
29819 29897
29897 29974
29974 30051
30051 30129
30129 30207
30207 30284
30284 30361
30361 30438
30438 30515
30515 30593
30593 30670
30670 30747
30747 30824
30824 30901
30901 30978
30978 31056
31056 31133
31133 31209
31209 31287
31287 31364
31364 31442
31442 31519
31519 31596
31596 31674
31674 31751
31751 31829
31829 31906
31906 31983
31983 32061
32061 32138
32138 32216
32216 32293
32293 32370
32370 32447
32447 32525
32525 32602
32602 32680
32680 32757
32757 32835
32835 32912
32912 32990
32990 33049
33049 33125
33125 33201
33201 33277
33277 33354
33354 33430
33430 33505
33505 33582
33582 33658
33658 33735
33735 33811
33811 33887
33887 33964
33964 34040
34040 34117
34117 34193
34193 34269
34269 34346
34346 34422
34422 34499
34499 34575
34575 34651
34651 34728
34728 34804
34804 34881
34881 34957
34957 35034
35034 35111
35111 35188
35188 35265
35265 35341
35341 35418
35418 35495
35495 35572
35572 35649
35649 35725
35725 35802
35802 35879
35879 35956
35956 36033
36033 36110
36110 36187
36187 36264
36264 36342
36342 36419
36419 36495
36495 36573
36573 36650
36650 36728
36728 36805
36805 36882
36882 36959
36959 37037
37037 37114
37114 37192
37192 37269
37269 37346
37346 37424
37424 37502
37502 37579
37579 37656
37656 37733
37733 37810
37810 37888
37888 37965
37965 38042
38042 38119
38119 38196
38196 38273
38273 38350
38350 38427
38427 38504
38504 38582
38582 38659
38659 38736
38736 38813
38813 38890
38890 38968
38968 39045
39045 39122
39122 39200
39200 39278
39278 39356
39356 39433
39433 39510
39510 39588
39588 39666
39666 39743
39743 39821
39821 39898
39898 39975
39975 40053
40053 40131
40131 40208
40208 40285
40285 40363
40363 40441
40441 40518
40518 40596
40596 40673
40673 40751
40751 40829
40829 40907
40907 40959
40959 41037
41037 41115
41115 41193
41193 41270
41270 41347
41347 41425
41425 41502
41502 41580
41580 41657
41657 41709
41709 41787
41787 41864
41864 41942
41942 42019
42019 42096
42096 42173
42173 42251
42251 42328
42328 42405
42405 42482
42482 42559
42559 42637
42637 42714
42714 42791
42791 42868
42868 42946
42946 43023
43023 43100
43100 43177
43177 43254
43254 43332
43332 43409
43409 43486
43486 43563
43563 43640
43640 43717
43717 43794
43794 43871
43871 43948
43948 44025
44025 44102
44102 44180
44180 44257
44257 44334
44334 44411
44411 44541
44541 44618
44618 44696
44696 44773
44773 44851
44851 44928
44928 44980
44980 45097
45097 45174
45174 45252
45252 45329
45329 45406
45406 45483
45483 45561
45561 45638
45638 45715
45715 45793
45793 45870
45870 45948
45948 46025
46025 46102
46102 46180
46180 46257
46257 46335
46335 46412
46412 46489
46489 46566
46566 46644
46644 46721
46721 46773
46773 46849
46849 46927
46927 47004
47004 47081
47081 47158
47158 47235
47235 47312
47312 47390
47390 47468
47468 47546
47546 47624
47624 47702
47702 47780
47780 47858
47858 47935
47935 48013
48013 48091
48091 48169
48169 48246
48246 48323
48323 48401
48401 48478
48478 48556
48556 48633
48633 48710
48710 48787
48787 48865
48865 48942
48942 49019
49019 49071
49071 49148
49148 49225
49225 49302
49302 49379
49379 49456
49456 49534
49534 49611
49611 49688
49688 49765
49765 49842
49842 49919
49919 49997
49997 50074
50074 50151
50151 50228
50228 50305
50305 50383
50383 50460
50460 50537
50537 50614
50614 50691
50691 50768
50768 50845
50845 50922
50922 50999
50999 51076
51076 51154
51154 51231
51231 51307
51307 51385
51385 51462
51462 51539
51539 51617
51617 51694
51694 51771
51771 51849
51849 51926
51926 52004
52004 52081
52081 52158
52158 52236
52236 52313
52313 52390
52390 52467
52467 52544
52544 52622
52622 52699
52699 52775
52775 52853
52853 52930
52930 53008
53008 53085
53085 53163
53163 53240
53240 53318
53318 53396
53396 53473
53473 53550
53550 53628
53628 53705
53705 53783
53783 53860
53860 53937
53937 54015
54015 54072
54072 54149
54149 54226
54226 54303
54303 54380
54380 54457
54457 54534
54534 54611
54611 54687
54687 54764
54764 54841
54841 54918
54918 54995
54995 55072
55072 55149
55149 55227
55227 55305
55305 55382
55382 55460
55460 55537
55537 55614
55614 55692
55692 55769
55769 55846
55846 55923
55923 56001
56001 56078
56078 56155
56155 56231
56231 56308
56308 56385
56385 56462
56462 56539
56539 56616
56616 56693
56693 56770
56770 56848
56848 56925
56925 57002
57002 57080
57080 57158
57158 57235
57235 57313
57313 57391
57391 57469
57469 57547
57547 57625
57625 57703
57703 57781
57781 57860
57860 57939
57939 58017
58017 58096
58096 58174
58174 58253
58253 58331
58331 58410
58410 58488
58488 58565
58565 58644
58644 58722
58722 58799
58799 58877
58877 58955
58955 59032
59032 59110
59110 59188
59188 59265
59265 59343
59343 59421
59421 59498
59498 59576
59576 59653
59653 59731
59731 59809
59809 59886
59886 59964
59964 60041
