2946 3090
4807 4904
6013 6062
9924 10019
14557 14744
14744 14837
14837 14928
14928 15022
15022 15115
15115 15208
15208 15299
15299 15394
15394 15488
15488 15580
15580 15677
15677 15773
15773 15865
15865 15962
15962 16058
16058 16152
16152 16248
16248 16344
16344 16437
16437 16531
16531 16626
16626 16720
16720 16811
16811 16905
16905 16998
16998 17086
17086 17182
17182 17269
17269 17365
17365 17459
17459 17545
17545 17641
17641 17735
17735 17826
17826 17921
17921 18014
18014 18101
18101 18198
18198 18291
18291 18378
18378 18475
18475 18568
18568 18660
18660 18754
18754 18847
18847 18941
18941 19035
19035 19128
19128 19223
19223 19317
19317 19412
19412 19508
19508 19605
19605 19700
19700 19797
19797 19894
19894 19981
19981 20082
20082 20179
20179 20265
20265 20365
20365 20462
20462 20557
20557 20654
20654 20750
20750 20836
20836 20936
20936 21032
21032 21126
21126 21223
21223 21320
21320 21413
21413 21510
21510 21607
21607 21701
21701 21798
21798 21895
21895 21991
21991 22085
22085 22181
22181 22276
22276 22373
22373 22470
22470 22563
22563 22660
22660 22755
22755 22849
22849 22945
22945 23059
23059 23147
23147 23247
23247 23344
23344 23441
23441 23527
23527 23628
23628 23726
23726 23821
23821 23916
23916 24013
24013 24051
24912 25010
25010 25048
26929 27027
27925 28026
28026 28085
31005 31170
31170 31266
31266 31352
31352 31452
31452 31547
31547 31634
31634 31734
31734 31829
31829 31916
31916 32016
32016 32139
32139 32231
32231 32327
32327 32424
32424 32520
32520 32588
32588 32683
32683 32778
32778 32871
32871 32942
32942 33069
33069 33161
33161 33254
33254 33346
33346 33440
33440 33533
33533 33625
33625 33719
33719 33814
33814 33908
33908 33999
33999 34093
34093 34186
34186 34274
34274 34371
34371 34465
34465 34558
34558 34652
34652 34746
34746 34839
34839 34933
34933 35029
35029 35080
35080 35173
35173 35266
35266 35357
35357 35426
35426 35537
35537 35624
35624 35726
35726 35824
35824 35911
35911 36014
36014 36053
39939 40074
40074 40169
40169 40268
40268 40366
40366 40461
40461 40559
40559 40655
40655 40752
40752 40849
