80 178
178 276
276 375
375 473
573 676
676 776
1106 1212
1212 1315
1315 1417
1417 1519
1519 1618
1913 2013
2013 2104
2104 2202
2503 2605
2605 2707
3011 3115
3525 3628
3628 3730
3730 3829
3829 3929
4198 4298
4298 4397
4397 4497
4497 4571
4571 4667
4667 4765
4765 4861
4861 4958
4958 5122
5122 5223
5223 5322
5322 5423
5423 5523
5523 5625
5625 5727
5727 5827
5827 5927
5927 6027
6027 6083
6578 6681
6681 6783
6783 6885
6885 6990
6990 7093
7195 7299
7299 7401
7401 7503
7503 7609
7609 7714
7714 7815
8428 8530
8530 8632
8632 8733
8733 8832
10814 10920
10920 11030
11030 11121
11121 11223
11327 11430
11531 11634
11634 11736
11736 11838
11838 11938
11938 12061
12061 12165
12165 12267
12267 12373
12373 12479
12479 12584
12584 12691
12691 12799
