181 305
305 412
412 538
757 864
864 989
989 1074
1630 1735
1735 1844
1844 1964
2058 2180
2180 2275
2626 2723
2723 2848
2848 2931
3053 3165
3165 3268
3482 3603
3603 3698
3910 4028
4028 4077
4077 4182
4182 4303
4303 4401
4401 4526
4526 4632
4632 4756
4756 4852
4852 4977
5186 5288
5288 5393
5393 5511
5511 5606
5606 5729
5955 6051
6051 6178
6178 6284
6284 6405
6841 6933
6933 7148
7148 7254
7254 7376
7376 7472
7472 7596
7596 7704
7704 7825
7925 8076
8076 8171
8171 8295
8295 8392
8392 8517
8517 8620
8620 8727
8727 8849
