14 78
78 171
171 262
355 447
447 540
540 631
631 724
908 999
999 1076
1442 1535
1535 1626
1626 1718
1718 1810
8908 8997
8997 9056
9145 9233
9233 9321
9321 9407
9407 9495
9495 9582
9582 9668
9668 9754
9754 9841
9841 9928
9928 10014
10014 10055
10055 10143
10143 10231
10231 10319
10319 10408
10408 10498
10498 10589
10589 10679
10679 10769
10769 10861
10861 10953
10953 11064
11064 11157
11157 11249
11249 11341
11341 11432
11432 11525
11525 11617
11617 11709
11709 11800
11800 11890
11890 11981
11981 12051
12051 12141
12141 12231
12231 12321
12321 12412
12412 12502
12502 12592
12592 12681
12681 12771
12771 12861
12861 12950
12950 13069
13069 13160
13160 13252
13252 13344
13344 13435
13435 13528
13528 13622
13622 13715
13715 13805
13805 13896
13896 13987
13987 14045
14045 14130
14130 14217
14217 14303
14303 14390
14390 14476
14476 14563
14563 14649
14649 14736
14736 14822
14822 14908
14908 14995
14995 15083
15083 15170
15170 15256
15256 15345
15345 15433
15433 15521
15521 15610
15610 15697
15697 15787
15787 15876
15876 15966
15966 16054
16054 16144
16144 16233
16233 16322
16322 16411
16411 16499
16499 16589
16589 16679
16679 16767
16767 16855
16855 16943
16943 17083
17083 17166
17166 17249
17249 17331
17331 17414
17414 17497
17497 17579
17579 17662
17662 17745
17745 17830
17830 17914
17914 17998
17998 18086
18086 18169
18169 18252
18252 18335
18335 18418
18418 18502
18502 18586
18586 18670
18670 18755
18755 18839
18839 18925
18925 19010
19010 19095
19095 19178
19178 19264
19264 19348
