1640 1715
1715 1791
1791 1867
1867 1943
1943 2018
2018 2069
2069 2145
2145 2221
2221 2297
2297 2373
2373 2449
2449 2525
3068 3143
3296 3372
3449 3524
3601 3677
3677 3753
3753 3828
4380 4455
4606 4681
4681 4756
