1959 2041
2041 2119
3546 3623
3702 3780
3780 3856
3934 4012
4012 4089
4244 4321
4321 4400
4400 4477
4477 4555
4555 4633
4633 4711
4711 4790
4790 4868
4868 4947
4947 5026
5026 5104
5104 5183
5183 5262
5262 5340
5340 5417
5417 5496
5496 5574
5574 5650
5650 5728
5728 5806
5806 5884
5884 5960
5960 6038
6038 6115
6115 6193
6193 6269
6269 6345
6345 6423
6423 6500
6500 6576
6576 6653
6653 6730
6730 6807
6807 6882
6882 6959
6959 7035
7035 7111
7111 7187
7187 7264
7264 7342
7342 7418
7418 7496
7496 7574
7574 7651
7651 7728
7728 7806
7806 7884
7884 7961
7961 8037
8037 8116
8116 8194
8194 8270
8270 8348
8348 8426
8426 8503
8503 8579
8579 8657
8657 8734
8734 8811
8811 8887
8887 8966
8966 9044
9044 9121
9121 9197
9197 9275
9275 9353
9353 9430
9430 9508
9508 9586
9586 9664
9664 9741
9741 9820
9820 9898
9898 9977
9977 10055
10055 10135
10135 10215
10215 10296
10296 10374
10374 10454
10454 10535
10535 10615
10615 10693
10693 10774
10774 10853
10853 10933
10933 11014
11014 11077
11077 11153
11153 11228
11228 11305
11305 11382
11382 11458
11458 11535
11535 11611
11611 11687
11687 11763
11763 11839
11839 11915
11915 11991
11991 12035
12035 12110
12110 12187
12187 12263
12263 12338
12338 12416
12416 12468
12468 12544
12544 12620
12620 12698
12698 12777
12777 12855
12855 12932
12932 13012
13012 13091
13091 13169
13169 13249
13249 13328
13328 13406
13406 13486
13486 13565
13565 13645
13645 13723
13723 13803
13803 13884
13884 13964
13964 14043
14043 14124
14124 14205
14205 14286
14286 14365
14365 14447
14447 14529
14529 14610
14610 14689
14689 14771
14771 14854
14854 14935
14935 15015
15015 15098
15098 15181
15181 15263
15263 15343
15343 15426
15426 15509
15509 15591
15591 15673
15673 15756
15756 15839
15839 15922
15922 16034
16034 16111
16111 16189
16189 16265
16265 16343
16343 16420
16420 16498
16498 16576
16576 16654
16654 16732
16732 16810
16810 16889
16889 16968
16968 17048
17048 17127
17127 17205
17205 17285
17285 17365
17365 17443
17443 17522
17522 17602
17602 17681
17681 17760
17760 17841
17841 17922
17922 18001
18001 18082
18082 18163
18163 18244
18244 18325
18325 18407
18407 18489
18489 18570
18570 18652
18652 18735
18735 18818
18818 18899
18899 18982
18982 19065
19065 19149
19149 19231
19231 19314
19314 19398
19398 19481
19481 19562
19562 19645
19645 19729
19729 19813
19813 19895
19895 19980
19980 20064
20064 20148
20148 20231
20231 20316
20316 20402
20402 20486
20486 20568
20568 20653
20653 20738
20738 20820
20820 20905
20905 20989
20989 21073
21073 21156
21156 21240
21240 21323
21323 21409
21409 21493
21493 21577
21577 21660
21660 21745
21745 21829
21829 21912
21912 21995
21995 22079
22079 22163
22163 22246
22246 22329
22329 22414
22414 22498
22498 22582
22582 22665
22665 22750
22750 22835
22835 22919
22919 23002
23002 23087
23087 23172
23172 23256
23256 23340
23340 23425
23425 23510
23510 23596
23596 23679
23679 23765
23765 23850
23850 23934
23934 24019
24019 24103
24103 24186
24186 24270
24270 24355
24355 24438
24438 24520
24520 24604
24604 24687
24687 24770
24770 24852
24852 24936
24936 25019
25019 25101
25101 25184
25184 25268
25268 25351
25351 25433
25433 25517
25517 25601
25601 25685
25685 25767
25767 25852
25852 25937
25937 26021
26021 26104
26104 26188
26188 26273
26273 26357
26357 26440
26440 26524
26524 26608
26608 26692
26692 26774
26774 26858
26858 26942
26942 27025
27025 27108
27108 27192
27192 27276
27276 27360
27360 27443
27443 27528
27528 27613
27613 27698
27698 27781
27781 27866
27866 27951
27951 28035
28035 28118
28118 28202
28202 28287
28287 28371
28371 28453
28453 28537
28537 28620
28620 28704
28704 28785
28785 28868
28868 28952
28952 29009
29009 29092
29092 29175
29175 29258
29258 29340
29340 29423
29423 29506
29506 29588
29588 29670
29670 29751
29751 29832
29832 29912
29912 29992
29992 30073
30073 30154
30154 30235
30235 30315
30315 30396
30396 30478
30478 30560
30560 30641
30641 30722
30722 30805
30805 30887
30887 30968
30968 31050
31050 31132
31132 31215
31215 31297
31297 31378
31378 31460
31460 31544
31544 31627
31627 31709
31709 31793
31793 31877
31877 31961
31961 32044
32044 32127
32127 32211
32211 32295
32295 32379
32379 32461
32461 32545
32545 32629
32629 32712
32712 32794
32794 32878
32878 32961
32961 33044
33044 33126
33126 33209
33209 33292
33292 33375
33375 33456
33456 33539
33539 33622
33622 33704
33704 33785
33785 33868
33868 33950
33950 34033
34033 34114
34114 34196
34196 34278
34278 34360
34360 34441
34441 34523
34523 34605
34605 34686
34686 34767
34767 34849
34849 34931
34931 35014
35014 35096
35096 35177
35177 35260
35260 35342
35342 35424
35424 35505
35505 35587
35587 35669
35669 35750
35750 35831
35831 35912
35912 35994
35994 36076
36076 36156
36156 36239
36239 36321
36321 36404
36404 36485
36485 36568
36568 36651
36651 36733
36733 36815
36815 36898
36898 36982
36982 37065
37065 37147
37147 37230
37230 37313
37313 37396
37396 37478
37478 37562
37562 37645
37645 37729
37729 37812
37812 37896
37896 37980
37980 38065
38065 38149
38149 38232
38232 38317
38317 38402
38402 38486
38486 38570
38570 38655
38655 38740
38740 38825
38825 38908
38908 38992
38992 39077
39077 39162
39162 39247
39247 39331
39331 39417
39417 39502
39502 39587
39587 39671
39671 39755
39755 39840
39840 39924
39924 40007
40007 40091
40091 40175
40175 40259
40259 40341
40341 40424
40424 40507
40507 40590
40590 40671
40671 40753
40753 40835
40835 40917
40917 40998
40998 41078
41078 41159
41159 41239
41239 41319
41319 41397
41397 41476
41476 41554
41554 41632
41632 41710
41710 41788
41788 41865
41865 41942
41942 42019
42019 42096
42096 42174
42174 42252
42252 42331
42331 42408
42408 42487
42487 42565
42565 42643
42643 42721
42721 42799
42799 42877
42877 42955
42955 43034
43034 43111
43111 43189
43189 43267
43267 43345
43345 43422
43422 43499
43499 43576
43576 43652
43652 43729
43729 43805
43805 43882
43882 43958
43958 44034
44034 44110
44110 44186
44186 44262
44262 44339
44339 44416
44416 44492
44492 44569
44569 44646
44646 44723
44723 44800
44800 44876
44876 44954
44954 45031
45031 45108
45108 45184
45184 45261
45261 45339
45339 45416
45416 45492
45492 45569
45569 45646
45646 45724
45724 45800
45800 45878
45878 45955
45955 46032
46032 46109
46109 46186
46186 46263
46263 46339
46339 46417
46417 46494
46494 46570
46570 46646
46646 46724
46724 46801
46801 46877
46877 46953
46953 47030
47030 47107
47107 47184
47184 47260
47260 47337
47337 47415
47415 47493
47493 47570
47570 47647
47647 47726
47726 47805
47805 47883
47883 47962
47962 48041
48041 48121
48121 48200
48200 48280
48280 48360
48360 48440
48440 48520
48520 48601
48601 48682
48682 48763
48763 48843
48843 48924
48924 49006
49006 49088
49088 49169
49169 49251
49251 49333
49333 49416
49416 49497
49497 49578
49578 49661
49661 49744
49744 49827
49827 49908
49908 49991
49991 50074
50074 50157
50157 50239
50239 50322
50322 50405
50405 50487
50487 50569
50569 50650
50650 50732
50732 50812
50812 50892
50892 50972
50972 51051
51051 51130
51130 51183
51183 51261
51261 51340
51340 51418
51418 51471
51471 51549
51549 51627
51627 51706
51706 51784
51784 51862
51862 51940
51940 52017
52017 52095
52095 52172
52172 52249
52249 52326
52326 52402
52402 52478
52478 52554
52554 52630
52630 52706
52706 52781
52781 52858
52858 52934
52934 53010
53010 53087
53087 53164
53164 53241
53241 53318
53318 53396
53396 53473
53473 53550
53550 53628
53628 53706
53706 53784
53784 53862
53862 53940
53940 54020
54020 54099
54099 54179
54179 54258
54258 54337
54337 54418
54418 54497
54497 54576
54576 54656
54656 54734
54734 54812
54812 54890
54890 54967
54967 55045
55045 55121
55121 55198
55198 55275
55275 55351
55351 55427
55427 55504
55504 55581
55581 55657
55657 55733
55733 55809
55809 55884
55884 55959
55959 56034
56034 56108
56108 56180
56180 56253
56253 56325
56325 56398
56398 56470
56470 56542
56542 56614
56614 56686
56686 56759
56759 56832
56832 56904
56904 56977
56977 57050
57050 57123
57123 57197
57197 57271
57271 57345
57345 57418
57418 57493
57493 57568
57568 57643
57643 57719
57719 57795
57795 57870
57870 57945
57945 58022
58022 58098
58098 58175
58175 58251
58251 58327
58327 58404
58404 58481
58481 58557
58557 58607
58607 58684
58684 58761
58761 58837
58837 58913
58913 58989
58989 59066
59066 59142
59142 59218
59218 59293
59293 59369
59369 59445
59445 59521
59521 59596
59596 59671
59671 59747
59747 59823
59823 59898
59898 59973
59973 60048
60048 60124
60124 60199
60199 60274
60274 60350
60350 60426
60426 60501
60501 60577
60577 60628
60628 60704
60704 60780
60780 60857
60857 60933
60933 61010
61010 61086
61086 61164
61164 61242
61242 61318
61318 61396
61396 61474
61474 61552
61552 61629
