34 209
299 651
651 742
742 833
833 922
922 1059
1059 1328
1328 1419
1419 1510
1510 1602
1602 1693
1693 1966
1966 2056
2056 2147
2147 2324
2324 2415
2415 2505
2505 2594
2594 2683
2683 2771
2771 2949
2949 3038
3038 3127
3127 3216
3216 3306
3306 3483
3483 3573
3573 3663
3663 3752
3752 3932
3932 4024
4024 4115
4115 4205
4205 4296
4296 4476
4476 4568
4568 4658
4658 4749
4749 4929
4929 5018
5018 5109
5109 5199
5199 5289
5289 5380
5380 5560
5560 5652
5652 5743
5743 5834
5834 5925
5925 6014
6014 6105
6105 6195
6195 6285
6285 6374
6374 6552
6552 6642
6642 6731
6731 6821
6821 6910
6910 7137
7137 7224
7224 7312
7312 7485
7485 8008
8008 8181
8181 8267
8267 8356
8356 8531
8531 8704
8704 9053
9053 9143
9143 9232
9232 9320
9320 9496
9496 9586
9586 9675
9675 9763
9763 9852
9852 10092
10092 10180
10180 10268
10268 10357
10357 10446
10446 10534
10534 10622
10622 10713
10713 10803
10803 10894
10894 10985
10985 11075
11075 11166
11166 11258
11258 11351
11351 11444
11444 11535
11535 11630
11630 11723
11723 12003
12003 12097
12097 12190
12190 12282
12282 12373
12373 12464
12464 12645
12645 13099
13099 13189
13189 13280
13280 13640
13640 13729
13729 13819
13819 13909
13909 14139
14139 14228
14228 14495
14495 14945
14945 15036
15036 15126
15126 15217
15217 15307
15307 15846
15846 15937
15937 16328
16328 16415
16415 16503
16503 16591
16591 16678
16678 16852
16852 16940
16940 17114
17114 17374
17374 17461
17461 17547
17547 17635
17635 17720
17720 18031
18031 18118
18118 18207
18207 18296
18296 18385
18385 18473
18473 18649
18649 18740
18740 18829
18829 18918
18918 19096
19096 19186
19186 19276
19276 19365
19365 19454
19454 19631
19631 19722
19722 19811
19811 19901
19901 19991
19991 20622
20622 21072
21072 21163
21163 21253
21253 21344
21344 21434
21434 21525
21525 21615
21615 21977
21977 22065
22065 22155
22155 22245
22245 22335
22335 22425
22425 23151
23151 23244
23244 23337
23337 23430
23430 23522
23522 23614
23614 23708
23708 23801
23801 23893
23893 23986
23986 24446
24446 24534
24534 24621
24621 24710
24710 24798
24798 24887
24887 24976
24976 25063
25063 25153
25153 25244
25244 25426
25426 25518
25518 25610
25610 25700
25700 25791
25791 25881
25881 25969
25969 26062
26062 26151
26151 26240
26240 26327
26327 26501
26501 27025
27025 27113
27113 27201
27201 27288
27288 27461
27461 27549
27549 27637
27637 27725
27725 27813
27813 27988
27988 28090
28090 28175
28175 28261
28261 28346
28346 28430
28430 28518
28518 28604
28604 28691
28691 28778
28778 28865
28865 28952
28952 29102
29102 29193
29193 29282
29282 29372
29372 29461
29461 29638
29638 29729
29729 29819
29819 29910
