1630 1712
1712 1794
1794 1876
1876 1958
1958 2014
2014 2078
2078 2159
2159 2239
2239 2321
2321 2402
2402 2483
2483 2564
2564 2645
2645 2727
2727 2808
2808 2889
2889 2969
2969 3103
3103 3184
3184 3265
3265 3345
3345 3426
3426 3506
3506 3587
3587 3668
3668 3748
3748 3829
3829 3910
3910 3965
3965 4046
4046 4126
4126 4207
4207 4287
4287 4368
4368 4449
4449 4529
4529 4609
4609 4690
4690 4771
4771 4851
4851 4931
4931 5012
5012 5110
5110 5190
5190 5271
5271 5351
5351 5431
5431 5512
5512 5592
5592 5673
5673 5753
5753 5833
5833 5914
5914 5969
5969 6096
6096 6176
6176 6256
6256 6337
6337 6417
6417 6498
6498 6578
6578 6658
6658 6739
6739 6820
6820 6900
6900 6980
6980 7105
7105 7185
7185 7266
7266 7346
7346 7426
7426 7506
7506 7586
7586 7666
7666 7746
7746 7826
7826 7905
7905 7985
7985 8065
8065 8145
8145 8225
8225 8304
8304 8384
8384 8463
8463 8543
8543 8622
8622 8701
8701 8781
8781 8860
8860 8940
8940 9019
9019 9120
9120 9200
9200 9280
9280 9360
9360 9439
9439 9519
9519 9599
9599 9678
9678 9758
9758 9838
9838 9917
9917 9998
9998 10078
10078 10157
10157 10237
10237 10317
10317 10397
10397 10477
10477 10557
10557 10637
10637 10718
10718 10798
10798 10878
10878 10958
10958 11036
11036 11116
11116 11196
11196 11276
11276 11357
11357 11437
11437 11517
11517 11597
11597 11677
11677 11758
11758 11838
11838 11919
11919 11999
11999 12095
12095 12176
12176 12255
12255 12335
12335 12415
12415 12495
12495 12575
12575 12655
12655 12735
12735 12814
12814 12894
12894 12974
12974 13040
13040 13119
13119 13198
13198 13278
13278 13357
13357 13457
13457 13569
13569 13648
13648 13727
13727 13806
13806 13885
13885 13964
13964 14072
14072 14151
14151 14231
14231 14310
14310 14389
14389 14468
14468 14548
14548 14628
14628 14707
14707 14787
14787 14866
14866 14946
14946 15026
15026 15106
15106 15186
15186 15266
15266 15346
15346 15426
15426 15506
15506 15586
15586 15666
15666 15746
15746 15826
15826 15906
15906 15985
15985 16065
16065 16145
16145 16225
16225 16305
16305 16384
16384 16464
16464 16544
16544 16624
16624 16704
16704 16784
16784 16864
16864 16944
16944 17024
17024 17133
17133 17213
17213 17293
17293 17373
17373 17453
17453 17534
17534 17614
17614 17693
17693 17774
17774 17854
17854 17934
17934 18014
18014 18094
18094 18175
18175 18256
18256 18336
18336 18417
18417 18498
18498 18578
18578 18659
18659 18740
18740 18820
18820 18900
18900 18981
18981 19061
19061 19141
19141 19221
19221 19301
19301 19381
19381 19461
19461 19541
19541 19622
19622 19702
19702 19782
19782 19862
19862 19942
19942 20022
20022 20103
20103 20183
20183 20263
20263 20343
20343 20424
20424 20504
20504 20584
20584 20664
20664 20744
20744 20824
20824 20905
20905 20985
20985 21065
21065 21145
21145 21226
21226 21306
21306 21387
21387 21467
21467 21547
21547 21628
21628 21708
21708 21789
21789 21869
21869 21950
21950 22031
22031 22111
22111 22191
22191 22273
22273 22353
22353 22434
22434 22514
22514 22595
22595 22675
22675 22756
22756 22837
22837 22917
22917 22997
22997 23078
23078 23159
23159 23239
23239 23319
23319 23400
23400 23456
23456 23537
23537 23617
23617 23698
23698 23779
23779 23859
23859 23940
23940 24020
24020 24101
24101 24182
24182 24262
24262 24343
24343 24423
24423 24503
24503 24584
24584 24665
24665 24745
24745 24826
24826 24907
24907 24987
24987 25068
25068 25148
25148 25230
25230 25311
25311 25392
25392 25472
25472 25553
25553 25634
25634 25714
25714 25795
25795 25875
25875 25955
25955 26036
26036 26116
26116 26197
26197 26277
26277 26357
26357 26438
26438 26519
26519 26599
26599 26679
26679 26760
26760 26840
26840 26921
26921 27001
27001 27082
27082 27163
27163 27244
27244 27325
27325 27405
27405 27486
27486 27567
27567 27648
27648 27729
27729 27809
27809 27890
27890 27971
27971 28052
28052 28132
28132 28213
28213 28294
28294 28375
28375 28455
28455 28536
28536 28616
28616 28697
28697 28778
28778 28858
28858 28938
28938 29040
29040 29121
29121 29201
29201 29282
29282 29362
29362 29443
29443 29523
29523 29604
29604 29684
29684 29764
29764 29845
29845 29926
29926 30006
30006 30087
30087 30167
30167 30247
30247 30328
30328 30408
30408 30488
30488 30568
30568 30649
30649 30729
30729 30810
30810 30890
30890 30970
30970 31051
31051 31131
31131 31211
31211 31292
31292 31372
31372 31453
31453 31534
31534 31614
31614 31695
31695 31775
31775 31856
31856 31937
31937 32017
32017 32096
32096 32177
32177 32258
32258 32339
32339 32419
32419 32500
32500 32581
32581 32663
32663 32744
32744 32824
32824 32906
32906 32987
32987 33068
33068 33149
33149 33230
33230 33311
33311 33392
33392 33473
33473 33554
33554 33635
33635 33716
33716 33797
33797 33879
33879 33960
33960 34041
34041 34123
34123 34204
34204 34285
34285 34366
34366 34448
34448 34529
34529 34610
34610 34691
34691 34773
34773 34854
34854 34935
34935 35016
35016 35097
35097 35178
35178 35243
35243 35338
35338 35420
35420 35501
35501 35582
35582 35663
35663 35744
35744 35825
35825 35906
35906 35987
35987 36068
36068 36149
36149 36205
36205 36286
36286 36367
36367 36447
36447 36528
36528 36609
36609 36690
36690 36770
36770 36851
36851 36931
36931 37012
37012 37093
37093 37173
37173 37254
37254 37334
37334 37415
37415 37495
37495 37576
37576 37656
37656 37737
37737 37818
37818 37899
37899 37980
37980 38060
38060 38141
38141 38222
38222 38304
38304 38384
38384 38465
38465 38546
38546 38628
38628 38709
38709 38789
38789 38871
38871 38952
38952 39033
39033 39114
39114 39195
39195 39276
39276 39357
39357 39438
39438 39519
39519 39599
39599 39681
39681 39762
39762 39842
39842 39923
39923 40004
40004 40085
40085 40166
40166 40246
40246 40327
40327 40408
40408 40489
40489 40570
40570 40650
40650 40731
40731 40812
40812 40893
40893 40973
40973 41054
41054 41135
41135 41216
41216 41297
41297 41377
41377 41458
