2977 3095
11293 11372
11372 11427
12546 12706
15953 16049
16690 16770
17488 17648
19219 19299
23058 23138
23138 23219
23538 23618
23618 23698
23857 23936
23936 24016
24016 24070
24921 24999
24999 25076
25076 25206
29285 29515
29515 29592
29668 30719
30719 30794
30794 30869
30869 30945
30945 31020
31020 31095
31095 31171
31171 31246
31246 31322
31322 31397
31397 31473
31473 31548
31548 31624
31624 31699
31699 31775
31775 31850
31850 31926
31926 32001
32001 32077
32077 32152
32152 32228
32228 32303
32303 32379
32379 32454
32454 32529
32529 32604
32604 32680
32680 32755
32755 32831
32831 32906
32906 32964
32964 33058
33058 33134
33134 33210
33210 33285
33285 33361
33361 33437
33437 33512
33512 33588
33588 33639
33639 33715
33715 33791
33791 33867
33867 33942
33942 34018
34018 34094
34094 34171
34171 34247
34247 34323
34323 34399
34399 34475
34475 34552
34552 34628
34628 34704
34704 34780
34780 34857
34857 34934
34934 35010
35010 35086
35086 35163
35163 35239
35239 35315
35315 35366
35366 35442
35442 35519
35519 35595
35595 35671
35671 35748
35748 35824
35824 35900
35900 35977
35977 36054
36054 36130
36130 36206
36206 36283
36283 36358
36358 36435
36435 36512
36512 36589
36589 36666
36666 36742
36742 36819
36819 36896
36896 36972
36972 37049
37049 37105
37105 37204
37204 37281
37281 37358
37358 37435
37435 37511
37511 37587
37587 37664
37664 37741
37741 37817
37817 37894
37894 37971
37971 38048
38048 38124
38124 38201
38201 38278
38278 38355
38355 38407
38407 38484
38484 38561
38561 38638
38638 38715
38715 38792
38792 38869
38869 38946
38946 39023
39023 39100
39100 39177
39177 39254
39254 39332
39332 39409
39409 39486
39486 39563
39563 39640
39640 39718
39718 39795
39795 39872
39872 39949
39949 40027
40027 40104
40104 40181
40181 40258
40258 40336
40336 40413
40413 40491
40491 40568
40568 40646
40646 40723
40723 40800
40800 40878
40878 40956
40956 41033
41033 41111
41111 41188
41188 41266
41266 41343
41343 41421
41421 41498
41498 41576
41576 41653
41653 41730
41730 41808
41808 41885
41885 41962
41962 42040
42040 42117
42117 42194
42194 42271
42271 42349
42349 42426
42426 42503
42503 42581
42581 42657
42657 42735
42735 42812
42812 42889
42889 42966
42966 43044
43044 43121
43121 43199
43199 43276
43276 43353
43353 43431
43431 43508
43508 43586
43586 43663
43663 43741
43741 43819
43819 43896
43896 43974
43974 44052
44052 44129
44129 44207
44207 44285
44285 44362
44362 44440
44440 44518
44518 44596
44596 44674
44674 44752
44752 44830
44830 44908
44908 44986
44986 45063
45063 45140
45140 45218
45218 45296
45296 45374
45374 45430
45430 45532
45532 45611
45611 45689
45689 45767
45767 45844
45844 45922
45922 46000
46000 46078
46078 46156
46156 46234
46234 46313
46313 46391
46391 46469
46469 46548
46548 46626
46626 46705
46705 46783
46783 46861
46861 46940
46940 47018
47018 47097
47097 47175
47175 47253
47253 47331
47331 47408
47408 47487
47487 47565
47565 47644
47644 47722
47722 47800
47800 47878
47878 47957
47957 48035
48035 48114
48114 48192
48192 48271
48271 48348
48348 48427
48427 48505
48505 48584
48584 48663
48663 48741
48741 48819
48819 48897
48897 48975
48975 49028
49028 49107
49107 49185
49185 49264
49264 49342
49342 49419
49419 49498
49498 49577
49577 49656
49656 49735
49735 49814
49814 49892
49892 49970
49970 50049
50049 50128
50128 50207
50207 50286
50286 50363
50363 50442
50442 50521
50521 50599
50599 50678
50678 50756
50756 50835
50835 50913
50913 50992
50992 51071
51071 51150
51150 51229
51229 51307
51307 51386
51386 51464
51464 51541
51541 51597
51597 51701
51701 51779
51779 51858
51858 51912
51912 51991
51991 52069
52069 52147
52147 52226
52226 52305
52305 52384
52384 52463
52463 52542
52542 52621
52621 52700
52700 52778
52778 52857
52857 52936
52936 53015
53015 53094
53094 53227
53227 53305
53305 53383
53383 53462
53462 53540
53540 53619
53619 53698
53698 53776
53776 53855
53855 53934
53934 54011
54011 54090
54090 54169
54169 54247
54247 54326
54326 54405
54405 54484
54484 54562
54562 54641
54641 54719
54719 54798
54798 54877
54877 54956
54956 55036
55036 55115
55115 55193
55193 55272
55272 55352
55352 55431
55431 55510
55510 55589
55589 55667
55667 55746
55746 55825
55825 55904
55904 55958
55958 56037
56037 56115
56115 56248
56248 56326
56326 56405
56405 56484
56484 56563
56563 56642
56642 56721
56721 56800
56800 56879
56879 56957
56957 57036
57036 57115
57115 57194
57194 57273
57273 57351
57351 57430
57430 57508
57508 57587
57587 57666
57666 57745
57745 57824
57824 57902
57902 57981
57981 58060
58060 58138
58138 58217
58217 58296
58296 58373
58373 58452
58452 58531
58531 58610
58610 58689
58689 58768
58768 58846
58846 58925
58925 59002
59002 59082
59082 59160
59160 59239
59239 59318
59318 59397
59397 59476
59476 59555
59555 59633
59633 59711
59711 59790
59790 59869
59869 59948
59948 60027
60027 60106
60106 60183
60183 60263
60263 60341
60341 60420
60420 60499
60499 60578
60578 60657
60657 60735
60735 60813
60813 60892
60892 60970
60970 61049
61049 61128
61128 61207
61207 61285
61285 61364
61364 61441
61441 61496
61496 61574
61574 61653
61653 61732
61732 61811
61811 61890
61890 61968
61968 62046
62046 62125
62125 62203
62203 62282
62282 62361
62361 62439
62439 62517
62517 62596
62596 62675
62675 62753
62753 62832
62832 62911
62911 62989
62989 63067
63067 63145
63145 63223
63223 63302
63302 63380
63380 63459
63459 63537
63537 63615
63615 63693
63693 63772
63772 63850
63850 63928
63928 64007
64007 64085
64085 64164
64164 64241
64241 64295
64295 64373
64373 64452
64452 64530
64530 64587
64587 64665
64665 64744
64744 64821
64821 64900
64900 64978
64978 65057
65057 65135
65135 65214
65214 65293
65293 65370
65370 65449
65449 65528
65528 65582
65582 65661
65661 65739
65739 65817
65817 65896
65896 65974
65974 66053
66053 66132
66132 66190
66190 66291
66291 66369
66369 66447
66447 66526
66526 66605
66605 66683
66683 66762
66762 66841
66841 66920
66920 66997
66997 67076
67076 67155
67155 67234
67234 67312
67312 67391
67391 67470
67470 67549
67549 67627
67627 67705
67705 67784
67784 67863
