67 197
448 662
662 787
2318 2534
4061 4273
4273 4391
4391 4507
4507 4625
4625 4836
4836 4957
4957 5095
5095 5216
5216 5428
5428 5548
5548 5670
5670 5790
5790 5908
5908 6026
6026 6101
6101 6222
6222 6342
6342 6462
6462 6583
6583 6701
6701 6820
6820 6940
6940 7109
7109 7230
7230 7354
7354 7476
7476 7599
7599 7722
7722 7845
7845 7968
7968 8094
8094 8216
8216 8339
8339 8458
8458 8580
8580 8700
8700 8819
8819 8940
8940 9058
9058 9177
9177 9297
9297 9414
9414 9533
9533 9651
9651 9769
9769 9891
9891 10009
10009 10133
10133 10254
10254 10377
10377 10501
10501 10624
10624 10751
10751 10875
10875 11001
11001 11119
11119 11244
11244 11366
11366 11491
11491 11614
11614 11739
11739 11864
11864 11988
11988 12114
12114 12237
12237 12362
12362 12485
12485 12610
12610 12734
12734 12859
12859 13037
13037 13160
13160 13285
13285 13413
13413 13539
13539 13661
13661 13785
13785 13906
13906 14027
14027 14075
14075 14197
14197 14320
14320 14441
14441 14565
14565 14688
14688 14815
14815 14940
14940 15066
15066 15193
15193 15318
15318 15442
15442 15566
15566 15687
15687 15811
15811 15932
15932 16034
16034 16264
16264 16392
16392 16518
16518 16646
16646 16878
16878 17005
17005 17099
17099 17224
17224 17345
17345 17469
17469 17593
17593 17714
17714 17839
17839 17962
17962 18097
18097 18313
18313 18437
18437 18560
18560 18684
18684 18805
18805 19032
19032 19153
19153 19277
19277 19400
19400 19524
19524 19651
19651 19774
19774 19900
19900 20025
20025 20148
20148 20274
20274 20395
20395 20517
20517 20639
20639 20761
20761 20882
20882 21000
21000 21180
21180 21301
21301 21423
21423 21543
21543 21666
21666 21790
21790 21914
21914 22040
22040 22165
22165 22290
22290 22417
22417 22540
22540 22666
22666 22790
22790 22913
22913 23037
23037 23160
23160 23288
23288 23416
23416 23544
23544 23675
23675 23802
23802 23929
23929 24132
24132 24262
24262 24388
24388 24516
24516 24746
24746 24874
24874 24998
24998 25143
25143 25269
25269 25397
25397 25628
25628 25757
25757 25882
25882 26009
26009 26136
26136 26261
26261 26491
26491 26615
26615 26741
26741 26864
26864 26989
26989 27082
27082 27208
27208 27335
27335 27666
27666 27789
27789 27915
27915 28137
28137 28269
28269 28397
28397 28524
28524 28653
28653 28778
28778 28907
28907 29092
29092 29218
29218 29348
29348 29479
29479 29614
29614 29747
29747 29881
29881 30014
30014 30069
30069 30199
30199 30329
30329 30454
30454 30582
30582 30707
30707 30834
30834 30959
30959 31083
31083 31303
31303 31428
31428 31554
31554 31677
31677 31801
31801 31925
31925 32031
32031 32157
32157 32286
32286 32411
32411 32539
32539 32668
32668 32794
32794 32921
32921 33051
33051 33177
33177 33307
33307 33434
33434 33665
33665 33796
33796 33924
33924 34119
34119 34246
34246 34373
34373 34498
34498 34626
34626 34752
