103 226
477 597
597 684
816 938
938 1132
1132 1265
1923 2095
2893 3028
3028 3092
3904 4114
4114 4250
4250 4387
4387 4521
4521 4658
4658 4793
4793 4924
4924 5133
5133 5281
5281 5430
5430 5578
5578 5724
5724 5869
5869 6013
6013 6118
6118 6260
6260 6410
6410 6557
6557 6708
6708 6857
6857 7009
7009 7084
7084 7246
7246 7384
7384 7537
7537 7695
7695 7825
7825 7983
7983 8171
8171 8321
8321 8474
8474 8595
8595 8746
