10 52
242 368
368 432
432 496
496 559
559 623
623 686
686 750
750 813
813 876
876 940
940 1004
1004 1067
1067 1131
1131 1194
1194 1258
1258 1322
1322 1385
1385 1449
1449 1512
1512 1576
1576 1640
1640 1703
1703 1767
1767 1831
1831 1894
1894 1958
1958 2060
2060 2124
2124 2188
2188 2251
2251 2315
2315 2378
2378 2442
2442 2506
2506 2570
2570 2633
2633 2697
2697 2761
2761 2825
2825 2888
2888 2952
2952 3016
3016 3080
3080 3143
3143 3182
3182 3246
3246 3310
3310 3374
3374 3437
3437 3501
3501 3629
3629 3693
3693 3757
3757 3821
3821 3885
3885 3949
3949 4013
4013 4077
4077 4141
4141 4205
4205 4269
4269 4333
4333 4397
4397 4461
4461 4525
4525 4589
4589 4653
4653 4717
4717 4781
4781 4845
4845 4909
4909 4973
4973 5037
5037 5101
5101 5165
5165 5229
5229 5293
5293 5357
5357 5421
5421 5485
5485 5549
5549 5613
5613 5677
5677 5742
5742 5806
5806 5870
5870 5934
5934 5998
5998 6062
6062 6126
6126 6189
6189 6254
6254 6318
6318 6382
6382 6446
6446 6510
6510 6574
6574 6638
6638 6701
6701 6765
6765 6829
6829 6893
6893 6957
6957 7021
7021 7085
7085 7149
7149 7213
7213 7277
7277 7341
7341 7405
7405 7533
7533 7597
7597 7661
7661 7725
7725 7853
7853 7981
7981 8045
8045 8109
8109 8173
8173 8237
8237 8301
8301 8365
8365 8429
8429 8493
8493 8557
8557 8621
8621 8685
8685 8749
8749 8813
8813 8876
8876 8941
8941 9005
9005 9069
9069 9133
9133 9172
9172 9236
9236 9300
9300 9364
9364 9428
9428 9492
9492 9556
9556 9620
9620 9684
9684 9748
9748 9812
9812 9890
9890 9955
9955 10019
10019 10083
10083 10147
10147 10211
10211 10339
10339 10403
10403 10468
10468 10532
10532 10596
10596 10660
10660 10789
10789 10853
10853 10917
10917 10981
10981 11045
11045 11109
11109 11174
11174 11238
11238 11302
11302 11366
11366 11430
11430 11495
11495 11559
11559 11623
11623 11688
11688 11752
11752 11816
11816 11880
11880 11945
11945 12009
12009 12073
12073 12138
12138 12202
12202 12266
12266 12330
12330 12395
12395 12459
12459 12523
12523 12587
12587 12652
12652 12716
12716 12780
12780 12844
12844 12909
12909 12973
12973 13067
13067 13132
13132 13171
13171 13236
13236 13300
13300 13365
13365 13429
13429 13494
13494 13558
13558 13623
13623 13687
13687 13752
13752 13816
13816 13881
13881 13945
13945 14010
14010 14074
14074 14138
14138 14178
14178 14242
14242 14307
14307 14371
14371 14436
14436 14500
14500 14565
14565 14629
14629 14693
14693 14798
14798 14862
14862 14927
14927 14991
14991 15056
15056 15120
15120 15184
15184 15249
15249 15314
15314 15378
15378 15443
15443 15507
15507 15571
15571 15636
15636 15700
15700 15765
15765 15829
15829 15894
15894 15958
15958 16023
16023 16087
16087 16152
16152 16216
16216 16280
16280 16345
16345 16410
16410 16474
16474 16513
16513 16578
16578 16642
16642 16707
16707 16771
16771 16825
16825 16900
16900 16965
16965 17029
17029 17094
17094 17158
17158 17222
17222 17287
17287 17351
17351 17416
17416 17480
17480 17545
17545 17713
17713 17777
17777 17842
17842 17906
17906 17971
17971 18045
18045 18109
18109 18173
18173 18238
18238 18302
18302 18366
18366 18430
18430 18495
18495 18559
18559 18623
18623 18752
18752 18816
18816 18880
18880 18944
18944 19008
19008 19073
19073 19137
19137 19265
19265 19330
19330 19394
19394 19458
19458 19522
19522 19621
19621 19685
19685 19749
19749 19814
19814 19878
19878 19942
19942 20006
20006 20147
20147 20211
20211 20276
20276 20340
20340 20404
20404 20468
20468 20533
20533 20597
20597 20661
20661 20725
20725 20790
20790 20854
20854 20918
20918 20983
20983 21047
21047 21111
21111 21175
21175 21239
21239 21304
21304 21368
21368 21432
21432 21497
21497 21561
21561 21664
21664 21728
21728 21793
21793 21857
21857 21921
21921 21986
21986 22050
22050 22114
22114 22178
22178 22243
22243 22307
22307 22371
22371 22436
22436 22500
22500 22564
22564 22628
22628 22692
22692 22757
22757 22821
22821 22885
22885 22949
22949 23014
23014 23078
23078 23174
23174 23270
23270 23334
23334 23398
23398 23463
23463 23527
23527 23591
23591 23656
23656 23720
23720 23784
23784 23848
23848 23912
23912 23977
23977 24041
24041 24105
24105 24169
24169 24233
24233 24297
24297 24361
24361 24425
24425 24490
24490 24554
24554 24618
24618 24682
24682 24747
24747 24811
24811 24875
24875 24939
24939 25003
25003 25067
25067 25196
25196 25260
25260 25324
25324 25388
25388 25452
25452 25516
25516 25580
25580 25645
25645 25709
25709 25773
25773 25837
25837 25901
25901 25965
25965 26029
26029 26093
26093 26158
26158 26222
26222 26286
26286 26350
26350 26414
26414 26478
26478 26542
26542 26606
26606 26671
26671 26735
26735 26799
26799 26863
26863 26927
26927 26991
26991 27055
27055 27119
27119 27184
27184 27248
27248 27312
27312 27376
