16 55
10115 10174
10174 10232
10232 10291
10291 10349
10349 10408
10408 10466
10466 10525
10525 10583
10583 10642
10642 10700
10700 10758
10758 10817
10817 10876
10876 10934
10934 10993
10993 11051
11051 11110
11110 11168
11168 11226
11226 11285
11285 11343
11343 11402
11402 11460
11460 11519
11519 11577
11577 11635
11635 11694
11694 11753
11753 11811
11811 11870
11870 11928
11928 11987
11987 12045
12045 12103
12103 12162
12162 12221
12221 12279
12279 12338
12338 12396
12396 12454
12454 12513
12513 12571
12571 12630
12630 12689
12689 12747
12747 12806
12806 12864
12864 12923
12923 12981
12981 13088
13088 13146
13146 13205
13205 13263
13263 13322
13322 13380
13380 13439
13439 13498
13498 13556
13556 13615
13615 13673
13673 13732
13732 13790
13790 13848
13848 13907
13907 13966
13966 14024
14024 14083
14083 14141
14141 14200
14200 14258
14258 14317
14317 14375
14375 14434
14434 14493
14493 14551
14551 14610
14610 14668
14668 14727
14727 14785
14785 14844
14844 14903
14903 14962
14962 15020
15020 15079
15079 15137
15137 15196
15196 15254
15254 15313
15313 15372
15372 15430
15430 15489
15489 15547
15547 15606
15606 15664
15664 15723
15723 15781
15781 15840
15840 15899
15899 15957
15957 16016
16016 16074
16074 16133
16133 16191
16191 16250
16250 16309
16309 16367
16367 16426
16426 16484
16484 16543
16543 16601
16601 16660
16660 16719
16719 16777
16777 16836
16836 16895
16895 16953
16953 17012
17012 17070
17070 17129
17129 17187
17187 17246
17246 17305
17305 17363
17363 17422
17422 17480
17480 17539
17539 17597
17597 17656
17656 17715
17715 17773
17773 17832
17832 17890
17890 17949
17949 18007
18007 18066
18066 18124
18124 18183
18183 18242
18242 18300
18300 18359
18359 18418
18418 18476
18476 18535
18535 18593
18593 18652
18652 18711
18711 18769
18769 18828
18828 18886
18886 18945
18945 19003
19003 19062
19062 19121
19121 19180
19180 19238
19238 19297
19297 19355
19355 19414
19414 19472
19472 19531
19531 19589
19589 19648
19648 19707
19707 19765
19765 19824
19824 19882
19882 19941
19941 19999
19999 20058
20058 20117
20117 20175
20175 20234
20234 20292
20292 20351
20351 20409
20409 20468
20468 20527
20527 20585
20585 20644
20644 20702
20702 20761
20761 20820
20820 20878
20878 20937
20937 20995
20995 21054
21054 21113
21113 21171
21171 21230
21230 21288
21288 21347
21347 21405
21405 21464
21464 21523
21523 21581
21581 21640
21640 21698
21698 21757
21757 21815
21815 21874
21874 21933
21933 21991
21991 22050
22050 22108
22108 22167
22167 22225
22225 22284
22284 22342
22342 22401
22401 22460
22460 22518
22518 22577
22577 22635
22635 22694
22694 22752
22752 22810
22810 22869
22869 22928
22928 22986
22986 23045
23045 23103
23103 23162
23162 23220
23220 23278
23278 23337
23337 23396
23396 23454
23454 23512
23512 23571
23571 23629
23629 23687
23687 23746
23746 23804
23804 23863
23863 23921
23921 23980
23980 24038
24038 24097
24097 24155
24155 24213
24213 24272
24272 24330
24330 24389
24389 24447
24447 24506
24506 24564
24564 24622
24622 24681
24681 24739
24739 24798
24798 24856
24856 24914
24914 24973
24973 25030
25030 25083
25083 25141
25141 25199
25199 25258
25258 25316
25316 25374
25374 25432
25432 25491
25491 25549
25549 25608
25608 25666
25666 25724
25724 25783
25783 25841
25841 25899
25899 25957
25957 26016
26016 26075
26075 26133
26133 26191
26191 26249
26249 26308
26308 26366
26366 26424
26424 26483
26483 26541
26541 26600
26600 26658
26658 26716
26716 26774
26774 26833
26833 26891
26891 26949
26949 27008
27008 27066
27066 27125
27125 27183
27183 27241
27241 27299
27299 27358
27358 27416
27416 27475
27475 27533
27533 27592
27592 27650
27650 27708
27708 27766
27766 27825
27825 27883
27883 27942
27942 28000
28000 28059
28059 28117
28117 28175
28175 28233
28233 28292
28292 28350
28350 28409
28409 28467
28467 28525
28525 28584
28584 28642
28642 28700
28700 28758
28758 28817
28817 28875
28875 28934
28934 28992
28992 29050
29050 29108
29108 29167
29167 29225
29225 29283
29283 29342
29342 29400
29400 29459
29459 29517
29517 29575
29575 29633
29633 29692
29692 29750
29750 29809
29809 29867
29867 29925
29925 29984
29984 30042
30042 30100
30100 30158
30158 30217
30217 30275
30275 30334
30334 30392
30392 30450
30450 30508
30508 30567
30567 30625
30625 30683
30683 30742
30742 30800
30800 30858
30858 30917
30917 30975
30975 31033
31033 31091
31091 31150
31150 31208
31208 31267
31267 31325
31325 31383
31383 31441
31441 31500
31500 31558
31558 31616
31616 31675
31675 31733
31733 31792
31792 31850
31850 31908
31908 31966
31966 32024
32024 32083
32083 32142
32142 32200
32200 32258
32258 32317
32317 32375
32375 32433
32433 32491
32491 32550
32550 32608
32608 32667
32667 32725
32725 32783
32783 32841
32841 32899
32899 32958
32958 33016
33016 33075
33075 33133
33133 33191
33191 33250
33250 33308
33308 33366
33366 33424
33424 33483
33483 33541
33541 33600
33600 33658
33658 33716
33716 33774
33774 33833
33833 33891
33891 33949
33949 34008
34008 34066
34066 34124
34124 34183
34183 34241
34241 34299
34299 34357
34357 34415
34415 34474
34474 34532
34532 34591
34591 34649
34649 34707
34707 34765
34765 34823
34823 34882
34882 34940
34940 34998
34998 35057
35057 35115
35115 35173
35173 35231
35231 35289
35289 35348
35348 35406
35406 35465
35465 35523
35523 35581
35581 35639
35639 35698
35698 35756
35756 35814
35814 35873
35873 35931
35931 35989
35989 36048
36048 36106
36106 36164
36164 36222
36222 36314
36314 36372
36372 36431
36431 36489
36489 36547
36547 36605
36605 36663
36663 36722
36722 36780
36780 36838
36838 36897
36897 36955
36955 37013
37013 37071
37071 37129
37129 37188
37188 37246
37246 37305
37305 37363
37363 37421
37421 37479
37479 37538
37538 37596
37596 37654
37654 37713
37713 37771
37771 37829
37829 37888
37888 37946
37946 38004
38004 38062
38062 38121
38121 38179
38179 38238
38238 38296
38296 38354
38354 38412
38412 38471
38471 38529
38529 38587
38587 38646
38646 38704
38704 38762
38762 38821
38821 38879
38879 38937
38937 38995
38995 39053
39053 39112
39112 39171
39171 39229
39229 39287
39287 39345
39345 39404
39404 39462
39462 39520
39520 39579
39579 39637
39637 39696
39696 39754
39754 39812
39812 39870
39870 39929
39929 39987
39987 40045
40045 40104
40104 40162
40162 40220
40220 40279
40279 40337
40337 40395
40395 40453
40453 40512
40512 40570
40570 40629
40629 40687
40687 40745
40745 40836
40836 40894
40894 40953
40953 41012
41012 41070
41070 41128
41128 41186
41186 41244
41244 41303
41303 41361
41361 41419
41419 41478
41478 41536
41536 41594
41594 41653
41653 41711
41711 41769
41769 41827
41827 41886
41886 41944
41944 42003
42003 42061
42061 42119
42119 42177
42177 42236
42236 42294
42294 42352
42352 42411
42411 42469
42469 42527
42527 42585
42585 42644
42644 42702
42702 42760
42760 42819
42819 42877
42877 42935
42935 42994
42994 43052
43052 43110
43110 43168
43168 43226
43226 43285
43285 43343
43343 43402
43402 43460
43460 43518
43518 43576
43576 43635
43635 43693
43693 43751
43751 43810
43810 43868
43868 43926
43926 43985
43985 44043
44043 44101
44101 44159
44159 44218
44218 44276
44276 44335
44335 44393
44393 44451
44451 44510
44510 44568
44568 44626
44626 44684
44684 44743
44743 44801
44801 44859
44859 44918
44918 44976
44976 45034
45034 45092
45092 45151
45151 45209
45209 45267
45267 45326
45326 45384
45384 45442
45442 45500
45500 45559
45559 45617
45617 45676
45676 45734
45734 45792
45792 45851
45851 45909
45909 45967
45967 46025
46025 46084
46084 46142
46142 46201
46201 46259
46259 46317
46317 46375
46375 46434
46434 46492
46492 46550
46550 46609
46609 46667
46667 46725
46725 46784
46784 46842
46842 46900
46900 46958
46958 47016
47016 47075
47075 47133
47133 47192
47192 47250
47250 47308
47308 47366
47366 47424
47424 47483
47483 47541
47541 47600
47600 47658
47658 47716
47716 47775
47775 47833
47833 47891
47891 47949
47949 48008
48008 48067
48067 48125
48125 48183
48183 48242
48242 48300
48300 48358
48358 48417
48417 48475
48475 48534
48534 48592
48592 48651
48651 48709
48709 48767
48767 48826
48826 48884
48884 48943
48943 49001
49001 49060
49060 49118
49118 49176
49176 49235
49235 49293
49293 49351
49351 49410
49410 49468
49468 49527
49527 49585
49585 49643
49643 49702
49702 49760
49760 49818
49818 49877
49877 49935
49935 49994
49994 50052
50052 50110
50110 50169
50169 50227
50227 50285
50285 50344
50344 50403
50403 50461
50461 50519
50519 50578
50578 50636
50636 50694
50694 50752
50752 50811
50811 50870
50870 50928
50928 50986
50986 51045
51045 51103
51103 51161
51161 51219
51219 51278
51278 51337
51337 51395
51395 51453
51453 51511
51511 51570
51570 51628
51628 51686
51686 51745
51745 51803
51803 51862
51862 51920
51920 51978
51978 52037
52037 52095
52095 52153
52153 52212
52212 52271
52271 52329
52329 52387
52387 52446
52446 52504
52504 52562
52562 52621
52621 52679
52679 52738
52738 52796
52796 52855
52855 52913
52913 52971
52971 53030
53030 53088
53088 53147
53147 53205
53205 53264
53264 53355
53355 53414
53414 53472
53472 53530
53530 53589
53589 53647
53647 53705
53705 53764
53764 53822
53822 53880
53880 53939
53939 53997
53997 54055
54055 54114
54114 54172
54172 54231
54231 54289
54289 54347
54347 54406
54406 54464
54464 54523
54523 54581
54581 54640
54640 54698
54698 54757
54757 54815
54815 54873
54873 54931
54931 54990
54990 55049
55049 55107
55107 55166
55166 55224
55224 55282
55282 55341
55341 55399
55399 55458
55458 55516
55516 55575
55575 55633
55633 55691
55691 55750
55750 55808
55808 55866
55866 55925
55925 55984
55984 56042
56042 56100
56100 56159
56159 56217
56217 56275
56275 56334
56334 56392
56392 56451
56451 56509
56509 56568
56568 56626
56626 56685
56685 56743
56743 56801
56801 56860
56860 56918
56918 56977
56977 57035
57035 57093
57093 57152
57152 57210
57210 57268
57268 57327
57327 57386
57386 57444
57444 57502
57502 57561
57561 57619
57619 57677
57677 57735
57735 57794
57794 57853
57853 57911
57911 57969
57969 58028
58028 58086
58086 58144
58144 58202
58202 58261
58261 58320
58320 58378
58378 58436
58436 58495
58495 58553
58553 58612
58612 58670
58670 58728
58728 58787
58787 58845
58845 58904
58904 58962
58962 59020
59020 59079
59079 59137
59137 59195
59195 59254
59254 59313
59313 59371
59371 59429
59429 59487
59487 59546
59546 59604
59604 59662
59662 59721
59721 59779
59779 59838
59838 59896
59896 59954
59954 60013
60013 60071
60071 60129
60129 60188
60188 60246
60246 60305
60305 60363
60363 60421
60421 60480
60480 60538
60538 60596
60596 60655
60655 60714
60714 60772
60772 60830
60830 60889
60889 60947
60947 61005
61005 61064
61064 61123
61123 61181
61181 61239
61239 61298
61298 61356
61356 61414
61414 61472
61472 61531
61531 61590
61590 61648
61648 61706
61706 61765
61765 61823
61823 61881
61881 61939
61939 61998
61998 62056
62056 62115
62115 62173
62173 62231
62231 62290
62290 62348
62348 62406
62406 62464
62464 62523
62523 62582
62582 62640
62640 62698
62698 62757
62757 62815
62815 62873
62873 62932
62932 62990
62990 63041
63041 63099
63099 63158
63158 63216
63216 63274
63274 63332
63332 63391
63391 63450
63450 63508
63508 63566
63566 63625
63625 63683
63683 63741
63741 63800
63800 63858
63858 63917
63917 63975
63975 64034
64034 64092
64092 64150
64150 64209
64209 64267
64267 64326
64326 64384
64384 64442
64442 64501
64501 64559
64559 64617
64617 64676
64676 64734
64734 64793
64793 64851
64851 64910
64910 64968
64968 65026
65026 65118
65118 65176
65176 65235
65235 65293
65293 65352
65352 65410
65410 65468
65468 65527
65527 65585
65585 65643
65643 65702
65702 65761
65761 65819
65819 65877
65877 65936
65936 65994
65994 66052
66052 66110
66110 66169
66169 66228
66228 66286
66286 66344
66344 66402
66402 66461
66461 66519
66519 66577
66577 66636
66636 66694
66694 66752
66752 66810
66810 66869
66869 66927
66927 66985
66985 67043
67043 67102
67102 67160
67160 67218
67218 67277
67277 67335
67335 67393
67393 67451
67451 67509
67509 67568
67568 67626
