326 436
552 663
5030 5252
5252 5364
5937 6089
6311 6422
6422 6531
7774 8123
8123 8367
8367 8605
8605 8720
8720 8838
8838 8959
8959 9093
9093 9211
9211 9326
9326 9446
9446 9570
9570 9688
9688 9802
9802 9917
9917 10030
10030 10133
10133 10250
10250 10364
10364 10480
10480 10596
10596 10711
10711 10825
10825 10941
10941 11071
11071 11188
11188 11302
11302 11533
11533 11656
11656 11772
11772 12262
12262 12602
12602 12716
12716 12936
12936 13099
13099 13218
13218 13334
13334 13453
13453 13572
13572 13687
13687 13801
13801 13916
13916 14028
14028 14143
14143 14605
14605 15297
15297 15421
15421 15653
15653 15770
15770 16008
16008 16124
16124 16246
16246 16375
16375 16497
16497 16617
16617 16733
16733 16848
16848 16960
16960 17074
17074 17188
17188 17301
17301 17415
17415 17529
17529 17648
17648 17764
17764 17876
17876 17989
17989 18108
18108 18224
18224 18344
18344 18457
18457 18570
18570 18686
18686 18800
18800 18911
18911 19140
19140 19373
19373 19494
19494 19609
19609 19720
19720 20177
20177 20295
20295 20410
20410 20522
20522 20635
20635 20746
20746 20856
20856 20969
20969 21081
21081 21193
21193 21308
21308 21398
21398 21510
21510 21624
21624 21739
21739 21853
21853 21978
21978 22095
22095 22211
22211 22336
22336 22455
22455 22569
22569 22686
22686 22799
22799 22913
22913 23036
23036 23523
23523 23770
23770 23889
23889 24005
24005 24121
24121 24237
24237 24358
24358 24484
24484 24613
24613 24732
24732 24848
24848 24964
24964 25076
25076 25188
25188 25303
25303 25414
25414 25525
25525 25640
25640 25756
25756 25870
25870 25987
25987 26104
26104 26220
26220 26340
26340 26460
26460 26574
26574 26689
26689 26803
26803 26914
26914 27035
27035 27150
27150 27264
27264 27380
27380 27497
27497 27611
27611 27729
27729 27842
27842 27953
27953 28095
28095 28408
28408 28507
28507 28607
28607 28706
28706 28904
28904 29007
29007 29109
29109 29207
29207 29307
29307 29408
29408 29505
29505 29605
29605 29704
29704 29803
29803 29899
29899 29995
29995 30091
30091 30186
30186 30282
30282 30380
30380 30571
30571 30666
30666 30759
30759 30851
30851 31128
31128 31312
31312 31405
31405 31501
31501 31598
31598 31694
31694 31792
31792 31892
31892 32046
32046 32145
32145 32239
32239 32333
32333 32427
32427 32521
32521 32614
32614 32709
32709 32805
32805 32997
32997 33191
33191 33285
33285 33379
33379 33473
33473 33566
33566 33660
33660 33847
33847 33941
33941 34044
34044 34142
34142 34242
34242 34440
34440 34541
34541 34642
34642 34843
34843 34947
34947 35051
35051 35152
35152 35255
35255 35454
35454 35553
35553 35654
35654 35754
35754 35856
35856 35960
35960 36064
36064 36171
36171 36279
36279 36382
36382 36672
36672 36779
36779 36884
36884 36990
36990 37100
37100 37206
37206 37312
37312 37421
37421 37528
37528 37635
37635 37844
37844 37950
37950 38157
38157 38258
38258 38429
38429 38724
38724 38828
38828 38934
38934 39044
39044 39370
39370 39474
39474 39684
39684 39792
39792 39899
39899 40002
40002 40043
40043 40147
40147 40248
40248 40329
40329 40430
40430 40502
40502 40698
40698 40793
40793 40983
40983 41078
41078 41353
41353 41454
41454 41630
41630 41732
41732 41935
41935 42035
42035 42234
42234 42334
42334 42435
42435 42537
42537 42638
42638 42740
42740 42841
42841 42942
42942 43044
43044 43148
43148 43250
43250 43352
43352 43455
43455 43556
43556 43659
43659 43766
43766 43871
43871 43976
43976 44085
44085 44191
44191 44294
44294 44399
44399 44503
44503 44607
44607 44797
44797 44902
44902 45011
45011 45122
45122 45228
45228 45341
45341 45449
45449 45554
45554 45663
45663 45773
45773 45882
45882 45994
45994 46103
46103 46208
46208 46293
46293 46404
46404 46511
46511 46599
46599 46710
46710 46818
46818 46926
46926 47035
47035 47141
47141 47249
47249 47464
47464 47577
47577 47687
47687 47797
