149 229
3685 3775
3775 3866
3866 3957
3957 4049
4049 4143
4143 4238
4238 4334
4334 4429
4429 4523
4523 4617
4617 4712
4712 4810
4810 4910
4910 5008
5008 5107
5107 5204
5204 5303
5303 5400
5400 5497
5497 5593
5593 5688
5688 5781
5781 5874
5874 5968
5968 6064
6064 6160
6160 6256
6256 6351
6351 6444
6444 6537
6537 6631
6631 6727
6727 6824
6824 6923
6923 7023
7023 7122
7122 7220
7220 7316
7316 7413
7413 7512
7512 7612
7612 7713
7713 7815
7815 7914
7914 8011
8011 8110
8110 8202
8202 8295
8295 8387
8387 8477
8477 8568
8568 8658
8658 8748
8748 8838
8838 8928
8928 9018
9018 9106
9106 9195
9195 9286
9286 9378
9378 9472
9472 9566
9566 9660
9660 9753
9753 9847
9847 9943
9943 10039
10039 10135
10135 10230
10230 10324
10324 10417
10417 10511
10511 10605
10605 10700
10700 10794
10794 10889
10889 10983
10983 11076
11076 11169
11169 11264
11264 11361
11361 11460
11460 11559
11559 11657
11657 11752
11752 11845
11845 11937
11937 12051
12051 12146
12146 12240
12240 12334
12334 12428
12428 12524
12524 12618
12618 12712
12712 12803
12803 12895
12895 12988
12988 13081
13081 13174
13174 13268
13268 13360
13360 13453
13453 13547
13547 13641
13641 13736
13736 13831
13831 13924
13924 14016
14016 14076
14076 14165
14165 14254
14254 14342
14342 14430
14430 14519
14519 14608
14608 14697
14697 14786
14786 14874
14874 14962
14962 15052
15052 15144
15144 15237
15237 15331
15331 15423
15423 15515
15515 15606
15606 15698
15698 15791
15791 15885
15885 15979
15979 16049
16049 16162
16162 16256
16256 16349
16349 16441
16441 16533
16533 16625
16625 16715
16715 16806
16806 16897
16897 16989
16989 17082
17082 17175
17175 17266
17266 17358
17358 17449
17449 17542
17542 17634
17634 17727
17727 17820
17820 17911
17911 18002
18002 18091
18091 18181
18181 18272
18272 18363
18363 18453
18453 18543
18543 18632
18632 18721
18721 18810
18810 18900
18900 18991
18991 19084
19084 19175
19175 19264
19264 19353
19353 19442
19442 19532
19532 19621
19621 19711
19711 19800
19800 19887
19887 19974
19974 20060
20060 20148
20148 20236
20236 20326
20326 20416
20416 20507
20507 20596
20596 20686
20686 20776
20776 20868
20868 20958
20958 21049
21049 21138
21138 21226
21226 21314
21314 21401
21401 21490
21490 21580
21580 21669
21669 21759
21759 21847
21847 21933
21933 22019
22019 22091
22091 22174
22174 22258
22258 22341
22341 22426
22426 22511
22511 22597
22597 22684
22684 22773
22773 22861
22861 22949
22949 23037
23037 23126
23126 23217
23217 23310
23310 23403
23403 23497
23497 23592
23592 23688
23688 23785
23785 23882
23882 23976
23976 24071
24071 24166
24166 24263
24263 24361
24361 24458
24458 24555
24555 24651
24651 24747
24747 24843
24843 24937
24937 25030
25030 25123
25123 25218
25218 25316
25316 25416
25416 25515
25515 25610
25610 25703
25703 25795
25795 25888
25888 25981
25981 26074
26074 26167
26167 26260
26260 26353
26353 26447
26447 26541
26541 26635
26635 26730
26730 26824
26824 26916
26916 27008
27008 27099
27099 27190
27190 27282
27282 27375
27375 27469
27469 27562
27562 27654
27654 27746
27746 27838
27838 27931
27931 28024
28024 28119
28119 28214
28214 28308
28308 28399
28399 28488
28488 28575
28575 28663
28663 28752
28752 28842
28842 28934
28934 29025
29025 29114
29114 29202
29202 29291
29291 29376
29376 29461
29461 29544
29544 29629
29629 29714
29714 29800
29800 29886
29886 29973
29973 30059
30059 30145
30145 30230
30230 30316
30316 30401
30401 30488
30488 30574
30574 30660
30660 30745
30745 30830
30830 30915
30915 31000
31000 31086
31086 31173
31173 31261
31261 31348
31348 31436
31436 31525
31525 31614
31614 31704
31704 31794
31794 31885
31885 31976
31976 32067
32067 32158
32158 32249
32249 32341
32341 32433
32433 32526
32526 32620
32620 32713
32713 32806
32806 32898
32898 32992
32992 33086
33086 33182
33182 33278
33278 33374
33374 33469
33469 33562
33562 33654
33654 33747
33747 33841
33841 33935
33935 34029
34029 34121
34121 34213
34213 34303
34303 34395
34395 34488
34488 34581
34581 34673
34673 34766
34766 34857
34857 34947
34947 35037
35037 35127
35127 35218
35218 35311
35311 35405
35405 35501
35501 35595
35595 35687
35687 35779
35779 35869
35869 35960
35960 36050
36050 36141
36141 36232
36232 36322
36322 36412
36412 36500
36500 36589
36589 36678
36678 36769
36769 36860
36860 36953
36953 37044
37044 37135
37135 37225
37225 37315
37315 37405
37405 37495
37495 37586
37586 37678
37678 37769
37769 37859
37859 37949
37949 38038
38038 38128
38128 38218
38218 38310
38310 38401
38401 38492
38492 38582
38582 38672
38672 38763
38763 38857
38857 38952
38952 39047
39047 39142
39142 39235
39235 39326
39326 39417
39417 39508
39508 39599
39599 39692
39692 39788
39788 39884
39884 39984
39984 40068
40068 40159
40159 40251
40251 40343
40343 40433
40433 40523
40523 40614
40614 40705
40705 40796
40796 40888
40888 40979
40979 41081
41081 41174
41174 41268
41268 41362
41362 41458
41458 41555
41555 41650
41650 41744
41744 41838
41838 41933
41933 42030
42030 42127
42127 42224
42224 42320
42320 42415
42415 42508
42508 42599
42599 42689
42689 42779
42779 42870
42870 42962
42962 43053
43053 43143
43143 43232
43232 43321
43321 43409
43409 43497
43497 43587
43587 43678
43678 43770
43770 43861
43861 43951
43951 44041
44041 44129
44129 44218
44218 44306
44306 44395
44395 44484
44484 44572
44572 44658
44658 44743
44743 44828
44828 44914
44914 44999
44999 45085
45085 45171
45171 45257
45257 45342
45342 45427
45427 45512
45512 45597
45597 45682
45682 45764
45764 45847
45847 45930
45930 46013
46013 46097
46097 46183
46183 46269
46269 46355
46355 46442
46442 46528
46528 46615
46615 46702
46702 46791
46791 46880
46880 46971
46971 47062
47062 47153
47153 47245
47245 47338
47338 47430
47430 47521
47521 47613
47613 47706
47706 47800
47800 47896
47896 47992
47992 48088
48088 48183
48183 48276
48276 48369
48369 48463
48463 48558
48558 48652
48652 48747
48747 48840
48840 48932
48932 49024
49024 49116
49116 49207
49207 49299
49299 49392
49392 49483
49483 49573
49573 49662
49662 49752
49752 49843
49843 49934
49934 50026
50026 50116
50116 50206
50206 50294
50294 50379
50379 50464
50464 50549
50549 50633
50633 50719
50719 50804
50804 50889
50889 50975
50975 51061
51061 51148
51148 51235
51235 51323
51323 51412
51412 51501
51501 51589
51589 51677
51677 51765
51765 51854
51854 51944
51944 52034
52034 52124
52124 52213
52213 52303
52303 52395
52395 52502
52502 52594
52594 52689
52689 52785
52785 52879
52879 52972
52972 53064
53064 53156
53156 53251
53251 53348
53348 53459
53459 53530
53530 53630
53630 53730
53730 53829
53829 53926
53926 54021
54021 54114
54114 54207
54207 54301
54301 54395
54395 54488
54488 54580
54580 54672
54672 54762
54762 54855
54855 54948
54948 55042
55042 55136
55136 55232
55232 55325
55325 55417
55417 55508
55508 55597
55597 55688
55688 55779
55779 55870
55870 55961
55961 56051
56051 56140
56140 56228
56228 56317
56317 56406
56406 56496
56496 56586
56586 56675
56675 56764
56764 56851
56851 56939
56939 57027
57027 57116
57116 57204
57204 57292
57292 57379
57379 57465
57465 57552
57552 57639
57639 57729
57729 57819
57819 57910
57910 57999
57999 58088
58088 58175
58175 58260
58260 58344
58344 58429
58429 58512
58512 58595
58595 58678
58678 58762
58762 58846
58846 58929
58929 59011
59011 59093
59093 59176
59176 59259
59259 59342
59342 59426
59426 59508
59508 59590
59590 59671
59671 59751
59751 59832
59832 59912
59912 59993
59993 60073
60073 60152
60152 60231
60231 60310
60310 60388
60388 60467
60467 60545
60545 60624
60624 60703
60703 60781
60781 60860
60860 60939
60939 61019
61019 61099
61099 61179
61179 61260
61260 61341
61341 61422
61422 61503
61503 61586
61586 61668
61668 61751
61751 61836
61836 61920
61920 62004
62004 62089
62089 62174
62174 62260
62260 62346
62346 62432
62432 62517
62517 62602
62602 62687
62687 62771
62771 62857
62857 62941
62941 63026
63026 63112
63112 63197
63197 63283
63283 63370
63370 63456
63456 63542
63542 63627
63627 63712
63712 63798
63798 63884
63884 63971
63971 64057
64057 64143
64143 64230
64230 64317
