78 121
121 236
236 279
279 316
1027 1068
1068 1105
1105 1184
1184 1262
1262 1341
1341 1418
1418 1496
1496 1573
1573 1652
1652 1729
1729 1807
1807 1852
1852 1963
1963 2041
2041 2118
2118 2197
2197 2275
2275 2353
2353 2430
2430 2509
2509 2587
2587 2666
2666 2744
