24 91
1963 2109
7965 8055
8055 8145
8145 8234
8234 8320
8320 8407
8407 8495
8495 8582
8582 8668
8668 8753
8753 8838
8838 8923
8923 9008
9008 9093
9093 9178
9178 9263
9263 9347
9347 9431
9431 9516
9516 9602
9602 9690
9690 9778
9778 9868
9868 9958
9958 10047
10047 10138
10138 10229
10229 10336
10336 10427
10427 10534
10534 10626
10626 10720
10720 10814
10814 10910
10910 11007
11007 11106
11106 11202
11202 11299
11299 11395
11395 11490
11490 11584
11584 11677
11677 11771
11771 11865
11865 11961
11961 12059
12059 12157
12157 12253
12253 12348
12348 12442
12442 12537
12537 12632
12632 12729
12729 12825
12825 12919
12919 13013
13013 13106
13106 13201
13201 13296
13296 13392
13392 13487
13487 13581
13581 13673
13673 13764
13764 13855
13855 13947
13947 14037
14037 14126
14126 14214
14214 14301
14301 14389
14389 14477
14477 14563
14563 14651
14651 14738
14738 14825
14825 14911
14911 14996
14996 15081
15081 15167
15167 15252
15252 15337
15337 15422
15422 15508
15508 15594
15594 15679
15679 15764
15764 15850
15850 15938
15938 16026
16026 16117
16117 16209
16209 16303
16303 16397
16397 16491
16491 16585
16585 16680
16680 16777
16777 16875
16875 16972
16972 17069
17069 17166
17166 17260
17260 17355
17355 17450
17450 17545
17545 17643
17643 17741
17741 17839
17839 17935
17935 18031
18031 18127
18127 18224
18224 18318
18318 18412
18412 18506
18506 18601
18601 18697
18697 18793
18793 18889
18889 18984
18984 19077
19077 19170
19170 19263
19263 19358
19358 19453
19453 19550
19550 19645
19645 19738
19738 19831
19831 19923
19923 20016
20016 20109
20109 20202
20202 20294
20294 20384
20384 20475
20475 20565
20565 20656
20656 20747
20747 20839
20839 20930
20930 21018
21018 21104
21104 21192
21192 21280
21280 21368
21368 21456
21456 21542
21542 21628
21628 21715
21715 21800
21800 21885
21885 21969
21969 22053
22053 22138
22138 22222
22222 22307
22307 22392
22392 22476
22476 22562
22562 22648
22648 22734
22734 22822
22822 22910
22910 23000
23000 23092
23092 23185
23185 23280
23280 23373
23373 23465
23465 23557
23557 23650
23650 23745
23745 23841
23841 23938
23938 24036
24036 24132
24132 24230
24230 24326
24326 24423
24423 24517
24517 24612
24612 24708
24708 24805
24805 24902
24902 24998
24998 25093
25093 25186
25186 25279
25279 25373
25373 25466
25466 25561
25561 25654
25654 25747
25747 25837
25837 25928
25928 26018
26018 26108
26108 26200
26200 26292
26292 26385
26385 26477
26477 26568
26568 26659
26659 26750
26750 26841
26841 26933
26933 27026
27026 27118
27118 27210
27210 27301
27301 27391
27391 27479
27479 27566
27566 27654
27654 27743
27743 27832
27832 27920
27920 28007
28007 28095
28095 28184
28184 28274
28274 28365
28365 28456
28456 28548
28548 28638
28638 28727
28727 28816
28816 28905
28905 28995
28995 29087
29087 29180
29180 29274
29274 29368
29368 29462
29462 29555
29555 29650
29650 29745
29745 29841
29841 29938
29938 30033
30033 30126
30126 30219
30219 30314
30314 30426
30426 30495
30495 30590
30590 30684
30684 30776
30776 30866
30866 30956
30956 31047
31047 31140
31140 31235
31235 31329
31329 31423
31423 31514
31514 31580
31580 31671
31671 31762
31762 31855
31855 31946
31946 32023
32023 32082
32082 32170
32170 32259
32259 32347
32347 32434
32434 32521
32521 32609
32609 32697
32697 32787
32787 32877
32877 32970
32970 33063
33063 33155
33155 33246
33246 33340
33340 33436
33436 33533
33533 33630
33630 33725
33725 33820
33820 33914
33914 34006
34006 34120
34120 34215
34215 34307
34307 34399
34399 34492
34492 34585
34585 34679
34679 34775
34775 34871
34871 34965
34965 35057
35057 35148
35148 35239
35239 35330
35330 35421
35421 35512
35512 35604
35604 35694
35694 35782
35782 35871
35871 35960
35960 36050
36050 36140
36140 36230
36230 36319
36319 36404
36404 36490
36490 36575
36575 36660
36660 36743
36743 36827
36827 36910
36910 36992
36992 37075
37075 37157
37157 37239
37239 37322
37322 37405
37405 37488
37488 37570
37570 37653
37653 37737
37737 37820
37820 37904
37904 37988
37988 38072
38072 38157
38157 38242
38242 38327
38327 38411
38411 38495
38495 38579
38579 38664
38664 38750
38750 38837
38837 38925
38925 39014
39014 39102
39102 39192
39192 39282
39282 39374
39374 39465
39465 39557
39557 39650
39650 39742
39742 39832
39832 39921
39921 40009
40009 40098
40098 40186
40186 40275
40275 40363
40363 40451
40451 40539
40539 40627
40627 40716
40716 40806
40806 40899
40899 40991
40991 41083
41083 41175
41175 41266
41266 41357
41357 41448
41448 41539
41539 41631
41631 41722
41722 41813
41813 41904
41904 41993
41993 42083
42083 42172
42172 42263
42263 42354
42354 42443
42443 42533
42533 42622
42622 42711
42711 42802
42802 42893
42893 42984
42984 43074
43074 43162
43162 43250
43250 43312
43312 43400
43400 43487
43487 43574
43574 43659
43659 43745
43745 43832
43832 43920
43920 44008
44008 44095
44095 44181
44181 44267
44267 44353
44353 44439
44439 44526
44526 44612
44612 44700
44700 44787
44787 44873
44873 44960
44960 45046
45046 45133
45133 45221
45221 45311
45311 45401
45401 45494
45494 45585
45585 45676
45676 45768
45768 45860
45860 45954
45954 46050
46050 46146
46146 46240
46240 46334
46334 46427
46427 46520
46520 46613
46613 46708
46708 46802
46802 46897
46897 46989
46989 47081
47081 47173
47173 47264
47264 47355
47355 47446
47446 47537
47537 47628
47628 47721
47721 47815
47815 47911
47911 48007
48007 48100
48100 48191
48191 48282
48282 48373
48373 48464
48464 48556
48556 48651
48651 48745
48745 48838
48838 48930
48930 49021
49021 49111
49111 49203
49203 49295
49295 49388
49388 49482
49482 49576
49576 49669
49669 49760
49760 49851
49851 49941
49941 50033
50033 50125
50125 50217
50217 50308
50308 50398
50398 50487
50487 50575
50575 50665
50665 50757
50757 50850
50850 50944
50944 51031
51031 51116
51116 51201
51201 51285
51285 51369
51369 51454
51454 51539
51539 51625
51625 51711
51711 51798
51798 51883
51883 51968
51968 52054
52054 52141
52141 52229
52229 52320
52320 52419
52419 52514
52514 52605
52605 52697
52697 52790
52790 52884
52884 52992
52992 53084
53084 53182
53182 53281
53281 53380
53380 53479
53479 53575
53575 53670
53670 53765
53765 53860
53860 53956
53956 54053
54053 54151
54151 54250
54250 54320
54320 54415
54415 54509
54509 54604
54604 54699
54699 54795
54795 54892
54892 54987
54987 55080
55080 55172
55172 55264
55264 55357
55357 55453
55453 55549
55549 55644
55644 55737
55737 55829
55829 55921
55921 56013
56013 56106
56106 56200
56200 56293
56293 56386
56386 56477
56477 56566
56566 56655
56655 56743
56743 56832
56832 56922
56922 57013
57013 57067
57067 57152
57152 57237
57237 57323
57323 57409
57409 57494
57494 57581
57581 57666
57666 57751
57751 57835
57835 57921
57921 58007
58007 58094
58094 58182
58182 58271
58271 58361
58361 58452
58452 58543
58543 58635
58635 58727
58727 58820
58820 58914
58914 59008
59008 59103
59103 59198
59198 59293
59293 59387
59387 59480
59480 59572
59572 59664
59664 59758
59758 59854
59854 59951
59951 60048
60048 60145
60145 60239
60239 60331
60331 60422
60422 60513
60513 60604
60604 60697
60697 60789
60789 60882
60882 60974
60974 61064
61064 61154
61154 61245
61245 61337
61337 61429
61429 61521
61521 61613
61613 61703
61703 61793
61793 61881
61881 61969
61969 62057
62057 62145
62145 62231
62231 62317
62317 62403
62403 62489
62489 62576
62576 62664
62664 62753
62753 62840
62840 62926
62926 63013
63013 63099
63099 63186
63186 63272
63272 63358
