11004 11066
14922 15099
23494 23692
23692 23803
23803 23891
23891 24004
24004 24116
24116 24228
24228 24339
24339 24450
24450 24560
24560 24671
24671 24781
24781 24864
24864 24975
24975 25085
25085 25197
25197 25311
25311 25422
25422 25534
25534 25645
25645 25757
25757 25869
25869 25982
25982 26092
26092 26203
26203 26317
26317 26430
26430 26514
26514 26626
26626 26739
26739 26851
26851 26963
26963 27057
27057 27169
27169 27283
27283 27396
27396 27483
27483 27595
27595 27793
27793 27905
27905 28017
28017 28129
28129 28242
28242 28355
28355 28468
28468 28580
28580 28692
28692 28805
28805 28917
28917 29031
29031 29119
29119 29231
29231 29343
29343 29456
29456 29567
29567 29682
29682 29794
29794 29905
29905 30018
30018 30141
30141 30252
30252 30364
30364 30475
30475 30587
30587 30698
30698 30809
30809 30922
30922 31034
31034 31148
31148 31260
31260 31372
31372 31483
31483 31595
31595 31706
31706 31816
31816 31927
31927 32038
32038 32148
32148 32261
32261 32373
32373 32486
32486 32601
32601 32715
32715 32829
32829 32944
32944 33058
33058 33172
33172 33285
33285 33398
33398 33512
33512 33625
33625 33738
33738 33851
33851 33963
33963 34116
34116 34228
34228 34342
34342 34452
34452 34564
34564 34675
34675 34787
34787 34901
34901 35012
35012 35123
35123 35237
35237 35350
35350 35463
35463 35577
35577 35690
35690 35803
35803 35915
35915 36027
36027 36119
36119 36233
36233 36344
36344 36458
36458 36570
36570 36683
36683 36774
36774 36887
36887 37000
37000 37112
37112 37223
37223 37335
37335 37424
37424 37538
37538 37649
37649 37761
37761 37850
37850 37962
37962 38074
38074 38186
38186 38299
38299 38498
38498 38610
38610 38721
38721 38833
38833 38946
38946 39058
39058 39171
39171 39283
39283 39394
39394 39482
39482 39594
39594 39681
39681 39794
39794 39906
39906 39997
39997 40111
40111 40225
40225 40338
40338 40451
40451 40563
40563 40674
40674 40762
40762 40874
40874 40987
40987 41099
41099 41212
41212 41324
41324 41436
41436 41524
41524 41638
41638 41750
41750 41862
41862 41974
41974 42086
42086 42198
42198 42311
42311 42422
42422 42534
42534 42647
42647 42761
42761 42876
42876 42989
42989 43102
43102 43217
43217 43331
43331 43447
43447 43560
43560 43673
43673 43787
43787 43899
43899 44012
44012 44124
44124 44235
44235 44348
44348 44437
44437 44550
44550 44663
44663 44778
44778 44892
44892 45004
45004 45082
45082 45195
45195 45308
45308 45421
45421 45534
45534 45647
45647 45759
45759 45871
45871 45984
45984 46099
46099 46212
46212 46305
46305 46421
46421 46538
46538 46654
46654 46741
46741 46855
46855 46969
46969 47058
47058 47173
47173 47286
47286 47399
47399 47513
47513 47626
47626 47740
47740 47853
47853 47966
47966 48078
48078 48191
48191 48303
48303 48415
48415 48529
48529 48616
48616 48728
48728 48841
48841 48954
48954 49068
49068 49184
49184 49300
49300 49415
49415 49529
49529 49643
49643 49757
49757 49871
49871 49985
49985 50100
50100 50214
50214 50328
50328 50443
50443 50557
50557 50672
50672 50786
50786 50899
50899 51035
51035 51146
51146 51234
51234 51347
51347 51459
51459 51572
51572 51685
51685 51800
51800 51913
51913 52026
52026 52140
52140 52254
52254 52367
52367 52480
52480 52573
52573 52685
52685 52800
52800 52893
52893 53005
53005 53118
53118 53232
53232 53345
53345 53460
53460 53573
53573 53687
53687 53800
53800 53912
53912 54024
54024 54137
54137 54250
54250 54361
54361 54472
54472 54584
54584 54696
54696 54783
54783 54897
54897 55013
55013 55102
55102 55217
55217 55332
55332 55446
55446 55560
55560 55673
55673 55786
55786 55899
55899 56011
56011 56125
56125 56238
56238 56352
56352 56442
56442 56555
56555 56668
56668 56782
56782 56897
