1 74
675 722
722 818
818 911
911 956
956 1003
1003 1047
1047 1144
1144 1239
1239 1290
1290 1339
1339 1428
1428 1482
1482 1529
1529 1579
1579 1627
1627 1727
1727 1825
1825 1917
1917 1969
1969 2016
2016 2103
2103 2199
2199 2242
2242 2288
2288 2383
2383 2478
2478 2569
2569 2662
2662 2755
2755 2848
2848 2939
2939 3031
3031 3121
3121 3214
3214 3304
3304 3397
3397 3496
3496 3586
3586 3678
3678 3775
3775 3867
3867 3960
3960 4050
4050 4101
4101 4148
4148 4242
4242 4338
4338 4435
4435 4528
4528 4622
4622 4717
4717 4810
4810 4906
4906 4952
4952 4999
4999 5063
5063 5157
5157 5250
5250 5342
5342 5439
5439 5493
5493 5538
5538 5639
5639 5734
5734 5833
5833 5928
5928 6021
6021 6116
6116 6210
6210 6302
6302 6395
6395 6489
6489 6581
6581 6674
6674 6771
6771 6862
6862 6912
6912 6959
6959 7052
7052 7102
7102 7149
7149 7245
7245 7298
7298 7345
7345 7440
7440 7536
7536 7634
7634 7730
7730 7826
7826 7920
7920 8014
8014 8106
8106 8150
8150 8196
8196 8248
8248 8294
8294 8392
8392 8486
8486 8586
8586 8683
8683 8778
8778 8874
8874 8923
8923 8969
8969 9022
9022 9067
9067 9164
9164 9210
9210 9256
9256 9351
9351 9445
9445 9495
9495 9541
9541 9637
9637 9729
9729 9799
9799 9895
9895 9990
9990 10090
10090 10185
10185 10279
10279 10372
10372 10465
10465 10556
10556 10649
10649 10740
10740 10789
10789 10835
10835 10928
10928 11026
11026 11075
11075 11122
11122 11221
11221 11322
11322 11417
11417 11518
11518 11573
11573 11618
11618 11721
11721 11816
11816 11870
11870 11918
11918 12014
12014 12109
12109 12156
12156 12203
12203 12304
12304 12401
12401 12495
12495 12589
12589 12682
12682 12776
12776 12871
12871 12919
12919 12964
12964 13033
13033 13126
13126 13219
13219 13313
13313 13407
13407 13498
13498 13594
13594 13690
13690 13785
13785 13881
13881 13931
13931 13977
13977 14074
14074 14121
14121 14217
14217 14313
14313 14406
14406 14500
14500 14593
14593 14688
14688 14780
14780 14876
14876 14970
14970 15066
15066 15162
15162 15257
15257 15349
15349 15441
15441 15541
15541 15637
15637 15735
15735 15829
15829 15926
15926 16022
