139 225
225 655
655 741
741 827
827 913
913 998
998 1085
1085 1170
1170 1256
1256 1343
1343 1429
1429 1514
1514 1602
1602 1688
1688 1773
1773 1861
1861 1947
1947 2033
2033 2117
2117 2205
2205 2291
2291 2376
2376 2463
2463 2547
2547 2634
2634 2720
2720 2807
2807 2892
