664 777
777 892
1756 1868
4915 5027
5027 5091
5990 6090
8754 8864
8864 8975
8975 9060
9060 9171
9171 9281
9281 9392
9392 9502
9502 9611
9611 9721
9721 9830
9830 9940
9940 10049
10049 10160
10160 10270
10270 10380
10380 10492
10492 10578
10578 10690
10690 10802
10802 10915
10915 11028
11028 11139
11139 11250
11250 11360
11360 11471
11471 11582
11582 11693
11693 11803
11803 11914
11914 12026
12026 12086
12086 12198
12198 12310
12310 12422
12422 12536
12536 12649
12649 12762
12762 12875
12875 12988
12988 13103
13103 13217
13217 13332
13332 13446
13446 13535
13535 13650
13650 13765
13765 13880
13880 13995
13995 14129
14129 14240
14240 14351
14351 14463
14463 14574
14574 14685
14685 14796
14796 14906
14906 15016
15016 15128
15128 15239
15239 15350
15350 15462
15462 15573
15573 15682
15682 15794
15794 15906
15906 16019
16019 16110
16110 16221
16221 16332
16332 16442
16442 16553
16553 16663
16663 16774
16774 16885
16885 16996
16996 17107
17107 17218
17218 17330
17330 17442
17442 17554
17554 17666
17666 17777
17777 17889
17889 18001
18001 18113
18113 18224
18224 18336
18336 18447
18447 18558
18558 18669
18669 18780
18780 18890
