1758 1883
1883 2107
3829 4127
4127 4252
4252 4377
4377 4502
4502 4627
4627 4751
4751 4877
4877 5001
5001 5126
5126 5251
5251 5376
5376 6072
6072 6197
6197 6322
6322 6447
6447 6572
6572 6697
6697 6822
6822 6947
6947 7071
7071 7197
7197 7321
7321 7447
7447 7571
7571 7696
7696 7821
7821 7946
7946 8071
8071 8196
8196 8321
8321 8446
8446 8571
8571 8696
8696 8821
8821 8946
8946 9066
9066 9196
9196 9321
9321 9445
9445 9545
9545 9670
9670 9795
9795 9920
9920 10044
10044 10169
10169 10294
10294 10419
10419 10544
10544 10644
10644 10769
10769 10894
10894 11067
11067 11187
11187 11312
11312 12110
12110 12235
12235 12360
12360 12484
12484 12611
12611 12735
12735 12859
12859 12985
12985 13109
13109 13234
13234 13359
13359 13484
13484 13609
13609 13734
13734 13859
13859 13983
13983 14106
14106 14231
14231 14356
14356 14481
14481 14605
14605 14731
14731 14855
14855 14980
14980 15105
15105 15230
15230 15355
15355 15480
15480 15605
15605 15730
15730 15855
15855 15980
15980 16105
16105 16229
16229 16354
16354 16479
16479 16604
16604 16729
16729 16854
16854 16979
16979 17104
17104 17229
17229 17354
17354 17479
17479 17604
17604 17728
17728 17854
17854 17978
17978 18103
18103 18228
18228 18353
18353 18478
18478 18603
18603 18728
18728 18853
18853 18978
18978 19103
19103 19228
19228 20050
20050 20175
20175 20300
20300 20425
20425 20550
20550 20675
20675 20774
