912 1003
1003 1054
1054 1144
1144 1234
1234 1323
1412 1502
1502 1591
1591 1680
1680 1769
1769 1858
1858 1946
1946 2035
2035 2123
2123 2212
2212 2300
2300 2389
2389 2477
2477 2566
2566 2654
2654 2743
2743 2832
2832 2921
2921 3010
3010 3078
3078 3167
3167 3256
3256 3344
3344 3433
3433 3522
3522 3610
3610 3699
3699 3787
3787 3875
3875 3964
3964 4085
4085 4173
4173 4261
4261 4350
4350 4438
4438 4526
4526 4614
4614 4702
4702 4790
4790 4878
4878 4966
4966 5053
5053 5142
5142 5229
5229 5317
5317 5405
5405 5492
5492 5580
5580 5667
5667 5755
5755 5842
5842 5929
5929 6017
6017 6104
6104 6192
6192 6279
6279 6367
6367 6454
6454 6542
6542 6629
6629 6717
6717 6804
6804 6892
6892 6979
6979 7079
7079 7167
7167 7254
7254 7343
7343 7431
7431 7520
7520 7608
7608 7697
7697 7785
7785 7874
7874 7963
7963 8064
8064 8151
8151 8239
8239 8327
8327 8414
8414 8502
8502 8589
8589 8677
8677 8764
8764 8852
8852 8940
8940 9027
9027 9082
9082 9171
9171 9259
9259 9347
9347 9435
9435 9522
9522 9610
9610 9698
9698 9786
9786 9874
9874 9961
9961 10049
10049 10137
10137 10225
10225 10313
10313 10400
10400 10488
10488 10576
10576 10663
10663 10751
10751 10839
10839 10926
10926 11014
11014 11101
11101 11188
11188 11276
11276 11363
11363 11451
11451 11538
11538 11625
