1983 2031
6477 6582
8275 8372
9553 9652
10828 10931
12890 12988
17993 18093
19793 19892
24651 24748
35032 35130
35130 35228
35228 35323
35323 35423
35423 35521
35521 35618
35618 35716
35716 35813
35813 35911
35911 36008
36008 36106
36106 36203
36203 36300
36300 36398
36398 36496
36496 36593
36593 36690
36690 36787
36787 36884
36884 36980
36980 37077
37077 37174
37174 37270
37270 37366
37366 37463
37463 37560
37560 37658
37658 37755
37755 37852
37852 37949
37949 38046
38046 38143
38143 38240
38240 38336
38336 38433
38433 38530
38530 38626
38626 38722
38722 38819
38819 38915
38915 39013
39013 39110
39110 39206
39206 39304
39304 39400
39400 39497
39497 39594
39594 39692
39692 39789
39789 39888
39888 39985
39985 40085
40085 40184
40184 40285
40285 40385
40385 40485
40485 40585
40585 40679
40679 40782
40782 40880
40880 40979
40979 41079
41079 41178
41178 41277
41277 41377
41377 41473
41473 41576
41576 41677
41677 41778
41778 41873
41873 41977
41977 42077
42077 42174
42174 42277
42277 42378
42378 42472
42472 42576
42576 42676
42676 42775
42775 42874
42874 42973
42973 43070
43070 43168
43168 43265
43265 43362
43362 43458
43458 43554
43554 43651
43651 43747
43747 43844
43844 43940
43940 44037
44037 44134
44134 44230
44230 44327
44327 44424
44424 44520
44520 44617
44617 44713
44713 44811
44811 44908
44908 45006
45006 45103
45103 45200
45200 45298
45298 45396
45396 45494
45494 45588
45588 45688
45688 45785
45785 45882
45882 45978
45978 46076
46076 46171
46171 46269
46269 46363
46363 46460
46460 46557
46557 46653
46653 46749
46749 46845
46845 46942
46942 47038
47038 47133
47133 47227
47227 47324
47324 47420
47420 47516
47516 47611
47611 47709
47709 47805
47805 47899
47899 47997
47997 48034
48034 48130
48130 48224
48224 48323
48323 48420
48420 48517
48517 48614
48614 48708
48708 48808
48808 48905
48905 49001
49001 49100
49100 49197
49197 49294
49294 49392
49392 49489
49489 49587
49587 49685
49685 49783
49783 49881
49881 49979
49979 50077
50077 50173
50173 50272
50272 50370
50370 50469
50469 50567
50567 50665
50665 50763
50763 50861
50861 50959
50959 51042
51042 51141
51141 51240
51240 51338
51338 51435
51435 51533
51533 51631
51631 51728
51728 51826
51826 51924
51924 52021
52021 52115
52115 52216
52216 52314
52314 52413
52413 52509
52509 52610
52610 52707
52707 52802
52802 52897
52897 52998
52998 53096
53096 53190
53190 53289
53289 53385
53385 53481
53481 53575
53575 53673
53673 53769
53769 53865
53865 53958
53958 54057
54057 54153
54153 54249
54249 54345
54345 54442
54442 54538
54538 54633
54633 54728
54728 54827
54827 54924
54924 55021
55021 55118
55118 55215
55215 55313
55313 55409
55409 55506
55506 55626
55626 55723
55723 55821
55821 55919
55919 56017
56017 56114
56114 56207
56207 56308
56308 56405
56405 56500
56500 56598
56598 56694
56694 56790
56790 56885
56885 56981
56981 57077
57077 57173
57173 57269
57269 57363
57363 57463
57463 57560
57560 57657
57657 57754
57754 57851
57851 57947
57947 58044
58044 58140
58140 58236
58236 58332
58332 58428
58428 58522
58522 58618
58618 58715
58715 58812
58812 58909
58909 59006
59006 59101
59101 59199
59199 59296
59296 59393
59393 59488
59488 59583
59583 59682
59682 59779
59779 59875
59875 59972
59972 60068
60068 60165
60165 60261
60261 60356
60356 60453
60453 60550
60550 60646
60646 60740
60740 60838
60838 60934
60934 61030
61030 61126
61126 61221
61221 61317
61317 61412
61412 61508
61508 61603
61603 61699
61699 61796
61796 61893
61893 61991
61991 62086
62086 62183
62183 62279
62279 62375
62375 62470
62470 62566
62566 62661
62661 62758
62758 62855
62855 62951
62951 63049
63049 63146
63146 63243
63243 63340
63340 63437
63437 63535
63535 63631
63631 63728
63728 63825
63825 63923
63923 64021
64021 64120
64120 64219
64219 64317
64317 64416
64416 64514
64514 64613
64613 64711
64711 64808
64808 64905
64905 65004
65004 65101
65101 65198
65198 65294
65294 65391
65391 65487
65487 65581
65581 65675
65675 65771
65771 65866
65866 65961
65961 66056
66056 66151
66151 66245
66245 66340
66340 66435
66435 66529
66529 66625
66625 66720
66720 66815
66815 66910
66910 67007
67007 67104
67104 67201
67201 67295
67295 67395
67395 67492
67492 67590
67590 67687
67687 67784
67784 67881
67881 67977
67977 68070
68070 68168
68168 68264
68264 68359
68359 68453
68453 68548
68548 68643
68643 68739
68739 68834
68834 68929
68929 69024
69024 69120
69120 69214
69214 69309
69309 69404
69404 69498
69498 69593
