835 878
878 940
940 1125
1343 1385
1385 1439
1545 1597
1658 1701
1701 1754
1754 1859
1859 1965
1965 2070
2070 2184
2184 2280
2280 2385
2385 2490
2490 2546
2546 2604
2604 2709
2709 2752
2752 2813
2813 2918
2918 2960
2960 3022
3022 3127
