60 269
269 789
789 894
894 1302
1302 1415
1415 1831
1831 1935
1935 2040
2040 2457
2457 2562
2562 2981
2981 3086
3086 3590
3590 3695
3695 4116
4116 4220
4220 4325
4325 4641
4641 4737
4737 4851
4851 5378
5378 5483
5483 5904
5904 6009
6009 6429
6429 7059
7059 7458
7458 7878
7878 7983
7983 8088
8088 8508
8508 8613
8613 9033
9033 9138
9138 9664
9664 9769
9769 10082
10082 10291
10291 10395
10395 10916
10916 11020
11020 11437
11437 11541
11541 12063
12063 12167
12167 12694
12694 12795
12795 13004
13004 13320
13320 13847
13847 13952
13952 14266
14266 14371
14371 14476
14476 15001
15001 15106
15106 15524
15524 15628
15628 15942
15942 16047
16047 16151
16151 16571
16571 16676
16676 17098
17098 17203
17203 17518
17518 17937
17937 18357
18357 18462
18462 18567
18567 19092
19092 19406
19406 19617
19617 19723
19723 19933
19933 20076
20076 20395
20395 20502
20502 20925
20925 21069
21069 21387
21387 21811
21811 21917
21917 22023
22023 22557
22557 23089
23089 23195
23195 23811
23811 24551
24551 24656
24656 25175
25175 25290
25290 25396
25396 25820
25820 25926
25926 26350
26350 26457
26457 26563
26563 26669
26669 26776
26776 26882
26882 27199
27199 27305
27305 27411
27411 27729
27729 27834
27834 27939
27939 28095
28095 28398
28398 28511
28511 28616
28616 28720
28720 28816
28816 28929
28929 29084
29084 29403
29403 29509
29509 29615
29615 29827
29827 29932
29932 30038
30038 30248
30248 30353
30353 30459
30459 30565
30565 30670
30670 30777
30777 30883
30883 30990
30990 31097
31097 31205
31205 31313
31313 31420
31420 31635
31635 31850
31850 31957
31957 32055
32055 32170
32170 32277
32277 32384
32384 32490
32490 32596
32596 32702
32702 32807
32807 32913
32913 33075
33075 33181
33181 33223
33223 33288
33288 33332
33332 33713
33713 33820
33820 33926
33926 34094
34094 34199
34199 34622
34622 34727
34727 34832
34832 34941
34941 35104
35104 35530
35530 35637
35637 35743
35743 35850
35850 35957
35957 36064
36064 36170
36170 36277
36277 36384
36384 36809
36809 36915
36915 37022
37022 37235
37235 37341
37341 37448
37448 37662
37662 37768
37768 37875
37875 37981
37981 38025
38025 38062
38062 38176
38176 38282
38282 38387
38387 38426
38426 38573
38573 38784
38784 38891
38891 38997
38997 39065
39065 39172
39172 39494
39494 39601
39601 39708
39708 39815
39815 39922
39922 40029
40029 40136
40136 40242
40242 40348
40348 40454
40454 40560
40560 40667
40667 40773
40773 40985
40985 41091
41091 41198
41198 41304
41304 41410
41410 41623
41623 41729
41729 41836
41836 41943
41943 42049
42049 42262
42262 42369
42369 42476
42476 42582
42582 42795
42795 42901
42901 43008
43008 43047
43047 43261
43261 43367
43367 43581
43581 43688
43688 43795
43795 43902
43902 44117
44117 44224
44224 44331
44331 44438
44438 44545
44545 44759
44759 44866
44866 44972
44972 45079
45079 45185
45185 45292
45292 45398
45398 45505
45505 45718
45718 45825
45825 45932
45932 45973
45973 46111
46111 46218
46218 46325
46325 46433
46433 46541
46541 46649
46649 46758
46758 46866
46866 46974
46974 47082
47082 47190
47190 47298
47298 47406
47406 47513
47513 47728
47728 47836
47836 47943
47943 48103
48103 48143
48143 48501
48501 48544
48544 48655
48655 49205
49205 49646
49646 49756
49756 49866
49866 49975
49975 50052
50052 50159
50159 50266
50266 50373
50373 50481
50481 50695
50695 50802
50802 50910
50910 51017
51017 51123
51123 51446
51446 51553
51553 51660
51660 51874
51874 52089
52089 52197
52197 52304
52304 52520
52520 52628
52628 52736
52736 52954
52954 53062
53062 53171
53171 53279
53279 53388
53388 53496
53496 53605
53605 53713
53713 53822
53822 53930
53930 54038
54038 54146
54146 54254
54254 54361
54361 54469
54469 54576
54576 54684
54684 54791
