346 428
946 1007
1007 1049
1257 1326
1326 1396
1396 1467
1467 1537
1537 1608
1608 1679
1679 1749
1749 1819
1819 1889
1889 1959
1959 2030
2030 2100
2100 2171
2171 2245
2245 2317
2317 2383
2383 2459
2459 2530
2530 2600
2600 2672
2672 2744
2744 2816
2816 2889
2889 2963
2963 3067
3067 3142
3142 3207
