974 1084
2012 2076
2076 2155
2155 2225
2225 2289
2289 2364
2364 2434
2434 2503
2503 2573
2573 2644
2644 2715
2715 2788
2788 2855
2855 2933
2933 3005
3005 3067
3067 3145
3145 3216
3216 3283
3283 3357
3357 3431
3431 3497
3497 3577
3577 3648
3648 3710
3710 3789
3789 3861
3861 3925
3925 4004
4004 4074
4074 4141
4141 4215
4215 4283
4283 4353
4353 4422
4422 4489
4489 4559
4559 4629
4629 4698
4698 4769
4769 4841
4841 4913
4913 4985
4985 5047
5260 5343
5343 5415
5415 5473
5473 5557
5557 5630
5630 5687
5687 5770
5770 5840
5840 5901
5901 5978
5978 6048
6048 6114
6114 6186
6186 6258
6258 6330
6330 6375
6375 6438
6438 6514
6514 6585
6585 6650
6650 6724
6724 6795
6795 6911
6911 6975
6975 7049
7049 7119
7119 7184
7184 7260
7260 7330
7330 7396
7396 7470
7470 7541
7541 7607
7607 7678
7678 7749
7749 7820
7820 7892
7892 7955
7955 8067
8067 8145
8145 8222
8222 8298
8298 8376
8376 8451
8451 8527
8527 8600
8600 8661
8661 8750
8750 8823
8823 8898
8898 8973
8973 9048
9048 9106
9106 9195
9195 9269
9269 9341
9341 9413
9413 9486
9486 9548
9548 9634
9634 9709
9709 9783
9783 9855
9855 9930
9930 9992
9992 10071
10071 10145
10145 10204
10204 10288
10288 10361
10361 10420
10420 10508
10508 10580
10580 10650
10650 10720
10720 10792
10792 10855
10855 10932
10932 11007
11007 11067
11067 11153
11153 11228
11228 11300
11300 11373
11373 11445
11445 11506
11506 11587
11587 11658
11658 11717
11717 11799
11799 11871
11871 11931
11931 12016
12016 12104
12104 12189
12189 12263
12263 12336
12336 12411
12411 12482
12482 12546
12546 12628
12628 12703
12703 12774
12774 12849
12849 12925
12925 12998
