13061 13121
13121 16710
16710 16767
16767 20548
20548 20729
20729 20790
20790 20852
20852 21276
21276 21337
21337 21704
21704 21765
21765 21826
21826 21886
21886 21947
21947 23395
23395 24804
24804 24863
24863 25095
25095 25153
25153 30185
30185 33239
33239 33874
33874 33933
33933 34229
34229 34289
34289 34348
34348 34408
34408 34468
34468 34528
34528 34741
34741 34800
34800 34860
34860 34920
34920 35217
35217 35276
35276 35336
35336 35396
35396 35456
35456 35694
35694 35754
35754 35813
35813 35871
35871 35930
35930 35988
35988 36105
36105 36163
36163 36220
36220 36277
36277 36335
36335 36506
36506 36563
36563 36620
36620 36677
36677 36734
36734 36792
36792 36850
36850 36908
36908 36966
36966 37024
37024 37082
37082 37140
37140 37199
37199 37257
37257 37316
37316 37375
37375 37435
37435 37494
37494 37554
37554 37672
37672 37731
37731 37790
37790 37849
37849 37908
37908 37967
37967 38027
38027 38087
38087 38181
38181 38299
38299 38358
38358 38417
38417 38477
38477 38536
38536 38595
38595 38713
38713 38772
38772 38866
38866 38926
38926 38987
38987 39048
39048 39109
39109 39171
39171 39233
39233 39294
39294 39356
39356 39530
39530 39587
39587 39645
39645 39703
39703 39761
39761 39820
39820 39995
39995 40202
40202 40261
40261 40321
40321 40381
40381 40441
40441 40501
40501 40561
40561 40740
40740 40799
40799 40858
40858 40917
40917 40976
40976 41036
41036 41096
41096 41155
41155 41215
41215 41275
41275 41335
41335 41512
41512 41571
41571 41631
41631 41690
41690 41749
41749 41926
41926 41985
41985 42043
42043 42102
42102 42160
42160 42219
42219 42277
42277 42335
42335 42394
42394 42452
42452 42511
42511 42687
42687 42746
42746 42805
42805 42864
42864 42923
42923 42982
42982 43100
43100 43159
43159 43219
43219 43278
43278 43337
43337 43397
43397 43456
43456 43515
43515 43574
43574 43634
43634 43693
43693 43812
43812 43871
43871 43929
43929 44180
44180 44238
44238 44412
44412 44471
44471 44530
44530 44589
44589 44649
44649 44708
44708 44768
44768 44829
44829 44889
44889 45069
45069 45129
45129 45189
45189 45249
45249 45310
45310 45372
45372 45590
45590 45651
45651 45712
45712 45774
45774 45836
45836 45898
45898 45960
45960 46203
46203 46263
46263 46322
46322 46382
46382 46620
46620 46680
46680 46739
46739 46799
46799 46858
46858 46918
46918 47096
47096 47155
47155 47215
47215 47513
47513 47572
47572 47632
47632 47692
47692 47752
47752 47930
47930 47990
47990 48050
48050 48110
48110 48171
48171 48231
48231 48292
48292 48352
48352 48593
48593 48653
48653 48713
48713 48773
48773 48834
48834 48895
48895 48957
48957 49019
49019 49081
49081 49323
49323 49383
49383 49442
49442 49502
49502 49562
49562 49622
49622 49682
49682 49742
49742 50071
50071 50130
50130 50188
50188 50246
50246 50305
50305 50364
50364 50423
50423 50482
50482 50541
50541 50601
50601 50661
50661 50721
50721 50781
50781 51021
51021 51080
51080 51140
51140 51201
51201 51262
51262 51322
51322 51383
51383 51444
51444 51505
51505 51567
51567 51806
51806 51865
51865 51925
51925 51984
51984 52044
52044 52104
52104 52164
52164 52225
52225 52285
52285 52523
52523 52582
52582 52641
52641 52701
52701 52760
52760 52820
52820 52880
52880 52940
52940 53000
53000 53043
53043 53103
53103 53164
53164 53225
53225 53286
53286 53347
53347 53586
53586 53645
53645 53704
53704 53764
53764 53824
53824 53884
53884 53945
53945 54006
54006 54067
54067 54128
54128 54369
54369 54429
54429 54489
54489 54549
54549 54609
54609 54670
54670 54731
54731 54791
54791 55028
55028 55087
55087 55146
55146 55205
55205 55264
55264 55323
55323 55383
55383 55442
55442 55678
55678 55736
55736 55794
55794 55853
55853 55913
55913 55973
55973 56034
56034 56095
56095 56156
56156 56217
56217 56457
56457 56516
56516 56575
56575 56634
56634 56693
56693 56753
56753 56813
56813 56873
56873 56932
56932 56992
56992 57052
57052 57248
57248 57308
57308 57369
57369 57429
57429 57490
57490 57551
57551 57611
57611 57672
57672 57967
57967 58026
58026 58084
58084 58143
58143 58202
58202 58262
58262 58322
58322 58383
58383 58622
58622 58681
58681 58799
58799 58858
58858 58917
58917 58976
58976 59035
59035 59094
59094 59154
59154 59214
59214 59274
59274 59512
59512 59571
59571 59630
59630 59690
59690 59750
59750 59811
59811 59871
59871 60038
60038 60098
60098 60159
60159 60220
60220 60282
60282 60344
60344 60405
60405 60468
60468 60530
60530 60592
60592 60653
60653 60953
60953 61013
61013 61073
61073 61133
61133 61194
61194 61256
61256 61318
61318 61380
61380 61622
61622 61682
61682 61742
61742 61803
61803 61863
61863 61924
61924 61985
61985 62046
62046 62107
62107 62347
62347 62407
62407 62467
62467 62526
62526 62586
62586 62646
62646 62706
62706 62767
62767 62827
62827 63005
63005 63064
63064 63123
63123 63182
63182 63241
63241 63301
63301 63361
63361 63694
63694 63753
63753 63813
63813 63873
63873 63933
