390 648
648 713
713 778
778 846
846 915
915 985
985 1053
1053 1122
1122 1385
1385 1450
1450 1516
1516 1583
1583 1651
1651 1719
1719 1830
1830 1897
1897 1964
1964 2157
2157 2222
2222 2288
2288 2357
2357 2426
2426 2495
2495 2566
2566 2636
2636 2705
2705 2774
2774 2843
2843 3171
3171 3236
3236 3302
3302 3367
3367 7027
7027 7346
7346 7409
7409 7472
7472 7536
7536 7599
7599 7664
7664 7728
7728 7794
7794 7921
7921 7984
7984 8048
8048 8112
8112 8175
8175 8366
8366 8429
8429 8492
8492 8555
8555 8618
8618 8742
8742 8805
8805 8868
8868 8931
8931 8994
8994 9056
9056 9203
9203 9244
9244 9329
9329 9389
9389 9429
9429 9491
9491 9553
9553 9615
9615 9739
9739 9801
9801 9863
9863 9926
9926 9989
9989 10117
10117 10305
10305 10367
10367 10429
10429 10492
10492 10555
10555 10618
10618 10807
10807 10905
10905 10967
10967 11033
11033 11103
11103 11174
11174 11244
11244 11446
11446 11513
11513 11579
11579 11648
11648 11717
11717 11786
11786 11857
11857 11925
11925 11996
11996 12065
12065 12267
12267 12334
12334 12401
12401 12469
12469 12537
12537 12606
12606 12676
12676 12744
12744 12812
12812 13011
13011 13078
13078 13145
13145 13213
13213 13283
13283 13352
13352 13555
13555 13622
13622 13690
13690 13759
13759 13828
13828 13898
13898 13969
13969 14039
14039 14108
14108 14239
14239 14305
14305 14371
14371 14438
14438 14507
14507 14575
14575 14645
14645 14714
14714 14782
14782 14851
14851 15182
15182 15247
15247 15313
15313 15380
15380 15445
15445 15551
15551 15617
15617 15810
15810 15874
15874 15938
15938 16002
16002 16067
16067 16133
16133 16201
16201 16268
16268 16465
16465 16531
16531 16597
16597 16665
16665 16734
16734 16803
16803 16873
16873 16941
16941 17141
17141 17208
17208 17276
17276 17344
17344 17413
17413 17482
17482 17550
17550 17618
17618 17817
17817 17883
17883 17949
17949 18017
18017 18085
18085 18153
18153 18222
18222 18290
18290 18358
18358 18426
18426 18688
18688 18754
18754 18822
18822 18889
18889 18958
18958 19025
19025 19093
19093 19161
19161 19228
19228 19295
19295 19489
19489 19554
19554 19620
19620 19686
19686 19754
19754 19821
19821 19889
19889 20149
20149 20213
20213 20278
20278 20343
20343 20408
20408 20474
20474 20540
20540 20645
20645 20710
20710 20900
20900 20963
20963 21026
21026 21089
21089 24990
24990 25052
25052 25113
25113 25298
25298 25360
25360 25421
25421 25606
25606 25669
25669 25734
25734 25799
25799 25865
25865 25933
25933 26001
26001 26069
26069 26137
26137 26335
26335 26400
26400 26466
26466 26533
26533 26601
26601 26668
26668 26737
26737 26806
26806 26874
26874 27196
27196 27258
27258 27321
27321 27384
27384 27573
27573 27636
27636 27699
27699 27764
27764 27831
27831 28028
28028 28094
28094 28161
28161 28230
28230 28298
28298 28367
28367 28565
28565 28631
28631 28698
28698 28766
28766 28835
28835 28904
28904 28972
28972 29041
29041 29110
29110 29178
29178 29310
29310 29376
29376 29443
29443 29510
29510 29578
29578 29645
29645 29713
29713 29780
29780 29847
29847 29913
29913 29980
29980 30046
30046 30241
30241 30305
30305 30371
30371 30438
30438 30505
30505 30572
30572 30640
30640 30707
30707 30774
30774 30969
30969 31033
31033 31097
31097 31162
31162 31229
31229 31295
31295 31362
31362 31430
31430 31497
31497 31564
31564 31631
31631 31889
31889 31952
31952 32016
32016 32081
32081 32147
32147 32213
32213 32280
32280 32346
32346 32413
32413 32480
32480 32547
32547 32614
32614 32681
32681 32748
32748 32941
32941 33006
33006 33070
33070 33135
33135 33201
33201 33267
33267 33332
33332 33398
33398 33464
33464 33530
33530 33596
33596 33661
33661 33726
33726 33792
33792 33857
33857 33922
33922 34177
34177 34241
34241 34305
34305 34372
34372 34438
34438 34505
34505 34571
34571 34700
34700 34764
34764 34828
34828 34893
34893 34957
34957 35022
35022 35215
35215 35280
35280 35346
35346 35412
35412 35479
35479 35547
35547 35614
35614 35681
35681 35749
35749 35815
35815 35881
35881 36074
36074 36138
36138 36202
36202 36267
36267 36333
36333 36400
36400 36467
36467 36535
36535 36602
36602 36859
36859 36923
36923 36987
36987 37052
37052 37118
37118 37184
37184 37251
37251 37317
37317 37384
37384 37449
37449 37642
37642 37706
37706 37771
37771 37837
37837 37903
37903 37971
37971 38039
38039 38105
38105 38172
38172 38238
38238 38304
38304 38560
38560 38624
38624 38689
38689 38754
38754 38819
38819 38886
38886 38953
38953 39020
39020 39087
39087 39346
39346 39409
39409 39474
39474 39538
39538 39602
39602 39666
39666 39732
39732 39797
39797 39863
39863 39929
39929 40314
40314 40377
40377 40439
40439 40501
40501 40685
40685 40747
40747 40810
40810 40873
40873 40939
40939 41005
41005 41069
41069 41135
41135 41199
41199 41264
41264 41455
41455 41519
41519 41584
41584 41651
41651 41719
41719 41786
41786 41853
41853 41919
41919 42115
42115 42180
42180 42245
42245 42311
42311 42376
42376 42574
42574 42642
42642 42709
42709 42778
42778 42846
42846 42914
42914 42983
42983 43051
43051 43183
43183 43249
43249 43317
43317 43383
43383 43449
43449 43515
43515 43582
43582 43715
43715 43781
43781 43846
43846 43911
43911 43976
43976 44042
44042 44109
44109 44176
44176 44244
44244 44310
44310 44567
44567 44630
44630 44694
44694 44758
44758 44947
44947 45010
45010 45072
45072 45850
45850 45913
45913 46043
46043 46108
46108 46173
46173 46237
46237 46424
46424 46485
46485 46548
46548 46610
46610 46854
46854 46976
46976 47039
47039 47103
47103 47169
47169 47429
47429 47494
47494 47561
47561 47628
47628 47696
47696 47764
47764 48029
48029 48095
48095 48163
48163 48232
48232 48301
48301 48502
48502 48568
48568 48635
48635 48702
48702 48769
48769 48837
48837 49034
49034 49099
49099 49165
49165 49232
49232 49299
49299 49561
49561 49627
49627 49694
49694 49761
49761 49830
49830 49897
49897 49966
49966 50033
50033 50294
50294 50358
50358 50423
50423 50489
50489 50750
50750 50816
50816 50883
50883 50950
50950 51018
51018 51086
51086 51350
51350 51415
51415 51480
51480 51546
51546 51613
51613 51679
51679 51745
51745 51812
51812 52073
52073 52138
52138 52204
52204 52271
52271 52337
52337 52407
52407 52474
52474 52543
52543 52613
52613 52681
52681 52944
52944 53008
53008 53072
53072 53137
53137 53204
53204 53270
53270 53338
53338 53405
53405 53471
53471 53539
53539 53606
53606 53675
53675 53742
53742 54001
54001 54064
54064 54129
54129 54194
54194 54260
54260 54326
54326 54392
54392 54459
54459 54525
54525 54591
54591 54849
54849 54914
54914 54981
54981 55048
55048 55117
55117 55188
55188 55257
55257 55326
55326 55589
55589 55653
55653 55718
55718 55783
55783 55848
55848 55914
55914 55980
55980 56046
56046 56112
56112 56177
56177 56243
56243 56308
56308 56625
56625 56690
56690 56756
56756 56823
56823 56891
56891 56960
56960 57028
57028 57250
57250 57316
57316 57382
57382 57448
57448 57513
57513 57703
57703 57766
57766 57831
57831 57895
57895 57961
57961 58027
58027 58092
58092 58348
58348 58412
58412 58475
58475 58539
58539 58604
58604 58670
58670 58736
58736 58802
58802 58868
58868 58934
58934 59000
59000 59193
59193 59257
59257 59322
59322 59387
59387 59453
59453 59519
59519 59586
59586 59652
59652 59718
59718 59972
59972 60036
60036 60100
60100 60165
60165 60231
60231 60297
60297 60363
60363 60428
60428 60494
60494 60749
60749 60812
60812 60877
60877 60943
60943 61011
61011 61080
61080 61148
61148 61216
61216 61284
61284 61353
61353 61549
61549 61613
61613 61678
61678 61743
61743 61810
61810 61876
61876 61941
61941 62007
62007 63643
63643 63889
63889 63950
63950 64011
64011 64162
64162 64225
64225 64288
64288 64352
64352 64541
64541 64605
64605 64671
64671 64739
64739 64808
64808 64877
64877 64947
64947 65016
65016 65086
65086 65287
65287 65353
65353 65419
65419 65487
65487 65556
65556 65626
65626 65697
65697 65767
65767 66034
66034 66099
66099 66165
66165 66232
66232 66298
66298 66366
66366 66435
66435 66503
66503 66572
66572 66769
66769 66833
66833 66897
66897 66961
66961 67023
67023 67242
67242 67305
67305 67369
67369 67434
67434 67499
67499 67566
67566 67633
67633 67701
67701 67770
67770 67839
