194 552
552 624
624 834
834 904
904 970
970 1043
1043 1087
1087 1171
1171 1346
1346 1434
1434 1498
1498 1825
1825 1955
1955 2025
2025 2068
2068 2138
2138 2208
2208 2345
2345 2414
2414 2485
2485 2556
2556 2628
2628 2701
2701 2774
2774 2846
2846 3053
3053 3122
3122 3191
3191 3261
3261 3332
3332 3404
3404 3474
3474 3612
3612 3683
3683 3754
3754 3826
3826 3900
3900 4043
4043 4116
4116 4188
4188 4261
4261 4333
4333 4405
4405 4543
4543 4614
4614 4684
4684 4757
4757 4828
4828 4968
4968 5038
5038 5109
5109 5181
5181 5252
5252 5323
5323 5394
5394 5533
5533 5602
5602 5672
5672 5742
5742 5812
5812 5883
5883 5955
5955 6027
6027 6098
6098 6308
6308 6378
6378 6448
6448 6520
6520 6591
6591 6661
6661 6733
6733 6940
6940 7010
7010 7081
7081 7152
7152 7225
7225 7297
7297 7505
7505 7576
7576 7646
7646 7718
7718 7790
7790 7862
7862 8070
8070 8139
8139 8209
8209 8278
8278 8349
8349 8420
8420 8491
8491 8561
8561 8632
8632 8768
8768 8837
8837 8907
