1955 2022
2022 9006
9006 9075
9075 9496
9496 10337
10337 14964
14964 15691
15691 15789
15789 16018
16018 17702
17702 17765
17765 17828
17828 17914
17914 17952
17952 18014
18014 18077
18077 18301
18301 18364
18364 18616
18616 18679
18679 18869
18869 18933
18933 18997
18997 19190
19190 19255
19255 19516
19516 19582
19582 19648
19648 19849
19849 19916
19916 20183
20183 20251
20251 20450
20450 20517
20517 20779
20779 20844
20844 20910
20910 20977
20977 21241
21241 21307
21307 21373
21373 21636
21636 21702
21702 21967
21967 22033
22033 22100
22100 22298
22298 22364
22364 22430
22430 22497
22497 22695
22695 22762
22762 22829
22829 23027
23027 23149
23149 23215
23215 23283
23283 23488
23488 23557
23557 23626
23626 23832
23832 23899
23899 23967
23967 24050
24050 24358
24358 24618
24618 24684
24684 24750
24750 25012
25012 25079
25079 25147
25147 25422
25422 25492
25492 25561
25561 25767
25767 25836
25836 25905
25905 25974
25974 26080
26080 26149
26149 26220
26220 26292
26292 26365
26365 26571
26571 26640
26640 26710
26710 26781
26781 26987
26987 27056
27056 27125
27125 27195
27195 27334
27334 27405
27405 27476
27476 27547
27547 27685
27685 27755
27755 27824
27824 27895
27895 28150
28150 28213
28213 28430
28430 28494
28494 29003
29003 29068
29068 29334
29334 29401
29401 29468
29468 29667
29667 29734
29734 29934
29934 30002
30002 30041
30041 30302
30302 30367
30367 30630
30630 30696
30696 30891
30891 30956
30956 31022
31022 31157
31157 31223
31223 31485
31485 31551
31551 31814
