431 564
564 630
630 696
696 763
763 896
896 963
963 1031
1031 1101
1101 1237
1237 1306
1306 1377
1377 1448
1448 1587
1587 1657
1657 1727
1727 1798
1798 2142
2142 2211
2211 2279
2279 2409
2409 2475
2475 2541
2541 2610
2610 2680
2680 2749
2749 2818
2818 2889
2889 2962
2962 3176
3176 3245
3245 3315
3315 3386
3386 3520
3520 3589
3589 3659
3659 3730
3730 3868
3868 3939
3939 4012
4012 4085
4085 4156
4156 4227
4227 4299
4299 4371
4371 4443
4443 4512
4512 4583
4583 4653
4653 4723
4723 4795
4795 4866
4866 4935
4935 4977
4977 5045
5045 5113
5113 5181
5181 5251
5251 5319
5319 5390
5390 5565
5565 5632
5632 5698
5698 5765
5765 5835
5835 5906
5906 5977
5977 6059
6059 6131
6131 6204
6204 6277
6277 6352
6352 6403
6403 6551
6551 6624
6624 6698
6698 6840
6840 6911
6911 6983
6983 7123
7123 7194
7194 7334
7334 7404
7404 7544
7544 7613
7613 7686
7686 7757
7757 7825
7825 7900
7900 8057
8057 8247
8247 8310
8310 8439
8439 8504
8504 8701
8701 8767
8767 8965
8965 9025
9025 9209
9209 9520
9520 9585
9585 9651
9651 9718
9718 9786
9786 10045
10045 10108
10108 10553
10553 10620
10620 10889
10889 10957
10957 11025
11025 11267
11267 11334
11334 11599
11599 11667
11667 11872
11872 11940
11940 12145
12145 12213
12213 12492
12492 12562
12562 12837
12837 12883
12883 12951
12951 13021
13021 13291
13291 13556
13556 13824
13824 13893
13893 14185
14185 14257
14257 14547
14547 14619
14619 14692
14692 14920
14920 14998
14998 15217
15217 15287
15287 15490
15490 15557
15557 15759
15759 15827
15827 15896
15896 16032
16032 16100
16100 16167
16167 16234
16234 16365
16365 16431
16431 16499
16499 16634
16634 16701
16701 16769
16769 16904
16904 16972
16972 17040
17040 17111
17111 17314
17314 17380
17380 17513
17513 17579
17579 17647
17647 17717
17717 17852
17852 17920
17920 18338
18338 18409
18409 18479
18479 18548
18548 18818
18818 18883
18883 19014
19014 19075
19075 19143
19143 19411
19411 19478
19478 19743
19743 19811
19811 19879
19879 20015
20015 20083
20083 20151
20151 20480
20480 20545
20545 20612
20612 20678
20678 20940
20940 21007
21007 21139
21139 21206
21206 21275
21275 21345
21345 21414
21414 21484
21484 21554
21554 21755
21755 21821
21821 21887
21887 22100
22100 22168
22168 22236
22236 22439
22439 22507
22507 22576
22576 22779
22779 22846
22846 23033
23033 23233
23233 23300
23300 23366
23366 23562
23562 23626
23626 23819
23819 23862
23862 23927
23927 24119
24119 24183
24183 24479
24479 24544
24544 24745
24745 24813
24813 24882
24882 25019
25019 25059
25059 25125
25125 25191
25191 25386
25386 25451
25451 25645
25645 25709
25709 25903
25903 25967
25967 26037
26037 26296
26296 26361
26361 26561
26561 26631
26631 26771
26771 26841
26841 26911
26911 26980
26980 27177
27177 27242
27242 27308
27308 27439
27439 27505
27505 27573
27573 27776
27776 27845
27845 27983
27983 28051
28051 28118
28118 28335
28335 28403
28403 28604
28604 28671
28671 28739
28739 28877
28877 28946
28946 29017
29017 29157
29157 29227
29227 29296
29296 29365
29365 29434
29434 29504
29504 29576
29576 29719
29719 29789
29789 29926
29926 29994
29994 30193
30193 30259
30259 30325
30325 30393
30393 30530
30530 30600
30600 30670
30670 30808
30808 30878
30878 30948
30948 31018
31018 31158
31158 31227
31227 31433
31433 31501
31501 31570
31570 31639
31639 31709
31709 31909
31909 31975
31975 32042
32042 32245
32245 32313
32313 32382
32382 32520
32520 32590
32590 32659
32659 32870
32870 32941
32941 33081
33081 33151
33151 33221
33221 33427
33427 33496
33496 33699
33699 33767
33767 33905
33905 33974
33974 34181
34181 34451
34451 34518
34518 34585
34585 34652
34652 34785
34785 34851
34851 34980
34980 35101
35101 35171
35171 35241
35241 35449
35449 35520
35520 35591
35591 35731
35731 35801
35801 35871
35871 36080
36080 36150
36150 36221
36221 36292
36292 36431
36431 36502
36502 36572
36572 36780
36780 36850
36850 36922
36922 37135
37135 37207
37207 37279
37279 37351
37351 37561
37561 37632
37632 37702
37702 37840
37840 37911
37911 37983
37983 38055
38055 38197
38197 38268
38268 38338
38338 38411
38411 38592
38592 38661
38661 38731
38731 38870
38870 38941
38941 39012
39012 39084
39084 39221
39221 39290
39290 39359
39359 39565
39565 39634
39634 39839
39839 39907
39907 39975
39975 40043
40043 40179
40179 40246
40246 40314
40314 40518
40518 40587
40587 40657
40657 40797
40797 40866
40866 40936
40936 41006
41006 41142
41142 41211
41211 41281
41281 41352
41352 41494
41494 41566
41566 41638
41638 41781
41781 41851
41851 41924
