117 183
183 249
249 315
315 382
382 584
584 651
852 918
852 918
918 984
984 1205
1273 1473
1473 1540
1540 1608
1608 1993
1993 2199
2199 2266
2266 2535
2535 2601
2601 2667
2667 2733
2733 2799
2799 2927
2927 2991
2991 3094
3094 3159
3159 3224
3224 3355
3355 3421
3421 3553
3553 3620
3620 3753
3753 3820
3820 4020
4020 4086
4086 4153
4153 4220
4220 4415
4415 4481
4481 4611
4611 4675
4675 4741
4741 4871
4871 4937
4937 5003
5003 5069
5069 5264
5264 5329
5329 5393
5393 5459
5459 5713
5713 5777
5777 5842
5842 6132
6132 6194
6194 6256
6256 6318
6318 6444
6444 6507
6507 6763
6763 7021
7021 7149
7149 7213
7213 7276
7276 7341
7341 7406
7406 7597
7597 7659
7659 7908
7908 7971
7971 8162
8162 8227
8227 8293
8293 8360
8360 8490
8490 8555
8555 8619
8619 8746
8746 8811
8811 8875
8875 8940
8940 9068
9068 9132
9132 9197
9197 9327
9327 9392
9392 9458
9458 9524
9524 9590
9590 9656
9656 9723
9723 9789
9789 9856
9856 9959
9959 10024
10024 10089
10089 10155
10155 10286
10286 10351
10351 10418
10418 10551
10551 10619
10619 10686
10686 10819
10819 10885
10885 10950
10950 11017
11017 11083
11083 11276
11276 11340
11340 11406
11406 11471
11471 11538
11538 11604
11604 11671
11671 11801
11801 11867
11867 11933
11933 12000
12000 12132
12132 12198
12198 12264
12264 12331
12331 12397
12397 12463
12463 12530
12530 12721
12721 12784
12784 12974
12974 13037
13037 13167
13167 13233
13233 13299
13299 13433
13433 13501
13501 13571
13571 13709
13709 13778
13778 13848
13848 13983
13983 14084
14084 14149
14149 14214
14214 14279
14279 14342
14342 14468
14468 14531
14531 14594
14594 14657
14657 14720
14720 14783
14783 14907
14907 14969
14969 15032
15032 15156
15156 15219
15219 15283
15283 15472
15472 15535
15535 15598
15598 15723
15723 15785
15785 15848
15848 15912
15912 16036
16036 16100
16100 16163
16163 16226
16226 16289
16289 16353
16353 16416
16416 16542
16542 16605
16605 16668
16668 16794
16794 16858
16858 16921
16921 16984
16984 17110
17110 17173
17173 17235
17235 17298
17298 17361
17361 17424
17424 17488
17488 17614
17614 17677
17677 17740
17740 17803
17803 17867
17867 17930
17930 18053
18053 18115
18115 18176
18176 18299
18299 18361
18361 18423
18423 18487
18487 18550
18550 18614
18614 18678
18678 18866
18866 18928
18928 19052
19052 19115
19115 19178
19178 19303
19303 19367
19367 19431
19431 19495
19495 19560
19560 19689
19689 19755
19755 19820
19820 19886
19886 20015
20015 20207
20207 20270
20270 20462
20462 20527
20527 20592
20592 20722
20722 20787
20787 20854
20854 20921
20921 21187
21187 21253
21253 21449
21449 21515
21515 21777
21777 21843
21843 22041
22041 22297
22297 22489
22489 22682
22682 22747
22747 22940
22940 23046
23046 23241
23241 23374
23374 23441
23441 23509
23509 23578
23578 23779
23779 23845
23845 24090
24090 24156
24156 24351
24351 24416
24416 24674
24674 24869
24869 24934
24934 25304
25304 25431
25431 25493
25493 26063
26063 26132
26132 26338
26338 26405
26405 26472
26472 26670
26670 26800
26800 26865
26865 26931
26931 26997
26997 27328
27328 27395
27395 27463
27463 27530
27530 27598
27598 27797
27797 27863
27863 27930
27930 28039
28039 28238
28238 28304
28304 28501
28501 28700
28700 28766
28766 28832
28832 28898
28898 29089
29089 29152
29152 29344
29344 29474
29474 29540
29540 29733
29733 29797
29797 29989
29989 30265
30265 30458
30458 30522
30522 30588
30588 30720
30720 30786
30786 30853
30853 31091
31091 31156
31156 31284
31284 31348
31348 31413
31413 31479
31479 31609
31609 31674
31674 31741
31741 31808
31808 31939
31939 32006
32006 32073
32073 32140
32140 32207
32207 32274
32274 32342
32342 32407
32407 32473
32473 32538
32538 32666
32666 32732
32732 32799
32799 32866
32866 32934
32934 33004
33004 33052
33052 33116
33116 33180
33180 33246
33246 33312
33312 33442
33442 33507
33507 33548
33548 33614
33614 33681
33681 33748
33748 33816
33816 33885
33885 33953
33953 34021
34021 34088
34088 34156
34156 34223
34223 34290
34290 34357
34357 34424
34424 34492
34492 34621
34621 34685
34685 34750
34750 34813
34813 34878
34878 34944
34944 35010
35010 35075
35075 35141
35141 35207
35207 35273
35273 35339
35339 35405
35405 35472
35472 35538
35538 35603
35603 35668
35668 35733
35733 35800
35800 35867
35867 35999
35999 36066
36066 36132
36132 36198
36198 36265
36265 36332
36332 36464
36464 36530
36530 36597
36597 36664
36664 36732
36732 36798
36798 36865
36865 36933
36933 37000
37000 37088
37088 37155
37155 37222
37222 37539
37539 37794
37794 38570
38570 38835
38835 39054
39054 39843
39843 39910
39910 39977
39977 40119
40119 40264
40264 40311
40311 40520
40520 40589
40589 40659
40659 40875
40875 40947
40947 41019
41019 41226
41226 41295
41295 41566
41566 41634
41634 41702
41702 41964
41964 42149
42149 42350
42350 42419
42419 42489
42489 42700
42700 42769
