10 46
46 127
127 180
664 741
741 817
817 894
1137 1217
1217 1292
1292 1368
1368 1502
2388 2544
3324 3401
4704 4856
5912 6059
6059 6133
6133 6209
6209 6288
6288 6365
6365 6442
6442 6520
6520 6599
6599 6672
6672 6749
6749 6826
6826 6907
6907 6989
6989 7074
7074 7158
7158 7238
7238 7315
7315 7394
7394 7443
7443 7516
7516 7591
7591 7670
7670 7749
7749 7832
7832 7913
7913 7997
7997 8076
8076 8155
8155 8305
8305 8382
8382 8462
8462 8543
8543 8624
8624 8707
8707 8788
8788 8865
8865 8938
8938 9014
9014 9094
9094 9174
9174 9256
9256 9337
9337 9417
9417 9494
9494 9638
9638 9711
9711 9784
9784 9862
9862 9940
9940 10018
10018 10142
10142 10217
10217 10292
10292 10370
10370 10448
10448 10523
10523 10597
10597 10671
10671 10749
10749 10823
10823 10902
10902 10979
10979 11059
11059 11137
11137 11212
11212 11355
11355 11428
11428 11501
11501 11576
11576 11653
11653 11731
11731 11806
11806 11878
11878 11950
11950 12022
12022 12095
12095 12170
12170 12246
12246 12390
12390 12462
12462 12534
12534 12607
12607 12681
12681 12756
12756 12833
12833 12909
12909 12984
12984 13060
13060 13132
13132 13273
13273 13343
13343 13416
13416 13491
13491 13570
13570 13650
13650 13725
13725 13797
13797 13870
13870 13943
13943 14020
14020 14097
14097 14173
14173 14251
14251 14323
14323 14461
14461 14529
14529 14599
14599 14670
14670 14747
14747 14824
14824 14902
14902 14973
14973 15047
15047 15122
15122 15230
15230 15386
15386 15464
15464 15543
15543 15626
15626 15710
15710 15804
15804 15893
15893 16055
16055 16133
16133 16213
16213 16295
16295 16381
16381 16467
16467 16552
16552 16637
16637 16795
16795 16872
16872 16951
16951 17032
17032 17116
17116 17203
17203 17366
17366 17444
17444 17523
17523 17601
17601 17680
17680 17760
17760 17916
17916 17993
17993 18071
18071 18150
18150 18230
18230 18288
18288 18368
18368 18447
18447 18523
18523 18598
18598 18675
18675 18753
18753 18834
18834 18916
18916 19070
19070 19147
19147 19227
19227 19307
19307 19388
19388 19444
19444 19521
19521 19598
19598 19674
19674 19753
19753 19833
19833 19910
19910 19987
19987 20065
20065 20143
20143 20224
20224 20303
20303 20383
20383 20466
20466 20546
20546 20622
20622 20694
20694 20767
20767 20840
20840 20916
20916 20994
20994 21104
21104 21183
21183 21263
21263 21352
21352 21465
21465 21549
21549 21630
21630 21713
21713 21789
21789 21863
21863 21938
21938 22016
22016 22095
22095 22180
22180 22259
22259 22334
22334 22405
22405 22477
22477 22552
22552 22630
22630 22713
22713 22796
22796 22882
22882 22964
22964 23047
23047 23125
23125 23274
23274 23352
23352 23433
23433 23517
23517 23604
23604 23685
23685 23840
23840 23917
23917 23998
23998 24082
24082 24167
24167 24255
24255 24344
24344 24426
24426 24502
24502 24579
24579 24657
24657 24741
24741 24827
24827 24913
24913 25069
25069 25147
25147 25224
25224 25302
25302 25384
25384 25464
25464 25545
25545 25626
25626 25704
25704 25849
25849 25925
25925 26004
26004 26084
26084 26162
26162 26245
26245 26324
26324 26401
26401 26475
26475 26548
26548 26624
26624 26699
26699 26776
26776 26852
26852 26928
26928 27001
27001 27087
27087 27165
27165 27244
27244 27326
27326 27408
27408 27490
27490 27566
27566 27641
27641 27715
27715 27794
27794 27870
27870 27947
27947 28024
28024 28098
28098 28169
28169 28243
28243 28320
28320 28398
28398 28477
28477 28558
28558 28640
28640 28716
28716 28789
28789 28866
28866 28942
28942 29020
29020 29104
29104 29188
29188 29341
29341 29420
29420 29500
29500 29580
29580 29662
29662 29740
29740 29821
29821 29900
29900 29978
29978 30052
30052 30125
30125 30198
30198 30274
30274 30349
30349 30426
30426 30505
30505 30587
30587 30666
30666 30814
30814 30888
30888 30963
30963 31040
31040 31120
31120 31200
31200 31278
31278 31351
31351 31427
31427 31503
31503 31580
31580 31657
31657 31739
31739 31817
31817 31892
31892 31965
31965 32040
32040 32113
32113 32190
32190 32265
32265 32345
32345 32423
32423 32498
32498 32571
32571 32647
32647 32730
32730 32812
32812 32895
32895 32977
32977 33058
33058 33136
33136 33283
33283 33356
33356 33430
33430 33506
33506 33588
33588 33668
33668 33748
33748 33823
33823 33899
33899 33976
33976 34053
34053 34130
34130 34207
34207 34282
34282 34355
34355 34429
34429 34505
34505 34580
34580 34656
34656 34733
34733 34811
34811 34892
34892 34972
34972 35052
35052 35130
35130 35203
35203 35280
35280 35357
35357 35439
35439 35522
35522 35606
35606 35683
35683 35759
35759 35834
35834 35912
35912 35989
35989 36069
36069 36153
36153 36240
36240 36324
36324 36378
36378 36457
36457 36532
36532 36609
36609 36686
36686 36765
36765 36846
36846 36930
36930 37016
37016 37098
37098 37174
37174 37250
37250 37328
37328 37407
37407 37490
37490 37569
37569 37719
37719 37798
37798 37874
37874 37952
37952 38033
38033 38111
38111 38188
38188 38261
38261 38334
38334 38408
38408 38678
38678 38750
38750 38898
38898 38975
38975 39051
39051 39131
39131 39207
39207 39350
39350 39421
39421 39492
39492 39565
39565 39705
39705 39776
39776 39846
39846 39916
39916 40057
40057 40126
40126 40198
40198 40271
40271 40344
40344 40416
40416 40490
40490 40566
40566 40642
40642 40721
40721 40800
40800 40880
40880 40962
40962 41040
41040 41191
41191 41272
41272 41356
41356 41443
41443 41528
41528 41612
41612 41690
41690 41766
41766 41842
41842 41923
41923 42003
42003 42084
42084 42167
42167 42450
42450 42524
42524 42602
42602 42681
42681 42764
42764 42847
42847 42928
42928 42979
42979 43052
43052 43128
43128 43206
43206 43285
43285 43366
43366 43448
43448 43527
43527 43674
43674 43751
43751 43830
43830 43911
43911 43993
43993 44073
44073 44225
44225 44300
44300 44378
44378 44459
44459 44544
44544 44626
44626 44712
44712 44790
44790 44940
44940 45019
45019 45101
45101 45186
45186 45270
45270 45359
45359 45447
45447 45672
45672 45747
45747 45825
45825 45907
45907 45989
45989 46070
46070 46150
46150 46298
46298 46372
46372 46448
46448 46528
46528 46606
46606 46688
46688 46767
46767 46916
46916 46991
46991 47069
47069 47146
47146 47232
47232 47316
47316 47396
47396 47476
47476 47623
47623 47696
47696 47772
47772 47851
47851 47933
47933 48018
48018 48153
48153 48231
48231 48286
48286 48366
48366 48452
48452 48534
48534 48616
48616 48768
48768 48843
48843 48923
48923 49000
49000 49081
49081 49159
49159 49241
49241 49323
49323 49405
49405 49484
49484 49633
49633 49712
49712 49793
49793 49873
49873 49957
49957 50040
50040 50122
50122 50201
50201 50276
50276 50353
50353 50431
50431 50511
50511 50594
50594 50677
50677 50760
50760 50909
50909 50986
50986 51067
51067 51145
51145 51224
51224 51446
51446 51520
51520 51597
51597 51674
51674 51754
51754 51833
51833 51914
51914 51990
51990 52065
52065 52139
52139 52213
52213 52287
52287 52361
52361 52438
52438 52514
52514 52590
52590 52738
52738 52811
52811 52887
52887 52964
52964 53042
53042 53120
53120 53195
53195 53268
53268 53340
53340 53413
53413 53488
53488 53563
53563 53640
53640 53717
53717 53796
53796 53875
53875 53953
53953 54028
54028 54101
54101 54174
54174 54248
54248 54327
54327 54407
54407 54491
54491 54574
54574 54652
54652 54730
54730 54877
54877 54950
54950 55027
55027 55105
55105 55186
55186 55268
55268 55347
55347 55428
55428 55508
55508 55587
55587 55663
55663 55738
55738 55815
55815 55893
55893 55970
55970 56050
56050 56129
56129 56205
56205 56283
56283 56360
56360 56442
56442 56523
56523 56606
56606 56691
56691 56774
56774 56931
56931 57012
57012 57098
57098 57184
57184 57268
57268 57422
57422 57499
57499 57577
57577 57659
57659 57740
57740 57824
57824 57907
57907 57987
57987 58137
58137 58213
58213 58289
58289 58369
58369 58448
58448 58529
58529 58608
58608 58755
58755 58832
58832 58912
58912 58989
58989 59139
59139 59217
59217 59295
59295 59374
59374 59525
59525 59602
59602 59680
59680 59759
59759 59839
59839 59921
59921 60003
60003 60086
60086 60167
60167 60244
60244 60320
60320 60397
60397 60481
60481 60568
60568 60651
60651 60731
60731 60811
60811 60891
60891 60972
60972 61054
61054 61135
61135 61288
61288 61365
61365 61444
61444 61527
61527 61587
61587 61669
61669 61751
61751 61832
61832 61909
61909 61986
61986 62115
62115 62196
62196 62272
62272 62348
62348 62425
62425 62505
62505 62586
62586 62669
62669 62754
62754 62812
62812 62892
62892 62972
62972 63053
63053 63135
63135 63221
63221 63307
63307 63394
63394 63477
63477 63557
63557 63637
63637 63716
63716 63795
63795 63875
63875 63957
63957 64037
64037 64116
64116 64194
64194 64275
64275 64355
64355 64433
64433 64513
64513 64591
64591 64668
64668 64745
64745 64822
64822 64899
64899 64977
64977 65056
65056 65137
65137 65218
65218 65375
65375 65452
65452 65529
65529 65607
65607 65689
65689 65770
65770 65854
65854 66012
66012 66088
66088 66164
66164 66240
66240 66317
66317 66394
66394 66471
66471 66549
66549 66625
66625 66699
66699 66773
66773 66849
66849 66924
66924 67001
67001 67081
67081 67162
67162 67313
67313 67388
67388 67464
67464 67541
67541 67620
67620 67700
67700 67781
67781 67860
