2934 3030
3030 3077
8685 8784
8882 8981
9042 9142
9142 9240
9240 9334
9334 9435
9435 9534
9534 9631
9631 9728
9728 9826
9826 9921
9921 10021
10021 10118
10118 10214
10214 10313
10313 10411
10411 10509
10509 10607
10607 10704
10704 10798
10798 10898
10898 10996
10996 11064
11064 11162
11162 11260
11260 11357
11357 11454
11454 11551
11551 11627
11627 11722
11722 11821
11821 11920
11920 12018
12018 12076
12076 12175
12175 12265
12265 12365
12365 12466
12466 12561
12561 12661
12661 12763
12763 12864
12864 12965
12965 13043
13043 13139
13139 13236
13236 13334
13334 13432
13432 13531
13531 13629
13629 13728
13728 13827
13827 13928
13928 14027
14027 14126
14126 14228
14228 14329
14329 14430
14430 14529
14529 14628
14628 14722
14722 14824
14824 14922
14922 15017
15017 15097
15097 15195
15195 15292
15292 15389
15389 15488
15488 15586
15586 15685
15685 15784
15784 15883
15883 15983
15983 16081
16081 16178
16178 16276
16276 16373
16373 16471
16471 16570
16570 16669
16669 16765
16765 16864
16864 16964
16964 17065
17065 17165
17165 17264
17264 17363
17363 17461
17461 17560
17560 17659
17659 17758
17758 17855
17855 17952
17952 18049
18049 18147
18147 18244
18244 18341
18341 18438
18438 18536
18536 18635
18635 18735
18735 18835
18835 18934
18934 19032
19032 19131
19131 19230
19230 19328
19328 19425
19425 19522
19522 19619
19619 19716
19716 19814
19814 19912
19912 20009
20009 20107
20107 20205
20205 20304
20304 20404
20404 20502
20502 20598
20598 20698
20698 20799
20799 20900
20900 21000
21000 21100
21100 21201
21201 21301
21301 21402
21402 21498
21498 21599
21599 21697
21697 21795
21795 21894
21894 21992
21992 22056
22056 22154
22154 22252
22252 22423
22423 22523
22523 22623
22623 22723
22723 22822
22822 22923
22923 23024
23024 23094
23094 23192
23192 23288
23288 23387
23387 23484
23484 23581
23581 23680
23680 23777
23777 23875
23875 23971
23971 24069
24069 24167
24167 24266
24266 24366
24366 24459
24459 24558
24558 24657
24657 24753
24753 24853
24853 24952
24952 25051
25051 25148
25148 25238
25238 25338
25338 25435
25435 25533
25533 25629
25629 25727
25727 25824
25824 25922
25922 26018
26018 26115
26115 26212
26212 26310
26310 26409
26409 26507
26507 26604
26604 26701
26701 26799
26799 26897
26897 26994
26994 27052
27052 27149
27149 27247
27247 27345
27345 27444
27444 27541
27541 27638
27638 27735
27735 27832
27832 27930
27930 28027
28027 28124
28124 28220
28220 28318
28318 28416
28416 28514
28514 28611
28611 28709
28709 28806
28806 28903
28903 29001
29001 29099
29099 29196
29196 29293
29293 29390
29390 29486
29486 29585
29585 29681
29681 29774
29774 29871
29871 29967
29967 30065
30065 30163
30163 30260
30260 30357
30357 30456
30456 30554
30554 30645
30645 30744
30744 30844
30844 30942
30942 31041
31041 31140
31140 31240
31240 31340
31340 31438
31438 31536
31536 31634
31634 31730
31730 31829
31829 31927
31927 32023
32023 32121
32121 32219
32219 32315
32315 32414
32414 32511
32511 32606
32606 32702
32702 32799
32799 32894
32894 32989
32989 33040
33040 33135
33135 33230
33230 33327
33327 33423
33423 33519
33519 33614
33614 33710
33710 33807
33807 33905
33905 34003
34003 34069
34069 34165
34165 34258
34258 34355
34355 34451
34451 34548
34548 34643
34643 34737
34737 34833
34833 34928
34928 35024
35024 35118
35118 35212
35212 35306
35306 35401
35401 35496
35496 35591
35591 35685
35685 35778
35778 35872
35872 35963
35963 36060
36060 36154
36154 36240
36240 36336
36336 36433
36433 36528
36528 36623
36623 36717
36717 36811
36811 36907
36907 37002
37002 37097
37097 37193
37193 37288
37288 37386
37386 37483
37483 37582
37582 37679
37679 37776
37776 37873
37873 37971
37971 38069
38069 38167
38167 38264
38264 38361
38361 38459
38459 38558
38558 38655
38655 38753
38753 38846
38846 38947
38947 39045
39045 39143
39143 39240
39240 39336
39336 39429
39429 39528
39528 39624
39624 39717
39717 39813
39813 39908
39908 40004
40004 40100
40100 40196
40196 40291
40291 40386
40386 40480
40480 40578
40578 40675
40675 40772
40772 40867
40867 40963
40963 41060
41060 41157
41157 41253
41253 41349
41349 41445
41445 41540
41540 41636
41636 41733
41733 41829
41829 41925
41925 42055
42055 42152
42152 42249
42249 42347
42347 42444
42444 42542
42542 42636
42636 42736
42736 42836
42836 42927
42927 43027
43027 43106
43106 43204
43204 43303
43303 43391
43391 43492
43492 43591
43591 43691
43691 43792
43792 43892
43892 43992
43992 44091
44091 44190
44190 44291
44291 44391
44391 44491
44491 44590
44590 44689
44689 44789
44789 44888
44888 44985
44985 45081
45081 45178
45178 45276
45276 45375
45375 45473
45473 45570
45570 45667
45667 45764
45764 45863
45863 45962
45962 46123
46123 46222
46222 46322
46322 46422
46422 46521
46521 46618
46618 46715
46715 46813
46813 46910
46910 47008
47008 47105
47105 47203
47203 47300
47300 47397
47397 47495
47495 47592
47592 47689
47689 47786
47786 47883
47883 47980
47980 48077
48077 48173
48173 48269
48269 48366
48366 48462
48462 48561
48561 48658
48658 48754
48754 48851
48851 48949
48949 49107
49107 49205
49205 49302
49302 49399
49399 49497
49497 49595
49595 49694
49694 49789
49789 49888
49888 49986
49986 50050
50050 50147
50147 50243
50243 50339
50339 50436
50436 50529
50529 50627
50627 50726
50726 50817
50817 50915
50915 51014
51014 51112
51112 51212
51212 51311
51311 51405
51405 51504
51504 51604
51604 51702
51702 51802
51802 51902
51902 51995
51995 52097
52097 52198
52198 52284
52284 52386
52386 52488
52488 52578
52578 52681
52681 52782
52782 52882
52882 52982
52982 53082
53082 53184
53184 53284
53284 53383
53383 53482
53482 53580
53580 53676
53676 53775
53775 53872
53872 53968
53968 54064
54064 54161
54161 54259
54259 54356
54356 54452
54452 54549
54549 54646
54646 54744
54744 54843
54843 54941
54941 55033
55033 55132
55132 55229
55229 55322
55322 55420
55420 55516
55516 55607
55607 55703
55703 55800
55800 55892
55892 55992
55992 56089
56089 56185
56185 56283
56283 56382
