6208 6305
11749 11847
12136 12232
14933 15030
15030 15080
17419 17519
20171 20270
26403 26503
31532 31630
32781 32880
36855 36949
40122 40218
41909 42037
47461 47558
49950 50052
50152 50250
52893 52992
52992 53110
53208 53305
53305 53402
53501 53589
54077 54174
56521 56631
