979 1030
1030 1079
2013 2052
2052 2130
2130 2208
2208 2287
2287 2364
2364 2442
2442 2520
2520 2598
2598 2676
2676 2754
2754 2832
2832 2909
2909 2987
2987 3065
3065 3142
3142 3220
3220 3297
3297 3375
3375 3452
3452 3529
3529 3606
3606 3684
