430 592
592 754
754 836
836 914
914 991
991 1075
1075 1158
1158 1236
1236 1318
1719 1880
1880 2122
2122 2203
2203 2283
2283 2439
2439 2520
2520 2599
2599 2678
2678 2838
2838 2920
2920 3082
3082 3242
3242 3325
3325 3404
3404 3487
3487 3568
3568 3729
3729 3809
3809 3896
3896 3975
3975 4061
4061 4139
4139 4225
4225 4302
4302 4387
4387 4548
4548 4626
4626 4710
4710 4792
4792 4872
4872 4956
4956 5035
5035 5111
5111 5190
5190 5269
5269 5342
5342 5423
5423 5502
5502 5577
5577 5646
5646 5721
5721 5797
5797 5880
