122 295
1803 1858
2110 2197
3546 3684
8721 8910
8910 9003
9003 9082
9082 9165
9165 9249
9249 9333
9333 9417
9417 9501
9501 9586
9586 9670
9670 9756
9756 9842
9842 9928
9928 10015
10015 10101
10101 10188
10188 10276
10276 10364
10364 10451
10451 10540
10540 10628
10628 10717
10717 10808
10808 10899
10899 10990
10990 11080
11080 11171
11171 11265
11265 11360
11360 11454
11454 11551
11551 11648
11648 11745
11745 11843
11843 11941
11941 12122
12122 12221
12221 12319
12319 12520
12520 12621
12621 12696
12696 12799
12799 12900
12900 13002
13002 13054
13054 13239
13239 13424
13424 13611
13611 13799
13799 13893
13893 13986
13986 14080
14080 14174
14174 14268
14268 14361
14361 14456
14456 14550
14550 14644
14644 14739
14739 14901
14901 15364
15364 15458
15458 15549
15549 15641
15641 15891
15891 16168
16168 16448
16448 16541
16541 16633
16633 16796
16796 16887
16887 16980
16980 17162
17162 17253
17253 17342
17342 17432
17432 17521
17521 17610
17610 17791
17791 18062
18062 18150
18150 18324
18324 18412
18412 18499
18499 18585
18585 18673
18673 18761
18761 18848
18848 18937
18937 19115
19115 19296
19296 19387
19387 19572
19572 19664
19664 19850
19850 19943
19943 20038
20038 20128
20128 20217
20217 20282
20282 20371
20371 20460
20460 20550
20550 20640
20640 20731
20731 20820
20820 21000
21000 21090
21090 21269
21269 21445
21445 21532
21532 21619
21619 21706
21706 21791
21791 21877
21877 22047
22047 22132
22132 22217
22217 22302
22302 22557
22557 22728
22728 22813
22813 22898
22898 22984
22984 23155
23155 23241
23241 23327
23327 23499
23499 23585
23585 23672
23672 23759
23759 23847
23847 23935
23935 24024
24024 24112
24112 24200
24200 24287
24287 24375
24375 24463
24463 24549
24549 24636
24636 24724
24724 24809
24809 24895
24895 24981
24981 25066
25066 25152
25152 25236
25236 25320
25320 25405
25405 25489
25489 25573
25573 25657
25657 25740
25740 25823
25823 25907
25907 25992
25992 26075
26075 26159
26159 26241
26241 26324
26324 26409
26409 26493
26493 26576
26576 26637
26637 26722
26722 26807
26807 26892
26892 26979
26979 27065
27065 27151
27151 27239
27239 27326
27326 27413
27413 27590
27590 27767
27767 28035
28035 28215
28215 28304
28304 28393
28393 28482
28482 28571
28571 28750
28750 28839
28839 28930
28930 29110
29110 29201
29201 29290
29290 29381
29381 29470
29470 29560
29560 29648
29648 29737
29737 29826
29826 29915
29915 30098
30098 30189
30189 30375
30375 30659
30659 30948
30948 31140
31140 31330
31330 31675
31675 31764
31764 31853
31853 31941
31941 32028
32028 32064
32064 32151
32151 32238
32238 32325
32325 32500
32500 32588
32588 32675
32675 32763
32763 32851
32851 32939
32939 33026
33026 33113
33113 33238
33238 33324
33324 33411
33411 33498
33498 33669
33669 33840
33840 33901
33901 33985
33985 34071
34071 34155
34155 34239
34239 34297
34297 34460
34460 34706
34706 34870
34870 34952
34952 35035
35035 35116
35116 35199
35199 35255
35255 35336
35336 35499
35499 35580
35580 35662
35662 35742
35742 35823
35823 35904
35904 35985
35985 36066
36066 36229
36229 36312
36312 36394
36394 36476
36476 36560
36560 36643
36643 36726
36726 36811
36811 36894
36894 36977
36977 37062
37062 37145
37145 37228
37228 37394
37394 37478
37478 37561
37561 37644
37644 37730
37730 37814
37814 37899
37899 37985
37985 38069
38069 38154
38154 38237
38237 38321
38321 38487
38487 38570
38570 38736
38736 38819
38819 38902
38902 38987
38987 39070
39070 39155
39155 39240
39240 39326
39326 39412
39412 39498
39498 39583
39583 39670
39670 39756
39756 39842
39842 39930
39930 40018
40018 40107
40107 40285
40285 40375
40375 40465
40465 40555
40555 40644
40644 40733
40733 40824
40824 40913
40913 41003
41003 41086
41086 41174
41174 41264
41264 41352
41352 41439
41439 41526
41526 41613
41613 41698
41698 41784
41784 41867
41867 41949
41949 42030
42030 42111
42111 42192
42192 42273
42273 42354
42354 42435
42435 42516
42516 42598
42598 42680
42680 42762
42762 42845
42845 42928
42928 43094
43094 43178
43178 43344
43344 43427
43427 43511
43511 43595
43595 43678
43678 43761
43761 43844
43844 43927
43927 44010
44010 44094
44094 44260
44260 44428
44428 44598
44598 44744
44744 44916
