244 288
288 328
411 457
457 494
494 538
538 578
578 661
661 705
705 743
743 825
825 907
907 990
990 1072
1072 1153
1153 1236
1236 1277
1277 1317
1317 1400
1400 1482
1482 1565
1565 1611
1611 1648
1648 1730
1730 1813
1813 1856
1856 1895
1895 1978
1978 2061
2061 2144
2144 2227
2227 2310
2310 2394
2394 2477
2477 2560
2560 2643
2643 2727
2727 2810
2810 2854
2854 2893
2893 2956
2956 3058
3058 3102
3102 3141
3141 3185
3185 3223
3223 3306
3306 3387
3387 3470
3470 3552
3552 3595
3595 3633
3633 3677
3677 3715
3715 3797
3797 3878
3878 3960
3960 4041
4041 4123
4123 4166
4166 4206
4206 4249
4249 4289
4289 4333
4333 4372
4372 4414
4414 4455
4455 4537
4537 4621
4621 4704
4704 4787
4787 4870
4870 4954
4954 5001
5001 5037
5037 5082
5082 5121
5121 5205
5205 5288
5288 5372
5372 5455
5455 5539
5539 5582
5582 5624
5624 5709
5709 5793
5793 5878
5878 5922
5922 5963
5963 6061
6061 6144
6144 6225
6225 6307
6307 6350
6350 6388
6388 6469
6469 6513
6513 6551
6551 6632
6632 6714
6714 6756
6756 6795
6795 6839
6839 6877
6877 6958
6958 7000
7000 7040
7040 7122
7122 7204
7204 7246
7246 7285
7285 7329
7329 7367
7367 7448
7448 7529
7529 7610
7610 7692
7692 7735
7735 7774
7774 7856
7856 7939
7939 8021
8021 8104
8104 8147
8147 8187
8187 8270
8270 8353
8353 8436
8436 8480
8480 8519
8519 8566
8566 8602
8602 8684
8684 8728
8728 8767
8767 8849
8849 8932
8932 8976
8976 9014
9014 9096
9096 9178
9178 9223
9223 9261
9261 9342
9342 9386
9386 9424
9424 9469
9469 9506
9506 9588
9588 9669
9669 9750
9750 9832
9832 9914
9914 9960
9960 9996
9996 10079
10079 10123
10123 10162
10162 10244
10244 10327
10327 10411
10411 10456
10456 10494
10494 10577
10577 10660
10660 10704
10704 10744
10744 10828
10828 10913
10913 10997
10997 11082
11082 11166
11166 11214
11214 11251
11251 11335
11335 11419
11419 11463
11463 11503
11503 11587
11587 11671
11671 11713
11713 11755
11755 11839
11839 11923
11923 11965
11965 12007
12007 12091
12091 12175
12175 12221
12221 12259
12259 12344
12344 12428
12428 12473
12473 12554
12554 12596
12596 12680
12680 12764
12764 12848
12848 12931
12931 13015
13015 13058
13058 13098
13098 13182
13182 13266
13266 13349
13349 13433
13433 13516
13516 13599
13599 13683
13683 13766
13766 13849
13849 13932
13932 14016
14016 14059
14059 14100
14100 14184
14184 14268
14268 14352
14352 14436
14436 14520
14520 14604
14604 14688
14688 14747
14747 14790
14790 14830
14830 14915
14915 14998
14998 15044
15044 15082
15082 15167
15167 15251
15251 15294
15294 15335
15335 15419
15419 15465
15465 15504
15504 15546
15546 15588
15588 15673
15673 15756
15756 15800
15800 15841
15841 15885
15885 15925
15925 16008
16008 16092
16092 16175
16175 16218
16218 16258
16258 16341
16341 16424
16424 16470
16470 16507
16507 16589
16589 16672
16672 16755
16755 16837
16837 16920
16920 17003
17003 17060
17060 17103
17103 17141
17141 17222
17222 17303
17303 17384
17384 17429
17429 17465
17465 17546
17546 17626
17626 17707
17707 17787
17787 17867
17867 17948
17948 18028
18028 18108
18108 18189
18189 18269
18269 18350
18350 18431
18431 18473
18473 18511
18511 18592
18592 18728
18728 18809
18809 18890
18890 18971
18971 19052
19052 19133
19133 19214
19214 19297
19297 19378
19378 19422
19422 19460
19460 19542
19542 19624
19624 19706
19706 19789
19789 19871
19871 19953
19953 20036
20036 20118
20118 20200
20200 20282
20282 20365
20365 20447
20447 20529
20529 20611
20611 20657
20657 20693
20693 20776
20776 20819
20819 20859
20859 20942
20942 21025
21025 21108
21108 21192
21192 21275
21275 21359
21359 21442
21442 21527
21527 21571
21571 21610
21610 21656
21656 21694
21694 21737
21737 21778
21778 21821
21821 21863
21863 21948
21948 22053
22053 22138
22138 22184
22184 22223
22223 22307
22307 22351
22351 22392
22392 22436
22436 22476
22476 22520
22520 22559
22559 22644
22644 22728
22728 22811
22811 22857
22857 22896
22896 22938
22938 22980
22980 23065
23065 23149
23149 23233
23233 23319
23319 23403
23403 23448
23448 23488
23488 23573
23573 23659
23659 23744
23744 23828
23828 23913
23913 23997
23997 24081
24081 24166
24166 24210
24210 24250
24250 24293
24293 24335
24335 24419
24419 24504
24504 24548
24548 24589
24589 24633
24633 24674
24674 24759
24759 24844
24844 24929
24929 25014
25014 25100
25100 25145
25145 25186
25186 25272
25272 25358
25358 25401
25401 25443
25443 25530
25530 25615
25615 25701
25701 25787
25787 25872
25872 25958
25958 26043
26043 26128
26128 26213
26213 26299
26299 26384
26384 26426
26426 26470
26470 26513
26513 26555
26555 26640
26640 26684
26684 26726
26726 26811
26811 26896
26896 26955
26955 26998
26998 27040
27040 27125
27125 27169
27169 27210
27210 27252
27252 27294
27294 27379
27379 27425
27425 27464
27464 27550
27550 27635
27635 27720
27720 27805
27805 27890
27890 27935
27935 27976
27976 28062
28062 28122
28122 28208
28208 28256
28256 28293
28293 28370
28370 28437
28437 28549
28549 28593
28593 28645
28645 28731
28731 28804
28804 28851
28851 28889
28889 28974
28974 29018
29018 29054
29054 29096
29096 29139
29139 29225
29225 29310
29310 29354
29354 29394
29394 29479
29479 29564
29564 29608
29608 29649
29649 29733
29733 29819
29819 29864
29864 29904
29904 29990
29990 30075
30075 30118
30118 30160
30160 30246
30246 30331
30331 30374
30374 30416
30416 30501
30501 30586
30586 30671
30671 30716
30716 30756
30756 30841
30841 30889
30889 30926
30926 30970
30970 31011
31011 31097
31097 31182
31182 31224
31224 31266
31266 31351
31351 31434
31434 31478
31478 31519
31519 31563
31563 31602
31602 31644
31644 31686
31686 31770
31770 31854
31854 31938
31938 32023
32023 32107
32107 32192
32192 32277
32277 32363
32363 32448
32448 32492
32492 32534
32534 32577
32577 32619
32619 32704
32704 32746
32746 32790
32790 32837
32837 32875
32875 32960
32960 33045
33045 33087
33087 33129
33129 33177
33177 33216
33216 33302
33302 33387
33387 33473
33473 33558
33558 33643
33643 33687
33687 33729
33729 33772
33772 33814
33814 33858
33858 33899
33899 33984
33984 34069
34069 34154
34154 34239
34239 34324
34324 34370
34370 34410
34410 34453
34453 34495
34495 34582
34582 34667
34667 34754
34754 34841
34841 34927
34927 35048
35048 35094
35094 35133
35133 35218
35218 35303
35303 35348
35348 35387
35387 35431
35431 35472
35472 35556
35556 35601
35601 35641
35641 35725
35725 35809
35809 35893
35893 35976
35976 36060
36060 36143
36143 36227
36227 36311
36311 36394
36394 36439
36439 36478
36478 36562
36562 36645
36645 36729
36729 36812
36812 36895
36895 36978
36978 37022
37022 37061
37061 37105
37105 37143
37143 37188
37188 37226
37226 37308
37308 37390
37390 37472
37472 37554
37554 37636
37636 37718
37718 37800
37800 37882
37882 37964
37964 38046
38046 38129
38129 38211
38211 38294
38294 38338
38338 38377
38377 38423
38423 38460
38460 38504
38504 38544
38544 38627
38627 38710
38710 38792
38792 38875
38875 38958
38958 39040
39040 39085
39085 39122
39122 39204
39204 39287
39287 39369
39369 39452
39452 39535
39535 39618
39618 39702
39702 39747
39747 39786
39786 39831
39831 39870
39870 39955
39955 40040
40040 40125
40125 40210
40210 40295
40295 40381
40381 40466
40466 40552
40552 40638
40638 40682
40682 40724
40724 40809
40809 40895
40895 40943
40943 40982
40982 41068
41068 41153
41153 41239
41239 41324
41324 41409
41409 41455
41455 41542
41542 41582
41582 41667
41667 41711
41711 41753
41753 41799
41799 41840
41840 41925
41925 41969
41969 42072
42072 42158
42158 42244
42244 42286
42286 42330
42330 42416
42416 42502
42502 42546
42546 42588
42588 42673
42673 42717
42717 42759
42759 42804
42804 42844
42844 42930
42930 43015
43015 43061
43061 43100
43100 43185
43185 43271
43271 43355
43355 43440
43440 43525
43525 43609
43609 43694
43694 43779
43779 43862
43862 43947
43947 44031
44031 44115
44115 44200
44200 44284
44284 44368
44368 44412
44412 44452
44452 44537
44537 44621
44621 44704
44704 44788
44788 44871
44871 44954
44954 45037
45037 45120
45120 45203
45203 45286
45286 45369
45369 45452
45452 45535
45535 45618
45618 45702
45702 45786
45786 45870
45870 45954
45954 46038
46038 46122
46122 46207
46207 46291
46291 46376
46376 46460
46460 46545
46545 46629
46629 46714
46714 46798
46798 46882
46882 46928
46928 46967
46967 47051
47051 47136
47136 47220
47220 47268
47268 47304
47304 47389
47389 47474
47474 47515
47515 47559
47559 47644
47644 47728
47728 47774
47774 47813
47813 47899
