18 58
58 131
131 201
201 276
276 347
347 422
422 495
495 568
568 641
641 715
715 783
783 860
860 934
934 1008
1008 1079
1079 1150
1150 1226
1226 1294
1294 1373
1373 1442
1442 1516
1516 1588
1588 1662
1662 1733
1733 1804
1804 1876
1876 1949
1949 2025
2025 2095
2095 2170
2170 2244
2244 2314
2314 2388
2388 2460
2460 2531
2531 2604
2604 2676
2676 2752
2752 2822
2822 2895
2895 2969
2969 3043
3043 3114
3114 3185
3185 3258
3258 3333
3333 3407
3407 3477
3477 3551
3551 3623
3623 3697
3697 3769
3769 3842
3842 3914
3914 3987
3987 4063
4063 4134
4134 4208
4208 4278
4278 4352
4352 4425
4425 4498
4498 4571
4571 4640
4640 4717
4717 4789
4789 4861
4861 4933
4933 5006
6132 6204
6204 6277
6277 6349
6349 6423
6423 6497
6497 6568
6568 6641
6641 6715
6715 6786
6786 6858
6858 6935
6935 7006
7006 7080
7080 7151
7151 7224
7224 7296
7296 7368
7368 7441
7441 7514
7514 7587
7587 7659
7659 7729
7729 7803
7803 7878
7878 7948
7948 8022
8022 8092
8092 8168
8168 8240
8240 8311
8311 8384
8384 8457
8457 8532
8532 8605
8605 8676
8676 8751
8751 8821
8821 8892
8892 8969
8969 9039
9039 9115
9115 9187
9187 9257
9257 9332
9332 9404
9404 9477
9477 9548
9548 9696
9913 9985
10950 11062
16975 17064
19988 20094
25680 25826
25826 25896
25896 25970
25970 26042
26042 26118
26118 26187
26187 26261
26261 26333
26333 26404
26404 26480
26480 26549
26549 26623
26623 26694
26694 26766
26766 26842
26842 26913
26913 26987
26987 27058
27058 27133
27133 27207
27207 27275
27275 27348
27348 27419
27419 27494
27494 27568
27568 27638
27638 27711
27711 27782
27782 27856
27856 27929
27929 28001
28001 28072
28072 28147
28147 28219
28219 28291
28291 28363
28363 28434
28434 28509
28509 28579
28579 28656
28656 28724
28724 28798
28798 28871
28871 28944
28944 29016
29016 29062
29062 29131
29131 29204
29204 29280
29280 29353
29353 29422
29422 29496
29496 29572
29572 29640
29640 29715
29715 29790
29790 29860
29860 29934
29934 30004
30004 30076
30076 30149
30149 30224
30224 30294
30294 30367
30367 30437
30437 30510
30510 30583
30583 30655
30655 30729
30729 30803
30803 30873
