137 264
264 340
340 416
416 493
493 569
569 644
644 720
720 795
795 873
873 948
948 1024
1024 1100
1100 1177
1177 1253
1253 1329
1329 1405
1405 1481
1481 1558
1558 1635
1635 1711
1711 1787
1787 1863
1863 1940
1940 2015
2015 2071
2071 2200
2200 2276
2276 2353
2353 2430
2430 2505
2505 2581
2581 2657
2657 2734
2734 2809
2809 2885
2885 2961
2961 3038
3038 3115
3192 3269
3422 3500
3500 3574
3574 3650
3650 3727
