914 973
2848 2934
2934 2995
7074 7156
7156 7240
7240 7323
7323 7406
7406 7488
7488 7572
7572 7655
7655 7739
7739 7821
7821 7905
7905 7988
7988 8071
8071 8155
8155 8238
8238 8322
8322 8407
8407 8491
8491 8577
8577 8661
8661 8747
8747 8833
8833 8919
8919 9004
9004 9090
9090 9176
9176 9262
9262 9347
9347 9431
9431 9517
9517 9603
9603 9688
9688 9772
9772 9856
9856 9941
9941 10026
10026 10110
10110 10197
10197 10282
10282 10369
10369 10454
10454 10541
10541 10627
10627 10714
10714 10800
10800 10885
10885 10971
10971 11057
11057 11142
11142 11226
11226 11312
11312 11396
11396 11480
11480 11565
11565 11649
11649 11733
11733 11816
11816 11899
11899 11982
11982 12065
12065 12147
12147 12230
12230 12313
12313 12395
12395 12476
12476 12558
12558 12639
12639 12721
12721 12802
12802 12883
12883 12965
12965 13047
13047 13128
13128 13209
13209 13291
13291 13373
13373 13455
13455 13537
13537 13619
13619 13701
13701 13784
13784 13865
13865 13948
13948 14030
14030 14113
14113 14196
14196 14279
14279 14361
14361 14445
14445 14530
14530 14615
14615 14700
14700 14784
14784 14868
14868 14953
14953 15038
15038 15124
15124 15208
15208 15292
15292 15377
15377 15462
15462 15548
15548 15634
15634 15719
15719 15805
15805 15891
15891 15978
15978 16066
16066 16154
16154 16240
16240 16327
16327 16414
16414 16503
16503 16592
16592 16678
16678 16766
16766 16854
16854 16942
16942 17030
17030 17118
17118 17206
17206 17295
17295 17384
17384 17472
17472 17561
17561 17648
17648 17735
17735 17822
17822 17910
17910 17997
17997 18084
18084 18170
18170 18258
18258 18345
18345 18433
18433 18521
18521 18608
18608 18694
18694 18781
18781 18868
18868 18955
18955 19042
19042 19128
19128 19214
19214 19300
19300 19387
19387 19473
19473 19558
19558 19645
19645 19731
19731 19818
19818 19903
19903 19989
19989 20074
20074 20161
20161 20248
20248 20334
20334 20422
20422 20510
20510 20598
20598 20687
20687 20775
20775 20862
20862 20951
20951 21040
21040 21130
21130 21220
21220 21310
21310 21399
21399 21488
21488 21577
21577 21666
21666 21756
21756 21842
21842 21929
21929 22016
22016 22102
22102 22187
22187 22272
22272 22357
22357 22443
22443 22527
22527 22612
22612 22697
22697 22782
22782 22868
22868 22952
22952 23037
23037 23122
23122 23208
23208 23296
23296 23382
23382 23469
23469 23557
23557 23645
23645 23734
23734 23820
23820 23908
23908 23995
23995 24080
24080 24168
24168 24255
24255 24343
24343 24428
24428 24514
24514 24600
24600 24688
24688 24776
24776 24864
24864 24951
24951 25038
25038 25126
25126 25215
25215 25305
25305 25395
25395 25484
25484 25572
25572 25662
25662 25752
25752 25841
25841 25930
25930 26018
26018 26106
26106 26195
26195 26284
26284 26372
26372 26458
26458 26545
26545 26632
26632 26719
26719 26806
26806 26892
26892 26979
26979 27065
27065 27153
27153 27242
27242 27329
27329 27416
27416 27504
27504 27591
27591 27680
27680 27769
27769 27858
27858 27946
27946 28034
28034 28122
28122 28210
28210 28300
28300 28388
28388 28475
28475 28564
28564 28652
28652 28741
28741 28830
28830 28919
28919 29006
29006 29094
29094 29182
29182 29272
29272 29362
29362 29452
29452 29543
29543 29632
29632 29720
29720 29809
29809 29900
29900 29990
29990 30081
30081 30173
30173 30262
30262 30352
30352 30442
30442 30533
30533 30623
30623 30714
30714 30806
30806 30898
30898 30990
30990 31083
31083 31173
31173 31264
31264 31354
31354 31444
31444 31532
31532 31619
31619 31707
31707 31795
31795 31882
31882 31971
31971 32058
32058 32147
32147 32236
32236 32326
32326 32414
32414 32503
32503 32593
32593 32682
32682 32773
32773 32863
32863 32951
32951 33039
33039 33127
33127 33215
33215 33304
33304 33394
33394 33483
33483 33573
33573 33661
33661 33750
33750 33839
33839 33926
33926 34015
34015 34104
34104 34192
34192 34280
34280 34366
34366 34451
34451 34537
34537 34623
34623 34709
34709 34797
34797 34882
34882 34969
34969 35056
35056 35144
35144 35230
35230 35317
35317 35404
35404 35492
35492 35580
35580 35667
35667 35755
35755 35843
35843 35932
35932 36020
36020 36108
36108 36196
36196 36285
36285 36374
36374 36462
36462 36551
36551 36640
36640 36729
36729 36819
36819 36907
36907 36995
36995 37084
37084 37173
37173 37260
37260 37348
37348 37436
37436 37526
37526 37616
37616 37706
37706 37796
37796 37887
37887 37977
37977 38067
38067 38156
38156 38246
38246 38336
38336 38425
38425 38513
38513 38601
38601 38689
38689 38777
38777 38863
38863 38950
38950 39052
39052 39140
39140 39228
39228 39316
39316 39406
39406 39493
39493 39580
39580 39667
39667 39756
39756 39844
39844 39933
39933 40019
40019 40106
40106 40193
40193 40280
40280 40367
40367 40455
40455 40541
40541 40628
40628 40715
40715 40802
40802 40887
40887 40974
40974 41060
41060 41146
41146 41233
41233 41319
41319 41404
41404 41490
41490 41576
41576 41662
41662 41747
41747 41833
41833 41920
41920 42007
42007 42094
42094 42181
42181 42267
42267 42354
42354 42441
42441 42529
42529 42615
42615 42702
42702 42790
42790 42878
42878 42965
42965 43052
43052 43140
43140 43227
43227 43315
43315 43402
43402 43488
43488 43575
43575 43662
43662 43750
43750 43838
43838 43926
43926 44012
44012 44100
44100 44187
44187 44274
44274 44360
44360 44445
44445 44529
44529 44614
44614 44699
44699 44783
44783 44868
44868 44951
44951 45035
45035 45119
45119 45204
45204 45287
45287 45371
45371 45455
45455 45540
45540 45624
45624 45709
45709 45794
45794 45879
45879 45963
45963 46049
46049 46135
46135 46221
46221 46307
46307 46392
46392 46478
46478 46565
46565 46652
46652 46738
46738 46825
46825 46911
46911 46997
46997 47081
47081 47165
47165 47249
47249 47335
47335 47421
47421 47505
47505 47589
47589 47675
47675 47759
47759 47845
47845 47930
47930 48016
48016 48100
48100 48186
48186 48271
48271 48357
48357 48444
48444 48531
48531 48619
48619 48707
48707 48795
48795 48883
48883 48970
48970 49058
49058 49148
49148 49238
49238 49328
49328 49418
49418 49509
49509 49599
49599 49690
49690 49780
49780 49868
49868 49958
49958 50047
50047 50136
50136 50226
50226 50317
50317 50405
50405 50493
50493 50581
50581 50670
50670 50760
50760 50850
50850 50939
50939 51027
51027 51116
51116 51206
51206 51297
51297 51389
51389 51480
51480 51572
51572 51664
51664 51755
51755 51846
51846 51937
51937 52026
52026 52115
52115 52204
52204 52293
52293 52382
52382 52471
52471 52560
52560 52646
52646 52735
52735 52823
52823 52913
52913 53003
53003 53094
53094 53185
53185 53277
53277 53368
53368 53460
53460 53552
53552 53645
53645 53735
53735 53825
53825 53916
53916 54005
54005 54093
54093 54181
54181 54267
54267 54354
54354 54438
54438 54523
54523 54607
54607 54690
54690 54775
54775 54859
54859 54943
54943 55027
55027 55112
55112 55195
55195 55278
55278 55362
55362 55447
55447 55533
55533 55618
55618 55703
55703 55788
55788 55874
55874 55960
55960 56106
56106 56193
56193 56278
56278 56365
56365 56452
56452 56539
56539 56628
56628 56716
56716 56802
56802 56890
56890 56978
56978 57066
57066 57154
57154 57241
57241 57329
57329 57416
57416 57504
57504 57591
57591 57677
57677 57765
57765 57852
57852 57941
57941 58029
58029 58116
58116 58204
58204 58293
58293 58383
58383 58473
58473 58561
58561 58650
58650 58739
58739 58829
58829 58918
58918 59006
59006 59094
59094 59183
59183 59272
59272 59361
59361 59448
59448 59537
59537 59626
59626 59715
59715 59805
59805 59896
59896 59985
59985 60074
60074 60161
60161 60248
60248 60335
60335 60422
60422 60509
60509 60594
60594 60681
60681 60767
60767 60854
60854 60942
60942 61029
61029 61116
61116 61203
61203 61291
61291 61380
61380 61469
61469 61559
61559 61648
61648 61737
61737 61827
61827 61917
61917 62008
62008 62099
62099 62189
62189 62279
62279 62369
62369 62459
62459 62551
62551 62642
62642 62731
62731 62822
62822 62912
62912 63004
63004 63095
63095 63187
63187 63280
63280 63373
63373 63466
63466 63556
63556 63648
63648 63741
63741 63834
63834 63927
63927 64021
64021 64114
64114 64207
64207 64297
64297 64389
64389 64479
64479 64570
64570 64661
64661 64751
64751 64843
64843 64933
64933 65022
65022 65063
65063 65151
65151 65240
65240 65329
65329 65417
65417 65506
65506 65594
65594 65684
65684 65773
65773 65863
65863 65950
65950 66039
66039 66128
66128 66216
66216 66306
66306 66396
66396 66486
66486 66576
66576 66666
66666 66754
66754 66844
66844 66933
66933 67024
67024 67115
67115 67205
67205 67294
67294 67384
67384 67474
67474 67564
67564 67654
67654 67746
67746 67838
67838 67930
67930 68023
68023 68115
68115 68207
68207 68299
68299 68392
68392 68485
68485 68579
68579 68670
68670 68760
68760 68850
68850 68940
68940 69030
69030 69120
69120 69208
69208 69296
69296 69386
69386 69477
69477 69567
69567 69659
