192 290
290 392
893 994
994 1041
1141 1240
1240 1339
1339 1439
1439 1535
1535 1635
1635 1735
1735 1835
1835 1934
1934 2030
2030 2118
2118 2218
2218 2318
2318 2416
2416 2515
2515 2614
2614 2714
2714 2811
2811 2911
2911 3011
3011 3122
3122 3220
3220 3319
3319 3419
3419 3518
3518 3619
3619 3716
3716 3816
3816 3916
3916 4016
4016 4097
4097 4194
4194 4292
4292 4392
4392 4491
4491 4590
4590 4687
4687 4787
4787 4888
4888 4989
4989 5146
5146 5246
5246 5347
5347 5447
5447 5519
5519 5619
5619 5718
5718 5818
5818 5915
5915 6014
6014 6110
6110 6211
6211 6311
6311 6411
6411 6508
6508 6608
6608 6708
6708 6808
6808 6909
6909 7010
7010 7062
7062 7159
7159 7256
7256 7354
7354 7453
