1015 1055
1055 1131
1131 1207
1207 1282
1282 1360
1360 1438
1438 1516
1516 1594
1594 1674
1674 1753
1753 1834
1834 1917
1917 1998
1998 2102
2102 2179
2179 2255
2255 2331
2331 2406
2406 2483
2483 2560
2560 2638
2638 2716
2716 2795
2795 2873
2873 2954
2954 3057
3057 3134
3134 3211
3211 3286
3286 3364
3364 3443
3443 3520
3520 3599
3599 3677
