170 235
235 300
300 353
353 430
430 495
495 557
557 624
749 797
797 883
883 991
991 1072
1072 1138
1138 1203
1203 1270
1270 1336
1336 1401
1401 1466
1466 1532
1532 1598
1598 1664
1664 1730
1730 1796
1796 1849
1849 1927
1927 1993
1993 2084
2084 2148
2148 2211
