62 187
187 312
312 437
437 562
562 687
687 812
812 937
1264 1389
1389 1514
2014 2097
2972 3095
6146 6271
6271 6396
6396 6521
6521 6646
6646 6771
6771 6895
6895 7020
7020 7088
7088 7214
7214 7338
7338 7463
