827 906
906 1029
1029 12078
12078 12161
12161 12302
12302 12390
12390 12431
12431 12479
12479 12548
12548 12633
12633 12758
12758 12966
12966 13090
13090 13203
13203 13276
13276 13334
13334 13588
13588 13671
13671 13723
13723 13808
13808 13877
13877 13990
13990 14547
