153 220
220 286
286 353
353 420
420 486
486 553
553 619
619 686
686 754
754 822
822 889
889 957
957 1025
1025 1093
1093 1161
1161 1229
1229 1297
1297 1365
1365 1433
1433 1501
1501 1570
1570 1638
1638 1707
1707 1776
1776 1844
1844 1913
1913 1981
1981 2035
2035 2103
2103 2171
2171 2240
2240 2309
2309 2378
2378 2447
2447 2517
2517 2586
2586 2656
2656 2726
2726 2796
2796 2866
2866 2936
2936 3006
3006 3075
3075 3146
3146 3216
3216 3286
3286 3355
3355 3424
3424 3493
3493 3562
3562 3632
3632 3701
3701 3770
3770 3839
3839 3908
3908 3977
3977 4046
4046 4114
4114 4183
4183 4252
4252 4321
4321 4390
4390 4459
4459 4527
4527 4596
4596 4665
4665 4734
4734 4803
4803 4871
4871 4939
4939 5007
5007 5075
5075 5142
5142 5209
5209 5277
5277 5345
5345 5412
5412 5480
5480 5548
5548 5616
5616 5685
5685 5753
5753 5821
5821 5890
5890 5959
5959 6028
6028 6097
6097 6166
6166 6235
6235 6305
6305 6374
6374 6444
6444 6513
6513 6584
6584 6654
6654 6725
6725 6796
6796 6867
6867 6938
6938 7010
7010 7080
7080 7151
7151 7222
7222 7292
7292 7362
7362 7432
7432 7502
7502 7572
7572 7642
7642 7712
7712 7781
7781 7851
7851 7920
7920 7989
7989 8058
8058 8126
8126 8195
8195 8264
8264 8332
8332 8399
8399 8468
8468 8536
8536 8605
8605 8674
8674 8743
8743 8812
8812 8881
8881 8949
8949 9018
9018 9101
9101 9171
9171 9240
9240 9310
9310 9380
9380 9450
9450 9520
9520 9590
9590 9660
9660 9705
9705 9775
9775 9846
9846 9916
9916 9986
9986 10056
10056 10125
10125 10195
10195 10264
10264 10334
10334 10403
10403 10472
10472 10541
10541 10610
10610 10678
10678 10747
10747 10816
10816 10885
10885 10954
10954 11023
11023 11092
11092 11161
11161 11231
11231 11300
11300 11370
11370 11439
11439 11483
11483 11553
11553 11623
11623 11694
11694 11765
11765 11836
11836 11906
11906 11976
11976 12046
12046 12116
12116 12186
12186 12256
12256 12326
12326 12395
12395 12465
12465 12536
12536 12606
12606 12675
12675 12745
12745 12815
12815 12884
12884 12954
12954 13023
13023 13092
13092 13161
13161 13230
13230 13299
13299 13368
13368 13437
13437 13506
13506 13575
13575 13645
13645 13714
13714 13758
13758 13827
13827 13897
13897 13967
13967 14036
14036 14106
14106 14175
14175 14244
14244 14314
14314 14384
14384 14453
14453 14523
14523 14593
14593 14663
14663 14733
14733 14802
14802 14872
14872 14942
14942 15012
15012 15082
15082 15151
15151 15220
15220 15289
15289 15358
15358 15427
15427 15496
15496 15565
15565 15635
15635 15704
15704 15774
15774 15843
15843 15912
15912 15982
15982 16096
16096 16166
16166 16235
16235 16305
16305 16375
16375 16444
16444 16514
16514 16584
16584 16653
16653 16723
16723 16793
16793 16863
16863 16933
16933 17002
17002 17072
17072 17142
17142 17211
17211 17281
17281 17350
17350 17420
17420 17489
17489 17558
17558 17628
17628 17697
17697 17766
17766 17836
17836 17905
17905 17974
17974 18043
18043 18112
18112 18181
18181 18249
18249 18318
18318 18385
18385 18453
18453 18521
18521 18588
18588 18656
18656 18725
18725 18793
18793 18862
18862 18930
18930 18998
18998 19066
19066 19135
19135 19203
19203 19272
19272 19340
19340 19409
19409 19477
19477 19546
19546 19590
19590 19659
19659 19728
19728 19796
19796 19865
19865 19933
19933 20002
20002 20043
20043 20113
20113 20182
20182 20252
20252 20322
20322 20392
20392 20463
20463 20533
20533 20602
20602 20672
20672 20743
20743 20813
20813 20859
20859 20929
20929 20999
20999 21068
21068 21138
21138 21208
21208 21278
21278 21347
21347 21416
21416 21486
21486 21555
21555 21625
21625 21694
21694 21763
21763 21832
21832 21902
21902 21971
21971 22040
22040 22108
22108 22177
22177 22246
22246 22316
22316 22385
22385 22454
22454 22523
22523 22592
22592 22662
22662 22731
22731 22800
22800 22869
22869 22938
22938 23007
23007 23077
23077 23146
23146 23215
23215 23283
23283 23352
23352 23421
23421 23490
23490 23559
23559 23628
23628 23697
23697 23766
23766 23835
23835 23903
23903 23972
23972 24040
24040 24109
24109 24177
24177 24246
24246 24314
24314 24382
24382 24451
24451 24520
24520 24589
24589 24657
24657 24727
24727 24796
24796 24865
24865 24935
24935 25005
25005 25074
25074 25144
25144 25214
25214 25284
25284 25353
25353 25423
25423 25492
25492 25562
25562 25632
25632 25701
25701 25771
25771 25840
25840 25910
25910 25980
25980 26057
26057 26125
26125 26193
26193 26260
26260 26328
26328 26397
26397 26498
26498 26567
26567 26636
26636 26705
26705 26774
26774 26843
26843 26912
26912 26981
26981 27049
27049 27117
27117 27186
27186 27254
27254 27322
27322 27390
27390 27459
27459 27527
27527 27596
27596 27664
27664 27733
27733 27802
27802 27871
27871 27940
27940 28008
28008 28077
28077 28146
28146 28260
28260 28329
28329 28398
28398 28467
28467 28537
28537 28606
28606 28675
28675 28744
28744 28814
28814 28883
28883 28953
28953 29022
29022 29092
29092 29161
29161 29231
29231 29301
29301 29371
29371 29441
29441 29511
29511 29580
29580 29650
29650 29720
29720 29789
29789 29858
29858 29926
29926 29995
29995 30063
30063 30132
30132 30200
30200 30268
30268 30336
30336 30404
30404 30472
30472 30541
30541 30609
30609 30677
30677 30745
30745 30814
30814 30882
30882 30951
30951 31019
31019 31088
31088 31157
31157 31226
31226 31294
31294 31363
31363 31432
31432 31501
31501 31570
31570 31639
31639 31707
31707 31775
31775 31842
31842 31910
31910 31978
31978 32064
32064 32131
32131 32199
32199 32266
32266 32333
32333 32401
32401 32470
32470 32538
32538 32606
32606 32675
32675 32744
32744 32813
32813 32882
32882 32951
32951 33020
33020 33089
33089 33158
33158 33227
33227 33297
33297 33367
33367 33437
33437 33507
33507 33577
33577 33647
33647 33717
33717 33787
33787 33857
33857 33927
33927 33997
33997 34067
34067 34137
34137 34208
34208 34278
34278 34348
34348 34418
34418 34489
34489 34559
34559 34629
34629 34699
34699 34769
34769 34840
34840 34910
34910 34980
34980 35050
35050 35120
35120 35191
35191 35260
35260 35330
35330 35400
35400 35470
35470 35540
35540 35610
35610 35680
35680 35750
35750 35821
35821 35891
35891 35961
35961 36073
36073 36142
36142 36210
36210 36279
36279 36347
36347 36416
36416 36485
36485 36554
36554 36622
36622 36735
36735 36804
36804 36872
36872 36915
36915 36984
36984 37079
37079 37147
37147 37216
37216 37285
37285 37354
37354 37422
37422 37491
37491 37561
37561 37630
37630 37699
37699 37769
37769 37838
37838 37908
37908 37977
37977 38047
38047 38116
38116 38185
38185 38255
38255 38324
38324 38393
38393 38462
38462 38532
38532 38602
38602 38671
38671 38741
38741 38812
38812 38883
38883 38954
38954 39024
39024 39095
39095 39165
39165 39236
39236 39306
39306 39376
39376 39446
39446 39515
39515 39585
39585 39655
39655 39724
39724 39794
39794 39863
39863 39933
39933 40002
40002 40071
40071 40140
40140 40210
40210 40279
40279 40348
40348 40417
40417 40486
40486 40556
40556 40625
40625 40694
40694 40762
40762 40831
40831 40901
40901 40970
40970 41039
41039 41108
41108 41177
41177 41247
41247 41317
41317 41386
41386 41456
41456 41526
41526 41595
41595 41665
41665 41734
41734 41779
41779 41848
41848 41918
41918 41987
41987 42056
42056 42126
42126 42196
42196 42265
42265 42334
42334 42403
42403 42473
42473 42543
42543 42612
42612 42682
42682 42751
42751 42821
42821 42891
42891 42960
42960 43029
43029 43098
43098 43168
43168 43237
43237 43306
43306 43375
43375 43444
43444 43513
43513 43582
43582 43650
43650 43719
43719 43788
43788 43857
43857 43926
43926 43994
43994 44064
44064 44134
44134 44204
44204 44274
44274 44343
44343 44413
44413 44483
44483 44552
44552 44622
44622 44691
44691 44761
44761 44830
44830 44899
44899 44969
44969 45038
45038 45107
45107 45177
45177 45246
45246 45316
45316 45385
45385 45454
45454 45523
45523 45593
45593 45663
45663 45732
45732 45800
45800 45869
45869 45939
45939 46008
46008 46076
46076 46145
46145 46214
46214 46283
46283 46352
46352 46420
46420 46490
46490 46559
46559 46628
46628 46696
46696 46765
46765 46834
46834 46902
46902 46971
46971 47040
47040 47109
47109 47178
47178 47248
47248 47317
47317 47387
47387 47456
47456 47526
47526 47595
47595 47665
47665 47734
47734 47803
47803 47872
47872 47942
47942 48011
48011 48080
48080 48149
48149 48217
48217 48286
48286 48355
48355 48424
48424 48492
48492 48560
48560 48629
48629 48698
48698 48766
48766 48834
48834 48903
48903 48972
48972 49041
49041 49110
49110 49179
49179 49248
49248 49317
49317 49386
49386 49456
49456 49525
49525 49594
49594 49663
49663 49732
49732 49801
49801 49869
49869 49983
49983 50052
50052 50121
50121 50190
50190 50259
50259 50328
50328 50397
50397 50441
50441 50509
50509 50579
50579 50648
50648 50717
50717 50785
50785 50854
50854 50923
50923 50992
50992 51060
51060 51129
51129 51197
51197 51266
51266 51334
51334 51402
51402 51471
51471 51539
51539 51608
51608 51676
51676 51743
51743 51812
51812 51880
51880 51948
51948 52016
52016 52084
52084 52152
52152 52220
52220 52288
52288 52356
52356 52424
52424 52492
52492 52560
52560 52628
52628 52696
52696 52764
52764 52832
52832 52900
52900 52967
52967 53035
53035 53103
53103 53171
53171 53239
53239 53307
53307 53375
53375 53443
53443 53511
53511 53579
53579 53646
53646 53714
53714 53782
53782 53850
53850 53918
53918 53985
53985 54052
54052 54120
54120 54188
54188 54255
54255 54323
54323 54390
54390 54458
54458 54526
54526 54594
54594 54662
54662 54730
54730 54798
54798 54866
54866 54934
54934 55002
55002 55070
55070 55138
55138 55207
55207 55275
55275 55343
55343 55411
55411 55479
