97 179
3470 3551
3551 3634
3798 3880
3880 3964
3964 4047
4212 4296
4296 4378
4461 4544
4544 4628
4711 4795
4795 4880
4880 4965
5049 5134
5134 5221
5393 5482
5482 5569
5569 5656
6600 6685
6685 6769
6854 6938
6938 7022
7022 7107
7107 7191
7786 7871
7871 7957
8042 8126
8126 8211
8211 8296
8804 8889
8889 8976
8976 9062
9062 9147
9147 9233
9233 9319
9403 9487
9487 9572
9740 9824
9824 9908
9992 10076
10076 10160
10410 10494
10494 10577
10660 10744
10744 10827
10827 10911
10994 11078
11078 11162
11669 11752
11752 11835
12001 12048
12048 12130
12130 12212
12212 12294
12294 12377
12377 12460
12460 12543
12543 12626
12626 12710
12710 12794
12794 12880
12880 12965
12965 13050
13050 13133
13133 13193
13193 13278
13278 13363
13363 13448
13448 13532
13532 13615
13615 13697
13697 13780
13780 13864
13864 13947
13947 14031
14031 14113
14113 14196
14196 14279
14279 14361
14361 14444
14444 14527
14527 14610
14610 14692
14692 14775
14775 14858
14858 14942
14942 15025
15025 15108
15108 15192
15192 15275
15275 15358
15358 15440
15440 15524
15524 15608
15608 15691
15691 15775
15775 15859
15859 15943
15943 16027
16027 16110
16110 16193
16193 16277
16277 16360
16360 16445
16445 16529
16529 16612
16612 16756
16756 16839
16839 16922
16922 17004
17004 17081
17081 17164
17164 17247
17247 17330
17330 17413
17413 17496
17496 17581
17581 17665
17665 17749
17749 17833
17833 17917
17917 18001
18001 18103
18103 18182
18182 18263
18263 18343
18343 18423
18423 18504
18504 18584
18584 18665
18665 18746
18746 18827
18827 18909
18909 18991
18991 19089
19089 19169
19169 19249
19249 19328
19328 19408
19408 19488
19488 19568
19568 19647
19647 19727
19727 19806
19806 19885
19885 19965
19965 20045
20045 20124
20124 20204
20204 20284
20284 20364
20364 20444
20444 20524
20524 20604
20604 20684
20684 20764
20764 20844
20844 20924
20924 21004
21004 21139
21139 21219
21219 21299
21299 21380
21380 21460
21460 21541
21541 21621
21621 21702
21702 21784
21784 21865
21865 21946
21946 22028
22028 22128
22128 22210
22210 22292
22292 22373
22373 22455
22455 22535
22535 22617
22617 22699
22699 22779
22779 22860
22860 22941
22941 23021
23021 23090
23090 23171
23171 23253
23253 23334
23334 23416
23416 23498
23498 23580
23580 23662
23662 23744
23744 23826
23826 23908
23908 23991
23991 24134
24134 24213
24213 24292
24292 24372
24372 24451
24451 24530
24530 24610
24610 24689
24689 24768
24768 24846
24846 24926
24926 25005
25005 25058
25058 25138
25138 25217
25217 25297
25297 25376
25376 25455
25455 25535
25535 25614
25614 25694
25694 25773
25773 25852
25852 25931
25931 26038
26038 26119
26119 26200
26200 26282
26282 26363
26363 26443
26443 26524
26524 26604
26604 26685
26685 26765
26765 26845
26845 26925
26925 27006
27006 27086
27086 27167
27167 27248
27248 27329
27329 27410
27410 27492
27492 27573
27573 27654
27654 27736
27736 27817
27817 27899
27899 27980
27980 28061
28061 28142
28142 28223
28223 28305
28305 28386
28386 28467
28467 28548
28548 28629
28629 28711
28711 28792
28792 28873
28873 28954
28954 29035
29035 29116
29116 29197
29197 29278
29278 29359
29359 29440
29440 29520
29520 29602
29602 29683
29683 29765
29765 29846
29846 29927
29927 30007
30007 30088
30088 30168
30168 30248
30248 30303
30303 30382
30382 30461
30461 30540
30540 30619
30619 30699
30699 30778
30778 30857
30857 30936
30936 31015
31015 31094
31094 31173
31173 31253
31253 31333
31333 31413
31413 31493
31493 31574
31574 31654
31654 31735
31735 31815
31815 31896
31896 31976
31976 32057
32057 32137
32137 32218
32218 32299
32299 32381
32381 32462
32462 32543
32543 32625
32625 32706
32706 32788
32788 32869
32869 32950
32950 33032
33032 33113
33113 33194
33194 33275
33275 33357
33357 33438
33438 33519
33519 33600
33600 33682
33682 33764
33764 33845
33845 33928
33928 34009
34009 34091
34091 34173
34173 34255
34255 34337
34337 34419
34419 34500
34500 34582
34582 34664
34664 34745
34745 34827
34827 34909
34909 34990
34990 35072
35072 35154
35154 35236
35236 35319
35319 35401
35401 35484
35484 35567
35567 35649
35649 35732
35732 35815
35815 35897
35897 35934
35934 35980
35980 36062
36062 36145
36145 36227
36227 36309
36309 36390
36390 36472
36472 36554
36554 36636
36636 36717
36717 36798
36798 36879
36879 36961
36961 37042
37042 37123
37123 37205
37205 37286
37286 37367
37367 37448
37448 37530
37530 37611
37611 37693
37693 37774
37774 37856
37856 37937
37937 38019
38019 38100
38100 38182
38182 38263
38263 38344
38344 38426
38426 38507
38507 38588
38588 38669
38669 38750
38750 38831
38831 38912
38912 38994
38994 39039
39039 39120
39120 39200
39200 39281
39281 39362
39362 39443
39443 39543
39543 39655
39655 39736
39736 39817
39817 39897
39897 39978
39978 40060
40060 40141
40141 40222
40222 40303
40303 40384
40384 40465
40465 40545
40545 40626
40626 40707
40707 40788
40788 40868
