17 135
135 304
389 558
558 643
643 813
813 1090
1090 1173
1173 1256
1256 1505
1505 1672
1672 1758
1758 1797
1797 1873
1873 1924
1924 2090
2090 2174
2174 2341
2341 2424
2424 2593
2593 2677
2677 2847
2847 2932
2932 3103
3103 3189
3189 3358
3358 3693
3693 3777
3777 3861
3861 4113
4113 4450
4450 4619
4619 4704
4704 4789
4789 4960
4960 5045
5045 5131
5131 5216
5216 5302
5302 5387
5387 5471
5471 5555
5555 5639
5639 5724
5724 5976
5976 6060
6060 6227
6227 6311
6311 6395
6395 6478
6478 6562
6562 6812
6812 6895
6895 7149
7149 7318
7318 7740
7740 7824
7824 7908
7908 8075
8075 8160
8160 8244
8244 8414
8414 8500
8500 8585
8585 8670
8670 8754
8754 8925
8925 9010
9010 9180
9180 9265
9265 9351
9351 9437
9437 9523
9523 9608
9608 9693
9693 9778
9778 9862
9862 10031
10031 10115
10115 10199
10199 10284
10284 10369
10369 10453
10453 10622
10622 10791
10791 10876
10876 10962
10962 11223
11223 11309
11309 11395
11395 11566
11566 11651
11651 11822
11822 11907
11907 12077
12077 12163
12163 12249
12249 12334
12334 12420
12420 12846
12846 12931
12931 13102
13102 13187
13187 13272
13272 13358
13358 13444
13444 13701
13701 13874
13874 13959
13959 14045
14045 14130
14130 14215
14215 14300
14300 14385
14385 14555
14555 14641
14641 14727
14727 14898
14898 15070
15070 15157
15157 15330
15330 15501
15501 15586
15586 15672
15672 15758
15758 15843
15843 16014
16014 16099
16099 16184
16184 16352
16352 16436
16436 16500
16500 16584
16584 16669
16669 17178
17178 17345
17345 17429
17429 17598
17598 17682
17682 17850
17850 17934
17934 18018
18018 18355
18355 18696
18696 18867
18867 18953
18953 19211
19211 19297
19297 19383
19383 19554
19554 19726
19726 19811
19811 19981
19981 20065
20065 20234
20234 20319
20319 20492
20492 20578
20578 20665
20665 20751
20751 20838
20838 20924
20924 21010
21010 21096
21096 21182
21182 21269
21269 21355
21355 21697
21697 21782
21782 21953
21953 22039
22039 22126
22126 22212
22212 22298
22298 22384
22384 22470
22470 22640
22640 22726
22726 22811
22811 22982
22982 23068
23068 23154
23154 23239
23239 23324
23324 23410
23410 23581
23581 23668
23668 23755
23755 23843
23843 24107
24107 24194
24194 24280
24280 24366
24366 24451
24451 24537
24537 24622
24622 24792
24792 24878
24878 24964
24964 25135
25135 25305
25305 25390
25390 25732
25732 25817
25817 25902
25902 25988
25988 26074
26074 26160
26160 26246
26246 26332
26332 26504
26504 26590
26590 26761
26761 26849
26849 26936
26936 27023
27023 27110
27110 27197
27197 27283
27283 27454
27454 27539
27539 27625
27625 27972
27972 28059
28059 28146
28146 28233
28233 28320
28320 28407
28407 28580
28580 28752
28752 28838
28838 28924
28924 29009
29009 29095
29095 29181
29181 29267
29267 29352
29352 29437
29437 29522
29522 29607
29607 29692
29692 29946
29946 30030
30030 30114
30114 30199
30199 30286
30286 30374
30374 30462
30462 30549
30549 30634
30634 30720
30720 30806
30806 31066
31066 31154
31154 31502
31502 31590
31590 31677
31677 31763
31763 31851
31851 31937
31937 32024
32024 32111
32111 32198
32198 32286
32286 32375
32375 32464
32464 32552
32552 32639
32639 32727
32727 32814
32814 32901
32901 32988
32988 33074
33074 33246
33246 33332
33332 33418
33418 33590
33590 33764
33764 34022
34022 34109
34109 34196
34196 34370
34370 34457
34457 34544
34544 34632
34632 34720
34720 34808
34808 34896
34896 34986
34986 35075
35075 35164
35164 35342
35342 35429
35429 35516
35516 35603
35603 35690
35690 35862
35862 35948
35948 36033
36033 36119
36119 36293
36293 36380
36380 36467
36467 36639
36639 36725
36725 36810
36810 36897
36897 36982
36982 37068
37068 37241
37241 37327
37327 37413
37413 37585
37585 37756
37756 37842
37842 38099
38099 38185
38185 38270
38270 38356
38356 38442
38442 38528
38528 38613
38613 38699
38699 38783
38783 38953
38953 39039
39039 39125
39125 39296
39296 39381
39381 39638
39638 39724
39724 39810
39810 39896
39896 39983
39983 40068
40068 40154
40154 40240
40240 40326
40326 40411
40411 40496
40496 40581
40581 40666
40666 40750
40750 40835
40835 41005
41005 41090
41090 41175
41175 41260
41260 41517
41517 41603
41603 41690
41690 41776
41776 41861
41861 42033
42033 42120
42120 42293
42293 42381
42381 42467
42467 42553
42553 42638
42638 42893
42893 42978
42978 43062
43062 43147
43147 43316
43316 43402
43402 43572
43572 43742
43742 43826
43826 43911
43911 43996
43996 44081
44081 44166
44166 44252
44252 44424
44424 44594
44594 44678
44678 44763
44763 44847
44847 44932
44932 45017
45017 45101
45101 45185
45185 45270
45270 45355
45355 45440
45440 45525
45525 45610
45610 45695
45695 45780
45780 45864
45864 45948
45948 46054
46054 46140
46140 46226
46226 46311
46311 46396
46396 46481
46481 46650
46650 46735
46735 46821
46821 46990
46990 47243
47243 47410
47410 47493
47493 47659
47659 47743
47743 47993
47993 48078
48078 48163
48163 48247
48247 48331
48331 48415
48415 48500
48500 48585
48585 48670
48670 48838
48838 48922
48922 49006
49006 49091
49091 49174
49174 49340
49340 49423
49423 49506
49506 49755
49755 49839
49839 49923
49923 50008
50008 50093
50093 50261
50261 50346
50346 50429
50429 50513
50513 50680
50680 50763
50763 50845
50845 50927
50927 51093
51093 51175
51175 51258
51258 51341
51341 51424
51424 51507
51507 51590
51590 51758
51758 51841
51841 52263
52263 52598
52598 52682
52682 52766
52766 52850
52850 52934
52934 53103
53103 53611
53611 53863
53863 53948
53948 54032
54032 54117
54117 54201
54201 54286
54286 54453
54453 54537
54537 54788
54788 55123
55123 55206
55206 55290
55290 55457
55457 55958
55958 56043
56043 56127
56127 56295
56295 56379
56379 56463
56463 56546
56546 56630
56630 56714
56714 56965
56965 57049
57049 57299
57299 57383
57383 57467
57467 57551
57551 57886
57886 57970
57970 58138
58138 58222
58222 58559
58559 58727
58727 58895
58895 58979
58979 59062
59062 59146
59146 59230
59230 59653
59653 59737
59737 59821
59821 59906
59906 60075
60075 60160
60160 60244
60244 60411
60411 60494
60494 60662
60662 60746
60746 60976
60976 61316
61316 61487
61487 61572
61572 61656
61656 61825
61825 61909
61909 62077
62077 62245
62245 62329
62329 62414
62414 62581
62581 62665
62665 62748
62748 62915
62915 62999
62999 63166
63166 63252
63252 63340
63340 63429
63429 63517
63517 63604
63604 63690
63690 63776
63776 63862
63862 63947
63947 64057
64057 64143
64143 64316
64316 64402
64402 64488
64488 64574
64574 64660
64660 64746
64746 64832
64832 64917
64917 65003
65003 65090
65090 65178
65178 65265
65265 65352
65352 65439
65439 65526
65526 65612
65612 65698
65698 65784
65784 66041
66041 66126
66126 66211
66211 66297
66297 66383
66383 66552
66552 66638
66638 66723
66723 66893
66893 66979
66979 67065
67065 67150
67150 67234
67234 67406
67406 67491
67491 67576
67576 67660
67660 67744
67744 67828
67828 67912
67912 67997
67997 68081
68081 68166
68166 68253
68253 68338
68338 68424
68424 68763
68763 68848
