6910 7006
7006 7096
7539 7598
7598 7712
7712 7803
7803 7896
7896 7989
7989 8055
8055 8115
8115 8229
8229 8322
8322 8416
8416 8509
8509 8602
8602 8695
8695 8789
8789 8867
8867 8973
8973 9085
9085 9173
9173 9261
9261 9350
9350 9425
9425 9487
9487 9544
9544 9603
9603 9706
9706 9799
9799 9894
9894 9987
9987 10080
10080 10173
10173 10265
10265 10358
10358 10450
10450 10542
10542 10634
10634 10727
10727 10820
10820 10913
10913 11006
11006 11095
11095 11186
11186 11278
11278 11369
11369 11462
11462 11554
11554 11646
11646 11738
11738 11832
11832 11925
11925 12019
12019 12113
12113 12206
12206 12301
12301 12394
12394 12487
12487 12581
12581 12675
12675 12769
12769 12862
12862 12955
12955 13050
13050 13144
13144 13238
13238 13332
13332 13405
13405 13463
13463 13563
13563 13663
13663 13761
13761 13855
13855 13949
13949 14044
14044 14139
14139 14233
14233 14328
14328 14422
14422 14516
14516 14610
14610 14705
14705 14799
14799 14893
14893 14988
14988 15083
15083 15178
15178 15272
15272 15367
15367 15461
15461 15555
15555 15648
15648 15742
15742 15835
15835 15929
15929 16023
16023 16116
16116 16210
16210 16305
16305 16398
16398 16491
16491 16585
16585 16679
16679 16773
16773 16867
16867 16961
16961 17056
17056 17150
17150 17244
17244 17339
17339 17434
17434 17529
17529 17623
17623 17718
17718 17813
17813 17907
17907 18002
18002 18098
18098 18193
18193 18287
18287 18382
18382 18477
18477 18571
18571 18665
18665 18759
18759 18853
18853 18947
18947 19041
19041 19134
19134 19228
19228 19323
19323 19418
19418 19512
19512 19606
19606 19702
19702 19797
19797 19891
19891 19986
19986 20080
20080 20174
20174 20268
20268 20362
20362 20456
20456 20550
20550 20644
20644 20738
20738 20832
20832 20927
20927 21013
21013 21115
21115 21209
21209 21304
21304 21399
21399 21492
21492 21587
21587 21681
21681 21775
21775 21869
21869 21964
21964 22059
22059 22154
22154 22248
22248 22343
22343 22438
22438 22532
22532 22626
22626 22720
22720 22814
22814 22908
22908 23001
23001 23095
23095 23189
23189 23282
23282 23377
23377 23470
23470 23564
23564 23657
23657 23736
23736 23842
23842 23909
23909 23967
23967 24067
24067 24155
24155 24246
24246 24337
24337 24435
24435 24531
24531 24626
24626 24704
24704 24813
24813 24908
24908 25004
25004 25099
25099 25194
25194 25289
25289 25385
25385 25459
25459 25572
25572 25668
25668 25764
25764 25860
25860 25955
25955 26052
26052 26149
26149 26245
26245 26341
26341 26437
26437 26534
26534 26629
26629 26725
26725 26822
26822 26918
26918 27013
27013 27109
27109 27204
27204 27300
27300 27396
27396 27491
27491 27586
27586 27681
27681 27776
27776 27870
27870 27965
27965 28059
28059 28153
28153 28246
28246 28339
28339 28432
28432 28525
28525 28618
28618 28711
28711 28803
28803 28896
28896 28989
28989 29082
29082 29174
29174 29267
29267 29359
29359 29451
29451 29543
29543 29636
29636 29728
29728 29821
29821 29908
29908 30007
30007 30100
30100 30194
30194 30287
30287 30380
30380 30474
30474 30553
30553 30661
30661 30754
30754 30849
30849 30944
30944 31038
31038 31132
31132 31228
31228 31323
31323 31418
31418 31512
31512 31608
31608 31704
31704 31798
31798 31893
31893 31989
31989 32086
32086 32182
32182 32258
32258 32373
32373 32470
32470 32566
32566 32663
32663 32761
32761 32858
32858 32955
32955 33051
33051 33148
33148 33244
33244 33340
33340 33436
33436 33532
33532 33629
33629 33724
33724 33820
33820 33917
33917 34013
34013 34108
34108 34205
34205 34275
34275 34372
34372 34467
34467 34563
34563 34660
34660 34755
34755 34851
34851 34947
34947 35044
35044 35140
35140 35235
35235 35332
35332 35428
35428 35525
35525 35621
35621 35717
35717 35814
35814 35909
35909 36006
36006 36102
36102 36191
36191 36294
36294 36389
36389 36484
36484 36579
36579 36674
36674 36768
36768 36863
36863 36938
36938 37078
37078 37174
37174 37270
37270 37365
37365 37442
37442 37554
37554 37650
37650 37713
37713 37817
37817 37913
37913 38010
38010 38107
38107 38204
38204 38299
38299 38397
38397 38493
38493 38590
38590 38686
38686 38784
38784 38881
38881 38978
38978 39074
39074 39172
39172 39268
39268 39364
39364 39460
39460 39557
39557 39653
39653 39749
39749 39846
39846 39942
39942 40038
40038 40134
40134 40231
40231 40327
40327 40423
40423 40519
40519 40615
40615 40711
40711 40806
40806 40902
40902 40999
40999 41095
41095 41191
41191 41287
41287 41383
41383 41478
41478 41573
41573 41668
41668 41764
41764 41858
41858 41953
41953 42047
42047 42142
42142 42236
42236 42329
42329 42424
42424 42517
42517 42612
42612 42705
42705 42800
42800 42894
42894 42988
42988 43082
43082 43176
43176 43271
43271 43365
43365 43460
43460 43554
43554 43649
43649 43744
43744 43838
43838 43933
43933 44029
44029 44124
44124 44219
44219 44314
44314 44410
44410 44504
44504 44599
44599 44694
44694 44790
44790 44884
44884 44980
44980 45075
45075 45169
45169 45264
45264 45359
45359 45454
45454 45548
45548 45642
45642 45736
45736 45829
45829 45922
45922 46015
46015 46108
46108 46202
46202 46296
46296 46389
46389 46482
46482 46577
46577 46670
46670 46764
46764 46827
46827 46934
46934 47028
47028 47105
47105 47164
47164 47254
47254 47340
47340 47425
47425 47510
47510 47596
47596 47682
47682 47768
47768 47855
47855 47943
47943 48036
48036 48129
48129 48225
48225 48324
48324 48420
48420 48517
48517 48612
48612 48709
48709 48805
48805 48901
48901 48997
48997 49094
49094 49190
49190 49274
49274 49381
49381 49477
49477 49573
49573 49669
49669 49765
49765 49861
49861 49958
49958 50054
50054 50150
50150 50246
50246 50343
50343 50439
50439 50536
50536 50633
50633 50728
50728 50824
50824 50920
50920 51000
51000 51110
51110 51206
51206 51303
51303 51399
51399 51494
51494 51590
51590 51675
51675 51782
51782 51877
51877 51972
51972 52067
52067 52161
52161 52255
52255 52349
52349 52442
52442 52523
52523 52630
52630 52723
52723 52816
52816 52911
52911 52994
52994 53099
53099 53193
53193 53288
53288 53382
53382 53476
53476 53571
53571 53666
53666 53741
53741 53852
53852 53946
53946 54008
54008 54063
54063 54127
54127 54243
54243 54337
54337 54432
54432 54528
54528 54623
54623 54718
54718 54813
54813 54908
54908 55004
55004 55098
55098 55194
55194 55289
55289 55383
55383 55477
55477 55571
55571 55665
55665 55759
55759 55848
55848 55947
55947 56041
56041 56119
56119 56226
56226 56320
56320 56414
56414 56507
56507 56602
56602 56679
56679 56787
56787 56879
56879 56937
56937 57049
57049 57142
57142 57235
57235 57328
57328 57421
57421 57493
57493 57551
57551 57608
57608 57667
57667 57754
57754 57840
57840 57947
57947 58041
58041 58136
58136 58230
58230 58324
58324 58419
58419 58513
58513 58608
58608 58702
58702 58796
58796 58891
58891 58985
58985 59080
59080 59175
59175 59270
59270 59365
59365 59460
59460 59555
59555 59642
59642 59729
59729 59797
59797 59856
59856 59961
59961 60063
60063 60160
60160 60256
60256 60353
60353 60449
60449 60545
60545 60641
60641 60738
60738 60836
60836 60932
60932 61029
61029 61126
61126 61222
61222 61319
61319 61415
61415 61510
61510 61607
61607 61703
61703 61799
61799 61894
61894 61990
61990 62086
62086 62182
62182 62277
62277 62356
62356 62468
62468 62564
62564 62659
62659 62755
62755 62851
62851 62947
62947 63043
63043 63138
63138 63234
63234 63330
63330 63426
63426 63522
63522 63618
63618 63713
63713 63809
63809 63905
63905 64001
64001 64097
64097 64193
64193 64289
64289 64386
64386 64482
64482 64578
64578 64674
64674 64770
64770 64866
64866 64962
64962 65060
65060 65157
65157 65254
65254 65350
65350 65442
65442 65544
65544 65640
65640 65736
65736 65875
65875 65970
65970 66072
66072 66169
66169 66267
66267 66363
66363 66458
66458 66553
66553 66648
66648 66743
66743 66836
66836 66932
66932 67027
67027 67122
67122 67202
67202 67311
67311 67406
67406 67501
67501 67596
67596 67691
67691 67786
67786 67881
67881 67976
67976 68072
68072 68167
68167 68262
