6401 6588
8271 8455
8455 8546
8546 8639
8639 8731
8731 8825
8825 8921
8921 9015
9015 9113
9113 9208
9208 9305
9305 9400
9400 9497
9497 9591
9591 9687
9687 9780
9780 9877
9877 9973
9973 10069
10069 10166
10166 10260
10260 10357
10357 10451
10451 10547
10547 10642
10642 10740
10740 10834
10834 10933
10933 11027
11027 11123
11123 11220
11220 11317
11317 11415
11415 11511
11511 11608
11608 11702
11702 11798
11798 11890
11890 11984
11984 12078
12078 12173
12173 12268
12268 12365
12365 12465
12465 12562
12562 12662
12662 12757
12757 12855
12855 12950
12950 13047
13047 13141
13141 13237
13237 13330
13330 13425
13425 13518
13518 13612
13612 13706
13706 13800
13800 13896
13896 13989
13989 14083
14083 14176
14176 14269
14269 14362
14362 14455
14455 14548
14548 14640
14640 14734
14734 14826
14826 14920
14920 15011
15011 15102
15102 15193
15193 15284
15284 15377
15377 15472
15472 15570
15570 15663
15663 15758
15758 15850
15850 15943
15943 16032
16032 16124
16124 16214
16214 16304
16304 16395
16395 16485
16485 16575
16575 16664
16664 16754
16754 16842
16842 16932
16932 17023
17023 17113
17113 17204
17204 17293
17293 17384
17384 17473
17473 17564
17564 17656
17656 17747
17747 17841
17841 17933
17933 18026
18026 18118
18118 18209
18209 18300
18300 18392
18392 18486
18486 18578
19415 19510
19510 19602
19602 19698
23954 24070
24070 24161
24161 24249
24249 24340
24340 24431
24431 24523
24523 24617
24617 24709
24709 24805
24805 24994
24994 25039
24994 25039
25410 25527
25527 25593
