3 42
217 304
390 455
691 777
777 840
840 904
904 991
991 1032
1180 1267
1267 1328
1950 2063
2063 2130
2063 2130
2130 2195
2195 2261
2261 2351
2351 2417
2417 2484
2484 2552
2552 2621
2621 2711
2711 2777
