42 107
178 246
246 315
315 377
377 446
446 517
517 586
586 656
656 724
724 796
796 864
864 934
934 1003
1003 1069
1069 1135
1135 1205
1205 1272
1272 1337
1337 1401
1539 1604
1604 1709
1709 1772
1772 1841
1841 1905
1905 1968
1968 2067
2067 2136
2136 2202
2202 2268
2268 2336
2336 2400
2400 2465
2465 2532
2668 2759
2759 2827
2827 2895
2895 2965
2965 3109
3109 3202
3202 3294
3294 3365
3365 3458
3458 3550
3550 3620
3620 3713
3713 3783
3783 3875
3875 3943
3943 4061
4061 4155
4155 4249
4249 4343
4343 4437
