990 1088
11023 11111
40634 40720
40720 40806
50077 50164
50164 50250
50250 50336
50336 50423
50423 50510
50510 50596
50596 50681
50681 50767
50767 50854
50854 50939
50939 51025
51025 51111
51111 51197
51197 51282
51282 51367
51367 51453
51453 51539
51539 51625
51625 51710
51710 51796
51796 51882
51882 51968
51968 52054
52054 52141
52141 52227
52227 52314
52314 52400
52400 52485
52485 52572
52572 52658
52658 52744
52744 52829
52829 52915
52915 53001
53001 53086
53086 53172
53172 53258
53258 53343
53343 53429
53429 53515
53515 53601
53601 53686
53686 53772
53772 53858
53858 53944
53944 54030
54030 54115
54115 54201
54201 54287
54287 54373
54373 54459
54459 54544
54544 54631
54631 54717
54717 54803
54803 54890
54890 54977
54977 55063
55063 55150
55150 55237
55237 55323
55323 55409
55409 55496
55496 55582
55582 55668
55668 55754
55754 55839
55839 55926
55926 56012
56012 56097
56097 56183
56183 56269
56269 56354
56354 56440
56440 56526
56526 56612
56612 56698
56698 56783
56783 56870
56870 56956
56956 57041
57041 57126
57126 57212
57212 57297
57297 57382
57382 57468
57468 57554
57554 57640
57640 57725
57725 57811
57811 57897
57897 57983
57983 58069
58069 58155
58155 58241
58241 58328
58328 58415
58415 58501
58501 58588
58588 58675
58675 58761
58761 58847
58847 58934
58934 59021
59021 59107
59107 59194
59194 59280
59280 59366
59366 59452
59452 59538
59538 59624
59624 59710
59710 59796
59796 59882
59882 59967
59967 60053
60053 60139
60139 60224
60224 60311
60311 60398
60398 60484
60484 60571
60571 60658
60658 60745
60745 60832
60832 60920
60920 61007
61007 61095
61095 61183
61183 61271
61271 61358
61358 61446
61446 61534
61534 61622
61622 61710
61710 61797
61797 61885
61885 61973
61973 62061
62061 62149
62149 62238
62238 62326
62326 62414
62414 62502
62502 62590
62590 62678
62678 62766
62766 62854
62854 62942
62942 63030
63030 63119
63119 63207
63207 63296
63296 63384
63384 63473
63473 63561
63561 63649
63649 63737
63737 63824
63824 63911
63911 63997
63997 64084
64084 64170
64170 64256
64256 64342
64342 64428
64428 64514
64514 64600
64600 64685
64685 64771
64771 64856
64856 64942
64942 65027
65027 65112
65112 65197
65197 65282
65282 65367
65367 65453
65453 65538
65538 65623
65623 65708
65708 65794
65794 65854
65854 65939
65939 66025
66025 66110
66110 66195
66195 66279
66279 66364
66364 66449
66449 66533
66533 66619
66619 66704
66704 66788
66788 66874
66874 66959
