3926 4011
4197 4281
4281 4365
4546 4605
4605 4688
4688 4771
4771 4854
4854 4938
4938 5020
5020 5084
5084 5171
5171 5259
5259 5347
5347 5434
5434 5522
5522 5610
5610 5697
5697 5784
5784 5872
5872 5979
5979 6075
6075 6161
6161 6223
6223 6310
6310 6397
6397 6485
6485 6572
6572 6660
6660 6748
6748 6836
6836 6924
6924 7012
7012 7134
7134 7224
7224 7314
7314 7405
7405 7494
7494 7584
7584 7674
7674 7764
7764 7854
7854 7943
7943 8033
8033 8121
8121 8210
8210 8299
8299 8386
8386 8474
8474 8563
8563 8650
8650 8737
8737 8825
8825 8913
8913 9000
9000 9088
9088 9175
9175 9263
9263 9326
9326 9414
9414 9503
9503 9591
9591 9680
9680 9769
9769 9857
9857 9946
9946 10034
10034 10122
10122 10210
10210 10298
10298 10386
10386 10474
10474 10563
10563 10651
10651 10739
10739 10828
10828 10917
10917 11006
11006 11070
11070 11159
11159 11248
11248 11338
11338 11427
11427 11515
11515 11604
11604 11694
11694 11783
11783 11872
11872 11962
11962 12051
12051 12140
12140 12230
12230 12319
12319 12408
12408 12498
12498 12587
12587 12676
12676 12766
12766 12856
12856 12946
12946 13083
13083 13172
13172 13261
13261 13350
13350 13438
13438 13528
13528 13617
13617 13706
13706 13795
13795 13884
13884 13972
13972 14075
14075 14163
14163 14252
14252 14340
14340 14428
14428 14517
14517 14605
14605 14694
14694 14783
14783 14871
14871 14959
14959 15048
15048 15136
15136 15225
15225 15314
15314 15404
15404 15494
15494 15584
15584 15674
15674 15764
15764 15854
15854 15945
15945 16034
16034 16123
16123 16213
16213 16302
16302 16390
16390 16480
16480 16568
16568 16657
16657 16745
16745 16834
16834 16922
16922 17011
17011 17099
17099 17186
17186 17274
17274 17362
17362 17449
17449 17537
17537 17625
17625 17712
17712 17800
17800 17888
17888 17976
17976 18064
18064 18152
18152 18240
18240 18328
18328 18417
18417 18505
18505 18593
18593 18681
18681 18770
18770 18858
18858 18946
18946 19035
19035 19123
19123 19211
19211 19299
19299 19387
19387 19474
19474 19562
19562 19650
19650 19737
19737 19824
19824 19912
19912 19999
19999 20087
20087 20175
20175 20263
20263 20351
20351 20440
20440 20528
20528 20616
20616 20704
20704 20793
20793 20882
20882 20970
20970 21060
21060 21149
21149 21238
21238 21327
21327 21416
21416 21505
21505 21595
21595 21684
21684 21772
21772 21861
21861 21950
21950 22039
22039 22128
22128 22217
22217 22305
22305 22393
22393 22482
22482 22570
22570 22658
22658 22746
22746 22835
22835 22924
22924 23013
23013 23102
23102 23190
23190 23280
23280 23369
23369 23459
23459 23548
23548 23637
23637 23726
23726 23815
23815 23905
23905 23994
23994 24083
24083 24172
24172 24262
24262 24351
24351 24440
24440 24530
24530 24619
24619 24708
24708 24798
24798 24888
24888 24977
24977 25067
25067 25157
25157 25246
25246 25336
25336 25425
25425 25514
25514 25604
25604 25694
25694 25784
25784 25874
25874 25964
25964 26054
26054 26144
26144 26234
26234 26324
26324 26413
26413 26503
26503 26592
26592 26680
26680 26769
26769 26858
26858 26946
26946 27034
27034 27122
27122 27210
27210 27299
27299 27387
27387 27475
27475 27563
27563 27652
27652 27741
27741 27829
27829 27919
27919 28009
28009 28099
28099 28189
28189 28280
28280 28371
28371 28462
28462 28553
28553 28643
28643 28733
28733 28824
28824 28913
28913 29003
29003 29092
29092 29181
29181 29270
29270 29359
29359 29448
29448 29537
29537 29627
29627 29717
29717 29807
29807 29897
29897 29989
29989 30080
30080 30171
30171 30262
30262 30353
30353 30444
30444 30535
30535 30625
30625 30715
30715 30805
30805 30895
30895 30985
30985 31075
31075 31165
31165 31254
31254 31344
31344 31434
31434 31524
31524 31614
31614 31704
31704 31794
31794 31884
31884 31974
31974 32064
32064 32153
32153 32243
32243 32332
32332 32422
32422 32511
32511 32601
32601 32691
32691 32780
32780 32869
32869 32958
32958 33047
33047 33136
33136 33224
33224 33313
33313 33401
33401 33489
33489 33577
33577 33665
33665 33754
33754 33842
33842 33929
33929 34017
34017 34105
34105 34193
34193 34282
34282 34370
34370 34459
34459 34548
34548 34638
34638 34727
34727 34816
34816 34906
34906 34996
34996 35085
35085 35175
35175 35264
35264 35353
35353 35443
35443 35532
35532 35620
35620 35709
35709 35798
35798 35886
35886 35975
35975 36065
36065 36154
36154 36243
36243 36332
36332 36421
36421 36510
36510 36600
36600 36689
36689 36778
