2019 2114
2114 2209
4651 4745
4745 4838
4838 4931
5047 5140
5140 5234
8529 8623
8623 8717
8810 8904
8904 8997
16571 16640
16640 16733
20189 20281
20281 20372
20828 20919
20919 21010
21101 21191
21191 21283
33096 33189
33189 33283
33376 33469
33469 33562
38752 38844
38844 38936
41005 41100
41100 41169
41831 41925
41925 42018
42018 42125
42125 42216
42216 42307
56274 56367
56367 56459
57383 57475
57475 57567
60982 61070
61070 61159
61159 61248
61248 61337
61337 61426
61426 61515
61515 61603
61603 61692
61692 61781
61781 61869
61869 61958
61958 62047
62047 62136
62136 62225
62225 62315
62315 62405
62405 62494
62494 62584
62584 62675
62675 62765
62765 62856
62856 62948
62948 63040
63040 63132
63132 63224
63224 63316
63316 63407
63407 63499
63499 63591
63591 63682
63682 63773
63773 63865
63865 63956
63956 64047
64047 64139
64139 64230
64230 64321
64321 64412
64412 64503
64503 64594
64594 64685
64685 64776
64776 64867
64867 64958
64958 65049
65049 65139
65139 65229
65229 65320
65320 65410
65410 65500
65500 65591
65591 65682
65682 65772
65772 65863
65863 65954
65954 66046
66046 66137
66137 66228
66228 66319
66319 66409
66409 66500
66500 66591
66591 66681
66681 66772
66772 66864
66864 66955
66955 67048
67048 67140
67140 67232
67232 67299
67299 67391
67391 67482
67482 67574
67574 67665
67665 67757
67757 67848
67848 67941
67941 68033
68033 68126
68126 68219
68219 68312
68312 68405
68405 68499
68499 68592
68592 68685
68685 68778
68778 68870
68870 68963
68963 69055
69055 69147
69147 69239
69239 69332
69332 69424
69424 69516
69516 69583
69583 69675
69675 69767
