569 660
660 752
752 843
843 934
934 1025
1025 1117
1117 1208
1208 1301
1301 1393
1393 1486
1486 1578
1765 1857
1857 1951
2044 2137
2137 2230
2230 2322
2589 2680
2772 2864
2864 2955
2955 3047
3047 3139
3231 3324
3324 3416
5096 5189
5189 5282
5376 5469
5469 5563
5563 5657
6131 6226
6226 6321
6698 6792
6792 6887
6980 7075
7075 7169
7262 7355
7355 7448
9308 9402
9402 9495
12482 12575
12575 12668
13036 13129
13129 13221
13313 13406
13406 13499
13591 13684
13684 13777
13777 13870
13963 14115
14299 14391
14391 14484
14484 14577
14577 14669
14669 14762
14762 14854
14854 14947
14947 15039
15224 15316
15500 15593
15593 15659
16025 16117
16117 16208
16299 16390
16572 16664
19868 19958
20315 20405
20405 20494
20494 20583
20583 20672
20672 20761
20761 20849
20849 20938
21027 21116
21116 21205
21294 21383
21383 21472
21472 21561
21561 21651
21651 21740
21740 21829
21829 21919
21919 22008
22008 22098
22098 22188
22188 22278
22368 22458
22639 22729
23001 23091
24095 24188
24188 24281
24373 24465
24650 24742
24742 24834
25203 25295
25295 25387
27544 27638
27638 27730
27823 27916
28946 29040
29040 29133
30165 30260
30260 30355
30543 30637
30823 30916
31009 31102
31102 31194
31194 31286
31286 31379
31379 31471
31471 31563
31563 31655
31655 31747
31839 31931
31931 32023
32023 32114
32114 32206
32206 32297
32297 32389
32480 32571
32571 32662
32753 32844
32844 32934
32934 33024
33114 33204
33204 33293
33293 33382
33382 33471
33471 33560
33560 33649
33649 33738
33738 33828
33828 33917
33917 34007
34007 34096
34096 34186
34186 34275
34275 34365
34365 34454
34454 34543
34543 34633
34633 34721
34721 34810
34810 34899
34899 34987
34987 35049
35049 35138
35138 35227
35227 35317
35317 35406
35406 35495
35495 35584
35584 35674
35674 35763
35763 35853
35853 35942
35942 36031
36031 36121
36121 36210
36210 36299
36299 36389
36389 36479
36479 36569
36569 36658
36658 36748
36748 36838
36838 36928
36928 37018
37018 37108
37108 37197
37197 37287
37287 37376
37376 37465
37465 37555
37555 37644
37644 37732
37732 37821
37821 37910
37910 37999
37999 38043
38043 38132
38132 38220
38220 38308
38308 38397
38397 38485
38485 38574
38574 38662
38662 38751
38751 38839
38839 38928
38928 39016
39016 39105
39105 39194
39194 39284
39284 39373
39373 39462
39462 39552
39552 39641
39641 39730
39730 39819
39819 39909
39909 39998
39998 40098
40098 40186
40186 40275
40275 40364
40364 40452
40452 40541
40541 40630
40630 40719
40719 40808
40808 40897
40897 40986
40986 41090
41090 41179
41179 41269
41269 41358
41358 41447
41447 41537
41537 41627
41627 41716
41716 41806
41806 41896
41896 41986
41986 42075
42075 42165
42165 42254
42254 42344
42344 42433
42433 42523
42523 42612
42612 42701
42701 42791
42791 42881
42881 42970
42970 43060
43060 43150
43150 43240
43240 43330
43330 43421
43421 43511
43511 43602
43602 43693
43693 43784
43784 43874
43874 43965
43965 44055
44055 44145
44145 44236
44236 44326
44326 44417
44417 44507
44507 44598
44598 44688
44688 44777
44777 44868
44868 44957
44957 45047
45047 45137
45137 45226
45226 45316
45316 45406
45406 45496
45496 45585
45585 45676
45676 45766
45766 45856
45856 45946
45946 46037
46037 46126
46126 46216
46216 46307
46307 46396
46396 46486
46486 46576
46576 46666
46666 46755
46755 46845
46845 46935
46935 47024
47024 47113
47113 47202
47202 47292
47292 47381
47381 47471
47471 47561
47561 47650
47650 47740
47740 47830
47830 47920
47920 48010
48010 48100
48100 48190
48190 48280
48280 48370
48370 48459
48459 48549
48549 48638
48638 48728
48728 48817
48817 48907
48907 48997
48997 49086
49086 49176
49176 49266
49266 49355
49355 49445
49445 49535
49535 49625
49625 49715
49715 49805
49805 49895
49895 49985
49985 50076
50076 50166
50166 50257
50257 50348
50348 50439
50439 50530
50530 50621
50621 50712
50712 50802
50802 50893
50893 50984
50984 51074
51074 51165
51165 51255
51255 51345
51345 51436
51436 51525
51525 51615
51615 51705
51705 51794
51794 51883
51883 51972
51972 52062
52062 52150
52150 52239
52239 52328
52328 52417
52417 52506
52506 52595
52595 52685
52685 52775
52775 52865
52865 52956
52956 53047
53047 53137
53137 53229
53229 53320
53320 53411
53411 53502
53502 53593
53593 53684
53684 53776
53776 53866
53866 53924
53924 54016
54016 54111
54111 54202
54202 54293
54293 54383
54383 54474
54474 54565
54565 54656
54656 54747
54747 54838
54838 54928
54928 55019
55019 55109
55109 55199
55199 55289
55289 55380
55380 55470
55470 55560
55560 55650
55650 55740
55740 55830
55830 55921
55921 56011
56011 56101
56101 56192
56192 56282
56282 56372
56372 56462
56462 56552
56552 56641
56641 56731
56731 56821
56821 56911
56911 57001
57001 57090
57090 57180
57180 57270
57270 57360
57360 57450
57450 57540
57540 57630
57630 57721
57721 57811
57811 57902
57902 57994
57994 58085
58085 58177
58177 58269
58269 58360
58360 58452
58452 58544
58544 58636
58636 58727
58727 58819
58819 58910
58910 59001
59001 59093
59093 59184
59184 59275
59275 59366
59366 59457
59457 59548
59548 59639
59639 59729
59729 59819
59819 59910
59910 60000
60000 60089
60089 60179
60179 60269
60269 60358
60358 60447
60447 60537
60537 60626
60626 60715
60715 60805
60805 60894
60894 60982
60982 61072
61072 61161
61161 61250
61250 61339
61339 61429
61429 61518
61518 61607
61607 61697
61697 61787
61787 61876
61876 61966
61966 62056
62056 62145
62145 62235
62235 62325
62325 62415
62415 62505
62505 62595
62595 62685
62685 62775
62775 62866
62866 62956
62956 63046
63046 63136
63136 63226
63226 63316
63316 63406
63406 63495
63495 63585
63585 63675
63675 63764
63764 63855
63855 63945
63945 64036
64036 64127
64127 64217
64217 64309
64309 64399
64399 64490
64490 64581
64581 64671
64671 64762
64762 64852
64852 64943
