376 454
997 1082
8966 9040
9040 9115
9115 9189
9189 9264
9264 9338
9338 9413
9413 9488
9488 9563
9563 9638
9638 9713
9713 9788
9788 9863
9863 9938
9938 10013
10013 10088
10088 10163
10163 10239
10239 10314
10314 10389
10389 10464
10464 10539
10539 10614
10614 10690
10690 10765
10765 10840
10840 10916
10916 10992
10992 11031
11031 11108
11108 11185
11185 11262
11262 11340
11340 11417
11417 11494
11494 11570
11570 11648
11648 11725
11725 11802
11802 11878
11878 11955
11955 12032
12032 12109
12109 12186
12186 12263
12263 12341
12341 12419
12419 12496
12496 12573
12573 12650
12650 12728
12728 12805
12805 12882
12882 12960
12960 13032
13032 13113
13113 13194
13194 13274
13274 13354
13354 13435
13435 13515
13515 13596
13596 13675
13675 13755
13755 13836
13836 13916
13916 13996
13996 14077
14077 14158
14158 14237
14237 14317
14317 14397
14397 14477
14477 14556
14556 14636
14636 14715
14715 14794
14794 14873
14873 14952
14952 15031
15031 15109
15109 15188
15188 15267
15267 15345
15345 15424
15424 15503
15503 15581
15581 15660
15660 15738
15738 15817
15817 15895
15895 15973
15973 16051
16051 16130
16130 16208
16208 16286
16286 16364
16364 16443
16443 16521
16521 16599
16599 16676
16676 16753
16753 16831
16831 16909
16909 16988
16988 17067
17067 17146
17146 17225
17225 17304
17304 17384
17384 17464
17464 17544
17544 17624
17624 17704
17704 17786
17786 17865
17865 17944
17944 18023
18023 18103
18103 18182
18182 18261
18261 18340
18340 18419
18419 18498
18498 18576
18576 18654
18654 18732
18732 18810
18810 18887
18887 18965
18965 19042
19042 19120
19120 19197
19197 19275
19275 19353
19353 19431
19431 19508
19508 19586
19586 19664
19664 19741
19741 19819
19819 19897
19897 19974
19974 20051
20051 20127
20127 20204
20204 20281
20281 20358
20358 20434
20434 20512
20512 20589
20589 20665
20665 20741
20741 20817
20817 20894
20894 20971
20971 21048
21048 21125
21125 21202
21202 21279
21279 21356
21356 21432
21432 21509
21509 21587
21587 21663
21663 21739
21739 21816
21816 21894
21894 21970
21970 22047
22047 22125
22125 22201
22201 22278
22278 22356
22356 22432
22432 22509
22509 22585
22585 22663
22663 22739
22739 22816
22816 22892
22892 22970
22970 23061
23061 23137
23137 23214
23214 23291
23291 23368
23368 23446
23446 23523
23523 23601
23601 23679
23679 23756
23756 23834
23834 23912
23912 23990
23990 24079
24079 24157
24157 24234
24234 24312
24312 24389
24389 24467
24467 24543
24543 24620
24620 24698
24698 24774
24774 24851
24851 24928
24928 25006
25006 25047
25047 25123
25123 25200
25200 25276
25276 25352
25352 25429
25429 25480
25480 25556
25556 25633
25633 25710
25710 25786
25786 25863
25863 25940
25940 25992
25992 26068
26068 26145
26145 26223
26223 26300
26300 26377
26377 26454
26454 26533
26533 26610
26610 26687
26687 26764
26764 26841
26841 26918
26918 26995
26995 27072
27072 27149
27149 27227
27227 27304
27304 27382
27382 27459
27459 27536
27536 27613
27613 27690
27690 27767
27767 27843
27843 27921
27921 27998
27998 28074
28074 28151
28151 28228
28228 28305
28305 28381
28381 28457
28457 28535
28535 28612
28612 28688
28688 28764
28764 28841
28841 28917
28917 28994
28994 29071
29071 29148
29148 29224
29224 29301
29301 29378
29378 29455
29455 29532
29532 29608
29608 29685
29685 29762
29762 29838
29838 29915
29915 29992
29992 30069
30069 30146
30146 30223
30223 30300
30300 30376
30376 30453
30453 30530
30530 30607
30607 30683
30683 30760
30760 30837
30837 30914
30914 30991
30991 31068
31068 31145
31145 31222
31222 31300
31300 31377
31377 31453
31453 31530
31530 31608
31608 31685
31685 31762
31762 31839
31839 31916
31916 31993
31993 32069
32069 32146
32146 32223
32223 32300
32300 32376
32376 32454
32454 32530
32530 32606
32606 32683
32683 32760
32760 32836
32836 32913
32913 32989
