6852 6953
6953 7027
7027 7101
7101 7175
7175 7249
7249 7323
7323 7397
7397 7471
7471 7545
7545 7618
7618 7692
7692 7766
7766 7839
7839 7912
7912 7986
7986 8059
8059 8133
8133 8206
8206 8279
8279 8353
8353 8425
8425 8498
8498 8571
12126 12200
20166 20239
20239 20312
20312 20385
20385 20458
20458 20531
20531 20604
20604 20678
20678 20751
20751 20824
20824 20897
20897 20971
20971 21044
21044 21117
21117 21191
21338 21411
21411 21485
21485 21558
21558 21632
21632 21706
21706 21780
21780 21854
21854 21928
21928 22002
22002 22075
22075 22150
22150 22223
22223 22298
22298 22372
22372 22446
22446 22520
22520 22594
22594 22668
22668 22742
22742 22816
22816 22889
22889 22963
22963 23037
23037 23110
23110 23184
23184 23257
23257 23331
23331 23404
23404 23478
23478 23552
23552 23626
23626 23699
23699 23774
23774 23848
23848 23922
23922 23996
23996 24070
24070 24144
24144 24218
24218 24292
24292 24366
24366 24441
24441 24515
24515 24589
24589 24663
24663 24738
24738 24812
24812 24887
24887 24961
24961 25035
25035 25110
25110 25183
25183 25258
25258 25332
25332 25406
25406 25480
25480 25554
25554 25629
25629 25703
25703 25776
25776 25850
25850 25924
25924 25998
25998 26071
26071 26145
26145 26218
26218 26292
26292 26365
26365 26439
26439 26513
26513 26587
26587 26660
26660 26733
26733 26807
26807 26880
26880 26954
26954 27028
27028 27101
27101 27175
27175 27249
27249 27323
27323 27397
27397 27471
27471 27545
27545 27619
27619 27693
27693 27767
27767 27841
27841 27916
27916 27989
27989 28063
28063 28137
28137 28212
28212 28285
28285 28359
28359 28434
28434 28508
28508 28582
28582 28656
28656 28731
28731 28805
28805 28879
28879 28953
28953 29028
29028 29102
29102 29176
29176 29250
29250 29324
29324 29399
29399 29473
29473 29547
29547 29622
29622 29696
29696 29770
29770 29845
29845 29920
29920 29994
29994 30069
30069 30144
30144 30218
30218 30293
30293 30367
30367 30441
30441 30516
30516 30590
30590 30664
30664 30738
30738 30813
30813 30886
30886 30960
30960 31034
31034 31108
31108 31182
31182 31255
31255 31328
31328 31402
31402 31475
31475 31548
31548 31621
31621 31695
31695 31768
31768 31841
31841 31915
31915 31988
31988 32061
32061 32135
32135 32208
32208 32282
32282 32356
32356 32429
32429 32503
32503 32577
32577 32651
32651 32726
32726 32800
32800 32874
32874 32948
32948 33022
33022 33096
33096 33171
33171 33244
33244 33318
33318 33393
33393 33466
33466 33540
33540 33614
33614 33687
33687 33761
33761 33834
33834 33907
33907 33981
33981 34054
34054 34127
34127 34201
34201 34274
34274 34347
34347 34420
34420 34494
34494 34568
34568 34641
34641 34714
34714 34788
34788 34862
34862 34936
34936 35009
35009 35083
35083 35157
35157 35231
35231 35305
35305 35379
35379 35452
35452 35526
35526 35599
35599 35673
35673 35746
35746 35819
35819 35892
35892 35966
35966 36039
36039 36112
36112 36196
36196 36270
36270 36343
36343 36416
36416 36489
36489 36563
36563 36636
36636 36709
36709 36766
36766 36853
36853 36926
36926 36999
36999 37073
37073 37147
37147 37220
37220 37293
37293 37367
37367 37441
37441 37514
37514 37587
37587 37661
37661 37735
37735 37808
37808 37881
37881 37955
37955 38029
38029 38102
38102 38175
38175 38249
38249 38323
38323 38396
38396 38470
38470 38543
38543 38617
38617 38690
38690 38764
38764 38838
38838 38912
38912 38986
38986 39059
39059 39134
39134 39208
39208 39282
39282 39356
39356 39431
39431 39505
39505 39580
39580 39654
39654 39728
39728 39802
39802 39876
39876 39950
39950 40025
40025 40099
40099 40172
40172 40246
40246 40320
40320 40394
40394 40467
40467 40541
40541 40614
40614 40687
40687 40761
40761 40834
40834 40908
40908 40980
40980 41053
41053 41126
41126 41199
41199 41272
41272 41345
41345 41419
41419 41492
41492 41565
41565 41638
41638 41712
41712 41786
41786 41860
41860 41933
41933 42008
42008 42082
42082 42155
42155 42229
42229 42303
42303 42377
42377 42451
42451 42524
42524 42598
42598 42672
42672 42745
