27 71
2928 3002
3002 3076
12859 12934
12934 13008
13008 13053
22876 22950
22950 23024
23024 23098
23098 23220
23220 23296
23296 23371
23371 23446
23446 23521
23521 23596
23596 23671
23671 23747
23747 23822
23822 23897
23897 23973
23973 24048
24048 24123
24123 24198
24198 24273
24273 24348
24348 24423
24423 24498
24498 24574
24574 24648
24648 24722
24722 24797
24797 24871
24871 24945
24945 25018
25018 25092
25092 25166
25166 25240
25240 25313
25313 25387
25387 25461
25461 25535
25535 25609
25609 25683
25683 25757
25757 25831
25831 25905
25905 25980
25980 26055
26055 26129
26129 26204
26204 26278
26278 26353
26353 26427
