16237 16311
16311 16386
24274 24348
24348 24423
24423 24546
25188 25263
25263 25337
25337 25411
25411 25485
25485 25560
25560 25634
25634 25708
25708 25782
25782 25857
25857 25930
25930 26004
26004 26078
26078 26153
26153 26227
26227 26301
26301 26375
26375 26449
26449 26523
26523 26597
26597 26672
26672 26746
26746 26820
26820 26894
26894 26969
26969 27044
27044 27118
27118 27193
27193 27268
27268 27343
27343 27417
27417 27492
27492 27567
27567 27641
27641 27715
27715 27790
27790 27865
27865 27940
27940 28014
28014 28089
28089 28164
28164 28239
28239 28313
28313 28388
28388 28463
28463 28538
28538 28613
28613 28688
28688 28763
28763 28837
28837 28912
28912 28987
28987 29061
29061 29136
29136 29210
29210 29285
29285 29360
29360 29434
29434 29509
29509 29583
29583 29658
29658 29732
29732 29806
29806 29880
29880 29954
29954 30028
30028 30102
30102 30176
30176 30249
30249 30323
30323 30397
30397 30471
30471 30544
30544 30618
30618 30692
30692 30767
30767 30841
30841 30915
30915 30990
30990 31065
31065 31139
31139 31214
31214 31290
31290 31365
31365 31440
31440 31516
31516 31592
31592 31667
31667 31742
31742 31818
31818 31894
31894 31969
31969 32045
32045 32120
32120 32196
32196 32271
32271 32346
32346 32422
32422 32497
32497 32572
32572 32648
32648 32723
32723 32798
32798 32873
32873 32948
32948 33023
33023 33098
33098 33173
33173 33248
33248 33324
33324 33399
33399 33474
33474 33549
33549 33624
33624 33699
33699 33775
33775 33850
33850 33926
33926 34001
34001 34076
34076 34151
34151 34227
34227 34302
34302 34377
34377 34453
34453 34529
34529 34604
34604 34679
34679 34755
34755 34830
34830 34905
34905 34980
34980 35056
35056 35131
35131 35206
35206 35281
35281 35357
35357 35432
35432 35507
35507 35583
35583 35659
35659 35734
35734 35810
35810 35885
35885 35961
35961 36036
36036 36112
36112 36188
36188 36263
36263 36339
36339 36414
36414 36490
36490 36565
36565 36641
36641 36716
36716 36792
36792 36867
36867 36942
36942 37018
37018 37093
37093 37168
37168 37244
37244 37319
37319 37395
37395 37470
37470 37545
37545 37620
37620 37696
37696 37771
37771 37846
37846 37921
37921 37996
37996 38070
38070 38145
38145 38220
38220 38294
38294 38369
38369 38443
38443 38518
38518 38592
38592 38667
38667 38741
38741 38816
38816 38890
38890 38964
38964 39039
39039 39114
39114 39188
39188 39263
39263 39338
39338 39413
39413 39488
39488 39563
39563 39637
39637 39712
39712 39787
39787 39861
39861 39936
39936 40011
40011 40085
40085 40160
40160 40235
40235 40309
40309 40384
40384 40459
40459 40534
40534 40609
40609 40683
40683 40758
40758 40833
40833 40908
40908 40982
40982 41057
41057 41132
41132 41206
41206 41280
41280 41355
41355 41430
41430 41504
41504 41578
41578 41653
41653 41727
41727 41801
41801 41875
41875 41950
41950 42024
42024 42098
42098 42173
42173 42247
42247 42322
42322 42396
42396 42471
42471 42546
42546 42620
42620 42695
42695 42769
42769 42844
42844 42919
42919 42993
42993 43067
43067 43142
43142 43216
43216 43291
43291 43365
43365 43440
43440 43514
43514 43588
43588 43662
43662 43737
43737 43811
43811 43885
43885 43960
43960 44034
44034 44109
44109 44183
44183 44258
44258 44332
44332 44406
44406 44480
44480 44555
44555 44630
44630 44704
44704 44779
44779 44854
44854 44929
44929 45004
45004 45078
45078 45153
45153 45228
45228 45302
45302 45377
45377 45452
45452 45526
45526 45613
45613 45688
45688 45763
45763 45837
45837 45912
45912 45987
45987 46061
46061 46135
46135 46210
46210 46284
46284 46359
46359 46433
46433 46508
46508 46582
46582 46656
46656 46730
46730 46804
46804 46878
46878 46952
46952 47026
47026 47100
47100 47174
47174 47247
47247 47322
47322 47396
47396 47469
47469 47543
47543 47618
47618 47692
47692 47766
47766 47840
47840 47915
47915 47989
47989 48063
48063 48138
48138 48213
48213 48287
48287 48361
48361 48436
48436 48511
48511 48586
48586 48660
48660 48735
48735 48810
48810 48885
48885 48959
48959 49034
49034 49109
49109 49184
49184 49259
49259 49334
49334 49410
49410 49484
49484 49559
49559 49634
49634 49710
49710 49784
