695 771
771 848
771 848
848 924
1001 1050
1050 1127
1127 1205
1205 1283
1283 1360
1360 1437
1437 1515
1515 1593
1593 1670
1670 1748
1748 1825
1825 1903
1903 1980
1980 2048
2048 2133
2133 2210
2210 2286
2286 2363
2363 2441
2441 2518
2518 2595
2595 2673
2673 2750
2750 2828
2828 2905
2905 2983
2983 3061
3061 3138
3138 3215
3215 3268
3268 3361
3361 3440
3440 3517
3517 3594
3594 3672
3672 3749
3749 3826
3826 3904
3904 3981
3981 4066
4066 4145
4145 4225
4225 4304
4304 4357
4357 4437
4437 4515
4515 4594
4594 4672
4672 4751
4751 4829
4829 4907
4907 4961
4961 5039
5039 5118
5118 5196
5196 5273
5273 5351
5351 5430
5430 5507
5507 5584
5584 5662
5662 5740
5740 5818
5818 5895
5895 5972
5972 6051
6051 6128
6128 6205
6205 6283
6283 6361
6361 6438
6438 6515
6515 6592
6592 6670
6670 6747
6747 6824
6824 6901
6901 6978
6978 7055
7055 7132
7132 7208
7208 7285
7285 7363
7363 7440
7440 7517
7517 7593
7593 7671
7671 7748
7748 7825
7825 7902
7902 7979
7979 8057
8057 8133
8133 8210
8210 8287
8287 8365
8365 8442
8442 8519
8519 8596
8596 8673
8673 8750
8750 8827
8827 8905
8905 8983
8983 9060
9060 9137
9137 9213
9213 9291
9291 9368
9368 9445
9445 9521
9521 9597
9597 9727
9727 9804
9804 9881
9881 9958
9958 10008
10008 10096
10096 10171
10171 10247
10247 10323
10323 10399
10399 10475
10475 10550
10550 10626
10626 10702
10702 10778
10778 10853
10853 10929
10929 11004
11004 11080
11080 11157
11157 11233
11233 11308
11308 11384
11384 11460
11460 11536
11536 11612
11612 11687
11687 11763
11763 11838
11838 11914
11914 11990
11990 12065
12065 12140
12140 12216
12216 12292
12292 12368
12368 12444
12444 12520
12520 12596
12596 12673
12673 12749
12749 12824
12824 12900
12900 12976
12976 13052
13052 13128
13128 13204
13204 13279
13279 13355
13355 13432
13432 13507
13507 13583
13583 13659
13659 13735
13735 13811
13811 13865
13865 13940
13940 14016
14016 14091
14091 14167
14167 14243
14243 14318
14318 14394
14394 14469
14469 14545
14545 14620
14620 14695
14695 14770
14770 14845
14845 14921
14921 14996
14996 15071
15071 15146
15146 15222
15222 15298
15298 15372
15372 15448
15448 15523
15523 15598
15598 15673
15673 15748
15748 15823
15823 15898
15898 15973
15973 16047
16047 16122
16122 16197
16197 16271
16271 16346
16346 16420
16420 16496
16496 16570
16570 16645
16645 16719
16719 16793
16793 16868
16868 16943
16943 17017
17017 17092
17092 17167
17167 17241
17241 17316
17316 17390
17390 17464
17464 17539
17539 17613
17613 17688
17688 17762
17762 17837
17837 17912
17912 17986
17986 18060
18060 18134
18134 18209
18209 18283
18283 18358
18358 18432
18432 18507
18507 18582
18582 18658
18658 18733
18733 18807
18807 18883
18883 18958
18958 19035
19035 19111
19111 19186
19186 19261
19261 19336
19336 19412
19412 19488
19488 19563
19563 19639
19639 19714
19714 19790
19790 19865
19865 19940
19940 20015
20015 20091
20091 20166
20166 20241
20241 20316
20316 20392
20392 20468
20468 20543
20543 20618
20618 20692
20692 20768
20768 20843
20843 20918
20918 20993
20993 21069
21069 21145
21145 21220
21220 21295
21295 21370
21370 21445
21445 21521
21521 21596
21596 21671
21671 21747
21747 21823
21823 21898
21898 21973
21973 22048
22048 22123
22123 22198
22198 22273
22273 22348
22348 22424
22424 22499
22499 22574
22574 22650
22650 22725
22725 22800
22800 22875
22875 22950
22950 23025
23025 23100
23100 23175
23175 23250
23250 23325
23325 23401
23401 23476
23476 23551
23551 23626
23626 23702
23702 23777
23777 23852
23852 23927
23927 24002
24002 24078
24078 24153
24153 24228
24228 24303
24303 24378
24378 24453
24453 24528
24528 24603
24603 24679
24679 24754
24754 24828
24828 24903
24903 24978
24978 25053
25053 25127
25127 25202
25202 25277
25277 25352
25352 25427
25427 25501
25501 25576
25576 25651
25651 25725
25725 25800
25800 25874
25874 25949
25949 26024
26024 26099
26099 26173
26173 26247
26247 26322
26322 26397
26397 26471
26471 26546
26546 26621
26621 26696
26696 26771
26771 26846
26846 26920
26920 26995
26995 27070
27070 27145
27145 27219
27219 27294
27294 27370
27370 27444
27444 27518
27518 27593
27593 27668
27668 27743
27743 27817
27817 27892
27892 27967
27967 28042
28042 28116
28116 28190
28190 28265
28265 28340
28340 28414
28414 28488
28488 28563
28563 28638
28638 28713
28713 28787
28787 28862
28862 28937
28937 29012
29012 29086
29086 29161
29161 29236
29236 29311
29311 29385
29385 29459
29459 29534
29534 29609
29609 29683
29683 29757
29757 29832
29832 29907
29907 29981
29981 30055
30055 30130
30130 30204
30204 30279
30279 30353
30353 30428
30428 30503
30503 30577
30577 30651
30651 30726
30726 30802
30802 30876
30876 30951
30951 31026
31026 31101
31101 31176
31176 31250
31250 31325
31325 31401
31401 31475
31475 31550
31550 31624
31624 31699
31699 31774
31774 31848
31848 31923
31923 31997
31997 32073
32073 32147
32147 32222
32222 32296
32296 32372
32372 32446
32446 32520
32520 32595
32595 32670
32670 32745
32745 32819
32819 32893
32893 32968
32968 33043
33043 33118
33118 33192
33192 33267
33267 33342
33342 33416
33416 33491
33491 33566
33566 33641
33641 33715
33715 33790
33790 33864
33864 33939
33939 34014
34014 34088
34088 34163
34163 34238
34238 34313
34313 34387
34387 34462
34462 34537
34537 34612
34612 34686
34686 34760
34760 34835
34835 34909
34909 34984
34984 35058
35058 35132
35132 35207
35207 35282
35282 35356
35356 35430
35430 35505
35505 35580
35580 35655
35655 35729
35729 35803
35803 35878
35878 35953
35953 36027
36027 36102
36102 36176
36176 36252
36252 36326
36326 36401
36401 36475
36475 36551
36551 36625
36625 36700
36700 36775
36775 36850
36850 36924
36924 36999
36999 37073
37073 37148
37148 37223
37223 37298
37298 37373
37373 37447
37447 37523
37523 37598
37598 37672
37672 37747
37747 37822
37822 37898
37898 37973
37973 38047
38047 38122
38122 38198
38198 38272
38272 38347
38347 38422
38422 38497
38497 38572
38572 38646
38646 38721
38721 38795
38795 38871
38871 38945
38945 39020
39020 39094
39094 39169
