13963 14038
14038 14113
16833 16908
16908 16983
16983 17059
17059 17134
17134 17209
17209 17284
17284 17360
17360 17436
17436 17511
17511 17587
17587 17662
17662 17738
17738 17813
17813 17888
17888 17963
17963 18038
18038 18114
18114 18189
18189 18263
18263 18338
18338 18413
18413 18488
18488 18562
18562 18636
18636 18711
18711 18786
18786 18861
18861 18935
18935 19010
19010 19086
19086 19160
19160 19235
19235 19309
19309 19384
19384 19459
19459 19533
19533 19607
19607 19682
19682 19757
19757 19831
19831 19905
19905 19979
19979 20054
20054 20128
20128 20202
20202 20276
20276 20351
20351 20426
20426 20501
20501 20576
20576 20656
20656 20732
20732 20808
20808 20884
20884 20960
20960 21037
21037 21113
21113 21188
21188 21264
21264 21341
21341 21417
21417 21493
21493 21569
21569 21645
21645 21721
21721 21797
21797 21872
21872 21948
21948 22023
22023 22099
22099 22174
22174 22249
22249 22325
22325 22400
22400 22476
22476 22551
22551 22626
22626 22701
22701 22776
22776 22852
22852 22927
22927 23002
23002 23077
23077 23153
23153 23228
23228 23304
23304 23379
23379 23456
23456 23531
23531 23606
23606 23682
23682 23758
23758 23833
23833 23909
23909 23984
23984 24060
24060 24136
24136 24211
24211 24286
24286 24362
24362 24437
24437 24513
24513 24588
24588 24663
24663 24739
24739 24814
24814 24889
24889 24965
24965 25040
25040 25117
25117 25192
25192 25267
25267 25343
25343 25419
25419 25495
25495 25571
25571 25646
25646 25722
25722 25798
25798 25873
25873 25949
25949 26024
26024 26100
26100 26176
26176 26251
26251 26326
26326 26402
26402 26477
26477 26552
26552 26627
26627 26703
26703 26778
26778 26853
26853 26927
26927 27002
27002 27076
27076 27151
27151 27226
27226 27300
27300 27374
27374 27449
27449 27523
27523 27597
27597 27671
27671 27746
27746 27821
27821 27895
27895 27970
27970 28045
28045 28119
28119 28194
28194 28268
28268 28343
28343 28418
28418 28493
28493 28567
28567 28642
28642 28718
28718 28793
28793 28867
28867 28942
28942 29018
29018 29093
29093 29168
29168 29243
29243 29318
29318 29394
29394 29469
29469 29544
29544 29619
29619 29695
29695 29770
29770 29845
29845 29921
29921 29996
29996 30072
30072 30147
30147 30222
30222 30298
30298 30374
30374 30449
30449 30525
30525 30601
30601 30676
30676 30751
30751 30826
30826 30902
30902 30977
30977 31052
31052 31127
31127 31202
31202 31277
31277 31352
31352 31427
31427 31502
31502 31577
31577 31653
31653 31728
31728 31804
31804 31880
31880 31956
31956 32031
32031 32107
32107 32183
32183 32259
32259 32334
32334 32409
32409 32485
32485 32560
32560 32635
32635 32711
32711 32786
32786 32862
32862 32937
32937 33012
33012 33087
33087 33162
33162 33237
33237 33311
33311 33385
33385 33460
33460 33535
33535 33609
33609 33683
33683 33757
33757 33832
33832 33905
33905 33979
33979 34053
34053 34128
34128 34203
34203 34278
34278 34353
34353 34428
34428 34504
34504 34579
34579 34654
34654 34730
34730 34805
34805 34880
34880 34955
34955 35030
35030 35106
35106 35181
35181 35256
35256 35331
35331 35406
35406 35482
35482 35557
35557 35632
35632 35708
35708 35784
35784 35860
35860 35935
35935 36011
36011 36087
36087 36164
36164 36239
36239 36315
36315 36392
36392 36468
36468 36544
36544 36620
36620 36696
36696 36772
36772 36848
36848 36924
36924 37000
37000 37076
37076 37153
37153 37229
37229 37305
37305 37381
37381 37458
37458 37535
37535 37611
37611 37687
37687 37764
37764 37841
37841 37917
37917 37994
37994 38070
38070 38146
38146 38223
38223 38299
38299 38375
38375 38451
38451 38528
38528 38604
38604 38679
38679 38755
38755 38831
38831 38907
38907 38982
38982 39057
39057 39133
39133 39208
39208 39284
39284 39359
39359 39435
39435 39511
39511 39587
39587 39663
39663 39738
39738 39814
39814 39890
39890 39966
39966 40041
40041 40117
40117 40192
40192 40268
40268 40344
40344 40419
40419 40494
40494 40570
40570 40646
40646 40721
40721 40797
40797 40873
40873 40949
40949 41025
41025 41101
41101 41178
41178 41254
41254 41331
41331 41407
41407 41484
41484 41561
41561 41638
41638 41715
41715 41791
41791 41867
41867 41944
41944 42020
42020 42096
42096 42172
42172 42248
42248 42324
42324 42399
42399 42474
42474 42550
42550 42626
42626 42702
42702 42777
42777 42853
42853 42930
42930 43005
43005 43081
43081 43156
43156 43232
43232 43308
43308 43383
43383 43459
43459 43535
43535 43611
43611 43686
43686 43762
43762 43838
43838 43914
43914 43989
43989 44065
44065 44140
44140 44217
44217 44292
44292 44368
44368 44443
44443 44519
44519 44595
44595 44671
44671 44746
44746 44822
44822 44898
44898 44974
44974 45049
45049 45125
45125 45201
45201 45276
45276 45352
45352 45427
45427 45502
45502 45578
45578 45652
45652 45727
45727 45802
45802 45877
45877 45952
45952 46027
46027 46103
46103 46178
46178 46254
46254 46330
46330 46405
46405 46481
46481 46557
46557 46633
46633 46709
46709 46785
46785 46861
46861 46937
46937 47013
47013 47089
47089 47166
47166 47243
47243 47319
47319 47395
47395 47471
47471 47548
47548 47624
47624 47701
47701 47777
47777 47853
47853 47930
47930 48006
48006 48082
48082 48159
48159 48235
48235 48312
48312 48388
48388 48464
48464 48541
48541 48617
48617 48693
48693 48769
48769 48846
48846 48922
48922 48998
48998 49073
49073 49149
49149 49225
49225 49300
49300 49375
49375 49451
49451 49526
49526 49602
49602 49678
49678 49753
49753 49828
49828 49904
49904 49979
49979 50055
50055 50130
50130 50206
50206 50282
50282 50357
50357 50432
50432 50508
50508 50584
50584 50660
50660 50735
50735 50811
50811 50920
50920 50996
50996 51071
51071 51146
51146 51221
51221 51297
51297 51372
51372 51447
51447 51522
51522 51598
51598 51673
51673 51748
51748 51823
51823 51899
51899 51974
51974 52050
52050 52125
52125 52201
52201 52277
52277 52353
52353 52429
52429 52505
52505 52581
52581 52657
52657 52733
52733 52809
52809 52886
52886 52963
52963 53039
53039 53115
53115 53192
53192 53269
53269 53346
53346 53423
53423 53500
53500 53577
53577 53654
53654 53731
53731 53808
53808 53885
53885 53962
53962 54038
54038 54115
54115 54191
54191 54268
54268 54344
54344 54420
54420 54497
54497 54573
54573 54649
54649 54726
54726 54802
54802 54879
54879 54955
54955 55031
55031 55108
55108 55184
55184 55260
55260 55336
55336 55413
55413 55489
55489 55566
55566 55642
55642 55718
55718 55794
55794 55870
55870 55947
55947 56023
56023 56100
56100 56177
56177 56253
56253 56330
56330 56406
56406 56483
56483 56561
56561 56638
56638 56715
56715 56792
56792 56870
56870 56947
56947 57024
57024 57101
57101 57178
57178 57255
57255 57332
57332 57409
57409 57487
57487 57564
57564 57641
57641 57717
57717 57794
57794 57871
57871 57947
57947 58024
58024 58101
58101 58178
58178 58255
58255 58332
58332 58408
58408 58485
58485 58562
58562 58638
58638 58715
58715 58791
58791 58868
58868 58944
58944 59021
59021 59097
59097 59174
59174 59250
59250 59326
59326 59402
59402 59478
59478 59554
59554 59629
59629 59704
59704 59779
59779 59854
59854 59930
59930 60005
60005 60080
60080 60155
60155 60231
60231 60306
60306 60381
60381 60457
60457 60532
60532 60609
60609 60684
60684 60760
60760 60836
60836 60913
60913 60989
60989 61065
61065 61142
61142 61219
61219 61295
61295 61372
61372 61448
61448 61525
61525 61601
61601 61678
61678 61754
61754 61831
61831 61907
61907 61983
61983 62059
62059 62136
62136 62212
62212 62289
62289 62365
62365 62441
62441 62518
62518 62594
62594 62670
62670 62746
62746 62822
62822 62898
62898 62974
62974 63050
63050 63127
63127 63203
63203 63278
63278 63354
63354 63430
63430 63507
63507 63583
63583 63659
63659 63736
63736 63813
63813 63890
63890 63967
63967 64044
64044 64122
64122 64199
64199 64276
64276 64354
64354 64432
64432 64510
64510 64588
64588 64665
64665 64743
64743 64821
64821 64899
64899 64977
64977 65055
65055 65133
65133 65211
65211 65289
65289 65367
65367 65446
65446 65524
65524 65603
65603 65681
65681 65760
65760 65838
65838 65917
65917 65995
65995 66073
66073 66152
66152 66230
66230 66308
66308 66386
66386 66464
66464 66542
66542 66619
66619 66696
66696 66774
66774 66851
66851 66928
66928 67005
67005 67082
67082 67160
67160 67237
67237 67314
67314 67391
67391 67468
67468 67545
67545 67622
67622 67698
67698 67775
67775 67852
67852 67928
67928 68005
68005 68081
68081 68158
68158 68234
68234 68309
68309 68385
68385 68462
68462 68538
68538 68614
68614 68691
68691 68767
68767 68844
68844 68920
68920 68996
68996 69073
69073 69149
69149 69226
69226 69303
69303 69379
69379 69456
69456 69533
69533 69610
69610 69686
69686 69763
69763 69840
69840 69917
69917 69994
69994 70071
70071 70148
70148 70225
70225 70302
70302 70379
70379 70456
70456 70533
70533 70610
70610 70686
70686 70763
70763 70841
70841 70918
70918 70995
70995 71072
71072 71149
71149 71227
71227 71304
71304 71381
71381 71458
71458 71535
71535 71613
71613 71690
71690 71767
71767 71844
71844 71922
71922 71999
71999 72076
72076 72154
72154 72231
72231 72310
72310 72387
72387 72465
72465 72542
72542 72620
72620 72698
72698 72776
72776 72853
72853 72931
72931 73008
73008 73085
73085 73162
73162 73239
73239 73316
73316 73393
