3471 3555
6913 6996
6996 7082
11398 11481
11481 11564
11564 11647
11647 11730
11730 11814
11814 11897
11897 11981
11981 12090
12090 12173
12173 12256
12256 12339
12339 12422
12422 12505
12505 12588
12588 12672
12672 12755
12755 12838
12838 12921
12921 13004
13004 13087
13087 13170
13170 13253
13253 13337
13337 13419
13419 13503
13503 13586
13586 13670
13670 13753
13753 13836
13836 13920
13920 14003
14003 14087
14087 14170
14170 14253
14253 14336
14336 14419
14419 14501
14501 14584
14584 14667
14667 14750
14750 14833
14833 14916
14916 14999
14999 15082
15082 15165
15165 15248
15248 15330
15330 15413
15413 15497
15497 15580
15580 15663
15663 15746
15746 15830
15830 15914
15914 15998
15998 16081
16081 16165
16165 16248
16248 16332
16332 16416
16416 16499
16499 16582
16582 16665
16665 16749
16749 16832
16832 16915
16915 16998
16998 17081
17081 17165
17165 17248
17248 17330
17330 17413
17413 17496
17496 17579
17579 17662
17662 17745
17745 17828
17828 17912
17912 17995
17995 18078
18078 18161
18161 18245
18245 18328
18328 18412
18412 18495
18495 18578
18578 18661
18661 18745
18745 18828
18828 18911
18911 18994
18994 19078
19078 19161
19161 19245
19245 19328
19328 19412
19412 19495
19495 19579
19579 19663
19663 19746
19746 19830
19830 19913
19913 19996
19996 20079
20079 20162
20162 20245
20245 20328
20328 20410
20410 20493
20493 20575
20575 20657
20657 20739
20739 20822
20822 20904
20904 20986
20986 21069
21069 21151
21151 21233
21233 21315
21315 21398
21398 21480
21480 21562
21562 21643
21643 21725
21725 21806
21806 21888
21888 21969
21969 22051
22051 22132
22132 22214
22214 22295
22295 22376
22376 22458
22458 22539
22539 22621
22621 22702
22702 22784
22784 22865
22865 22946
22946 23027
23027 23113
23113 23194
23194 23276
23276 23357
23357 23438
23438 23519
23519 23600
23600 23682
23682 23763
23763 23844
23844 23925
23925 24006
24006 24087
24087 24168
24168 24249
24249 24330
24330 24411
24411 24491
24491 24572
24572 24653
24653 24734
24734 24815
24815 24896
24896 24977
24977 25058
25058 25139
25139 25220
25220 25302
25302 25384
25384 25466
25466 25547
25547 25629
25629 25711
25711 25793
25793 25875
25875 25957
25957 26039
26039 26121
26121 26204
26204 26286
26286 26369
26369 26452
26452 26534
26534 26617
26617 26699
26699 26782
26782 26864
26864 26947
26947 27029
27029 27111
27111 27194
27194 27276
27276 27359
27359 27441
27441 27523
27523 27605
27605 27687
27687 27769
27769 27850
27850 27932
27932 28014
28014 28096
28096 28178
28178 28260
28260 28342
28342 28424
28424 28506
28506 28588
28588 28670
28670 28752
28752 28835
28835 28917
28917 29000
29000 29083
29083 29165
29165 29248
29248 29331
29331 29413
29413 29495
29495 29577
29577 29658
29658 29740
29740 29822
29822 29903
29903 29985
29985 30067
30067 30148
30148 30230
30230 30312
30312 30394
30394 30476
30476 30558
30558 30640
30640 30721
30721 30803
30803 30885
30885 30966
30966 31048
31048 31129
31129 31211
31211 31292
31292 31373
31373 31455
31455 31536
31536 31618
31618 31699
31699 31781
31781 31862
31862 31944
31944 32025
32025 32106
32106 32188
32188 32269
32269 32350
32350 32431
32431 32513
32513 32593
32593 32674
32674 32756
32756 32837
32837 32918
32918 33000
33000 33082
33082 33163
33163 33245
33245 33327
33327 33408
33408 33490
33490 33571
33571 33652
33652 33734
33734 33815
33815 33896
33896 33977
33977 34057
34057 34139
34139 34220
34220 34301
34301 34382
34382 34463
34463 34545
34545 34626
34626 34708
34708 34789
34789 34871
34871 34953
34953 35035
35035 35117
35117 35198
35198 35281
35281 35363
35363 35445
35445 35527
35527 35610
35610 35692
35692 35775
35775 35857
35857 35939
35939 36021
36021 36103
36103 36185
36185 36267
36267 36349
36349 36431
36431 36514
36514 36596
36596 36679
36679 36761
36761 36844
36844 36926
36926 37008
37008 37091
37091 37173
37173 37255
37255 37337
37337 37419
37419 37501
37501 37582
37582 37665
37665 37747
37747 37829
37829 37911
37911 37994
37994 38076
38076 38158
38158 38240
38240 38323
38323 38405
38405 38488
38488 38571
38571 38653
38653 38736
38736 38819
38819 38902
38902 38985
38985 39068
39068 39150
39150 39233
39233 39315
39315 39397
39397 39479
39479 39561
39561 39643
39643 39725
39725 39807
39807 39888
39888 39970
39970 40051
40051 40133
40133 40215
40215 40297
40297 40378
40378 40460
40460 40542
40542 40623
40623 40705
40705 40786
40786 40868
40868 40949
40949 41031
41031 41112
41112 41194
41194 41276
41276 41358
41358 41440
41440 41521
41521 41603
41603 41685
41685 41767
41767 41848
41848 41930
41930 42012
42012 42095
42095 42177
42177 42259
42259 42340
42340 42422
42422 42505
42505 42586
42586 42668
42668 42750
42750 42832
42832 42914
42914 42996
42996 43078
43078 43160
43160 43242
43242 43324
43324 43406
43406 43489
43489 43571
43571 43653
43653 43735
43735 43817
43817 43899
43899 43981
43981 44063
44063 44144
44144 44226
44226 44308
44308 44389
44389 44471
44471 44553
44553 44635
44635 44716
44716 44797
44797 44879
44879 44960
44960 45042
45042 45123
45123 45205
45205 45286
45286 45367
45367 45448
45448 45529
45529 45610
45610 45691
45691 45772
45772 45852
45852 45933
45933 46013
46013 46094
46094 46174
46174 46255
46255 46335
46335 46416
46416 46496
46496 46576
46576 46657
46657 46737
46737 46818
46818 46898
46898 46978
46978 47059
47059 47140
47140 47220
47220 47300
47300 47381
47381 47461
47461 47543
47543 47624
47624 47705
47705 47786
47786 47868
47868 47949
47949 48031
48031 48112
48112 48194
48194 48275
48275 48357
48357 48439
48439 48520
48520 48601
48601 48682
48682 48764
48764 48845
48845 48926
48926 49008
49008 49089
49089 49170
49170 49251
49251 49332
49332 49414
49414 49495
49495 49576
49576 49657
49657 49739
49739 49821
49821 49902
49902 49958
49958 50039
50039 50121
50121 50202
50202 50284
50284 50365
50365 50447
50447 50528
50528 50610
50610 50691
50691 50773
50773 50855
50855 50937
50937 51018
51018 51100
51100 51182
51182 51263
51263 51345
51345 51426
51426 51507
51507 51588
51588 51669
51669 51750
51750 51831
51831 51911
51911 51992
51992 52072
52072 52152
52152 52232
52232 52312
52312 52392
52392 52472
52472 52553
52553 52633
52633 52713
52713 52793
52793 52874
52874 52954
52954 53034
53034 53115
53115 53195
53195 53276
53276 53356
53356 53437
53437 53517
53517 53598
53598 53679
53679 53759
53759 53840
53840 53921
53921 54002
54002 54083
54083 54164
54164 54245
54245 54326
54326 54407
54407 54488
54488 54569
54569 54650
54650 54732
54732 54813
54813 54894
54894 54976
54976 55057
55057 55139
55139 55220
55220 55301
55301 55382
55382 55464
55464 55545
55545 55626
55626 55707
55707 55788
55788 55870
55870 55951
55951 56033
56033 56114
56114 56195
56195 56277
56277 56358
56358 56440
56440 56522
56522 56603
56603 56685
56685 56767
56767 56849
56849 56931
56931 57013
57013 57095
57095 57176
57176 57258
57258 57339
57339 57420
57420 57502
57502 57583
57583 57664
57664 57745
57745 57827
57827 57908
57908 57989
57989 58070
58070 58151
58151 58232
58232 58314
58314 58395
58395 58476
58476 58558
58558 58639
58639 58721
58721 58803
58803 58885
58885 58967
58967 59048
59048 59131
59131 59212
59212 59294
59294 59376
59376 59457
59457 59538
59538 59620
59620 59701
59701 59782
59782 59863
59863 59945
59945 60025
60025 60107
60107 60187
60187 60268
60268 60349
60349 60430
60430 60511
60511 60592
60592 60672
60672 60753
60753 60834
60834 60914
60914 60996
60996 61076
61076 61157
61157 61239
61239 61320
61320 61401
61401 61482
61482 61564
61564 61645
61645 61726
61726 61807
61807 61888
61888 61969
61969 62050
62050 62131
62131 62212
62212 62293
62293 62374
62374 62455
62455 62535
62535 62616
62616 62697
62697 62778
62778 62859
62859 62940
62940 63021
63021 63101
63101 63182
63182 63263
63263 63343
63343 63424
63424 63505
63505 63585
63585 63666
63666 63747
63747 63828
63828 63909
63909 63990
63990 64071
64071 64152
64152 64234
64234 64315
64315 64396
64396 64477
64477 64559
64559 64640
64640 64722
64722 64804
64804 64885
64885 64967
64967 65049
65049 65130
65130 65212
65212 65294
65294 65375
65375 65457
65457 65539
65539 65621
65621 65702
65702 65784
65784 65866
65866 65948
65948 66029
66029 66111
66111 66193
