4208 4288
10269 10348
10348 10427
10427 10507
10507 10586
10586 10665
10665 10744
10744 10824
10824 10904
10904 10984
10984 11063
11063 11143
11143 11223
11223 11303
11303 11383
11383 11463
11463 11543
11543 11623
11623 11704
11704 11784
11784 11864
11864 11944
11944 12024
12024 12104
12104 12184
12184 12264
12264 12344
12344 12424
12424 12504
12504 12584
12584 12664
12664 12744
12744 12824
12824 12904
12904 12984
12984 13064
13064 13144
13144 13224
13224 13304
13304 13384
13384 13463
13463 13543
13543 13623
13623 13703
13703 13782
13782 13862
13862 13942
13942 14022
14022 14101
14101 14181
14181 14261
14261 14341
14341 14420
14420 14500
14500 14579
14579 14659
14659 14738
14738 14818
14818 14897
14897 14976
14976 15056
15056 15135
15135 15215
15215 15294
15294 15373
15373 15452
15452 15531
15531 15610
15610 15689
15689 15769
15769 15848
15848 15927
15927 16006
16006 16085
16085 16164
16164 16243
16243 16322
16322 16401
16401 16480
16480 16559
16559 16638
16638 16717
16717 16797
16797 16876
16876 16955
16955 17034
17034 17113
17113 17192
17192 17271
17271 17350
17350 17429
17429 17508
17508 17587
17587 17666
17666 17744
17744 17824
17824 17902
17902 17981
17981 18060
18060 18139
18139 18217
18217 18296
18296 18375
18375 18454
18454 18532
18532 18612
18612 18691
18691 18770
18770 18849
18849 18929
18929 19008
19008 19087
19087 19166
19166 19245
19245 19324
19324 19403
19403 19482
19482 19561
19561 19640
19640 19719
19719 19797
19797 19877
19877 19956
19956 20035
20035 20115
20115 20194
20194 20273
20273 20353
20353 20432
20432 20512
20512 20591
20591 20671
20671 20751
20751 20831
20831 20911
20911 20990
20990 21070
21070 21149
21149 21229
21229 21308
21308 21387
21387 21467
21467 21546
21546 21625
21625 21704
21704 21783
21783 21862
21862 21942
21942 22021
22021 22095
22095 22174
22174 22253
22253 22331
22331 22410
22410 22488
22488 22567
22567 22645
22645 22724
22724 22802
22802 22881
22881 22959
22959 23037
23037 23116
23116 23194
23194 23273
23273 23351
23351 23429
23429 23507
23507 23639
23639 23718
23718 23797
23797 23875
23875 23954
23954 24032
24032 24111
24111 24190
24190 24269
24269 24347
24347 24426
24426 24505
24505 24583
24583 24662
24662 24741
24741 24819
24819 24898
24898 24976
24976 25055
25055 25134
25134 25212
25212 25291
25291 25370
25370 25449
25449 25527
25527 25606
25606 25684
25684 25763
25763 25841
25841 25919
25919 25998
25998 26076
26076 26154
26154 26234
26234 26310
26310 26388
26388 26466
26466 26545
26545 26623
26623 26701
26701 26779
26779 26857
26857 26936
26936 27014
27014 27092
27092 27170
27170 27248
27248 27326
27326 27404
27404 27482
27482 27560
27560 27638
27638 27716
27716 27794
27794 27872
27872 27950
27950 28028
28028 28106
28106 28184
28184 28262
28262 28340
28340 28418
28418 28496
28496 28574
28574 28653
28653 28731
28731 28861
28861 28939
28939 29018
29018 29096
29096 29175
29175 29253
29253 29331
29331 29410
29410 29488
29488 29567
29567 29645
29645 29723
29723 29802
29802 29881
29881 29959
29959 30037
30037 30116
30116 30194
30194 30273
30273 30351
30351 30430
30430 30508
30508 30586
30586 30665
30665 30743
30743 30821
30821 30899
30899 30977
30977 31056
31056 31134
31134 31213
31213 31292
31292 31371
31371 31450
31450 31529
31529 31608
31608 31689
31689 31770
31770 31850
31850 31906
31906 31988
31988 32069
32069 32150
32150 32231
32231 32312
32312 32393
32393 32474
32474 32555
32555 32636
32636 32717
32717 32798
32798 32879
32879 32960
32960 33040
33040 33120
33120 33201
33201 33281
33281 33362
33362 33441
33441 33522
33522 33602
33602 33682
33682 33762
33762 33842
33842 33922
33922 34003
34003 34083
34083 34163
34163 34243
34243 34323
34323 34403
34403 34482
34482 34562
34562 34641
34641 34721
34721 34800
34800 34880
34880 34960
34960 35040
35040 35120
35120 35201
35201 35281
35281 35362
35362 35442
35442 35522
35522 35602
35602 35683
35683 35763
35763 35842
35842 35922
35922 36002
36002 36082
36082 36161
36161 36242
36242 36322
36322 36403
36403 36483
36483 36563
36563 36643
36643 36723
36723 36803
36803 36883
36883 36962
36962 37042
37042 37121
37121 37201
37201 37280
37280 37359
37359 37438
37438 37517
37517 37596
37596 37674
37674 37753
37753 37832
37832 37912
37912 37991
37991 38071
38071 38150
38150 38229
38229 38308
38308 38387
38387 38467
38467 38546
38546 38625
38625 38704
38704 38784
38784 38863
38863 38943
38943 38997
38997 39079
39079 39159
39159 39239
39239 39319
39319 39399
39399 39479
39479 39559
39559 39639
39639 39720
39720 39800
39800 39881
39881 39962
39962 40043
40043 40123
40123 40204
40204 40284
40284 40365
40365 40445
40445 40524
40524 40605
40605 40686
40686 40766
40766 40847
40847 40927
40927 41008
41008 41089
41089 41169
41169 41249
41249 41329
41329 41411
41411 41490
41490 41569
41569 41650
41650 41730
41730 41809
41809 41889
41889 41969
41969 42048
42048 42128
42128 42206
42206 42285
42285 42364
42364 42442
42442 42520
42520 42598
42598 42652
42652 42730
42730 42808
42808 42887
42887 42965
42965 43044
43044 43122
43122 43201
43201 43280
43280 43358
43358 43437
43437 43516
43516 43595
43595 43673
43673 43751
43751 43829
43829 43907
43907 43985
43985 44063
44063 44141
44141 44219
44219 44297
44297 44374
44374 44451
44451 44529
44529 44606
44606 44683
44683 44760
44760 44837
44837 44914
