1147 1225
1225 1303
7980 8057
8057 8134
8134 8195
8428 8505
8505 8582
8582 8660
8660 8737
8737 8815
8815 8892
8892 8970
8970 9047
9047 9124
9124 9202
9202 9279
9279 9356
9356 9434
9434 9511
9511 9588
9588 9666
9666 9743
9743 9821
9821 9898
9898 9976
9976 10053
10053 10131
10131 10209
10209 10286
10286 10364
10364 10442
10442 10520
10520 10597
10597 10675
10675 10753
10753 10831
10831 10909
10909 10987
10987 11065
11065 11143
11143 11221
11221 11299
11299 11377
11377 11455
11455 11533
11533 11611
11611 11689
11689 11767
11767 11845
11845 11922
11922 12000
12000 12077
12077 12155
12155 12232
12232 12310
12310 12387
12387 12464
12464 12542
12542 12620
12620 12697
12697 12775
12775 12853
12853 12930
12930 13008
13008 13086
13086 13164
13164 13242
13242 13319
13319 13397
13397 13475
13475 13552
13552 13630
13630 13708
13708 13786
13786 13864
13864 13942
13942 14020
14020 14098
14098 14177
14177 14255
14255 14333
14333 14411
14411 14489
14489 14568
14568 14646
14646 14724
14724 14802
14802 14880
14880 14958
14958 15035
15035 15113
15113 15191
15191 15269
15269 15347
15347 15425
15425 15503
15503 15582
15582 15660
15660 15738
15738 15816
15816 15894
15894 15973
15973 16076
16076 16155
16155 16234
16234 16313
16313 16391
16391 16471
16471 16549
16549 16628
16628 16707
16707 16785
16785 16864
16864 16943
16943 17022
17022 17100
17100 17179
17179 17258
17258 17337
17337 17415
17415 17494
17494 17572
17572 17651
17651 17730
17730 17809
17809 17887
17887 17966
17966 18040
18040 18117
18117 18195
18195 18273
18273 18351
18351 18429
18429 18506
18506 18584
18584 18662
18662 18739
18739 18817
18817 18894
18894 18971
18971 19048
19048 19125
19125 19203
19203 19280
19280 19357
19357 19435
19435 19512
19512 19589
19589 19667
19667 19744
19744 19821
19821 19898
19898 19976
19976 20053
20053 20130
20130 20207
20207 20284
20284 20361
20361 20438
20438 20516
20516 20593
20593 20670
20670 20747
20747 20824
20824 20902
20902 20979
20979 21057
21057 21135
21135 21213
21213 21290
21290 21368
21368 21446
21446 21524
21524 21601
21601 21679
21679 21756
21756 21834
21834 21912
21912 21990
21990 22068
22068 22145
22145 22223
22223 22301
22301 22378
22378 22456
22456 22534
22534 22611
22611 22689
22689 22767
22767 22844
22844 22922
22922 22999
22999 23077
23077 23154
23154 23232
23232 23309
23309 23387
23387 23464
23464 23542
23542 23619
23619 23696
23696 23774
23774 23851
23851 23929
23929 24007
24007 24084
24084 24162
24162 24239
24239 24317
24317 24395
24395 24472
24472 24550
24550 24628
24628 24706
24706 24783
24783 24861
24861 24938
24938 25016
25016 25093
25093 25171
25171 25249
25249 25326
25326 25403
25403 25481
25481 25559
25559 25636
25636 25713
25713 25790
25790 25867
25867 25944
25944 26022
26022 26099
26099 26176
26176 26253
26253 26330
26330 26407
26407 26484
26484 26561
26561 26638
26638 26715
26715 26792
26792 26870
26870 26947
26947 27024
27024 27101
27101 27178
27178 27255
27255 27332
27332 27409
27409 27486
27486 27564
27564 27641
27641 27719
27719 27796
27796 27874
27874 27951
27951 28029
28029 28106
28106 28184
28184 28262
28262 28340
28340 28418
28418 28496
28496 28574
28574 28652
28652 28730
28730 28808
28808 28886
28886 28964
28964 29043
29043 29121
29121 29200
29200 29278
29278 29356
29356 29435
29435 29513
29513 29592
29592 29670
29670 29748
29748 29826
29826 29905
29905 29982
29982 30060
30060 30138
30138 30216
30216 30293
30293 30371
30371 30448
30448 30526
30526 30603
30603 30680
30680 30758
30758 30835
30835 30913
30913 30991
30991 31068
31068 31146
31146 31224
31224 31302
31302 31380
31380 31458
31458 31535
31535 31613
31613 31690
31690 31767
31767 31845
31845 31922
31922 31999
31999 32077
32077 32154
32154 32231
32231 32309
32309 32386
32386 32463
32463 32540
32540 32617
32617 32694
32694 32771
32771 32848
32848 32926
32926 33003
33003 33080
33080 33157
33157 33235
33235 33312
33312 33389
33389 33466
33466 33543
33543 33620
33620 33697
33697 33774
33774 33851
33851 33928
33928 34005
34005 34082
34082 34159
34159 34237
34237 34313
34313 34390
34390 34467
34467 34544
34544 34621
34621 34698
34698 34775
34775 34851
34851 34929
34929 35005
35005 35082
35082 35159
35159 35235
35235 35312
35312 35389
35389 35466
35466 35543
35543 35620
35620 35697
35697 35774
35774 35851
35851 35928
35928 36006
36006 36083
36083 36160
36160 36237
36237 36314
36314 36391
36391 36468
36468 36545
36545 36622
36622 36699
36699 36776
36776 36853
36853 36929
36929 37006
37006 37084
37084 37160
37160 37237
37237 37314
37314 37391
37391 37468
37468 37545
37545 37622
37622 37700
37700 37777
37777 37854
37854 37932
37932 38009
38009 38087
38087 38164
38164 38241
38241 38319
38319 38396
38396 38474
38474 38551
38551 38629
38629 38706
38706 38784
38784 38861
38861 38938
38938 39015
39015 39092
39092 39170
39170 39247
39247 39324
39324 39401
39401 39478
39478 39555
39555 39632
39632 39709
39709 39786
39786 39864
39864 39941
39941 40018
40018 40095
40095 40172
40172 40249
40249 40326
40326 40403
40403 40481
40481 40557
40557 40634
40634 40711
40711 40788
40788 40865
40865 40942
40942 41018
41018 41095
41095 41172
41172 41250
41250 41327
41327 41404
41404 41481
41481 41558
41558 41635
41635 41713
41713 41790
41790 41867
41867 41944
41944 42021
42021 42098
42098 42175
42175 42252
42252 42329
42329 42406
42406 42483
42483 42560
42560 42637
42637 42713
42713 42790
42790 42867
42867 42944
42944 43021
43021 43098
43098 43175
43175 43252
43252 43329
43329 43406
43406 43483
43483 43560
43560 43637
43637 43714
43714 43791
43791 43869
43869 43946
43946 44023
44023 44100
44100 44177
44177 44254
44254 44330
44330 44407
44407 44484
44484 44562
44562 44639
44639 44716
44716 44793
44793 44870
44870 44947
44947 45024
45024 45101
45101 45178
45178 45256
45256 45333
45333 45384
45384 45474
45474 45554
45554 45631
45631 45708
45708 45786
45786 45863
45863 45940
45940 46017
46017 46094
46094 46171
46171 46248
46248 46325
46325 46402
46402 46479
46479 46556
46556 46632
46632 46709
46709 46786
46786 46863
46863 46940
46940 47017
47017 47093
47093 47170
47170 47247
47247 47325
47325 47402
47402 47479
47479 47557
47557 47634
47634 47711
47711 47788
47788 47866
47866 47943
47943 48020
48020 48097
48097 48175
48175 48252
48252 48330
48330 48407
48407 48484
48484 48562
48562 48639
48639 48716
48716 48793
48793 48870
48870 48948
48948 49025
49025 49102
49102 49180
49180 49257
49257 49335
49335 49412
49412 49489
49489 49566
49566 49643
49643 49720
49720 49797
49797 49874
49874 49951
49951 50028
50028 50105
50105 50182
50182 50259
50259 50336
50336 50413
50413 50490
50490 50567
50567 50644
50644 50721
50721 50798
50798 50875
50875 50952
50952 51029
51029 51106
51106 51183
51183 51260
51260 51337
51337 51414
51414 51491
51491 51568
51568 51646
51646 51723
51723 51800
51800 51877
51877 51954
51954 52031
52031 52109
52109 52186
52186 52263
52263 52340
52340 52418
52418 52495
52495 52572
52572 52650
52650 52727
52727 52804
52804 52882
52882 52959
52959 53037
53037 53114
53114 53192
53192 53269
53269 53346
53346 53424
53424 53501
53501 53579
53579 53656
53656 53733
53733 53811
53811 53888
53888 53966
53966 54043
54043 54121
54121 54198
54198 54276
54276 54353
54353 54430
54430 54508
54508 54585
54585 54663
54663 54740
54740 54818
54818 54896
54896 54973
54973 55051
55051 55128
55128 55205
55205 55282
55282 55359
55359 55436
55436 55513
55513 55590
55590 55667
55667 55744
55744 55821
55821 55898
55898 55975
55975 56052
56052 56129
56129 56206
56206 56283
56283 56360
56360 56437
56437 56514
56514 56591
56591 56668
56668 56745
56745 56822
56822 56900
56900 56977
56977 57054
57054 57131
57131 57209
57209 57286
57286 57363
57363 57441
57441 57518
57518 57596
57596 57673
57673 57750
57750 57827
57827 57904
57904 57981
57981 58058
58058 58135
58135 58212
58212 58289
58289 58367
58367 58444
58444 58521
58521 58599
58599 58676
58676 58753
58753 58830
58830 58908
58908 58986
58986 59064
59064 59141
59141 59218
59218 59295
59295 59373
59373 59450
59450 59528
59528 59605
59605 59683
59683 59760
59760 59838
59838 59915
59915 59992
59992 60069
60069 60147
60147 60225
60225 60301
60301 60379
60379 60456
60456 60534
60534 60612
60612 60690
60690 60768
60768 60846
60846 60925
60925 61002
61002 61080
61080 61158
61158 61236
61236 61314
61314 61391
61391 61469
61469 61546
61546 61624
61624 61701
61701 61779
61779 61856
61856 61933
61933 62011
62011 62088
62088 62166
62166 62244
62244 62321
62321 62399
62399 62478
62478 62556
62556 62634
62634 62712
62712 62790
62790 62868
62868 62946
62946 63024
63024 63102
63102 63180
63180 63258
63258 63336
63336 63414
63414 63491
63491 63569
63569 63647
63647 63724
63724 63801
63801 63879
63879 63957
63957 64034
64034 64112
64112 64189
64189 64268
64268 64345
64345 64413
64413 64490
64490 64567
64567 64644
64644 64721
64721 64799
64799 64876
64876 64953
64953 65030
65030 65107
65107 65185
65185 65263
65263 65340
65340 65417
65417 65494
65494 65571
65571 65649
65649 65726
65726 65803
65803 65880
65880 65957
65957 66034
66034 66112
66112 66189
66189 66266
66266 66344
66344 66421
66421 66499
66499 66576
66576 66654
66654 66732
66732 66810
66810 66888
66888 66966
66966 67044
67044 67122
67122 67201
67201 67279
67279 67357
67357 67435
67435 67513
67513 67591
67591 67669
67669 67747
67747 67825
67825 67904
67904 67982
67982 68060
68060 68138
68138 68216
68216 68294
68294 68372
68372 68450
68450 68528
68528 68606
68606 68684
68684 68762
68762 68840
68840 68919
68919 68997
68997 69074
69074 69151
69151 69230
