4026 4134
4134 4217
6906 6986
9952 10033
10033 10115
19769 19850
19850 19930
19930 20066
20147 20283
20928 21032
21032 21112
28563 28618
28778 28858
28939 29019
29019 29099
29099 29179
29179 29260
29260 29340
29340 29420
29420 29500
29500 29580
29580 29661
29661 29741
29741 29821
29821 29901
29901 29982
29982 30062
30062 30142
30142 30223
30223 30303
30303 30384
30384 30464
30464 30544
30544 30625
30625 30705
30705 30786
30786 30866
30866 30946
30946 31026
31026 31109
31109 31189
31189 31270
31270 31351
31351 31432
31432 31512
31512 31593
31593 31674
31674 31755
31755 31836
31836 31916
31916 31997
31997 32078
32078 32159
32159 32240
32240 32320
32320 32402
32402 32483
32483 32563
32563 32644
32644 32725
32725 32806
32806 32887
32887 32967
32967 33048
33048 33129
33129 33210
33210 33290
33290 33371
33371 33452
33452 33533
33533 33613
33613 33694
33694 33775
33775 33856
33856 33936
33936 34017
34017 34098
34098 34179
34179 34259
34259 34339
34339 34420
34420 34501
34501 34581
34581 34662
34662 34743
34743 34824
34824 34905
34905 34985
34985 35065
35065 35147
35147 35227
35227 35308
35308 35389
35389 35471
35471 35552
35552 35633
35633 35713
35713 35794
35794 35876
35876 35957
35957 36037
36037 36118
36118 36199
36199 36281
36281 36362
36362 36442
36442 36523
36523 36604
36604 36658
36658 36756
36756 36837
36837 36919
36919 37000
37000 37081
37081 37162
37162 37243
37243 37324
37324 37405
37405 37486
37486 37567
37567 37648
37648 37729
37729 37811
37811 37891
37891 37972
37972 38053
38053 38134
38134 38215
38215 38296
38296 38377
38377 38458
38458 38539
38539 38620
38620 38701
38701 38782
38782 38863
38863 38944
38944 39025
39025 39107
39107 39188
39188 39269
39269 39350
39350 39432
39432 39514
39514 39595
39595 39676
39676 39757
39757 39795
39795 39877
39877 39958
39958 40039
40039 40121
40121 40202
40202 40283
40283 40364
40364 40445
40445 40526
40526 40607
40607 40687
40687 40767
40767 40848
40848 40929
40929 40984
40984 41065
41065 41145
41145 41226
41226 41307
41307 41388
41388 41468
41468 41549
41549 41630
41630 41711
41711 41792
41792 41873
41873 41954
41954 42036
42036 42089
42089 42187
42187 42269
42269 42351
42351 42432
42432 42512
42512 42593
42593 42674
42674 42755
42755 42835
42835 42915
42915 42996
42996 43077
43077 43157
43157 43238
