9949 10084
10084 10167
10167 10249
10249 10333
10333 10416
10416 10499
10499 10582
10582 10666
10666 10750
10750 10833
10833 10917
10917 11000
11000 11084
11084 11168
11168 11252
11252 11336
11336 11420
11420 11504
11504 11588
11588 11673
11673 11757
11757 11841
11841 11926
11926 12011
12011 12096
12096 12180
12180 12266
12266 12351
12351 12435
12435 12520
12520 12605
12605 12690
12690 12775
12775 12859
12859 12944
12944 13028
13028 13113
13113 13197
13197 13281
13281 13366
13366 13450
13450 13534
13534 13618
13618 13703
13703 13787
13787 13872
13872 13956
13956 14040
14040 14124
14124 14208
14208 14292
14292 14375
14375 14460
14460 14544
14544 14627
14627 14710
14710 14793
14793 14877
14877 14960
14960 15043
15043 15125
15125 15208
15208 15291
15291 15374
15374 15456
15456 15538
15538 15622
15622 15704
15704 15787
15787 15870
15870 15954
15954 16038
16038 16122
16122 16206
16206 16290
16290 16374
16374 16459
16459 16543
16543 16627
16627 16712
16712 16796
16796 16880
16880 16964
16964 17048
17048 17132
17132 17216
17216 17300
17300 17383
17383 17467
17467 17551
17551 17635
17635 17718
17718 17802
17802 17885
17885 17969
17969 18052
18052 18135
18135 18220
18220 18304
18304 18388
18388 18471
18471 18556
18556 18640
18640 18724
18724 18808
18808 18891
18891 18975
18975 19059
19059 19142
19142 19226
19226 19309
19309 19392
19392 19476
19476 19560
19560 19643
19643 19726
19726 19810
19810 19894
19894 19978
19978 20061
20061 20145
20145 20229
20229 20313
20313 20396
20396 20480
20480 20563
20563 20648
20648 20732
20732 20816
20816 20900
20900 20985
20985 21069
21069 21154
21154 21238
21238 21322
21322 21407
21407 21491
21491 21575
21575 21659
21659 21743
21743 21827
21827 21911
21911 21995
21995 22080
22080 22164
22164 22248
22248 22331
22331 22415
22415 22499
22499 22582
22582 22666
22666 22749
22749 22833
22833 22916
22916 22999
22999 23081
23081 23164
23164 23248
23248 23331
23331 23390
23390 23472
23472 23556
23556 23639
23639 23723
23723 23806
23806 23890
23890 23974
23974 24057
24057 24141
24141 24225
24225 24309
24309 24393
24393 24477
24477 24560
24560 24645
24645 24729
24729 24813
24813 24896
24896 24980
24980 25064
25064 25148
25148 25232
25232 25316
25316 25400
25400 25484
25484 25568
25568 25651
25651 25735
25735 25818
25818 25902
25902 25985
25985 26068
26068 26152
26152 26236
26236 26319
26319 26403
26403 26487
26487 26571
26571 26655
26655 26738
26738 26822
26822 26906
26906 26990
26990 27073
27073 27157
27157 27241
27241 27325
27325 27410
27410 27493
27493 27577
27577 27662
27662 27746
27746 27829
27829 27913
27913 27975
27975 28059
28142 28225
28225 28308
28308 28392
28392 28475
28475 28558
28558 28641
28641 28724
28724 28808
28808 28892
28892 28975
28975 29058
29058 29141
29141 29225
29225 29308
29308 29391
29391 29474
29474 29558
29558 29641
29641 29724
29724 29807
29807 29891
29891 29974
29974 30058
30058 30141
30141 30225
30225 30309
30309 30392
30392 30475
30475 30558
30558 30643
30643 30726
30726 30810
30810 30893
30893 30977
30977 31061
31061 31145
31145 31228
31228 31312
31312 31396
31396 31480
31480 31562
31562 31647
31647 31731
31731 31815
31815 31899
31899 31983
31983 32102
32102 32186
32186 32270
32270 32355
32355 32440
32440 32525
32525 32609
32609 32694
32694 32779
32779 32864
32864 32948
32948 33032
33032 33117
33117 33201
33201 33286
33286 33369
33369 33453
33453 33538
33538 33622
33622 33706
33706 33789
33789 33873
33873 33957
33957 34040
34040 34124
34124 34206
34206 34290
34290 34373
34373 34457
34457 34540
34540 34623
34623 34707
34707 34791
34791 34874
34874 34958
34958 35041
35041 35126
35126 35210
35210 35294
35294 35378
35378 35462
35462 35546
35546 35631
35631 35715
35715 35799
35799 35884
35884 35969
35969 36033
36033 36118
36118 36203
36203 36287
36287 36371
36371 36456
36456 36540
36540 36625
36625 36709
36709 36794
36794 36879
36879 36963
36963 37047
37047 37132
37132 37216
37216 37301
37301 37385
37385 37469
37469 37553
37553 37638
37638 37722
37722 37806
37806 37890
37890 37974
37974 38059
38059 38143
38143 38227
38227 38311
38311 38396
38396 38480
38480 38563
38563 38647
38647 38732
38732 38816
38816 38900
38900 38984
38984 39068
39068 39153
39153 39237
39237 39320
39320 39404
39404 39489
39489 39574
39574 39658
39658 39742
39742 39827
39827 39911
39911 39996
39996 40050
40050 40135
40135 40219
40219 40303
40303 40388
40388 40474
40474 40559
40559 40644
40644 40729
40729 40815
40815 40900
40900 40985
40985 41064
41064 41124
41124 41209
41209 41294
41294 41378
41378 41462
41462 41546
41546 41631
41631 41716
41716 41801
41801 41885
41885 41969
41969 42054
42054 42139
42139 42224
42224 42308
42308 42393
42393 42479
42479 42564
42564 42649
42649 42735
42735 42820
42820 42906
42906 42991
42991 43076
43076 43161
43161 43246
43246 43331
43331 43416
43416 43501
43501 43585
43585 43644
43644 43730
43730 43814
43814 43898
43898 43982
43982 44065
44065 44149
44149 44233
44233 44317
44317 44400
44400 44484
44484 44567
44567 44651
44651 44735
44735 44818
44818 44901
44901 44984
44984 45068
45068 45152
45152 45235
45235 45318
45318 45401
45401 45485
45485 45569
45569 45652
45652 45736
45736 45819
45819 45903
45903 45987
45987 46044
46044 46129
46129 46212
46212 46297
46297 46381
46381 46466
46466 46549
46549 46633
46633 46692
46692 46777
46777 46860
46860 46944
46944 47027
47027 47145
47145 47229
47229 47313
47313 47396
47396 47479
47479 47563
47563 47646
47646 47729
47729 47812
47812 47894
47894 47977
47977 48060
48060 48143
48143 48226
48226 48309
48309 48392
48392 48450
48450 48533
48533 48616
48616 48699
48699 48782
48782 48865
48865 48948
48948 49031
49031 49114
49114 49197
49197 49280
49280 49364
49364 49447
49447 49529
49529 49613
49613 49697
49697 49779
49779 49862
49862 49944
49944 50028
50028 50111
50111 50194
50194 50276
50276 50359
50359 50443
50443 50526
50526 50609
50609 50691
50691 50775
50775 50858
50858 50941
50941 51024
51024 51107
51107 51191
51191 51275
51275 51357
51357 51440
51440 51523
51523 51606
51606 51689
51689 51772
51772 51854
51854 51937
51937 52020
52020 52103
52103 52186
52186 52269
52269 52352
52352 52435
52435 52518
52518 52601
52601 52683
52683 52767
52767 52850
52850 52934
52934 53016
53016 53100
53100 53183
53183 53267
53267 53350
53350 53432
53432 53516
53516 53599
53599 53682
53682 53764
53764 53847
53847 53930
53930 54013
54013 54096
54096 54178
54178 54261
54261 54344
54344 54427
54427 54510
54510 54592
54592 54675
54675 54758
54758 54841
54841 54924
54924 55006
55006 55090
55090 55173
55173 55256
55256 55339
55339 55422
55422 55506
55506 55589
55589 55672
55672 55755
55755 55837
55837 55921
55921 56003
56003 56086
56086 56168
56168 56251
56251 56334
56334 56416
56416 56499
56499 56580
56580 56663
56663 56746
56746 56829
56829 56911
56911 56993
56993 57076
57076 57159
57159 57241
57241 57323
57323 57406
