200 320
923 1075
923 1075
1883 1997
1997 2078
2429 2545
2545 2663
2663 2781
2781 2898
2898 3008
4204 4321
4321 4434
4434 4517
5208 5324
5324 5436
5998 6127
6362 6478
7906 8029
8029 8078
8426 8547
8547 8664
11342 11463
11463 11583
11583 11676
12405 12521
12521 12637
12637 12754
12754 12869
13222 13347
13347 13440
13916 14029
14029 14113
14931 15108
15575 15695
15695 15810
15810 15927
15927 16020
16483 16597
16597 16706
20646 20767
20767 20889
20889 21013
21013 21106
21920 22025
22025 22070
22303 22421
22421 22536
23779 23896
23896 24007
24007 24103
24469 24589
24589 24680
27629 27858
27858 27973
27973 28090
28090 28210
28210 28332
28332 28450
28450 28567
28567 28685
28685 28805
28805 28925
28925 29043
29043 29164
29164 29286
29286 29407
29407 29500
29500 29618
29618 29733
29733 29848
29848 29954
29954 30064
30064 30180
30180 30299
30299 30416
30416 30620
30620 30735
30735 30850
30850 30958
30958 31094
31094 31214
31214 31333
31333 31445
31445 31559
31559 31668
31668 31777
31777 31882
31882 31993
31993 32113
32113 32231
32231 32348
32348 32467
32467 32584
32584 32703
32703 32787
32787 32901
32901 33019
33019 33134
33134 33245
33245 33360
33360 33480
33480 33605
33605 33726
33726 33848
33848 33968
33968 34087
34087 34204
34204 34325
34325 34443
34443 34567
34567 34686
34686 34804
34804 34918
34918 35036
35036 35154
35154 35269
35269 35383
35383 35501
35501 35621
35621 35739
35739 35852
35852 35965
35965 36082
36082 36199
36199 36308
36308 36419
36419 36526
36526 36633
36633 36736
36736 36843
36843 36956
36956 37075
37075 37195
37195 37284
37284 37398
37398 37512
37512 37621
37621 37725
37725 37832
37832 37946
37946 38063
38063 38173
38173 38285
38285 38398
38398 38514
38514 38625
38625 38739
38739 38846
38846 38953
38953 39115
39115 39227
39227 39340
39340 39451
39451 39559
39559 39678
39678 39795
39795 39909
39909 40022
40022 40140
40140 40254
40254 40366
40366 40473
40473 40589
40589 40705
40705 40816
40816 40930
40930 41045
41045 41159
41159 41272
41272 41378
41378 41486
41486 41594
41594 41708
41708 41818
41818 41928
41928 42039
42039 42156
42156 42271
42271 42384
42384 42472
42472 42590
42590 42706
42706 42816
42816 42923
42923 43040
43040 43155
43155 43265
43265 43372
43372 43485
43485 43600
43600 43712
43712 43825
43825 43942
43942 44055
44055 44166
44166 44275
44275 44389
44389 44504
44504 44615
44615 44727
44727 44842
44842 44959
44959 45076
45076 45189
45189 45301
45301 45410
45410 45523
45523 45634
45634 45749
45749 45868
45868 45988
45988 46105
46105 46224
46224 46338
46338 46449
46449 46556
46556 46658
46658 46764
46764 46874
46874 46989
46989 47102
47102 47213
47213 47329
47329 47449
47449 47561
47561 47672
47672 47783
47783 47893
47893 48005
48005 48115
48115 48224
48224 48335
48335 48445
48445 48553
48553 48665
48665 48781
48781 48899
48899 49013
49013 49058
49058 49169
49169 49278
49278 49386
49386 49494
49494 49602
49602 49711
49711 49817
49817 49924
49924 50033
50033 50141
50141 50249
50249 50351
50351 50458
50458 50568
50568 50684
50684 50796
50796 50912
50912 51022
51022 51132
51132 51242
51242 51467
51467 51701
51701 51816
51816 51932
51932 52081
52081 52204
52204 52323
52323 52440
52440 52551
52551 52666
52666 52780
52780 52898
52898 53015
53015 53131
53131 53249
53249 53367
53367 53599
53599 53714
53714 53827
