2927 3013
3013 3062
9981 10040
10923 11003
11003 11117
19956 20059
20059 20149
20149 20227
21940 22023
22023 22134
22134 22217
22217 22297
22297 22378
22378 22458
22458 22539
22539 22623
22623 22705
22705 22786
22786 22870
22870 22953
22953 23028
23028 23099
23099 23178
23178 23255
23255 23330
23330 23411
23411 23492
23492 23572
23572 23649
23649 23727
23727 23807
23807 23884
