102 143
143 239
239 289
480 520
520 589
589 716
716 775
775 903
903 1002
1002 1056
1056 1152
1152 1242
1242 1330
1330 1370
1370 1437
1437 1533
1533 1625
1625 1713
1713 1754
1754 1822
1822 1949
1949 2010
2010 2099
2099 2143
2143 2206
2206 2306
2306 2389
2389 2431
2431 2529
2529 2595
2595 2724
2724 2779
2779 2822
2822 2916
2916 2985
2985 3115
3115 3239
3239 3291
3291 3333
3333 3399
3399 3495
3495 3576
3576 3620
3620 3670
3670 3714
3714 3808
3808 3875
3875 3966
3966 4003
4003 4054
4054 4162
4162 4287
4287 4350
4350 4387
4387 4439
4439 4481
4481 4547
4547 4643
4643 4770
4770 4864
4864 4931
4931 5029
5029 5078
5078 5180
5180 5274
5274 5310
5310 5405
5405 5467
5467 5559
5559 5687
5687 5784
5784 5848
5848 5934
5934 6030
6030 6077
6077 6118
6118 6217
6217 6281
6281 6378
6378 6462
6462 6598
6598 6695
6695 6795
6795 6848
6848 6956
6956 7113
7113 7223
7223 7348
7348 7400
7400 7442
7442 7495
7495 7610
7610 7740
7740 7796
7796 7837
7837 7906
7906 8006
8006 8177
8177 8275
8275 8366
8366 8428
8428 8558
8558 8654
8654 8721
8721 8804
8804 8847
8847 8940
8940 9005
9005 9064
9064 9156
9156 9250
9250 9301
9301 9393
9393 9435
9435 9529
9529 9622
9622 9679
9679 9803
9803 9897
9897 9961
9961 10045
10045 10120
10120 10245
10245 10341
10341 10398
10398 10434
10434 10492
