1908 2007
2007 2057
2183 2284
4412 4515
4515 4593
5913 6020
6020 6086
7097 7198
8969 9112
10890 10989
10989 11089
11889 11990
11990 12060
12258 12357
12559 12659
12659 12760
14941 15124
16934 17030
17030 17093
17888 17990
17990 18053
