907 1014
1014 1089
1891 2103
2202 2302
2302 2402
2402 2502
2502 2602
2602 2703
2703 2803
2803 2903
2903 3002
3002 3102
3102 3201
3201 3300
3300 3398
3398 3498
3498 3597
3597 3696
3696 3795
3795 3894
3894 3994
3994 4094
4094 4194
4194 4294
4294 4394
4394 4495
4495 4596
4596 4696
4696 4796
4796 4898
4898 5000
5000 5101
5101 5202
5202 5303
5303 5405
5405 5506
5506 5608
5608 5708
5708 5811
5811 5912
6014 6055
6055 6159
6159 6262
6262 6364
6364 6467
6467 6571
6571 6674
