523 591
591 717
717 847
847 1087
1087 1275
1275 1405
1405 1660
1660 1792
1792 1856
1856 1892
1892 2097
2097 2160
2160 2290
2290 2416
2416 2545
2545 2609
2609 2674
2674 2736
2736 2863
2863 2918
2918 3058
3058 3374
3374 3502
3502 3570
3570 3759
3759 3890
3890 3990
3990 4118
4118 4224
4224 4348
4348 4605
4605 4734
4734 4859
4859 4986
4986 5177
5177 5241
5241 5563
5563 5814
5814 5945
5945 6006
6006 6199
6199 6263
6263 6327
6327 6396
6396 6583
6583 6713
6713 6841
6841 6905
6905 7009
7009 7071
7071 7265
7265 7393
7393 7584
7584 7765
7765 7838
7838 7967
7967 8030
8030 8087
8087 8214
8214 8273
8273 8694
8694 9464
9464 9594
9594 9723
9723 9978
9978 10165
10165 10228
10228 10354
10354 10675
10675 10928
10928 10995
10995 11441
11441 11507
11507 11637
11637 11696
11696 11830
11830 11954
11954 12212
12212 12346
12346 12407
12407 12728
12728 12793
12793 12845
12845 12918
12918 13110
13110 13302
13302 13365
13365 13427
13427 13555
13555 13619
13619 13745
13745 13810
13810 13871
13871 13937
13937 14251
14251 14945
14945 15151
15151 15225
15225 15288
15288 15471
15471 15544
15544 15607
15607 15675
15675 15800
15800 15926
15926 16058
16058 16249
16249 16563
16563 16663
16663 16792
16792 16854
16854 17108
17108 17237
17237 17302
17302 17427
17427 17806
17806 17869
17869 17999
17999 18170
18170 18424
18424 18682
18682 18936
18936 19255
19255 19761
19761 20156
20156 20223
20223 20287
20287 20415
20415 20470
20470 20545
20545 20672
20672 20966
20966 21095
21095 21156
21156 21222
21222 21539
21539 21605
21605 21669
21669 21729
21729 21793
21793 21919
21919 22045
22045 22172
22172 22225
22225 22488
22488 22678
22678 22869
22869 23114
23114 23240
23240 23499
23499 23630
23630 23757
23757 24019
24019 24498
24498 25103
25103 25744
25744 26356
26356 26931
