585 671
671 757
757 844
844 931
931 1017
1017 1134
1134 1220
1220 1307
1307 1394
1394 1482
1482 1569
1569 1657
1657 1744
1744 1832
1832 1919
1919 2007
2007 2066
2066 2152
2240 2327
2327 2414
2414 2501
2501 2588
2588 2676
2676 2763
2763 2852
2852 2940
2940 3027
3027 3116
3116 3204
3204 3292
3292 3381
3381 3470
3470 3558
3558 3647
3647 3736
3736 3825
3825 3915
3915 4004
4004 4105
4105 4194
4194 4283
4283 4373
4373 4462
4462 4552
4552 4642
4642 4732
4732 4823
4823 4913
4913 5003
5003 5093
5093 5183
5183 5273
5273 5363
5363 5453
5453 5542
5542 5631
5631 5719
5719 5808
5808 5896
5896 5984
5984 6072
6072 6160
6160 6248
6248 6336
6336 6423
6423 6511
6511 6599
6599 6688
6688 6776
6776 6865
6865 6954
6954 7042
7042 7131
7131 7219
7219 7308
7308 7397
7397 7485
7485 7573
7573 7663
7663 7752
7752 7841
7841 7931
7931 8020
8020 8109
8109 8198
8198 8287
8287 8376
8376 8465
8465 8554
8554 8642
8642 8730
8730 8817
8817 8905
8905 8993
8993 9081
9081 9146
9146 9245
9245 9335
9335 9425
9425 9515
9515 9605
9605 9694
9694 9784
9784 9874
9874 9964
9964 10054
10054 10144
10144 10233
10233 10323
10323 10414
10414 10504
10504 10594
10594 10684
10684 10774
10774 10864
10864 10954
10954 11045
11045 11135
11135 11226
11226 11317
11317 11408
11408 11499
11499 11590
11590 11681
11681 11771
11771 11862
11862 11953
11953 12043
12043 12134
12134 12224
12224 12315
12315 12406
12406 12497
12497 12588
12588 12679
12679 12771
12771 12839
12839 12930
12930 13021
13021 13113
13113 13204
13204 13295
13295 13386
13386 13478
13478 13569
13569 13661
13661 13752
13752 13844
13844 13936
13936 14029
14029 14121
14121 14214
14214 14306
14306 14398
14398 14490
14490 14581
14581 14673
14673 14764
14764 14857
14857 14948
14948 15040
15040 15132
15132 15224
15224 15316
15316 15407
15407 15499
15499 15591
15591 15682
15682 15773
15773 15864
15864 15956
15956 16047
16047 16138
16138 16230
16230 16321
16321 16412
16412 16502
16502 16593
16593 16683
16683 16774
16774 16864
16864 16955
16955 17046
17046 17137
17137 17229
17229 17320
17320 17412
17412 17503
17503 17594
17594 17685
17685 17776
17776 17867
17867 17959
17959 18051
18051 18143
18143 18236
18236 18329
18329 18421
18421 18514
18514 18607
18607 18700
18700 18793
18793 18886
18886 18979
18979 19072
19072 19165
19165 19258
19258 19351
19351 19444
19444 19536
19536 19628
19628 19720
19720 19811
19811 19903
19903 19996
19996 20088
20088 20180
20180 20272
20272 20365
20365 20457
20457 20550
20550 20643
20643 20735
20735 20828
20828 20920
20920 20992
20992 21084
21084 21177
21177 21269
21269 21362
21362 21456
21456 21549
21549 21642
21642 21735
21735 21828
21828 21921
21921 22014
22014 22133
22133 22227
22227 22321
22321 22416
22416 22509
22509 22603
22603 22697
22697 22791
22791 22884
22884 22977
22977 23070
23070 23164
23164 23258
23258 23352
23352 23446
23446 23541
23541 23613
23613 23708
23708 23801
23801 23894
23894 23988
23988 24085
24085 24179
24179 24274
24274 24348
24348 24421
24421 24516
24516 24683
24683 24778
24778 24851
24851 24989
24989 25127
25127 25201
25201 25275
25275 25348
25348 25421
25421 25516
25516 25591
25591 25802
25802 25875
25875 26081
26081 26429
26429 26775
26775 26848
26775 26848
26848 26920
26920 27132
27132 27206
27206 27486
27486 27560
27560 27766
27766 27839
