50 173
173 410
410 487
487 641
641 723
723 800
800 956
956 1035
1035 1112
1112 1189
1189 1270
1270 1347
1347 1459
1459 1581
1581 1657
1657 1739
1739 1970
1970 2049
2049 2126
2126 2205
2205 2282
2282 2359
2359 2515
2515 2592
2592 2669
2669 2747
2747 2825
2825 2904
2904 2981
2981 3061
3061 3140
3140 3219
3219 3292
3292 3456
3456 3529
3529 3606
3606 3683
3683 3919
3919 4029
4029 4074
4074 4154
4154 4235
4235 4391
4391 4470
4470 4550
4550 4626
4626 4785
4785 4866
4866 4945
4945 5062
5062 5182
5182 5343
5343 5426
5426 5501
5501 5657
5657 5737
5737 5815
5815 5897
5897 5975
5975 6213
6213 6292
6292 6370
6370 6448
6448 6604
6604 6688
6688 6763
6763 6920
6920 6998
6998 7077
7077 7235
7235 7314
7314 7391
7391 7471
7471 7629
7629 7708
7708 7787
7787 7864
7864 8181
8181 8258
8258 8335
8335 8491
8491 8569
8569 8726
8726 8803
8803 9040
9040 9115
9115 9192
9192 9270
9270 9426
9426 9504
9504 9581
9581 9661
9661 9740
9740 9817
9817 9927
9927 9973
9973 10129
10129 10208
10208 10363
10363 10440
10440 10517
10517 10596
10596 10829
10829 10906
10906 10987
10987 11062
11062 11141
11141 11218
11218 11295
11295 11374
11374 11454
11454 11531
11531 11610
11610 11724
11724 11843
11843 11922
11922 12001
12001 12080
12080 12132
12132 12211
12211 12290
12290 12370
12370 12451
12451 12528
12528 12686
12686 12765
12765 12846
12846 12926
12926 13084
13084 13163
13163 13321
13321 13402
13402 13559
13559 13717
13717 13796
13796 13875
13875 14033
14033 14271
14271 14348
14348 14427
14427 14506
14506 14664
14664 14743
14743 14983
14983 15062
15062 15377
15377 15456
15456 15537
15537 15616
15616 15695
15695 15776
15776 16170
16170 16251
16251 16330
16330 16408
16408 16489
16489 16649
16649 16728
16728 16807
16807 16965
16965 17046
17046 17205
17205 17442
17442 17523
17523 17605
17605 17682
17682 17840
17840 17919
17919 18029
18029 18078
18078 18156
18156 18235
18235 18315
18315 18475
18475 18552
18552 18633
18633 18790
18790 18871
18871 18952
18952 19062
19062 19189
19189 19268
19268 19506
19506 19585
19585 19666
19666 19823
19823 19902
19902 19981
19981 20141
20141 20220
20220 20297
20297 20381
20381 20457
20457 20534
20534 20693
20693 20772
20772 20851
20851 20930
20930 21088
21088 21167
21167 21247
21247 21357
21357 21486
21486 21570
21570 21649
21649 21728
21728 21807
21807 21888
21888 22048
22048 22127
22127 22213
22213 22288
22288 22369
22369 22446
22446 22686
22686 22765
22765 22844
22844 23000
23000 23111
23111 23238
23238 23317
23317 23397
23397 23633
23633 23714
23714 23870
23870 23950
23950 24035
24035 24110
24110 24187
24187 24266
24266 24345
24345 24426
24426 24506
24506 24585
24585 24664
24664 24743
24743 24822
24822 24901
24901 24980
24980 25062
25062 25139
25139 25218
25218 25380
25380 25459
25459 25538
25538 25620
25620 25778
25778 25859
25859 25938
25938 26017
26017 26096
26096 26255
26255 26334
26334 26413
26413 26573
26573 26654
26654 26734
26734 26812
26812 26892
26892 26971
26971 27050
27050 27129
27129 27290
27290 27448
27448 27527
27527 27687
27687 27764
27764 27845
27845 27923
27923 28004
28004 28481
28481 28562
28562 28641
28641 28720
28720 28960
28960 29039
29039 29118
29118 29195
29195 29276
29276 29353
29353 29430
29430 29507
29507 29584
29584 29661
29661 29740
29740 29817
29817 29896
29896 29972
29972 30050
30050 30128
30128 30205
30205 30363
30363 30440
30440 30519
30519 30675
30675 30754
30754 30831
30831 30986
30986 31065
31065 31142
31142 31221
31221 31298
31298 31376
31376 31454
31454 31610
31610 31689
31689 31767
31767 32000
32000 32081
32081 32232
32232 32308
32308 32385
32385 32462
32462 32541
32541 32616
32616 32693
32693 32920
32920 33147
33147 33299
33299 33376
33376 33453
33453 33605
33605 33682
33682 33834
33834 33913
33913 33989
33989 34068
34068 34147
34147 34222
34222 34378
34378 34457
34457 34534
34534 34613
34613 34690
34690 34765
34765 34844
34844 34924
34924 35030
35030 35124
35124 35199
35199 35355
35355 35434
35434 35510
35510 35588
35588 35744
35744 35822
35822 36055
36055 36165
36165 36213
36213 36290
36290 36448
36448 36524
36524 36603
36603 36756
36756 36834
36834 36989
36989 37066
37066 37142
37142 37219
37219 37296
37296 37373
37373 37450
37450 37605
37605 37683
37683 37837
37837 37916
37916 37994
37994 38075
38075 38148
38148 38227
38227 38308
38308 38543
38543 38621
38621 38777
38777 38854
38854 38933
38933 39010
39010 39085
39085 39243
39243 39398
39398 39477
39477 39554
39554 39631
39631 39710
39710 39787
39787 39866
39866 39943
39943 40023
40023 40101
40101 40180
40180 40260
40260 40337
40337 40416
40416 40574
40574 40651
40651 40730
40730 40807
40807 40886
40886 40964
40964 41043
41043 41122
41122 41201
41201 41278
41278 41357
41357 41434
41434 41513
41513 41670
41670 41749
41749 41828
41828 41905
41905 41984
41984 42143
42143 42222
42222 42298
42298 42377
42377 42457
42457 42536
42536 42615
42615 42773
42773 42853
42853 42932
42932 43010
43010 43092
43092 43169
43169 43248
43248 43325
43325 43404
43404 43481
43481 43561
43561 43640
43640 43748
43748 43796
43796 43872
43872 43952
43952 44110
44110 44189
44189 44423
44423 44499
44499 44577
44577 44708
44708 44788
44788 44866
44866 45022
45022 45101
45101 45180
45180 45259
45259 45345
45345 45495
45495 45734
45734 45812
45812 45890
45890 46047
46047 46124
46124 46202
46202 46284
46284 46359
46359 46438
46438 46515
46515 46671
46671 46749
46749 46826
46826 46905
46905 46984
46984 47140
47140 47219
47219 47332
47332 47453
47453 47534
47534 47609
47609 47690
47690 47765
47765 47844
47844 47952
47952 48079
48079 48233
48233 48312
48312 48550
48550 48625
48625 48706
48706 48783
48783 48939
48939 49016
49016 49173
49173 49254
49254 49331
49331 49489
49489 49556
49556 49643
49643 49722
49722 49801
49801 49956
49956 50035
50035 50112
50112 50193
50193 50268
50268 50346
50346 50426
50426 50582
50582 50661
50661 50739
50739 50816
50816 50974
50974 51051
51051 51130
51130 51207
51207 51287
51287 51365
51365 51442
51442 51522
51522 51601
51601 51834
51834 51915
51915 51994
51994 52074
52074 52153
52153 52234
52234 52311
52311 52390
52390 52469
52469 52704
52704 52783
52783 52861
