1114 1246
1246 1311
1311 1378
1378 2449
2449 2582
2582 2648
2648 2907
2907 2972
2972 3214
3214 3280
3280 3676
3676 3742
3742 3997
3997 4094
4094 4160
4160 4227
4227 5019
5019 5586
5586 6203
6203 6530
6530 8238
8238 8304
8304 8470
8470 8536
8536 8601
8601 8665
8665 8732
8732 8798
8798 8933
8933 9000
9000 9066
9066 9133
9133 9200
9200 11932
11932 12960
12960 13029
13029 13098
13098 13167
13167 13306
13306 13375
13375 13583
13583 13723
13723 13862
13862 14002
14002 14142
14142 14212
14212 14633
14633 15268
15268 15622
15622 15693
15693 15764
15764 15835
15835 16614
16614 16684
16684 16755
16755 17463
17463 17534
17534 17677
17677 17748
17748 17892
17892 18035
18035 18179
18179 18323
18323 18467
18467 18540
18540 18612
18612 18756
18756 18829
18829 19046
19046 19119
19119 19335
19335 19408
19408 19481
19481 19697
19697 19914
19914 19987
19987 20070
20070 20131
20131 20203
20203 20493
20493 20783
20783 20856
20856 20928
20928 20970
20970 21364
21364 21872
21872 22017
22017 22163
22163 22308
22308 22526
22526 22599
22599 22744
22744 22817
22817 23108
23108 23181
23181 23255
23255 23473
23473 23546
23546 23619
23619 23692
23692 23765
23765 24128
24128 24200
24200 24490
24490 24634
24634 24707
24707 25140
25140 25427
25427 25500
25500 25572
25572 25644
25644 26005
26005 26078
26078 26294
26294 26366
26366 26510
26510 26583
26583 26871
26871 26943
26943 27015
27015 27377
27377 27450
27450 27743
27743 27964
27964 28185
28185 28333
28333 28481
28481 28628
28628 28777
28777 28851
28851 29074
29074 29522
29522 29824
29824 29899
29899 29974
29974 30049
30049 30126
30126 30164
30164 30201
30201 30353
30353 30428
30428 30541
30541 30580
30580 30732
30732 30808
30808 30960
30960 31112
31112 31188
31188 31264
31264 31416
31416 31568
31568 31645
31645 31797
31797 31872
31872 31947
31947 32024
32024 32099
32099 32326
32326 32401
32401 32476
32476 32551
32551 32626
32626 32701
32701 32776
32776 32851
32851 32926
32926 33001
33001 33078
33078 33153
33153 33228
33228 33303
33303 33378
33378 33455
33455 33530
33530 33605
33605 33682
33682 33757
33757 33832
33832 33909
33909 33985
33985 34061
34061 34137
34137 34289
34289 34365
34365 34441
34441 34518
34518 34745
34745 34821
34821 34897
34897 34974
34974 35126
35126 35355
35355 35432
35432 35509
35509 35739
35739 35816
35816 35893
35893 35970
35970 36047
36047 36430
36430 36507
36507 36584
36584 36661
36661 36738
36738 36815
36815 36893
36893 37276
37276 37353
37353 37811
37811 38117
38117 38194
38194 38424
38424 38501
38501 38577
38577 38654
38654 38732
38732 40119
40119 40427
40427 40504
40504 40582
40582 40659
40659 40812
40812 40890
40890 41044
41044 41122
41122 41431
41431 41508
41508 41585
41585 41972
41972 42049
42049 42901
42901 42978
42978 43365
43365 43443
43443 43830
43830 44296
44296 44374
44374 44686
44686 44842
44842 45233
45233 45468
45468 45704
45704 46175
46175 46254
46254 47118
47118 47197
47197 47590
47590 48535
48535 48614
48614 49007
49007 49401
49401 49794
49794 50448
50448 50525
50525 50602
