5 246
246 329
329 412
412 494
494 742
742 825
825 908
908 991
991 1240
1240 1323
1323 1406
1406 1489
1489 1572
1572 1654
1654 1820
1820 1902
1902 2067
2067 2149
2149 2232
2232 2314
2314 2396
2396 2560
2560 2643
2643 2725
2725 2808
2808 2890
2890 3055
3055 3138
3138 3221
3221 3305
3305 3554
3554 3637
3637 3721
3721 3804
3804 3969
3969 4052
4052 4135
4135 4217
4217 4300
4300 4382
4382 4464
4464 4547
4547 4629
4629 4712
4712 4877
4877 4960
4960 5042
5042 5125
5125 5208
5208 5373
5373 5538
5538 5621
5621 5867
5867 5950
5950 6032
6032 6114
6114 6278
6278 6360
6360 6442
6442 6524
6524 6606
6606 6770
6770 6853
6853 6935
6935 7018
7018 7100
7100 7264
7264 7346
7346 7428
7428 7511
7511 7675
7675 7757
7757 7840
7840 7923
7923 8006
8006 8254
8254 8337
8337 8420
8420 8504
8504 8753
8753 8836
8836 8919
8919 9167
9167 9250
9250 9333
9333 9416
9416 9664
9664 9746
9746 9829
9829 9911
9911 10158
10158 10240
10240 10323
10323 10570
10570 10653
10653 10736
10736 10819
10819 11067
11067 11150
11150 11233
11233 11317
11317 11651
11651 11734
11734 11985
11985 12069
12069 12153
12153 12236
12236 12403
12403 12486
12486 12569
12569 12652
12652 12734
12734 12815
12815 12896
12896 12978
12978 13059
13059 13139
13139 13220
13220 13300
13300 13380
13380 13460
13460 13541
13541 13622
13622 13703
13703 13783
13783 13864
13864 13946
13946 14027
14027 14109
14109 14190
14190 14271
14271 14353
14353 14435
14435 14517
14517 14599
14599 14680
14680 14762
14762 14844
14844 14926
14926 15009
15009 15092
15092 15174
15174 15257
15257 15340
15340 15424
15424 15507
15507 15590
15590 15673
15673 15756
15756 15840
15840 15923
15923 16007
16007 16090
16090 16173
16173 16257
16257 16340
16340 16424
16424 16507
16507 16590
16590 16673
16673 16756
16756 16839
16839 16922
16922 17005
17005 17087
17087 17170
17170 17253
17253 17336
17336 17418
17418 17500
17500 17583
17583 17666
17666 17748
17748 17831
17831 17913
17913 17995
17995 18078
18078 18161
18161 18243
18243 18326
18326 18409
18409 18491
18491 18574
18574 18656
18656 18739
18739 18822
18822 18904
18904 18987
18987 19070
19070 19153
19153 19236
19236 19319
19319 19401
19401 19483
19483 19566
19566 19649
19649 19731
19731 19814
19814 19896
19896 19979
19979 20061
20061 20144
20144 20226
20226 20309
20309 20391
20391 20474
20474 20557
20557 20641
20641 20724
20724 20806
20806 20890
20890 20974
20974 21057
21057 21141
21141 21224
21224 21308
21308 21391
21391 21475
21475 21558
21558 21641
21641 21724
21724 21807
21807 21889
21889 21972
21972 22055
22055 22137
22137 22219
22219 22302
22302 22384
22384 22467
22467 22550
22550 22632
22632 22715
22715 22798
22798 22881
22881 22964
22964 23047
23047 23130
23130 23213
23213 23296
23296 23379
23379 23463
23463 23546
23546 23629
23629 23712
23712 23795
23795 23878
23878 23962
23962 24045
24045 24128
24128 24211
24211 24295
24295 24378
24378 24462
24462 24545
24545 24629
24629 24713
24713 24797
24797 24881
24881 24965
24965 25048
25048 25132
25132 25216
25216 25299
25299 25383
25383 25466
25466 25549
25549 25633
25633 25716
25716 25800
25800 25883
25883 25965
25965 26049
26049 26132
26132 26215
26215 26299
26299 26382
26382 26465
26465 26549
26549 26632
26632 26716
26716 26799
26799 26881
26881 26965
26965 27048
27048 27131
27131 27214
27214 27297
27297 27380
27380 27463
27463 27546
27546 27629
27629 27713
27713 27795
27795 27878
27878 27961
27961 28045
28045 28128
28128 28212
28212 28295
28295 28378
28378 28462
28462 28546
28546 28629
28629 28713
28713 28796
28796 28879
28879 28962
28962 29046
29046 29129
29129 29212
29212 29294
29294 29377
29377 29461
29461 29544
29544 29627
29627 29709
29709 29792
29792 29875
29875 29957
29957 30040
30040 30122
30122 30203
30203 30285
30285 30368
30368 30450
30450 30533
30533 30615
30615 30698
30698 30781
30781 30864
30864 30948
30948 31031
31031 31114
31114 31198
31198 31281
31281 31365
31365 31448
31448 31531
31531 31614
31614 31697
31697 31780
31780 31863
31863 31946
31946 32028
32028 32110
32110 32193
32193 32275
32275 32358
32358 32440
32440 32522
32522 32604
32604 32687
32687 32770
32770 32853
32853 32936
32936 33019
33019 33103
33103 33186
33186 33270
33270 33354
33354 33437
33437 33520
33520 33604
33604 33688
33688 33772
33772 33855
33855 33938
33938 34022
34022 34106
34106 34189
34189 34273
34273 34356
34356 34439
34439 34522
34522 34605
34605 34688
34688 34771
34771 34853
34853 34936
34936 35020
35020 35103
35103 35187
35187 35271
35271 35354
35354 35438
35438 35522
35522 35606
35606 35689
35689 35772
35772 35855
35855 35937
35937 36019
36019 36100
36100 36181
36181 36261
36261 36341
36341 36421
36421 36501
36501 36581
36581 36661
36661 36740
36740 36819
36819 36899
36899 36979
36979 37058
37058 37138
37138 37217
37217 37296
37296 37376
37376 37456
37456 37536
37536 37617
37617 37696
37696 37776
37776 37857
37857 37937
37937 38018
38018 38098
38098 38178
38178 38259
38259 38339
38339 38420
38420 38501
38501 38582
38582 38662
38662 38744
38744 38825
38825 38906
38906 38988
38988 39069
39069 39151
39151 39233
39233 39314
39314 39396
39396 39478
39478 39559
39559 39640
39640 39722
39722 39804
39804 39886
39886 39968
39968 40049
40049 40132
40132 40214
40214 40297
40297 40380
40380 40462
40462 40544
40544 40627
40627 40709
40709 40792
40792 40874
40874 40955
40955 41037
41037 41119
41119 41201
41201 41283
41283 41365
41365 41446
41446 41528
41528 41610
41610 41693
41693 41775
41775 41857
41857 41939
41939 42022
42022 42104
42104 42186
42186 42269
42269 42351
42351 42433
42433 42515
42515 42597
42597 42680
42680 42762
42762 42843
42843 42925
42925 43007
43007 43090
43090 43172
43172 43254
43254 43336
43336 43418
43418 43501
43501 43584
43584 43666
43666 43748
43748 43830
43830 43912
43912 43994
43994 44076
44076 44158
44158 44239
44239 44321
44321 44403
44403 44485
44485 44567
44567 44648
44648 44729
44729 44810
44810 44892
44892 44973
44973 45055
45055 45136
45136 45217
45217 45298
45298 45380
45380 45461
45461 45543
45543 45624
45624 45705
45705 45787
45787 45868
45868 45950
45950 46031
46031 46112
46112 46193
46193 46275
46275 46357
46357 46438
46438 46520
46520 46601
46601 46682
46682 46764
46764 46846
46846 46928
46928 47009
47009 47090
47090 47172
47172 47254
47254 47336
47336 47417
47417 47499
47499 47581
47581 47663
47663 47745
47745 47827
47827 47910
47910 47992
47992 48074
48074 48156
48156 48239
48239 48322
48322 48404
48404 48486
48486 48568
48568 48650
48650 48733
48733 48815
48815 48897
48897 48979
48979 49061
49061 49143
49143 49225
49225 49307
49307 49388
49388 49470
49470 49552
49552 49635
49635 49717
49717 49799
49799 49880
49880 49962
49962 50044
50044 50126
50126 50208
50208 50290
50290 50372
50372 50454
50454 50536
50536 50618
50618 50700
50700 50781
50781 50863
50863 50944
50944 51026
51026 51108
51108 51190
51190 51271
51271 51353
51353 51435
51435 51518
51518 51600
51600 51682
51682 51764
51764 51846
51846 51928
51928 52011
52011 52093
52093 52175
52175 52257
52257 52339
52339 52421
52421 52503
52503 52586
52586 52667
52667 52749
52749 52832
52832 52914
52914 52996
52996 53078
53078 53160
53160 53242
53242 53324
53324 53407
53407 53489
53489 53572
53572 53654
53654 53736
53736 53819
53819 53902
53902 53984
53984 54067
54067 54150
54150 54233
54233 54315
54315 54399
54399 54481
54481 54563
54563 54646
54646 54729
54729 54811
54811 54894
54894 54976
54976 55058
55058 55140
55140 55223
55223 55306
55306 55388
55388 55470
55470 55553
55553 55636
55636 55719
55719 55802
55802 55884
55884 55967
55967 56049
56049 56132
56132 56215
56215 56297
56297 56380
56380 56462
56462 56545
56545 56627
56627 56710
56710 56793
56793 56875
56875 56958
56958 57041
57041 57124
57124 57208
57208 57291
57291 57374
57374 57457
57457 57540
57540 57623
57623 57706
57706 57788
57788 57870
57870 57953
57953 58035
58035 58117
58117 58199
58199 58280
58280 58362
58362 58444
58444 58526
58526 58608
58608 58690
58690 58771
58771 58853
58853 58935
58935 59018
59018 59100
59100 59182
59182 59264
59264 59346
59346 59429
59429 59511
59511 59594
59594 59676
59676 59758
59758 59840
59840 59922
59922 60004
60004 60087
60087 60169
60169 60251
60251 60334
60334 60417
60417 60499
60499 60582
60582 60665
60665 60747
60747 60830
60830 60913
60913 60996
60996 61078
61078 61160
61160 61242
61242 61325
61325 61407
61407 61490
61490 61571
61571 61653
61653 61736
61736 61818
61818 61901
61901 61983
61983 62065
62065 62148
62148 62230
62230 62313
62313 62396
62396 62558
62558 62642
62642 62725
62725 62808
62808 62891
62891 62973
62973 63055
63055 63137
63137 63219
63219 63301
63301 63383
63383 63464
63464 63546
63546 63628
63628 63710
63710 63792
63792 63874
63874 63955
63955 64037
64037 64119
64119 64201
64201 64283
64283 64365
64365 64446
64446 64528
64528 64610
64610 64692
64692 64774
64774 64856
64856 64938
64938 65020
65020 65103
65103 65185
65185 65268
65268 65350
65350 65433
65433 65516
65516 65599
65599 65681
65681 65764
65764 65847
65847 65930
65930 66012
66012 66095
66095 66178
66178 66260
66260 66342
66342 66424
66424 66507
66507 66589
66589 66672
66672 66753
66753 66836
66836 66919
66919 67001
67001 67084
67084 67167
67167 67250
67250 67333
67333 67416
67416 67499
67499 67582
67582 67665
67665 67749
67749 67832
67832 67916
67916 67999
67999 68083
68083 68166
68166 68249
68249 68332
68332 68416
68416 68500
68500 68667
68667 68751
68751 68835
68835 68919
68919 69002
69002 69085
69085 69168
69168 69252
69252 69335
69335 69418
69418 69502
69502 69584
69584 69668
69668 69751
69751 69834
69834 69918
69918 70001
70001 70084
70084 70167
70167 70251
70251 70334
70334 70418
70418 70500
70500 70584
70584 70667
70667 70751
70751 70835
70835 70918
70918 71002
71002 71085
71085 71169
71169 71253
71253 71336
71336 71419
71419 71502
71502 71585
71585 71668
71668 71751
71751 71834
71834 71917
71917 72000
72000 72084
72084 72167
72167 72251
72251 72334
72334 72417
72417 72501
72501 72584
72584 72668
72668 72751
72751 72835
72835 72918
72918 73002
73002 73086
73086 73170
73170 73254
73254 73337
73337 73421
73421 73504
73504 73588
73588 73672
73672 73754
73754 73838
