23 65
324 412
412 498
498 585
585 672
672 760
760 848
848 935
935 1023
1023 1087
1087 1177
1177 1269
1269 1363
1363 1454
1454 1544
1544 1636
1636 1730
1730 1822
1822 1913
1913 2007
2007 2075
2075 2166
2166 2255
2255 2344
2344 2434
2434 2525
2525 2614
2614 2702
2702 2794
2794 2885
2885 2975
2975 3064
3064 3156
3156 3249
3249 3342
3342 3430
3430 3522
3522 3613
3613 3705
3705 3794
3794 3886
3886 3978
3978 4071
4071 4160
4160 4252
4252 4345
4345 4438
4438 4528
4528 4621
4621 4716
4716 4808
4808 4899
4899 4993
4993 5113
5113 5204
