1897 2026
2026 2074
3084 3224
3224 3363
3363 3500
3500 3635
3635 3764
3764 3891
3891 4013
4013 4137
4137 4267
4267 4401
4401 4513
4513 4643
4643 4771
4771 4901
4901 5031
5031 5162
5162 5289
5289 5421
5421 5530
5530 5656
5656 5750
5750 5873
5873 6001
6001 6138
6138 6238
6238 6359
6359 6482
6482 6605
6605 6722
6722 6845
6845 6973
6973 7146
7146 7280
7280 7408
7408 7538
7538 7676
7676 7812
7812 7944
8121 8253
8910 9088
9088 9210
10513 10645
10910 11129
11914 12143
12143 12258
12258 12375
12375 12485
12485 12603
12603 12723
12723 12834
