270 393
393 518
518 639
639 760
760 880
880 1002
1002 1122
1122 1246
1246 1365
1365 1461
1461 1582
1582 1704
1704 1825
1825 1915
1915 2172
2172 2293
2293 2411
2411 2530
2530 2649
2649 2771
2771 2890
2890 3010
3010 3131
3131 3253
3253 3374
3374 3495
3495 3615
3615 3739
3739 3858
3858 4006
4006 4102
4102 4224
4224 4371
4371 4490
4490 4585
4585 4705
4705 4852
4852 4971
4971 5066
5066 5187
5187 5308
5308 5427
5427 5552
5552 5674
5674 5800
5800 5896
5896 5997
5997 6118
6118 6242
6242 6364
6609 6729
6729 6854
6854 6976
6976 7080
7080 7660
7660 7785
7785 7907
7907 8028
8028 8307
8307 8429
8429 8551
8551 8676
8676 8798
8798 8919
8919 9132
9132 9372
9372 9834
9834 9958
9958 10082
10082 10205
10205 10328
10328 10452
10452 10575
10575 10696
10696 10795
10795 10919
10919 11031
11031 11153
11153 11373
11373 11496
11496 11620
11620 11745
11745 11870
11870 11994
11994 12114
12114 12238
12238 12361
12361 12484
12484 12582
12582 12707
12707 12829
12829 12951
12951 13075
13075 13198
13198 13319
13319 13441
13441 13566
13566 13689
13689 13811
13811 13933
13933 14207
14207 14328
14328 14452
14452 14574
14574 14694
14694 14815
14815 14936
14936 15212
15212 15333
15333 15452
15452 15571
15571 15691
15691 15812
15812 15933
15933 16055
16055 16175
16175 16297
16297 16417
16417 16538
16538 16685
16685 16780
16780 16900
16900 17021
17021 17143
17143 17237
17237 17358
17358 17479
17479 17603
17603 17698
17698 17818
17818 17939
17939 18060
18060 18185
18185 18308
18308 18429
18429 18553
18553 18677
18677 18799
18799 18921
18921 19045
19045 19167
19167 19290
19290 19412
19412 19535
19535 19658
19658 19805
19805 19924
19924 20020
20020 20169
20169 20291
20291 20412
20412 20536
20536 20658
20658 20779
20779 20901
20901 21000
21000 21124
21124 21273
21273 21394
21394 21490
21490 21613
21613 21764
21764 21860
21860 21986
21986 22108
22108 22259
22259 22355
22355 22477
22477 22599
22599 22721
22721 22846
22846 22968
22968 23094
23094 23216
23216 23340
23340 23464
23464 23587
23587 23708
23708 23832
23832 23954
23954 24075
24075 24199
24199 24324
24324 24447
24447 24570
24570 24693
24693 24822
24822 24945
24945 25068
25068 25162
25162 25288
25288 25411
25411 25535
25535 25658
25658 25784
25784 25908
25908 26030
26030 26157
26157 26280
26280 26401
26401 26522
26522 26617
26617 26740
26740 26862
26862 26984
26984 27130
27130 27255
27255 27380
27380 27503
27503 27626
27626 27752
27752 27875
27875 27997
27997 28118
28118 28241
28241 28363
28363 28485
28485 28605
28605 28728
28728 28852
28852 28976
28976 29098
29098 29223
29223 29346
29346 29472
29472 29594
29594 29721
29721 29845
29845 29968
29968 30067
30067 30218
30218 30341
30341 30439
30439 30564
30564 30686
30686 30837
30837 30934
30934 31075
31075 31200
31200 31296
31296 31420
31420 31543
31543 31666
31666 31790
31790 31914
31914 32038
32038 32161
32161 32287
32287 32409
32409 32530
32530 32653
32653 32777
32777 32898
32898 33019
33019 33133
33133 33451
33451 33577
33577 33923
33923 34063
34063 34189
34189 34313
34313 34436
34436 34559
34559 34683
34683 34806
34806 34930
34930 35053
35053 35178
35178 35301
35301 35424
35424 35547
35547 35671
35671 35794
35794 35920
35920 36043
36043 36167
36167 36288
36288 36410
36410 36531
36531 36655
36655 36776
36776 36898
36898 36993
36993 37144
37144 37266
37266 37361
37361 37486
37486 37609
37609 37731
37731 37854
37854 37980
37980 38102
38102 38226
38226 38352
38352 38448
38448 38570
38570 38666
38666 38789
38789 38914
38914 39145
39145 39242
39242 39363
39363 39483
39483 39605
39605 39729
39729 39853
39853 40068
40068 40193
40193 40316
40316 40440
40440 40563
40563 40691
40691 40814
40814 40937
40937 41481
41481 41605
41605 41727
41727 41849
41849 41972
41972 42096
42096 42219
42219 42343
42343 42466
42466 42590
42590 42713
42713 42835
42835 42957
42957 43082
43082 43207
43207 43329
43329 43451
43451 43575
43575 43699
43699 43824
43824 43946
43946 44050
44050 44172
44172 44415
44415 44511
44511 44633
44633 44754
44754 44877
44877 44999
44999 45122
45122 45214
45214 45334
45334 45456
45456 45575
45575 45696
45696 45816
45816 45938
45938 46060
46060 46180
46180 46300
46300 46422
46422 46545
46545 46667
46667 46788
46788 47042
47042 47532
47532 47629
47629 47753
47753 47876
47876 47999
47999 48123
48123 48246
48246 48368
48368 48491
48491 48615
48615 48736
48736 48858
48858 48980
48980 49105
49105 49228
49228 49351
49351 49474
49474 49597
49597 49718
49718 49840
49840 49964
49964 50087
50087 50208
50208 50331
50331 50455
50455 50582
50582 50703
50703 50823
50823 50946
50946 51069
51069 51189
51189 51310
51310 51434
51434 51555
51555 51676
51676 51797
51797 51893
51893 52014
52014 52256
52256 52380
52380 52503
52503 52624
52624 52745
52745 52868
