213 889
889 1158
1158 1294
1294 2516
2516 3327
3327 4004
4004 4412
4412 5224
5224 5628
5628 5898
5898 6306
6306 6716
6716 7540
7540 8765
8765 9580
9580 10261
10261 10532
10532 10669
10669 10940
10940 11760
11760 12994
12994 13680
13680 14364
14364 14911
14911 15039
15039 15148
15148 15287
15287 15424
15424 15561
15561 16384
16384 16657
16657 17475
17475 17879
17879 19503
19503 19776
19776 21535
21535 23293
23293 24107
24107 24923
24923 25059
25059 27243
27243 27922
27922 29431
29431 29705
29705 29842
29842 30935
30935 31756
31756 32579
32579 32854
32854 33678
33678 33817
33817 34919
34919 35056
35056 35194
35194 35331
35331 36024
36024 36258
36258 36397
36397 36533
36533 36669
36669 36807
36807 37767
37767 37906
37906 38350
38350 38487
38487 38758
38758 39990
39990 40819
40819 41095
41095 43164
43164 43440
43440 43578
43578 44672
44672 44780
44780 44910
44910 45143
45143 45265
45265 45353
45353 45476
45476 45602
45602 45691
45691 45811
45811 45930
45930 46049
46049 46168
46168 46288
46288 46431
46431 46527
46527 46670
46670 46790
46790 46915
46915 47036
47036 47156
47156 47277
47277 47397
47397 47518
47518 47638
47638 47759
47759 47879
47879 48000
48000 48121
48121 48209
48209 48330
48330 48448
48448 48570
48570 48689
48689 48809
48809 48930
48930 49035
49035 49158
49158 49281
49281 49403
49403 49527
49527 49650
49650 49772
49772 49864
49864 49987
49987 50109
50109 50231
50231 50355
50355 50481
50481 50605
50605 50731
50731 50858
50858 50986
50986 51113
51113 51242
51242 51371
51371 51502
51502 51633
51633 51763
51763 52826
52826 53096
53096 53230
53230 53365
53365 53499
53499 53762
53762 54988
54988 55097
55097 55232
55232 55366
55366 55499
55499 55633
55633 56712
56712 56848
56848 56983
56983 58073
58073 58209
58209 58347
58347 58484
58484 58620
58620 59305
59305 59576
59576 59712
59712 59847
59847 59983
59983 60696
60696 60777
60777 60914
60914 61126
61126 61265
61265 61404
61404 61542
61542 61658
61658 61795
61795 61931
61931 62893
62893 63164
63164 64405
64405 65235
65235 65373
65373 65646
65646 66886
66886 67026
67026 68128
