238 599
599 961
961 1200
1200 1318
1318 1439
1439 1554
1554 2000
2000 2328
2328 2442
2442 2999
2999 3114
3114 3229
3229 3345
3345 3457
3457 3885
3885 4113
4113 4225
4225 4361
4361 4474
4474 4582
4582 4895
4895 5004
5004 5422
5422 5531
5531 5644
5644 5952
5952 6284
6284 6395
6395 6528
6528 6616
6616 6838
6838 6947
6947 7029
7029 7193
7193 7388
7388 7830
7830 8056
8056 8458
8458 8573
8573 8799
8799 9343
9343 9457
9457 10005
10005 10120
10120 10237
10237 10790
10790 10904
10904 11457
11457 11574
11574 11808
11808 11926
11926 12044
12044 12183
12183 12278
12278 13337
13337 13455
13455 13570
13570 14014
14014 14487
14487 14723
14723 14841
14841 14956
14956 15276
15276 15711
15711 15825
15825 16144
16144 16373
16373 16489
16489 16603
16603 16857
16857 17087
17087 17528
17528 17880
17880 18348
18348 18935
18935 19031
19031 19350
19350 19466
19466 19603
19603 19694
19694 19947
19947 20628
20628 20720
20720 20835
20835 20973
20973 21760
21760 22110
22110 22482
22482 23383
23383 23497
23497 24190
24190 24283
24283 24517
24517 24635
24635 24871
24871 24990
24990 25109
25109 25228
25228 26558
26558 26677
26677 27129
27129 27247
27247 27700
27700 28152
28152 28274
28274 28392
28392 28845
28845 28965
28965 29545
29545 29642
29642 29760
29760 31179
31179 31300
31300 31420
31420 31539
31539 32237
32237 33539
33539 33782
33782 33903
33903 34021
34021 34353
34353 34926
34926 35047
35047 35165
35165 35618
35618 35956
35956 36077
36077 36416
36416 36657
36657 36780
36780 36899
36899 37020
37020 37141
37141 38232
38232 38484
38484 38628
38628 39182
39182 39300
39300 39637
39637 40337
40337 40456
40456 40789
40789 41216
41216 41552
41552 41893
41893 42013
42013 43336
43336 43460
43460 43582
43582 44046
44046 44167
44167 44752
44752 44874
44874 44992
44992 45817
45817 46544
46544 46666
46666 46785
46785 46908
46908 47026
47026 47959
47959 48326
48326 48447
48447 48567
48567 48686
48686 48807
48807 48925
48925 50092
50092 50211
50211 50328
50328 50776
50776 51348
51348 51469
51469 51589
51589 51707
51707 52404
52404 52730
52730 52935
52935 53051
53051 53600
53600 53828
53828 54149
54149 54397
54397 54488
54488 54713
54713 54827
54827 55077
55077 55189
55189 55301
55301 55837
55837 55950
55950 56492
56492 56602
56602 57026
57026 57140
57140 57391
57391 57704
57704 58019
58019 58135
58135 58250
58250 58388
58388 58501
58501 59336
59336 59680
59680 60201
60201 60317
60317 60432
60432 60546
60546 61216
61216 61453
61453 61572
61572 61688
61688 63095
63095 63211
