33 198
256 560
560 699
699 782
782 865
865 1275
1275 1357
1357 1496
1496 1718
1718 1799
1799 2044
2044 2125
2125 2207
2207 2371
2371 2454
2454 2869
2869 2953
2953 3031
3031 3189
3189 3277
3277 3441
3441 3828
3828 3994
3994 4077
4077 4242
4242 4324
4324 4652
4652 4814
4814 4954
4954 5037
5037 5097
5097 5346
5346 5421
5421 5676
5676 5841
5841 6131
6131 6353
6353 6459
6459 6542
