11 82
799 888
888 979
979 1044
1044 1130
1130 1212
1212 1296
1296 1381
1381 1463
1463 1547
1547 1632
1632 1717
1717 1801
1801 1886
1886 1974
1974 2060
2060 2150
2150 2240
2240 2327
2327 2420
2420 2511
2511 2605
2605 2697
2697 2790
2790 2880
2880 2973
2973 3063
3063 3157
3157 3250
3250 3340
3340 3435
3435 3529
3529 3619
3619 3713
3713 3807
3807 3898
3898 3992
3992 4083
4083 4177
4177 4269
4269 4363
4363 4454
4454 4549
4549 4640
4640 4734
4734 4826
4826 4917
4917 5009
5009 5100
5100 5193
5193 5284
5284 5376
5376 5466
5466 5559
5559 5651
5651 5746
5746 5839
5839 6003
6003 6099
6099 6191
6191 6287
6287 6380
6380 6475
6475 6570
6570 6661
6661 6755
6755 6846
6846 6940
6940 7031
7031 7126
7126 7217
7217 7314
7314 7408
7408 7505
7505 7599
7599 7695
7695 7787
7787 7881
7881 7972
7972 8050
8050 8143
8143 8235
8235 8326
8326 8419
8419 8510
8510 8603
8603 8693
8693 8786
8786 8878
8878 8968
8968 9071
9071 9167
9167 9265
9265 9359
9359 9457
9457 9551
9551 9649
9649 9743
9743 9840
9840 9933
9933 10029
10029 10124
10124 10221
10221 10316
10316 10414
10414 10508
10508 10605
10605 10699
10699 10797
10797 10890
10890 10987
10987 11081
11081 11177
11177 11271
11271 11368
11368 11461
11461 11557
11557 11648
11648 11744
11744 11838
11838 11929
11929 12046
12046 12140
12140 12231
12231 12325
12325 12416
12416 12509
12509 12601
12601 12692
12692 12786
12786 12877
12877 12973
12973 13065
13065 13161
13161 13254
13254 13350
13350 13443
13443 13539
13539 13631
13631 13727
13727 13819
13819 13912
13912 14005
14005 14091
14091 14182
14182 14273
14273 14365
14365 14455
14455 14548
14548 14638
14638 14730
14730 14821
14821 14913
14913 15005
15005 15073
15073 15160
15160 15250
15250 15340
15340 15431
15431 15519
15519 15610
15610 15701
15701 15789
15789 15880
15880 15969
15969 16060
16060 16152
16152 16241
16241 16332
16332 16422
16422 16514
16514 16604
16604 16696
16696 16785
16785 16878
16878 16970
16970 17064
17064 17158
17158 17252
17252 17348
17348 17442
17442 17541
17541 17636
17636 17735
17735 17829
17829 17927
17927 18045
18045 18133
18133 18225
18225 18315
18315 18402
18402 18492
18492 18580
18580 18668
18668 18758
18758 18846
18846 18940
18940 19047
19047 19135
19135 19222
19222 19308
19308 19396
19396 19484
19484 19574
19574 19664
19664 19752
19752 19845
19845 19936
19936 20029
20029 20080
20080 20168
20168 20253
20253 20341
20341 20429
20429 20514
20514 20598
20598 20684
20684 20769
20769 20853
20853 20938
20938 21023
21023 21106
21106 21190
21190 21275
21275 21360
21360 21444
21444 21528
21528 21610
21610 21694
21694 21776
21776 21860
21860 21943
21943 22029
22029 22114
22114 22202
22202 22291
22291 22379
22379 22467
22467 22556
22556 22643
22643 22732
22732 22822
22822 22910
22910 22999
22999 23094
23094 23183
23183 23271
23271 23357
23357 23445
23445 23531
23531 23620
23620 23708
23708 23794
23794 23883
23883 23970
23970 24056
24056 24142
24142 24227
24227 24312
24312 24398
24398 24485
24485 24571
24571 24656
24656 24743
24743 24829
24829 24916
24916 25004
25004 25089
25089 25177
25177 25263
25263 25350
25350 25437
25437 25522
25522 25610
25610 25695
25695 25782
25782 25870
25870 25955
25955 26043
26043 26129
26129 26217
26217 26303
26303 26387
26387 26473
26473 26558
26558 26642
26642 26728
26728 26812
26812 26899
26899 26985
26985 27074
27074 27162
27162 27249
27249 27340
27340 27429
27429 27518
27518 27609
27609 27698
27698 27790
27790 27880
27880 27971
27971 28062
28062 28149
28149 28239
28239 28326
28326 28415
28415 28503
28503 28589
28589 28678
28678 28764
28764 28851
28851 28938
28938 29023
29023 29111
29111 29198
29198 29283
29283 29371
29371 29457
29457 29544
29544 29630
29630 29714
29714 29800
29800 29884
29884 29971
29971 30057
30057 30140
30140 30227
30227 30312
30312 30397
30397 30480
30480 30565
30565 30649
30649 30732
30732 30818
30818 30902
30902 30988
30988 31074
31074 31163
31163 31252
31252 31339
31339 31429
31429 31517
31517 31603
31603 31690
31690 31778
31778 31864
31864 31951
31951 32106
32106 32191
32191 32279
32279 32364
32364 32452
32452 32539
32539 32601
32601 32689
32689 32777
32777 32864
32864 32953
32953 33083
33083 33169
33169 33255
33255 33338
33338 33424
33424 33508
33508 33594
33594 33679
33679 33766
33766 33853
33853 33939
33939 34025
34025 34109
34109 34196
34196 34282
34282 34370
34370 34457
34457 34542
34542 34630
34630 34716
34716 34804
34804 34893
34893 34979
34979 35110
35110 35198
35198 35283
35283 35370
35370 35457
35457 35542
35542 35629
35629 35713
35713 35800
35800 35886
35886 35974
35974 36062
36062 36152
36152 36241
36241 36330
