1050 1150
1150 1250
1250 1351
1351 1440
1440 2033
2033 2134
2134 2234
2234 2326
2326 3175
3175 3278
3278 3379
3379 3481
3481 3585
3585 3687
3687 3791
3791 3893
3893 3995
3995 4099
4099 4199
4199 4303
