23 84
715 1055
1055 1160
1160 1265
1265 1479
1479 1587
1587 1693
1693 1787
1787 1905
1905 2012
2012 2105
2105 2212
2212 2328
2328 2436
2436 2541
2541 2647
2647 2754
2754 2860
2860 2968
2968 3074
3074 3181
3181 3287
3287 3392
3392 3498
3498 3606
3606 3712
3712 3818
3818 3925
3925 4029
4029 4094
4094 4201
4201 4503
4503 5000
5000 5814
5814 5932
5932 6055
6055 6158
6158 6267
6267 6372
6372 6478
6478 6586
6586 6690
6690 6796
6796 6905
6905 7010
7010 7115
7115 7211
7211 7825
7825 8282
8282 8390
8390 8497
8497 8606
8606 8713
8713 8819
8819 8928
8928 9035
9035 9145
9145 9251
9251 9357
9357 9454
9454 9575
9575 9682
9682 9789
9789 9896
9896 10002
10002 10079
10079 10187
10187 10295
10295 10396
10396 10615
10615 10725
10725 10830
10830 10940
10940 11489
11489 11794
11794 12089
12089 12196
12196 12303
12303 12411
12411 12518
12518 12626
12626 12734
12734 12841
12841 12949
12949 13055
13055 13162
13162 13273
13273 13367
13367 13486
13486 13594
13594 13702
13702 13809
