46 184
184 296
296 402
402 509
509 1743
1743 1862
1862 1970
1970 2050
2050 2169
2169 2671
2671 2779
2779 3089
3089 3183
3183 3303
3303 3398
3398 3518
3518 3625
3625 3720
3720 3828
3828 3936
3936 4520
4520 4982
4982 5196
5196 5302
5302 5394
5394 5499
