1030 1920
1920 2062
2062 2165
2165 2268
2268 2373
2373 2478
2478 2569
2569 2673
2673 2788
2788 2891
2891 2997
2997 3100
3100 3192
3192 4058
4058 4164
4164 4268
4268 4374
4374 4572
4572 4687
4687 4794
4794 4900
4900 5208
5208 6740
6740 6844
6844 6948
6948 7052
7052 7160
7160 7265
7265 7370
7370 7463
7463 7683
