4918 5023
5023 5091
5411 5627
6889 6993
9004 9059
9059 9160
9160 9265
9265 9374
9374 9478
9688 9780
9898 10001
9898 10001
10048 10155
12958 13073
13073 13179
13179 13286
13286 13389
13389 13495
13495 13601
13601 13710
13710 13817
13817 13924
13924 14027
14027 14092
14092 14199
14199 14302
14302 14408
14408 14515
14515 14624
