11 103
532 951
951 1180
1180 1288
1288 1392
1392 1500
1500 1607
1607 1715
1715 1825
1825 1932
1932 2081
2081 2188
2188 2293
2293 2400
2400 2613
2613 2721
2721 2830
2830 2937
2937 3126
3126 3234
3234 3342
3342 3447
3447 3554
3554 3662
3662 3769
3769 3877
3877 3988
3988 4095
4095 4203
4203 4310
4310 4417
4417 5102
5102 5318
5318 5423
5423 5534
5534 5638
5638 5748
5748 5854
5854 6191
6191 6925
6925 7060
7060 7164
7164 7272
7272 7598
7598 7854
7854 7970
7970 8076
8076 8146
8146 8263
8263 8370
8370 8475
8475 8582
8582 8787
8787 9170
9170 9484
9484 9592
9592 9974
9974 10092
10092 10202
10202 10310
10310 10415
10415 10523
10523 10630
10630 10741
10741 10848
10848 10955
10955 11085
11085 11190
11190 11298
11298 11515
11515 11623
11623 11730
11730 11835
11835 11942
11942 12050
12050 12160
12160 12265
12265 12376
12376 12483
12483 12591
12591 12696
12696 12803
12803 12914
12914 13021
13021 13126
13126 13236
13236 13344
13344 13448
13448 13556
13556 13663
13663 13773
13773 13881
13881 13988
13988 14094
14094 14831
14831 15520
15520 15839
15839 16054
16054 16164
16164 16272
16272 16376
16376 17003
17003 17289
17289 17720
17720 17827
17827 17934
17934 18080
18080 18188
18188 18397
18397 18611
18611 18720
18720 18828
18828 18933
18933 19904
19904 20012
20012 20099
20099 20206
20206 20315
20315 20419
20419 20845
20845 20952
20952 21184
21184 21295
21295 21617
21617 21725
21725 21830
21830 21937
21937 22048
22048 22155
22155 22262
