287 396
2870 3329
3329 3437
3437 3545
3545 3653
3653 3760
3760 3868
3868 3975
3975 4083
4083 4191
4191 4298
4298 4619
4619 4728
4728 4836
4836 4943
4943 5554
5554 5827
5827 5942
5942 6049
6049 6156
6156 6264
6264 6372
6372 6479
6479 6587
6587 6694
6694 6802
