368 436
436 505
505 558
558 624
624 710
710 783
783 848
848 916
916 987
987 1041
1041 1122
1122 1191
1191 1331
1331 1398
1398 1470
1470 1538
1538 1606
1606 1674
1674 1745
1745 1811
1811 1881
1881 1934
1934 2018
2018 2087
2087 2155
2155 2208
2208 2293
2293 2362
2362 2431
2431 2500
2500 2568
2568 2639
2639 2706
2706 2775
2775 2843
2843 2914
2914 2968
2968 3053
3053 3122
3122 3191
3191 3262
3262 3328
3328 3411
3411 3480
3480 3533
3533 3617
3617 3688
3688 3739
3739 3825
3825 3894
3894 4029
4029 4090
4090 4160
4160 4228
4228 4297
4297 4368
4368 4434
4434 4489
4489 4570
4570 4640
4640 4708
4708 4776
4776 4845
4845 4901
4901 4982
4982 5051
5051 5105
5105 5173
5173 5258
5258 5311
5311 5396
5396 5464
5464 5532
5532 5601
5601 5670
5670 5738
5738 5795
5795 5874
5874 5943
5943 5998
5998 6080
6080 6149
6149 6218
6218 6289
6289 6354
6354 6493
6493 6562
6562 6699
6699 6768
6768 6822
6822 6906
6906 6981
6981 7029
7029 7129
7129 7181
7181 7267
7267 7388
7388 7475
7475 7541
7541 7610
7610 7748
7748 7816
7816 7873
7873 7954
7954 8023
8023 8077
8077 8161
8161 8231
8231 8287
8287 8369
8369 8438
8438 8492
8492 8576
8576 8646
8646 8714
8714 8783
8783 8852
8852 8921
8921 8990
8990 9058
9058 9115
9115 9196
9196 9308
9308 9377
9377 9447
9447 9519
9519 9585
9585 9637
9637 9723
9723 9793
9793 9845
9845 9929
9929 10067
10067 10135
10135 10259
10259 10342
10342 10412
10412 10481
10481 10550
10550 10602
10602 10688
10688 10756
10756 10825
10825 10894
10894 10950
10950 11032
11032 11169
11169 11237
11237 11308
11308 11362
11362 11445
11445 11583
11583 11652
11652 11706
11706 11789
11789 11858
11858 11928
11928 11996
11996 12066
12066 12121
12121 12204
12204 12277
12277 12327
12327 12411
12411 12466
12466 12549
