595 665
665 732
732 803
803 872
872 937
937 1005
1005 1078
1078 1143
1143 1211
1211 1284
1284 1349
1349 1418
1418 1488
1488 1555
1555 1624
1624 1693
1693 1761
1761 1830
1830 1903
1903 1969
1969 2024
2024 2105
2105 2174
2174 2243
2243 2314
2314 2380
2380 2449
2449 2518
2518 2576
2576 2657
2657 2728
2728 2797
2797 2863
2863 2932
2932 2988
2988 3034
3034 3103
3103 3171
3171 3240
3240 3309
3309 3378
3378 3446
3446 3515
3515 3584
3584 3651
3651 3721
3721 3788
3788 3856
3856 3925
3925 3994
3994 4063
4063 4132
4132 4202
4202 4269
4269 4337
4337 4407
4407 4475
4475 4544
4544 4613
4613 4682
4682 4752
4752 4804
4804 4887
4887 4955
4955 5024
5024 5092
5092 5163
5163 5231
5231 5298
5298 5371
5371 5437
5437 5505
5505 5573
5573 5644
5644 5713
5713 5780
5780 5850
5850 5919
5919 5988
5988 6058
6058 6123
6123 6193
6193 6265
6265 6333
6333 6387
6387 6471
6471 6540
6540 6606
6606 6675
6675 6746
6746 6815
6815 6883
6883 6937
6937 7042
7042 7111
7111 7181
7181 7252
7252 7319
7319 7390
7390 7442
7442 7526
7526 7598
7598 7665
7665 7734
7734 7804
7804 7875
7875 7946
7946 8015
8015 8081
8081 8150
8150 8219
8219 8287
8287 8356
8356 8425
8425 8498
8498 8566
8566 8631
8631 8702
8702 8772
8772 8839
8839 8910
8910 8976
8976 9045
9045 9114
9114 9183
9183 9254
9254 9323
9323 9391
9391 9458
9458 9531
9531 9597
9597 9666
9666 9735
9735 9803
9803 9874
9874 9941
9941 10010
10010 10083
10083 10135
10135 10220
10220 10287
10287 10358
10358 10422
10422 10474
10474 10560
10560 10630
10630 10695
10695 10765
10765 10832
10832 10900
10900 10968
10968 11037
11037 11105
11105 11176
11176 11245
11245 11311
11311 11382
11382 11449
11449 11518
11518 11588
11588 11655
11655 11724
11724 11794
11794 11861
11861 11932
11932 12001
12001 12067
12067 12138
12138 12205
12205 12272
12272 12342
12342 12411
12411 12480
12480 12548
12548 12617
12617 12686
12686 12755
12755 12824
12824 12892
12892 12963
12963 13029
13029 13098
13098 13167
13167 13236
13236 13305
13305 13373
13373 13442
13442 13515
13515 13580
13580 13648
13648 13716
13716 13788
13788 13853
13853 13923
13923 13992
13992 14061
14061 14128
14128 14197
14197 14267
14267 14334
14334 14407
14407 14473
14473 14542
14542 14610
14610 14679
14679 14748
14748 14817
14817 14886
14886 14958
14958 15027
15027 15093
15093 15163
15163 15219
15219 15300
15300 15368
15368 15440
15440 15506
15506 15574
15574 15644
15644 15713
15713 15783
15783 15848
15848 15917
15917 15987
15987 16056
16056 16123
16123 16196
16196 16260
16260 16331
16331 16398
16398 16471
16471 16539
16539 16608
16608 16675
16675 16743
16743 16812
16812 16881
16881 16949
16949 17018
17018 17086
17086 17156
17156 17225
17225 17293
17293 17362
17362 17433
17433 17500
17500 17569
17569 17639
17639 17708
17708 17778
17778 17846
17846 17916
17916 17984
17984 18057
18057 18121
18121 18188
18188 18256
