935 1013
1013 1074
1445 1539
2130 2222
2222 2299
2615 2690
2770 2851
2851 2909
3005 3047
3047 3127
3127 3204
3204 3285
3285 3360
3360 3437
3437 3518
3518 3593
3593 3670
3670 3749
3749 3826
3826 3904
3904 3981
3981 4060
4060 4141
4141 4218
4218 4295
4295 4373
4373 4435
4435 4530
4530 4608
4608 4670
4670 4726
4726 4766
4766 4845
4845 4922
4922 4999
4999 5076
5076 5155
5155 5235
5235 5312
5312 5391
5391 5468
5468 5548
5548 5626
5626 5703
5703 5764
5764 5845
5845 5938
5938 6034
6034 6071
6071 6111
6111 6190
6190 6267
6267 6346
6346 6423
6423 6509
6509 6584
6584 6661
6661 6742
6742 6823
6823 6901
6901 6979
6979 7054
7054 7133
7133 7212
7212 7291
7291 7371
7371 7448
7448 7527
7527 7604
7604 7683
7683 7727
7727 7763
7763 7839
7839 7918
7918 7995
7995 8077
8077 8156
8156 8231
8231 8309
8309 8387
8387 8467
8467 8545
8545 8625
8625 8701
8701 8779
8779 8860
8860 8939
8939 9039
9039 9116
9116 9180
9180 9274
9274 9351
9351 9430
9430 9510
9510 9587
9587 9668
9668 9744
9744 9826
9826 9905
9905 9983
9983 10045
10045 10122
10122 10219
10219 10280
10280 10376
10376 10452
10452 10534
10534 10611
10611 10692
10692 10770
10770 10846
10846 10911
10911 11007
11007 11084
11084 11161
11161 11200
11200 11239
11239 11320
11320 11382
11382 11475
11475 11554
11554 11634
11634 11711
11711 11790
11790 11869
11869 11948
11948 12025
12025 12127
12127 12204
12204 12285
12285 12362
12362 12441
12441 12477
12477 12518
12518 12598
12598 12674
12674 12737
12737 12833
12833 12908
12908 12991
12991 13068
13068 13145
13145 13208
13208 13301
13301 13382
13382 13457
13457 13535
13535 13615
13615 13695
13695 13771
13771 13832
13832 13928
13928 14005
14005 14084
14084 14161
14161 14241
14241 14320
14320 14397
14397 14478
14478 14553
14553 14631
14631 14711
14711 14786
14786 14867
14867 14941
14941 15019
15019 15062
15062 15137
15137 15218
15218 15295
15295 15375
15375 15451
15451 15530
15530 15612
15612 15687
15687 15766
15766 15845
15845 15927
15927 16043
16043 16119
16119 16197
16197 16280
16280 16357
16357 16420
16420 16516
16516 16593
16593 16670
16670 16755
16755 16829
16829 16908
16908 16986
16986 17051
17051 17149
17149 17223
17223 17303
17303 17380
17380 17461
17461 17544
17544 17618
17618 17696
17696 17775
17775 17855
17855 17934
17934 18058
18058 18135
