56 102
3121 3204
3204 3290
3290 3376
3376 3460
3460 3528
3528 3630
3630 3698
3698 3799
3799 3884
3884 3969
3969 4054
4054 4140
4140 4225
4225 4309
4309 4396
4396 4465
4465 4550
4550 4635
4635 4734
4734 4805
4805 4905
4905 4975
4975 5059
5059 5159
5159 5243
5243 5328
5328 5417
5417 5499
5499 5584
5584 5669
5669 5753
5753 5840
5840 5925
5925 6010
6010 6079
6079 6180
6180 6250
6250 6334
6334 6421
6421 6521
6521 6590
6590 6690
6690 6760
6760 6860
6860 6945
6945 7015
7015 7116
7116 7202
7202 7286
7286 7371
7371 7456
7456 7542
7542 7615
7615 7713
7713 7796
7796 7884
7884 7950
7950 8054
8054 8137
8137 8221
8221 8306
8306 8390
8390 8476
8476 8562
8562 8600
8600 8648
8648 8731
8731 8800
8800 8883
8883 8987
8987 9071
9071 9155
9155 9240
9240 9325
9325 9409
9409 9494
9494 9579
9579 9665
9665 9737
9737 9835
9835 9906
9906 9989
9989 10075
10075 10162
10162 10263
10263 10333
10333 10433
10433 10519
10519 10604
10604 10675
10675 10776
10776 10862
10862 10947
10947 11018
11018 11121
11121 11204
11204 11274
11274 11374
11374 11460
11460 11531
11531 11629
11629 11716
11716 11801
11801 11886
11886 11972
11972 12041
12041 12143
12143 12228
12228 12299
12299 12385
12385 12485
12485 12551
12551 12653
12653 12739
12739 12824
12824 12912
12912 12978
12978 13078
13078 13163
13163 13249
13249 13337
13337 13404
13404 13491
13491 13592
13592 13676
13676 13763
13763 13848
13848 13934
13934 14020
14020 14103
14103 14189
14189 14278
14278 14345
14345 14428
14428 14530
14530 14614
14614 14701
14701 14786
14786 14871
14871 14956
14956 15042
15042 15126
15126 15211
15211 15297
15297 15382
15382 15467
15467 15552
15552 15623
15623 15707
15707 15809
15809 15894
15894 15979
15979 16048
16048 16150
16150 16234
16234 16321
16321 16407
16407 16494
16494 16577
16577 16663
16663 16748
16748 16834
16834 16920
16920 17006
17006 17090
17090 17175
17175 17260
17260 17346
17346 17431
17431 17517
17517 17602
17602 17671
17671 17771
17771 17857
17857 17942
17942 18012
18012 18114
18114 18198
18198 18266
18266 18367
18367 18452
18452 18537
18537 18622
18622 18706
18706 18791
18791 18862
18862 18917
18917 18961
18961 18998
18998 19048
19048 19131
19131 19202
19202 19302
19302 19385
19385 19472
19472 19558
19558 19642
19642 19712
19712 19795
19795 19897
19897 19966
19966 20056
20056 20154
20154 20224
20224 20324
20324 20410
20410 20494
20494 20581
20581 20666
20666 20749
20749 20834
20834 20906
20906 21003
21003 21089
21089 21175
21175 21262
21262 21345
21345 21414
21414 21474
21474 21516
21516 21601
21601 21686
21686 21772
21772 21858
21858 21941
21941 22027
22027 22112
22112 22197
22197 22268
22268 22366
22366 22451
22451 22537
22537 22622
22622 22691
22691 22778
22778 22876
22876 22962
22962 23048
23048 23134
23134 23217
23217 23302
23302 23390
23390 23473
23473 23559
23559 23646
23646 23731
23731 23817
23817 23888
23888 23942
23942 23988
23988 24073
24073 24159
24159 24246
24246 24333
24333 24417
24417 24502
24502 24573
24573 24675
24675 24760
24760 24831
24831 24932
24932 25017
25017 25104
25104 25189
25189 25277
25277 25364
25364 25446
25446 25487
25487 25531
25531 25616
25616 25702
25702 25791
25791 25874
25874 25958
25958 26045
26045 26129
26129 26216
26216 26300
26300 26372
26372 26455
26455 26541
26541 26643
26643 26726
26726 26813
26813 26899
26899 26967
26967 27053
27053 27155
27155 27240
27240 27279
27279 27326
27326 27414
27414 27483
27483 27569
27569 27668
27668 27757
27757 27843
27843 27925
27925 27965
27965 28011
28011 28082
28082 28182
28182 28250
28250 28353
28353 28421
28421 28523
28523 28594
28594 28678
28678 28782
28782 28865
28865 28904
28904 28950
28950 29034
29034 29121
29121 29192
29192 29290
29290 29363
29363 29463
29463 29554
29554 29634
29634 29719
29719 29804
29804 29889
29889 29975
29975 30059
30059 30129
30129 30229
30229 30314
30314 30398
30398 30485
30485 30571
30571 30658
30658 30740
30740 30809
30809 30893
30893 30993
30993 31035
31035 31081
31081 31164
31164 31249
31249 31334
31334 31418
31418 31504
31504 31590
31590 31675
31675 31762
31762 31847
31847 31932
31932 32017
32017 32057
32057 32104
32104 32172
32172 32262
32262 32360
32360 32445
32445 32530
32530 32617
32617 32702
32702 32789
32789 32857
32857 32958
32958 33028
33028 33132
33132 33215
33215 33286
33286 33386
33386 33457
33457 33541
33541 33597
33597 33643
33643 33732
33732 33774
33774 33816
33816 33884
33884 33945
33945 33984
33984 34071
34071 34140
34140 34240
34240 34325
34325 34411
34411 34497
34497 34584
34584 34651
34651 34736
34736 34824
34824 34885
34885 34997
34997 35085
35085 35226
35226 35271
35271 35343
35343 35444
35444 35532
35532 35572
35572 35622
35622 35744
35744 35861
35861 35946
35946 36001
36001 36090
36090 36140
36140 36207
36207 36294
36294 36380
36380 36482
36482 36555
36555 36609
36609 36656
36656 36744
36744 36813
36813 36903
36903 36986
36986 37088
37088 37180
37180 37246
37246 37300
37300 37348
37348 37436
37436 37518
37518 37592
37592 37677
37677 37762
37762 37850
37850 37933
37933 37989
37989 38034
38034 38106
38106 38210
38210 38246
38246 38296
38296 38362
38362 38437
38437 38508
38508 38610
38610 38695
38695 38780
38780 38866
38866 38925
38925 39010
39010 39099
39099 39168
39168 39269
39269 39354
39354 39439
39439 39528
39528 39612
39612 39698
39698 39738
39738 39784
39784 39872
39872 39957
39957 40041
40041 40080
40080 40126
40126 40197
40197 40284
40284 40382
40382 40453
40453 40540
40540 40640
40640 40726
40726 40811
40811 40880
40880 40937
40937 40982
40982 41068
41068 41153
41153 41192
41192 41240
41240 41311
41311 41410
41410 41498
41498 41588
41588 41657
41657 41710
41710 41755
41755 41796
41796 41840
41840 41925
41925 42011
42011 42096
42096 42187
42187 42271
42271 42352
42352 42437
42437 42521
42521 42608
42608 42694
42694 42735
42735 42779
42779 42864
42864 42936
42936 43036
43036 43123
43123 43206
43206 43291
43291 43377
43377 43462
43462 43547
43547 43616
43616 43718
43718 43804
43804 43890
43890 43975
43975 44016
44016 44059
44059 44143
44143 44231
44231 44300
44300 44400
44400 44485
44485 44553
44553 44640
44640 44741
44741 44787
44787 44827
44827 44912
44912 44997
44997 45083
45083 45172
45172 45256
45256 45340
45340 45426
45426 45495
45495 45597
45597 45683
45683 45769
45769 45854
45854 45939
45939 46024
46024 46094
46094 46183
46183 46283
46283 46368
46368 46452
46452 46541
46541 46623
46623 46710
46710 46797
46797 46882
46882 46922
46922 46970
46970 47053
47053 47138
47138 47224
47224 47311
47311 47396
47396 47482
47482 47567
47567 47636
47636 47737
47737 47824
47824 47911
47911 47996
47996 48080
48080 48166
48166 48255
48255 48338
48338 48426
48426 48511
48511 48597
48597 48665
48665 48767
48767 48853
48853 48940
48940 49026
49026 49096
49096 49196
49196 49282
49282 49320
49320 49372
49372 49455
49455 49540
49540 49609
49609 49709
49709 49795
49795 49880
49880 49966
49966 50036
50036 50141
50141 50224
50224 50308
50308 50393
50393 50480
50480 50570
50570 50655
50655 50738
50738 50823
50823 50911
50911 50993
50993 51080
51080 51116
51116 51166
51166 51251
51251 51322
51322 51422
51422 51507
51507 51592
51592 51680
51680 51751
51751 51836
51836 51937
51937 52022
52022 52107
52107 52194
52194 52280
52280 52365
52365 52451
52451 52539
52539 52622
52622 52708
52708 52795
52795 52837
52837 52878
52878 52964
52964 53049
53049 53092
53092 53134
53134 53222
53222 53307
53307 53395
53395 53462
53462 53520
53520 53564
53564 53610
53610 53651
53651 53720
53720 53823
53823 53891
53891 53978
53978 54081
54081 54164
54164 54256
54256 54293
54293 54335
54335 54421
54421 54506
54506 54594
54594 54681
54681 54771
54771 54837
54837 54939
54939 55024
55024 55094
55094 55197
55197 55284
55284 55371
55371 55440
55440 55542
55542 55629
55629 55715
55715 55802
55802 55889
55889 55974
55974 56061
56061 56146
56146 56216
56216 56319
56319 56405
56405 56492
56492 56563
56563 56665
56665 56749
56749 56792
56792 56835
56835 56923
56923 56994
56994 57095
57095 57180
57180 57267
57267 57355
57355 57441
57441 57526
57526 57612
57612 57684
57684 57783
57783 57870
57870 57957
57957 58043
58043 58085
58085 58128
58128 58214
58214 58299
58299 58387
58387 58475
58475 58558
58558 58643
58643 58729
58729 58814
58814 58887
58887 58987
58987 59073
59073 59158
59158 59242
59242 59327
59327 59414
59414 59485
59485 59585
59585 59669
59669 59756
59756 59840
59840 59925
59925 60010
60010 60098
60098 60169
60169 60256
60256 60357
60357 60425
60425 60524
60524 60615
60615 60696
60696 60767
60767 60868
60868 60940
60940 60994
60994 61038
61038 61126
61126 61194
61194 61297
61297 61367
61367 61468
61468 61553
61553 61639
61639 61726
61726 61811
61811 61880
61880 61983
61983 62068
62068 62156
62156 62193
62193 62245
62245 62327
62327 62414
62414 62499
62499 62585
62585 62670
62670 62756
62756 62843
62843 62931
62931 63014
63014 63087
63087 63184
63184 63275
63275 63358
63358 63428
63428 63527
63527 63618
63618 63699
63699 63785
63785 63871
63871 63960
63960 64044
64044 64129
64129 64215
64215 64300
64300 64345
64345 64387
64387 64475
64475 64513
64513 64560
64560 64629
64629 64717
64717 64818
64818 64856
64856 64911
64911 64992
64992 65082
65082 65146
65146 65200
65200 65251
65251 65321
65321 65421
65421 65511
65511 65592
65592 65663
65663 65721
65721 65768
65768 65851
65851 65923
65923 66007
66007 66110
66110 66178
66178 66279
66279 66372
66372 66454
66454 66540
66540 66624
66624 66710
66710 66795
66795 66882
66882 66967
66967 67054
67054 67141
67141 67228
67228 67314
67314 67399
67399 67485
67485 67556
67556 67657
67657 67743
67743 67828
67828 67914
67914 68000
68000 68085
68085 68170
68170 68256
68256 68344
68344 68413
68413 68513
68513 68602
68602 68669
68669 68755
68755 68856
68856 68943
68943 69029
69029 69090
69090 69175
69175 69263
69263 69349
69349 69435
