905 1031
1031 1119
1119 1205
1205 1295
1295 1384
1384 1476
1476 1563
1563 1654
1654 1742
1742 1833
1833 1920
1920 2032
2032 2118
2118 2208
2208 2299
2299 2389
2389 2476
2476 2567
2567 2655
2655 2747
2747 2833
2833 2925
2925 3012
3012 3089
3089 3179
3179 3269
3269 3359
3359 3451
3451 3540
3540 3630
3630 3723
3723 3811
3811 3900
3900 3990
3990 4068
4068 4159
4159 4248
4248 4338
4338 4428
4428 4518
4518 4608
4608 4698
4698 4787
4787 4878
4878 4970
4970 5114
5114 5205
5205 5294
5294 5384
5384 5476
5476 5565
5565 5654
5654 5744
5744 5834
5834 5923
5923 6013
6013 6100
6100 6191
6191 6281
6281 6367
6367 6459
6459 6546
6546 6638
6638 6724
6724 6813
6813 6903
6903 6994
6994 7081
7081 7172
7172 7262
7262 7349
7349 7439
7439 7530
7530 7620
7620 7707
7707 7797
7797 7888
7888 7976
7976 8067
8067 8157
8157 8244
8244 8334
8334 8424
8424 8514
8514 8605
8605 8696
8696 8781
8781 8871
8871 8963
8963 9050
9050 9142
9142 9228
9228 9318
9318 9408
9408 9497
9497 9586
9586 9676
9676 9766
9766 9858
9858 9948
9948 10035
10035 10124
10124 10213
10213 10305
10305 10395
10395 10483
10483 10571
10571 10660
10660 10749
10749 10839
10839 10930
10930 11018
11018 11109
11109 11195
11195 11287
11287 11374
11374 11465
11465 11553
11553 11641
11641 11730
11730 11821
11821 11907
11907 11997
13423 13511
13511 13600
13779 13868
13868 13958
13958 14049
14049 14137
14137 14227
14227 14314
14314 14406
14406 14495
14495 14582
14582 14672
14672 14762
14762 14850
14850 14943
14943 15030
15030 15119
15119 15211
15211 15300
15300 15387
15387 15476
15476 15567
15567 15657
15657 15744
15744 15833
15833 15924
15924 16014
16014 16099
16099 16188
16188 16280
16280 16367
16367 16458
16458 16546
16546 16635
16635 16726
16726 16813
16813 16906
16906 16992
16992 17084
17084 17172
17172 17264
17264 17350
17350 17440
17440 17532
17532 17619
17619 17710
17710 17799
17799 17890
17890 17979
17979 18069
18069 18156
18156 18246
18246 18335
18335 18427
18427 18516
18516 18604
18604 18695
18695 18786
18786 18874
18874 18964
18964 19031
19031 19114
19114 19204
19204 19294
19294 19385
19385 19475
19475 19562
19562 19651
19651 19741
19741 19830
19830 19922
19922 20009
20009 20101
20101 20190
20190 20281
20281 20366
20366 20456
20456 20546
20546 20638
20638 20728
20728 20816
20816 20907
20907 20997
20997 21068
21068 21159
21159 21247
21247 21336
21336 21428
21428 21515
21515 21605
21605 21695
21695 21786
21786 21874
21874 21965
21965 22055
22055 22141
22141 22231
22231 22323
22323 22409
22409 22499
22499 22589
22589 22679
22679 22766
22766 22857
22857 22947
22947 23036
23036 23123
23123 23213
23213 23302
23302 23392
23392 23484
23484 23571
23571 23660
23660 23752
23752 23842
23842 23932
23932 24017
24017 24109
24109 24198
24198 24286
24286 24376
24376 24464
24464 24554
24554 24645
24645 24735
24735 24822
24822 24911
24911 25003
25003 25090
25090 25183
25183 25268
25268 25358
25358 25449
25449 25539
25539 25628
25628 25714
25714 25804
25804 25896
25896 25985
25985 26073
26073 26162
26162 26251
26251 26341
26341 26432
26432 26518
26518 26608
26608 26699
26699 26789
26789 26877
26877 26965
26965 27041
27041 27128
27128 27220
27220 27310
27310 27399
27399 27489
27489 27577
27577 27668
27668 27756
27756 27848
27848 27934
27934 28023
28023 28113
28113 28203
28203 28295
28295 28381
28381 28470
28470 28562
28562 28652
28652 28737
28737 28827
28827 28918
28918 29007
29007 29097
29097 29183
29183 29272
29272 29364
29364 29453
29453 29539
29539 29628
29628 29718
29718 29809
29809 29899
29899 29989
29989 30076
30076 30167
30167 30257
30257 30346
30346 30434
30434 30524
30524 30615
30615 30703
30703 30792
30792 30883
30883 30973
30973 31061
31061 31150
31150 31240
31240 31330
31330 31420
31420 31506
31506 31596
31596 31687
31687 31776
31776 31866
31866 31952
31952 32059
32059 32151
32151 32236
32236 32326
32326 32414
32414 32505
32505 32591
32591 32680
32680 32772
32772 32859
32859 32948
32948 33095
33095 33184
33184 33274
33274 33363
33363 33450
33450 33542
33542 33631
33631 33722
33722 33807
33807 33898
33898 33988
33988 34075
34075 34165
34165 34256
34256 34343
34343 34434
34434 34522
34522 34613
34613 34702
34702 34793
34793 34881
34881 34969
34969 35043
35043 35135
35135 35225
35225 35311
35311 35401
35401 35493
35493 35580
35580 35671
35671 35759
35759 35849
35849 35940
35940 36029
36029 36117
36117 36208
36208 36299
36299 36385
36385 36475
36475 36567
36567 36656
36656 36746
36746 36833
36833 36925
36925 37048
37048 37133
37133 37223
37223 37315
37315 37402
37402 37494
37494 37581
37581 37673
37673 37762
37762 37850
37850 37939
37939 38031
38031 38120
38120 38206
38206 38296
38296 38386
38386 38478
38478 38566
38566 38654
38654 38746
38746 38835
38835 38922
38922 39014
39014 39086
39086 39172
39172 39262
39262 39350
