521 667
667 867
867 1386
1386 1489
1489 2766
2766 4337
4337 5790
5790 5872
5872 7392
7392 10014
10014 10108
10108 10183
10183 10269
10269 10438
10438 12756
12756 13922
13922 14515
14515 15373
15373 16928
16928 26360
26360 26521
26521 26836
26836 27319
27319 28127
28127 30442
30442 34607
34607 36259
36259 37282
37282 42024
