1937 2119
3875 4025
4025 4095
7922 8023
8023 8143
8143 8237
8237 8336
8336 8437
8437 8533
8533 8636
8636 8733
8733 8827
8827 8921
8921 9013
9013 9106
9106 9201
9201 9298
9298 9396
9396 9497
9497 9598
9598 9699
9699 9795
9795 9890
9890 9989
9989 10124
10124 10224
10224 10320
10320 10417
10417 10514
10514 10612
10612 10708
10708 10801
10801 10898
10898 10990
10990 11076
11076 11173
11173 11270
11270 11369
11369 11468
11468 11569
11569 11671
11671 11774
11774 11874
11874 11971
11971 12078
12078 12174
12174 12271
12271 12370
12370 12471
12471 12571
12571 12673
12673 12770
12770 12864
12864 12958
12958 13052
13052 13148
13148 13244
13244 13340
13340 13439
13439 13541
13541 13642
13642 13740
13740 13834
