1931 2035
2035 2104
2104 2173
2173 2242
2242 2311
2311 2380
2380 2449
2449 2518
2518 2587
2587 2656
2656 2725
2725 2794
2794 2862
2862 2931
2931 3000
3000 3069
3069 3137
3137 3206
3206 3275
3275 3344
3344 3413
3413 3482
3482 3551
3551 3619
3619 3688
3688 3757
3757 3826
3826 3895
3895 3963
3963 4032
4032 4101
4101 4170
4170 4238
4238 4307
4307 4376
4376 4445
4445 4513
4513 4582
4582 4651
4651 4720
4720 4789
4789 4857
4857 4926
