1882 1974
1974 2083
7983 8082
8082 8177
8177 8273
8273 8367
8367 8463
8463 8560
8560 8657
8657 8756
8756 8854
8854 8955
8955 9056
9056 9158
9158 9260
9260 9365
9365 9469
9469 9574
9574 9677
9677 9782
9782 9886
9886 9991
9991 10095
10095 10197
10197 10302
10302 10405
10405 10507
10507 10609
10609 10707
10707 10806
10806 10905
10905 11005
11005 11106
11106 11207
11207 11309
11309 11412
11412 11516
11516 11618
11618 11722
11722 11825
11825 11929
11929 12045
12045 12148
12148 12252
12252 12355
12355 12457
12457 12561
12561 12666
12666 12771
12771 12874
12874 12978
12978 13108
13108 13207
13207 13307
13307 13409
13409 13511
13511 13615
13615 13718
