941 1100
1100 1179
1179 1259
1259 1338
1338 1419
1419 1500
1500 1580
1580 1740
1740 1819
1819 1979
1979 2058
2058 2135
2135 2211
2211 2289
2289 2367
2367 2446
2446 2523
2523 2600
2600 2651
2651 2726
2726 2802
2802 2879
2879 3007
3007 3086
3086 3171
3171 3258
3258 3342
3342 3425
3425 3508
3508 3589
3589 3671
3671 3752
3752 3834
3834 3998
3998 4081
4081 4242
4242 4324
4324 4404
4404 4568
4568 4650
4650 4818
4818 4900
4900 4982
4982 5061
5061 5140
5140 5218
5218 5296
5296 5373
5373 5452
5452 5532
5532 5693
5693 5936
5936 6020
6020 6267
6267 6434
6434 6515
6515 6754
6754 6833
6833 6992
6992 7191
7191 7488
7488 7637
7637 7804
7804 7890
7890 7974
7974 8056
8056 8139
8139 8387
8387 8554
8554 8639
8639 8722
8722 8888
8888 8970
8970 9139
9139 9222
9222 9362
9362 9446
9446 9617
9617 9701
9701 9785
9785 9956
9956 10148
10148 10292
10292 10363
10363 10504
10504 10637
10637 10718
10718 10790
10790 10864
10864 10938
10938 11011
11011 11076
11076 11242
11242 11300
11300 11382
11382 11465
11465 11549
11549 11631
11631 11713
11713 11755
11755 11873
11873 11953
11953 12030
12030 12319
12319 12491
12491 12578
12578 12666
12666 12753
12753 12839
12839 12923
12923 13089
13089 13173
13173 13337
13337 13417
13417 13498
13498 13581
13581 13830
13830 14001
14001 14087
14087 14342
14342 14427
14427 14512
14512 14598
14598 14682
14682 14768
14768 14853
14853 14941
14941 15028
15028 15113
15113 15197
15197 15452
15452 15539
15539 15625
15625 15709
15709 15794
15794 15878
15878 15965
15965 16051
16051 16135
16135 16220
16220 16304
16304 16391
16391 16479
16479 16567
16567 16652
16652 16738
16738 17089
17089 17177
17177 17264
17264 17352
17352 17441
17441 17528
17528 17614
17614 17701
17701 17788
17788 17876
17876 17963
17963 18047
18047 18134
18134 18221
18221 18309
18309 18397
18397 18656
18656 18745
18745 18838
18838 18930
18930 19020
19020 19107
19107 19194
19194 19283
19283 19373
19373 19461
19461 19548
19548 19633
19633 19807
19807 19898
19898 19989
19989 20337
20337 20598
20598 20768
20768 20943
20943 21114
21114 21199
21199 21286
21286 21375
21375 21465
21465 21553
21553 21639
21639 21724
21724 21810
21810 21900
21900 21991
21991 22255
22255 22345
22345 22437
22437 22526
22526 22698
22698 22781
22781 22864
22864 23029
23029 23111
23111 23275
23275 23361
23361 23449
23449 23705
23705 23793
23793 23972
23972 24059
24059 24145
24145 24318
24318 24406
24406 24496
24496 24755
24755 24841
24841 24931
24931 25021
25021 25199
25199 25285
25285 25640
25640 25809
25809 25894
25894 26025
26025 26073
26073 26148
26148 26222
26222 26299
26299 26378
26378 26537
26537 26613
26613 26769
26769 26850
26850 26931
26931 27095
27095 27180
27180 27271
27271 27361
27361 27446
27446 27533
27533 27619
27619 27706
27706 27877
27877 27963
27963 28315
28315 28405
28405 28586
28586 28672
28672 28757
28757 28841
28841 29097
29097 29270
29270 29443
29443 29617
29617 29707
29707 29796
29796 29885
29885 30144
30144 30231
30231 30319
30319 30495
30495 30581
30581 30755
30755 30842
30842 31015
31015 31099
31099 31356
31356 31445
31445 31532
31532 31619
31619 31704
31704 31789
31789 31876
31876 31963
31963 32214
32214 32300
32300 32389
32389 32479
32479 32652
32652 32739
32739 32828
32828 32917
32917 33004
33004 33092
33092 33180
33180 33364
33364 33539
33539 33626
33626 33713
33713 33802
33802 33892
33892 33981
33981 34072
34072 34436
34436 34526
34526 34615
34615 34704
34704 34793
34793 34963
34963 35046
35046 35130
35130 35215
35215 35387
35387 35558
35558 35647
35647 35739
35739 36094
36094 36181
36181 36270
36270 36357
36357 36441
36441 36527
36527 36700
36700 36788
36788 36874
36874 36960
36960 37048
37048 37139
37139 37231
37231 37683
37683 37866
37866 37955
37955 38046
38046 38331
38331 38421
38421 38683
38683 38772
38772 38861
38861 38949
38949 39035
39035 39122
39122 39303
39303 39394
39394 39927
39927 40091
40091 40171
40171 40251
40251 40332
40332 40413
40413 40495
40495 40576
40576 40656
40656 40736
40736 40820
40820 40909
40909 41176
41176 41264
41264 41355
41355 41446
41446 41622
41622 41709
41709 41798
41798 41888
41888 42066
42066 42155
42155 42339
42339 42435
42435 42529
42529 42798
42798 42978
42978 43155
43155 43243
43243 43335
43335 43427
43427 43519
43519 43695
43695 43787
43787 43878
43878 44151
44151 44240
44240 44332
44332 44424
44424 44517
44517 44788
44788 44881
44881 44972
44972 45148
45148 45235
45235 45413
45413 45504
45504 45769
45769 46222
46222 46308
46308 46400
46400 46491
46491 46584
46584 46765
46765 46856
46856 46949
46949 47135
47135 47406
47406 47501
47501 47593
47593 47685
47685 47862
47862 48149
48149 48332
48332 48517
48517 48608
48608 48699
48699 48967
48967 49057
49057 49146
49146 49406
49406 49497
49497 49588
49588 49680
49680 49945
49945 50038
50038 50129
50129 50220
50220 50488
50488 50580
50580 50672
50672 50762
50762 50939
50939 51030
51030 51218
51218 51398
51398 51490
51490 51590
51590 52147
52147 52334
52334 52600
52600 52694
52694 52787
52787 52968
52968 53056
53056 53148
53148 53245
53245 53342
53342 53435
53435 53612
53612 53798
53798 54069
54069 54160
54160 54252
54252 54344
54344 54528
54528 54616
54616 54706
54706 54893
54893 54985
54985 55253
55253 55346
55346 55436
55436 55525
55525 55698
55698 55788
55788 55974
55974 56067
56067 56433
56433 56526
56526 56705
56705 56794
56794 56883
56883 56973
56973 57063
57063 57155
57155 57714
57714 57895
57895 57984
57984 58073
58073 58162
58162 58336
58336 58422
58422 58510
58510 58598
58598 58687
58687 58776
58776 59040
59040 59129
59129 59392
59392 59479
59479 59568
59568 59752
59752 59843
59843 59931
59931 60021
60021 60112
60112 60477
60477 60568
60568 60751
60751 60932
60932 61111
61111 61202
61202 61556
