85 323
323 441
441 501
501 679
679 738
738 798
798 976
976 1035
1035 1094
1094 1153
1153 1213
1213 1332
1332 1391
1391 1629
1629 1688
1688 1747
1747 1807
1807 1866
1866 1985
1985 2044
2044 2103
2103 2163
2163 2222
2222 2340
2340 2399
2399 2459
2459 2577
2577 2636
2636 2695
2695 2754
2754 2814
2814 2872
2872 2932
2932 2991
2991 3050
3050 3109
3109 3168
3168 3227
3227 3345
3345 3405
3405 3463
3463 3522
3522 3581
3581 3640
3640 3699
3699 3759
3759 3817
3817 3876
3876 3935
3935 4054
4054 4113
4113 4172
4172 4231
4231 4350
4350 4409
4409 4468
4468 4527
4527 4586
4586 4705
4705 4764
4764 4823
4823 4882
4882 5060
5060 5178
5178 5297
5297 5415
5415 5593
5593 5771
5771 5830
5830 6067
6067 6126
6126 6422
6422 6482
6482 6541
6541 6837
6837 7134
7134 7193
7193 7311
7311 7489
7489 7548
7548 7904
7904 8141
8141 8319
8319 8497
8497 8971
8971 9149
9149 9267
9267 9505
9505 9564
9564 9861
9861 9920
9920 10200
10200 10259
10259 10497
10497 10556
10556 10615
10615 10675
10675 10853
10853 10972
10972 11209
11209 11268
11268 11327
11327 11387
11387 11506
11506 11565
11565 11624
11624 11743
11743 11921
11921 12218
12218 12277
12277 12336
12336 12574
12574 12633
12633 12751
12751 12930
12930 13092
13092 13270
13270 13388
13388 13566
13566 13922
13922 13981
13981 14337
14337 14456
14456 14575
14575 14634
14634 14693
14693 14753
14753 14872
14872 14931
14931 14990
14990 15049
15049 15287
15287 15346
15346 15405
15405 15464
15464 15524
15524 15643
15643 15702
15702 15999
15999 16058
16058 16295
16295 16651
16651 16710
16710 17007
17007 17066
17066 17126
17126 17304
17304 17363
17363 17422
17422 17482
17482 17660
17660 17719
17719 17778
17778 17838
17838 18016
18016 18076
18076 18135
18135 18253
18253 18313
18313 18372
18372 18431
18431 18491
18491 18550
18550 18669
18669 18728
18728 18787
18787 18847
18847 18906
18906 18965
18965 19025
19025 19084
19084 19143
19143 19381
19381 19440
19440 19499
19499 19677
19677 19737
19737 19796
19796 19855
19855 19915
19915 19974
19974 20078
20078 20137
20137 20196
20196 20255
20255 20374
20374 20434
20434 20552
20552 20671
20671 20731
20731 20790
20790 20849
20849 20909
20909 20968
20968 21028
21028 21088
21088 21146
21146 21206
21206 21265
21265 21325
21325 21384
21384 21444
21444 21503
21503 21562
21562 21621
21621 21740
21740 21800
21800 21859
21859 22037
22037 22097
22097 22156
22156 22216
22216 22275
22275 22334
22334 22454
22454 22512
22512 22572
22572 22631
22631 22751
22751 22810
22810 22869
22869 22929
22929 22988
22988 23107
23107 23166
23166 23285
23285 23344
23344 23463
23463 23522
23522 23582
23582 23641
23641 23819
23819 23878
23878 23938
23938 24116
24116 24175
24175 24235
24235 24294
24294 24353
24353 24532
24532 24591
24591 24650
24650 24709
24709 24828
24828 24887
24887 25184
25184 25243
25243 25541
25541 25600
25600 25718
25718 25838
25838 26134
26134 26194
26194 26253
26253 26372
26372 26550
26550 26847
26847 26966
26966 27204
27204 27263
27263 27322
27322 27441
27441 27535
27535 27594
27594 27654
27654 27713
27713 27832
27832 27891
27891 28247
28247 28365
28365 28484
28484 28543
28543 28840
28840 28899
28899 29255
29255 29492
29492 29552
29552 29670
29670 29848
29848 29908
29908 30204
30204 30263
30263 30323
30323 30382
30382 30501
30501 30561
30561 30619
30619 30679
30679 30738
30738 30797
30797 30856
30856 30975
30975 31034
31034 31093
31093 31212
31212 31271
31271 31330
31330 31497
31497 31567
31567 31627
31627 31745
31745 31804
31804 31922
31922 32852
32852 33207
33207 33326
33326 33445
33445 33799
33799 34154
34154 34273
34273 34568
34568 34805
34805 35516
35516 35575
35575 35931
35931 36168
36168 36523
36523 36641
36641 36878
36878 36937
36937 37069
37069 37247
37247 37662
37662 38017
38017 38254
38254 38372
38372 38609
38609 38965
38965 39320
39320 39379
39379 39734
39734 39971
39971 40741
40741 41096
41096 41334
41334 41689
41689 41748
41748 42044
42044 42103
42103 42458
42458 42813
42813 43050
43050 43465
43465 43701
43701 43819
43819 44056
44056 44410
44410 44469
44469 44587
44587 44646
44646 44705
44705 44764
44764 44823
44823 44940
44940 45060
45060 45178
45178 45414
45414 45532
45532 45591
45591 45768
45768 46422
46422 46776
46776 47722
47722 48397
48397 49151
49151 49684
49684 49802
49802 50138
50138 50493
50493 50730
50730 51026
51026 51085
51085 51321
51321 51439
51439 51558
51558 51794
51794 52683
52683 53333
53333 53393
53393 53748
53748 54399
54399 55345
