916 1012
1012 1078
1269 1463
1463 1561
1561 1659
1659 1752
1752 1845
1845 1939
1939 2129
2129 2230
2230 2328
2328 2426
2426 2527
2527 2631
2631 2734
2734 2833
2833 2930
2930 3025
3025 3216
3216 3409
3409 3504
3504 3600
3600 3697
3697 3795
3795 3897
3897 4003
4003 4108
4108 4211
4211 4312
4312 4410
4410 4508
4508 4606
4606 4706
4706 4806
4806 4906
4906 5003
5003 5279
5279 5384
5384 5487
5487 5591
5591 5696
5696 5804
5804 5907
5907 5985
5985 6126
6126 6229
6229 6340
6340 6438
6438 6542
6542 6650
6650 6752
6752 6859
6859 6962
6962 7105
7105 7200
7200 7294
7294 7387
7387 7484
7484 7583
7583 7682
7682 7781
7781 8074
8074 8825
8825 8929
8929 9412
9412 9519
9519 9621
9621 9725
9725 9832
9832 9941
9941 10047
10047 10148
10148 10247
10247 10345
10345 10443
10443 10542
10542 10837
10837 11102
11102 11207
11207 11307
11307 11406
11406 11603
11603 11702
11702 12495
12495 12601
12601 12707
12707 12810
12810 12915
12915 13023
13023 13107
13107 13212
13212 13311
13311 13408
13408 13996
13996 14043
14043 14539
14539 14643
14643 14746
14746 14850
14850 14939
14939 15032
15032 15123
15123 15214
15214 15309
15309 15392
15392 15493
15493 15585
15585 15679
15679 15772
15772 15866
15866 15963
15963 16096
16096 16192
16192 16287
16287 16383
16383 16481
16481 16581
16581 16684
16684 16791
16791 16895
16895 16995
16995 17100
17100 17202
17202 17416
17416 17531
17531 17635
17635 17747
17747 17858
17858 17965
17965 18773
18773 18884
18884 18988
18988 19099
19099 19195
19195 19292
19292 19388
19388 19486
19486 19586
19586 19690
19690 19797
19797 19902
19902 20003
20003 20102
20102 20199
20199 20395
20395 20494
20494 20567
20567 20664
20664 20763
20763 20863
20863 20966
20966 21110
21110 21223
21223 21338
21338 21447
21447 21550
21550 21650
21650 21750
21750 21898
21898 21997
21997 22095
22095 22290
22290 22489
22489 22812
22812 22925
22925 23035
23035 23141
23141 23247
23247 23356
23356 23467
23467 23573
23573 23649
23649 23749
23749 23848
23848 23947
23947 24108
24108 24217
24217 24321
24321 24425
24425 24533
24533 24643
24643 24747
24747 24847
24847 24945
24945 25042
25042 25140
25140 25236
25236 25332
25332 25523
25523 25620
25620 25717
25717 25817
25817 25921
25921 26027
26027 26136
26136 26246
26246 26356
26356 26461
26461 26540
26540 26647
26647 26758
26758 26840
26840 26940
26940 27039
27039 27135
27135 27232
27232 27329
27329 27425
27425 27521
27521 27618
27618 27715
27715 27813
27813 27914
27914 28347
28347 28460
28460 28571
28571 28675
28675 28779
28779 28887
28887 28999
28999 29104
29104 29204
29204 29302
29302 29398
29398 29473
29473 29666
29666 29762
29762 29859
29859 29955
29955 30059
30059 30160
30160 30261
30261 30360
30360 30457
30457 30553
30553 30650
30650 30747
30747 30848
30848 30950
30950 31082
31082 31190
31190 31295
31295 31396
31396 31496
31496 31599
31599 31704
31704 31812
31812 31913
31913 32011
32011 32081
32081 32180
32180 32379
32379 32582
32582 32686
32686 32788
32788 32891
32891 32997
32997 33129
33129 33230
33230 33330
33330 33431
33431 33614
33614 33720
33720 33829
33829 34159
34159 34266
34266 34372
34372 34481
34481 34570
34570 34681
34681 34786
34786 34887
34887 34987
34987 35189
35189 35390
35390 35687
35687 35788
35788 35892
