956 1045
1889 1980
1980 2047
2239 2329
2329 2422
2422 2516
2516 2610
2610 2703
2703 2799
2799 2888
2888 2983
2983 3043
3043 3137
3137 3231
3231 3325
3325 3418
3418 3512
3512 3606
3606 3699
3699 3793
3793 3888
3888 3981
3981 4074
4074 4168
4168 4262
4262 4355
4355 4449
4449 4543
4543 4636
4636 4730
4730 4824
4824 4917
4917 5041
5041 5135
5135 5228
5228 5322
5322 5416
5416 5509
5509 5603
5603 5697
5697 5792
5792 5884
5884 5978
5978 6071
6071 6164
6164 6258
6258 6352
6352 6445
6445 6539
6539 6635
6635 6727
6727 6822
6822 6914
6914 7008
7008 7046
7046 7140
7140 7234
7234 7328
7328 7421
7421 7515
7515 7603
7603 7693
7693 7787
7787 7881
7881 7974
7974 8101
8101 8194
8194 8288
8288 8382
8382 8475
8475 8571
8571 8663
8663 8758
8758 8850
8850 8944
8944 9077
9077 9171
9171 9265
9265 9358
9358 9453
9453 9546
9546 9640
9640 9733
9733 9827
9827 9921
9921 10017
10017 10127
10127 10220
10220 10314
10314 10408
10408 10502
10502 10595
10595 10689
10689 10783
10783 10878
10878 10970
10970 11037
11037 11131
