215 307
963 1064
2148 2241
2241 2335
2335 2429
2429 2522
2522 2616
2616 2710
2710 2805
2805 2898
2898 2991
2991 3125
3125 3214
3214 3308
3308 3401
3401 3495
3495 3589
3589 3682
3682 3776
3776 3870
3870 3964
3964 4057
4057 4151
4151 4245
4245 4338
4338 4432
4432 4526
4526 4620
4620 4713
4713 4807
4807 4901
4901 4995
4995 5040
5040 5134
5134 5228
5228 5321
5321 5415
5415 5509
5509 5602
5602 5696
5696 5790
5790 5861
5861 5960
5960 6045
6045 6143
6143 6237
6237 6330
6330 6424
6424 6518
6518 6611
6611 6705
6705 6779
6779 6877
6877 6971
6971 7114
7114 7208
7208 7302
7302 7395
7395 7489
7489 7583
7583 7676
7676 7771
7771 7864
7864 7958
7958 8030
8030 8129
8129 8223
8223 8316
8316 8410
8410 8504
8504 8597
8597 8691
8691 8785
8785 8879
8879 8972
8972 9057
9057 9151
9151 9245
9245 9338
9338 9433
9433 9526
9526 9620
9620 9713
9713 9807
9807 9901
9901 9994
9994 10056
10056 10149
10149 10243
10243 10330
10330 10428
10428 10522
10522 10615
10615 10709
10709 10803
10803 10897
10897 10990
10990 11031
