3307 3406
5269 5369
5660 5760
5959 6128
8971 9071
9144 9243
11822 11894
11894 11993
11993 12086
12086 12180
12180 12274
12274 12368
12368 12461
12461 12555
12555 12649
12649 12742
12742 12836
12836 12930
12930 13024
13024 13118
13118 13211
13211 13305
13305 13374
13374 13473
13473 13542
13542 13635
13635 13729
13729 13823
13823 13916
13916 14010
14010 14104
14104 14198
14198 14291
14291 14385
14385 14479
14479 14573
14573 14666
14666 14760
14760 14854
14854 14947
14947 15020
15020 15056
15056 15150
15150 15245
15245 15337
15337 15431
15431 15524
15524 15618
15618 15712
15712 15806
15806 15899
15899 15993
15993 16060
16060 16154
16154 16249
16249 16341
16341 16435
16435 16530
16530 16622
16622 16716
16716 16810
16810 16904
16904 16997
16997 17122
17122 17216
17216 17309
17309 17403
17403 17497
17497 17590
17590 17684
17684 17778
17778 17872
17872 17965
17965 18039
18039 18133
18133 18226
18226 18320
18320 18414
