3165 3238
3238 3311
3311 3384
3384 3456
3456 3529
3529 3602
3602 3675
3675 3747
3747 3820
3820 3893
3893 3965
3965 4038
4038 4111
4111 4184
4184 4257
4257 4329
4329 4402
4402 4475
4475 4549
4693 4766
