917 1046
1046 1139
1139 1233
1233 1327
1327 1421
1421 1514
1514 1608
1608 1702
1702 1795
1795 1889
1889 1983
1983 2077
2077 2170
2170 2264
2264 2360
2360 2451
2451 2545
2545 2639
2639 2733
2733 2826
2826 2920
2920 3014
3014 3063
3063 3157
3157 3250
3250 3344
3344 3437
3437 3531
3531 3625
3625 3719
3719 3812
3812 3906
3906 3975
3975 4028
4028 4123
4967 5071
8910 9004
9004 9124
10051 10135
