80 182
697 905
905 1010
1413 1596
1906 2113
2113 2218
2218 2320
2320 2425
2425 2631
2631 2734
2734 2834
2834 2936
2936 3034
3034 3135
3135 3234
3234 3335
3335 3437
3437 3538
3538 3641
3641 3742
3742 3846
3846 4049
4049 4151
4151 4353
4353 4455
4455 4554
4554 4657
4657 4758
4758 4859
4859 4961
4961 5041
5041 5133
5133 5236
5236 5336
5336 5438
5438 5538
5538 5640
5640 5844
5844 5946
5946 6046
6046 6145
6145 6246
6246 6346
6346 6445
6445 6546
6546 6647
6647 6744
6744 6845
6845 6944
6944 7040
7040 7139
7139 7236
7236 7337
7337 7436
7436 7538
7538 7616
7616 7717
7717 7820
7820 8026
8026 8128
8128 8228
8228 8330
8330 8529
8529 8629
8629 8727
8727 8828
8828 8928
8928 9029
9029 9130
9130 9229
9229 9330
9330 9430
9430 9533
9533 9635
9635 9736
9736 9838
9838 10040
10040 10141
10141 10240
10240 10341
10341 10442
10442 10517
10517 10618
10618 10820
10820 10922
10922 11124
11124 11226
11226 11325
11325 11403
11403 11505
11505 11607
11607 11710
11710 11890
11890 11995
11995 12099
12099 12178
12178 12283
12283 12493
12493 12599
12599 12809
12809 12914
12914 13017
13017 13121
13121 13326
13326 13430
13430 13532
13532 13635
13635 13737
13737 13837
13837 13938
13938 14062
14062 14168
14168 14270
14270 14375
14375 14478
14478 14579
14579 14683
14683 14788
14788 14890
14890 14996
14996 15091
15091 15197
15197 15300
15300 15407
15407 15613
15613 15719
15719 15824
15824 15940
15940 16091
16091 16198
16198 16383
16383 16489
16489 16591
16591 16696
16696 16799
16799 16906
16906 17013
17013 17118
17118 17226
17226 17438
17438 17544
17544 17648
17648 17756
17756 17863
17863 17969
17969 18066
18066 18170
18170 18273
18273 18378
18378 18483
18483 18589
18589 18696
18696 18911
18911 19043
19043 19153
19153 19371
19371 19481
19481 19587
19587 19696
19696 19907
19907 20013
20013 20057
20057 20163
20163 20266
20266 20373
20373 20558
20558 20664
20664 20877
20877 20983
20983 21087
21087 21194
21194 21299
21299 21406
21406 21513
21513 21591
21591 21696
21696 21905
21905 22011
22011 22116
22116 22224
22224 22333
22333 22439
22439 22548
22548 22655
22655 22762
22762 22869
22869 23081
23081 23187
23187 23396
23396 23500
23500 23602
23602 23706
23706 23810
23810 23912
23912 24018
24018 24126
24126 24232
24232 24342
24342 24451
24451 24561
24561 24673
24673 24896
24896 25008
25008 25115
25115 25225
25225 25334
25334 25441
25441 25550
25550 25764
25764 25872
25872 25975
25975 26053
26053 26158
26158 26368
26368 26473
26473 26576
26576 26682
26682 26788
26788 26891
26891 26997
26997 27206
27206 27310
27310 27517
27517 27621
27621 27727
27727 27835
27835 27940
27940 28049
28049 28265
28265 28375
28375 28480
28480 28588
28588 28691
28691 28797
28797 28900
28900 29002
29002 29107
29107 29212
29212 29317
29317 29427
29427 29620
29620 29731
29731 29949
29949 30058
30058 30165
30165 30274
30274 30487
30487 30594
30594 30807
30807 30914
30914 31128
31128 31237
31237 31344
31344 31454
31454 31670
31670 31776
31776 31879
31879 31985
31985 32193
32193 32298
32298 32510
32510 32617
32617 32830
32830 32936
32936 33082
33082 33188
33188 33296
33296 33402
33402 33511
33511 33726
33726 33835
33835 34049
34049 34259
34259 34365
34365 34471
34471 34576
34576 34683
34683 34789
34789 34893
34893 35001
35001 35066
35066 35175
35175 35283
35283 35392
35392 35602
35602 35707
35707 35815
35815 35921
35921 36030
36030 36084
36084 36195
36195 36302
36302 36411
36411 36622
36622 36728
36728 36833
36833 36936
36936 37092
37092 37204
37204 37313
37313 37425
37425 37642
37642 37750
37750 37857
37857 37964
37964 38068
38068 38176
38176 38390
38390 38498
38498 38714
38714 38823
38823 39016
39016 39071
39071 39177
39177 39387
39387 39491
39491 39594
39594 39700
39700 39910
39910 40018
40018 40115
40115 40222
40222 40326
40326 40432
40432 40538
40538 40643
40643 40751
40751 40969
40969 41079
41079 41186
41186 41295
41295 41403
41403 41510
41510 41618
41618 41810
41810 41921
41921 42140
42140 42250
42250 42356
42356 42464
42464 42675
42675 42781
42781 42997
42997 43211
43211 43320
43320 43537
43537 43646
43646 43728
43728 43838
43838 43945
43945 44066
44066 44164
44164 44262
44262 44358
44358 44454
44454 44549
44549 44643
44643 44735
44735 44829
