76 211
347 615
615 751
1017 1281
1551 1952
1952 2086
2086 2218
2218 2744
2744 2875
2875 3297
3297 3571
3571 5097
5097 5234
5234 5367
5367 6179
6179 6292
6292 6353
6353 6418
6418 6544
6544 6767
6767 6893
6893 7021
7021 7148
7148 7527
7527 7657
7657 7785
7785 8166
8166 8294
8294 8422
8422 8677
8677 8809
8809 8940
8940 9126
9126 9258
9258 9517
9517 9644
9644 9767
9767 9894
9894 10021
10021 10110
10110 10244
10244 10377
10377 10510
10510 10645
10645 10781
10781 10915
10915 11047
11047 11184
11184 11323
11323 11461
11461 11601
11601 11741
