2079 2201
2914 3034
3946 4056
4901 4983
4983 5061
5513 5718
5718 5834
5834 5962
5962 6130
6130 6234
6234 6353
6353 6458
6458 6572
6572 6686
6686 6810
6810 6927
6927 7067
7067 7182
7182 7303
7303 7409
7409 7533
7533 7644
7644 7774
