942 1133
4683 4800
11002 11051
12891 13085
13958 14105
14105 14213
14213 14325
14325 14434
14434 14543
14543 14652
14652 14765
14765 14876
14876 14985
14985 15098
15098 15209
15209 15322
15322 15435
15435 15549
15549 15663
15663 15776
15776 15890
15890 15992
15992 16101
16101 16219
16219 16330
16330 16446
16446 16551
16551 16666
16666 16774
16774 16889
16889 16995
16995 17041
17041 17151
17151 17259
17259 17370
17370 17481
17481 17591
17591 17700
17700 17812
17812 17915
17915 18030
18030 18140
18140 18248
18248 18352
18352 18464
18464 18574
18574 18682
18682 18792
18792 18898
18898 19007
19007 19116
19116 19223
19223 19322
19322 19436
19436 19545
19545 19655
19655 19764
19764 19872
