14 72
544 637
637 732
3851 3944
3944 4073
4923 5047
11915 12012
12012 12054
12927 13024
13024 13148
13148 13246
13246 13345
13345 13443
13443 13540
13540 13638
13638 13736
13736 13832
13832 13930
13930 14026
14026 14122
14122 14218
14218 14314
14314 14504
14504 14599
14599 14694
14694 14789
14789 14882
14882 14976
14976 15070
15070 15163
15163 15256
15256 15350
15350 15443
15443 15536
15536 15629
15629 15722
15722 15818
15818 15911
15911 16004
16004 16096
16096 16189
16189 16282
16282 16373
16373 16466
16466 16559
16559 16605
16605 16651
16651 16745
16745 16837
16837 16929
16929 17013
17013 17063
17063 17113
17113 17205
17205 17297
17388 17480
17846 17939
17939 18030
18213 18256
18256 18305
18856 18896
18896 18948
19174 19223
19223 19315
19315 19405
19405 19497
19497 19589
19589 19681
19681 19772
19772 19864
19864 19955
19955 20047
20047 20138
20138 20230
20230 20321
20321 20412
20412 20503
20503 20595
20595 20687
20687 20778
20778 20869
20869 20961
20961 21052
21052 21143
21143 21233
21233 21325
21325 21417
21417 21507
21507 21598
21598 21690
21690 21781
21781 21873
21873 21964
21964 22056
22056 22145
22145 22236
22236 22327
22327 22417
22417 22509
22509 22600
22600 22691
22691 22780
22780 22871
22871 22914
22914 22962
22962 23053
23053 23145
23145 23236
23236 23326
23326 23418
23418 23509
23509 23601
23601 23692
23692 23784
23784 23876
23876 23966
23966 24036
24036 24127
24127 24218
24218 24308
24308 24399
24399 24490
24490 24580
24580 24671
24671 24762
24762 24852
24852 24942
24942 25033
25033 25124
25124 25217
25217 25305
25305 25395
25395 25486
25486 25575
25575 25665
25665 25756
25756 25846
25846 25936
25936 26026
26026 26117
26117 26207
26207 26298
26298 26388
26388 26478
26478 26569
26569 26659
26659 26748
26748 26839
26839 26930
26930 27020
27020 27110
27110 27201
27201 27293
27293 27383
27383 27473
27473 27565
27565 27656
27656 27746
27746 27837
27837 27929
27929 28020
28020 28110
28110 28202
28202 28293
28293 28382
28382 28474
28474 28565
28565 28656
28656 28746
28746 28836
28836 28928
28928 29018
29018 29108
29108 29199
29199 29290
29290 29381
29381 29471
29471 29562
29562 29653
29653 29742
29742 29834
29834 29925
29925 30016
30016 30105
30105 30197
30197 30288
30288 30378
30378 30468
30468 30560
30560 30651
30651 30741
30741 30832
30832 30923
30923 31014
31014 31105
31105 31196
31196 31287
31287 31378
