26 102
6447 6537
6537 6628
6810 6900
6900 6992
7904 7994
7994 8086
9275 9366
12942 13033
13033 13125
19987 20114
20292 20380
20380 20470
22140 22181
22181 22227
23006 23093
23093 23179
23179 23264
23264 23350
23350 23436
23436 23522
23522 23608
23608 23694
23694 23780
23780 23866
23866 23952
23952 24037
24037 24123
24123 24209
24209 24295
24295 24381
24381 24466
24466 24552
24552 24638
24638 24724
24724 24810
24810 24897
24897 24982
24982 25068
25068 25154
25154 25239
25239 25325
25325 25411
25411 25496
25496 25581
25581 25667
25667 25753
25753 25839
25839 25923
25923 26009
26009 26095
26095 26180
26180 26266
26266 26327
26327 26413
26413 26498
26498 26584
26584 26671
26671 26756
26756 26842
26842 26928
26928 27014
27014 27100
27100 27185
27185 27270
27270 27357
27357 27441
27441 27528
27528 27614
27614 27700
27700 27785
27785 27871
27871 27958
27958 28044
28044 28130
28130 28216
28216 28302
28302 28388
28388 28475
28475 28562
28562 28648
28648 28735
28735 28822
28822 28910
28910 28997
28997 29084
29084 29172
29172 29260
29260 29348
29348 29436
29436 29524
29524 29612
29612 29700
29700 29788
29788 29876
29876 29964
29964 30053
30053 30140
30140 30228
30228 30316
30316 30404
30404 30491
30491 30580
30580 30668
30668 30756
30756 30843
30843 30931
30931 31019
31019 31107
31107 31195
31195 31283
31283 31372
31372 31460
31460 31548
31548 31637
31637 31725
31725 31814
31814 31902
31902 31990
31990 32079
32079 32168
32168 32257
32257 32346
32346 32435
32435 32524
32524 32613
32613 32701
32701 32791
32791 32880
32880 32970
32970 33059
33059 33148
33148 33238
33238 33328
33328 33417
33417 33507
33507 33596
33596 33686
33686 33776
33776 33866
33866 33956
33956 34046
34046 34136
34136 34226
34226 34316
34316 34406
34406 34496
34496 34587
34587 34678
34678 34768
34768 34857
34857 34948
34948 35038
35038 35128
35128 35217
35217 35308
35308 35398
35398 35488
35488 35577
35577 35668
35668 35758
35758 35847
35847 35936
35936 36026
36026 36116
36116 36206
36206 36295
36295 36384
36384 36474
36474 36563
36563 36652
36652 36742
36742 36832
36832 36921
36921 37010
37010 37100
37100 37189
37189 37278
37278 37368
37368 37457
37457 37546
37546 37636
37636 37725
37725 37813
37813 37903
37903 37992
37992 38081
38081 38170
38170 38260
38260 38349
38349 38438
38438 38527
38527 38617
38617 38706
38706 38795
38795 38886
38886 38975
38975 39065
39065 39154
39154 39245
39245 39335
39335 39425
39425 39514
39514 39605
39605 39695
39695 39785
39785 39874
39874 39965
39965 40055
40055 40145
40145 40235
40235 40325
40325 40415
40415 40505
40505 40595
40595 40686
40686 40776
40776 40866
40866 40956
40956 41047
41047 41137
41137 41228
41228 41318
41318 41409
41409 41500
41500 41590
41590 41681
41681 41772
41772 41863
41863 41954
41954 42045
42045 42136
42136 42227
42227 42318
42318 42409
42409 42500
42500 42592
42592 42683
42683 42774
42774 42865
42865 42957
42957 43048
43048 43139
43139 43230
43230 43321
43321 43413
43413 43504
43504 43595
43595 43686
43686 43777
43777 43868
43868 43959
43959 44050
44050 44141
44141 44232
44232 44323
44323 44414
44414 44505
44505 44595
44595 44687
44687 44778
44778 44868
44868 44958
44958 45049
45049 45140
45140 45231
45231 45321
45321 45412
45412 45503
45503 45593
45593 45684
45684 45774
45774 45865
45865 45955
45955 46045
46045 46136
46136 46226
46226 46316
46316 46406
46406 46497
46497 46588
46588 46678
46678 46768
46768 46859
46859 46950
46950 47040
47040 47131
47131 47222
47222 47312
47312 47403
47403 47493
47493 47584
47584 47675
47675 47765
47765 47856
47856 47947
47947 48037
48037 48127
48127 48218
48218 48308
48308 48398
48398 48489
48489 48580
48580 48670
48670 48760
48760 48851
48851 48941
48941 49031
49031 49121
49121 49212
49212 49302
49302 49392
49392 49482
49482 49572
49572 49662
49662 49752
49752 49843
49843 49933
49933 50022
50022 50112
50112 50203
50203 50293
50293 50382
50382 50472
50472 50562
50562 50652
50652 50740
50740 50830
50830 50920
50920 51009
51009 51099
51099 51189
51189 51278
51278 51368
51368 51457
51457 51547
51547 51615
51615 51705
51705 51795
51795 51886
51886 51976
51976 52067
52067 52157
52157 52247
52247 52338
52338 52428
52428 52518
52518 52610
52610 52700
52700 52790
52790 52880
52880 52970
52970 53060
53060 53151
53151 53242
53242 53332
53332 53422
53422 53513
53513 53603
53603 53694
53694 53783
53783 53874
53874 53965
53965 54055
54055 54146
54146 54237
54237 54327
54327 54418
54418 54508
54508 54598
54598 54689
54689 54779
54779 54869
54869 54959
54959 55049
55049 55140
55140 55230
55230 55320
55320 55410
55410 55500
55500 55590
55590 55680
55680 55769
55769 55860
55860 55950
55950 56039
56039 56129
56129 56218
56218 56308
56308 56397
56397 56487
56487 56576
56576 56640
56640 56730
56730 56819
56819 56907
56907 56997
56997 57085
57085 57175
57175 57263
57263 57353
57353 57442
57442 57531
57531 57619
57619 57708
57708 57797
57797 57886
57886 57974
57974 58062
58062 58151
58151 58239
58239 58327
58327 58415
58415 58504
58504 58592
