176 286
286 396
837 946
946 1045
1593 1702
1702 1811
1920 2139
2901 3105
3105 3215
3215 3324
3324 3434
3434 3544
3544 3653
3653 3763
3763 3872
3872 3981
3981 4050
4270 4380
4380 4488
5698 5919
5919 6029
6029 6250
6250 6359
6359 6470
6470 6581
6581 6690
6690 6800
6800 6910
6910 7020
7020 7131
7131 7241
7241 7351
7351 7460
7460 7571
7571 7680
7680 7790
7790 7900
7900 8010
8010 8120
8120 8230
8230 8424
8424 8534
8534 8644
8644 8754
8754 8863
8863 8974
8974 9083
9083 9194
9194 9304
9304 9414
9414 9524
9524 9634
9634 9744
9744 9855
9855 9966
9966 10076
10076 10187
10187 10297
10297 10519
10519 10629
10629 10740
10740 10850
10850 10960
10960 11071
11071 11181
11181 11292
11292 11402
11402 11513
11513 11622
11622 11733
11733 11843
11843 11952
11952 12063
12063 12173
12173 12282
12282 12392
12392 12438
12438 12586
12586 12696
12696 12805
12805 13025
13025 13109
13109 13219
13219 13329
13329 13438
13438 13657
13657 13767
13767 13876
13876 13986
13986 14059
14059 14169
14169 14278
14278 14499
14499 14608
14608 14697
14697 14807
14807 14917
14917 15026
15026 15137
15137 15247
15247 15356
15356 15467
15467 15577
15577 15687
15687 15798
15798 15908
15908 16099
16099 16208
16208 16319
16319 16429
16429 16650
16650 16759
16759 16869
16869 16979
16979 17088
17088 17198
17198 17308
17308 17417
17417 17527
17527 17636
17636 17746
17746 17855
17855 18074
18074 18181
18181 18290
18290 18399
18399 18507
18507 18615
18615 18723
18723 18831
18831 18939
18939 19047
19047 19153
19153 19261
19261 19368
19368 19583
19583 19691
19691 19798
19798 19905
19905 20013
20013 20068
20068 20176
20176 20286
20286 20394
20394 20501
20501 20610
20610 20717
20717 20826
20826 20934
20934 21263
21263 21309
21309 21369
21369 21582
21582 21687
21687 21793
21793 21899
21899 22004
22004 22110
22110 22215
22215 22321
22321 22471
22471 22533
22533 22744
22744 22850
22850 22956
22956 23109
23109 23153
23153 23249
23249 23301
23301 23354
23354 23411
23411 23454
23454 23512
23512 23561
23561 23618
23618 23657
23657 23713
23713 23761
23761 23812
23812 23859
23859 23913
23913 23959
23959 24013
24013 24058
24058 24160
24160 24216
24216 24261
24261 24311
24311 24356
24356 24411
24411 24455
24455 24510
24510 24553
24553 24613
24613 24656
24656 24707
24707 24751
24751 24805
24952 25002
25044 25101
25101 25147
25147 25200
25200 25244
25244 25298
25298 25342
25342 25396
25396 25440
25440 25494
25494 25536
25536 25593
25593 25637
25637 25691
25691 25752
25752 25832
25832 25887
25887 25929
25929 25990
25990 26029
26029 26085
26085 26130
26130 26177
26177 26232
26232 26326
26326 26381
26381 26429
26429 26481
26481 26525
26525 26581
26581 26625
26625 26679
26679 26720
26720 26780
26780 26831
26831 26879
26879 26923
26923 26982
26982 27024
27024 27080
27080 27123
27123 27222
27222 27279
27279 27324
27324 27380
27380 27434
27434 27485
27485 27523
27523 27579
27579 27623
27623 27679
27679 27726
27726 27780
27780 27825
27825 27880
27880 27924
27924 27980
27980 28022
28022 28081
28081 28125
28125 28217
28217 28256
28256 28358
28358 28401
28401 28460
28460 28503
28503 28560
28560 28662
28662 28706
28706 28764
28764 28808
28808 28866
28866 28968
28968 29015
29015 29070
29070 29173
29173 29221
29221 29276
29276 29318
29318 29378
29378 29481
29481 29526
29526 29584
29584 29629
29629 29687
29687 29790
29790 29832
29832 29893
29893 29936
29936 29996
29996 30100
30100 30203
30203 30306
30306 30410
30410 30513
30513 30618
30618 30665
30665 30723
30723 30766
30766 30826
30826 30931
30931 31035
31035 31079
31079 31140
31140 31184
31184 31244
31244 31348
31348 31453
31453 31557
31557 31662
31662 31766
31766 31870
31870 31975
31975 32079
32079 32183
32183 32229
32229 32288
32288 32393
32393 32497
32497 32602
32602 32706
32706 32811
32811 32916
32916 33020
33020 33126
33126 33230
33230 33336
33336 33441
33441 33545
33545 33651
33651 33756
33756 33860
33860 33966
33966 34010
34010 34071
34071 34175
34175 34280
34280 34385
34385 34489
34489 34593
34593 34697
34697 34802
34802 34906
34906 35012
35012 35117
35117 35161
35161 35222
35222 35334
35334 35433
35433 35538
35538 35644
35644 35749
35749 35856
35856 35962
35962 36067
36067 36175
36175 36281
36281 36387
36387 36494
36494 36601
36601 36708
