94 203
203 311
311 420
961 1070
1070 1178
1178 1287
1830 1939
1939 2047
3351 3459
3459 3567
3567 3675
3837 3892
4435 4545
4545 4654
4981 5090
5090 5175
5611 5720
5720 5829
5829 5938
6208 6266
6266 6375
6375 6421
6421 6484
6484 6594
6594 6639
6639 6703
6703 6813
6813 6922
6922 7031
7031 7141
7141 7249
7249 7359
7359 7406
7406 7468
7468 7578
7578 7686
7686 7796
7796 7905
7905 8014
8014 8123
8123 8233
8233 8343
8343 8451
8451 8561
8561 8670
8670 8779
8779 8889
8889 8998
8998 9107
9107 9217
9217 9326
9326 9435
9435 9544
9544 9654
9654 9763
9763 9873
9873 9983
9983 10091
10091 10201
10201 10310
10310 10420
10420 10529
10529 10639
10639 10748
10748 10857
10857 10967
10967 11076
11076 11185
11185 11294
11294 11404
11404 11513
11513 11623
11623 11675
11675 11732
11732 11842
11842 11952
11952 12061
12061 12171
12171 12281
12281 12390
12390 12499
12499 12610
12610 12719
12719 12828
12828 12938
12938 13047
13047 13157
13157 13267
13267 13319
13319 13376
13376 13485
13485 13594
13594 13704
13704 13813
13813 13923
13923 13973
13973 14032
14032 14121
14121 14230
14230 14314
14314 14423
14423 14533
14533 14642
14642 14751
14751 14861
14861 14914
14914 14970
14970 15080
15080 15189
15189 15243
15243 15299
15299 15354
15354 15408
15408 15519
15519 15629
15629 15738
15738 15849
15849 15959
15959 16070
16070 16180
16180 16290
16290 16401
16401 16510
16510 16621
16621 16732
16732 16842
16842 16952
16952 17063
17063 17174
17174 17284
17284 17394
17394 17505
17505 17615
17615 17726
17726 17836
17836 17946
17946 18057
18057 18167
18167 18277
18277 18387
18387 18498
18498 18608
18608 18718
18718 18828
18828 18939
18939 18993
18993 19050
19050 19160
19160 19271
19271 19381
19381 19492
19492 19603
19603 19657
19657 19713
19713 19823
19823 19933
19933 20044
20044 20154
20154 20264
20264 20375
20375 20484
20484 20595
20595 20705
20705 20815
20815 20926
20926 21036
21036 21147
21147 21257
21257 21313
21313 21367
21367 21478
21478 21588
21588 21699
21699 21809
21809 21920
21920 22031
22031 22079
22079 22141
22141 22226
22226 22337
22337 22448
22448 22495
22495 22558
22558 22669
22669 22779
22779 22890
22890 23000
23000 23110
23110 23220
23220 23331
23331 23441
23441 23551
23551 23661
23661 23713
23713 23771
23771 23882
23882 23992
23992 24103
24103 24213
24213 24323
24323 24434
24434 24544
24544 24654
24654 24764
24764 24875
24875 24984
24984 25095
25095 25205
25205 25315
25315 25425
25425 25535
25535 25646
25646 25756
25756 25867
25867 25977
25977 26087
26087 26197
26197 26307
26307 26417
26417 26527
26527 26637
26637 26747
26747 26857
26857 26968
26968 27077
27077 27188
27188 27298
27298 27408
27408 27518
27518 27628
27628 27739
27739 27849
27849 27959
27959 28069
28069 28179
28179 28290
28290 28401
28401 28511
28511 28622
28622 28733
28733 28844
28844 28955
28955 29040
29040 29150
29150 29261
29261 29372
29372 29482
29482 29593
29593 29704
29704 29814
29814 29925
29925 30036
30036 30147
30147 30258
30258 30369
30369 30479
30479 30590
30590 30701
30701 30811
30811 30922
30922 30974
30974 31032
31032 31143
31143 31254
31254 31364
31364 31474
31474 31585
31585 31696
31696 31806
31806 31917
31917 32027
32027 32139
32139 32250
32250 32360
32360 32470
32470 32556
32556 32666
32666 32776
32776 32887
32887 32998
32998 33219
33219 33329
33329 33440
33440 33551
33551 33662
33662 33772
33772 33883
33883 33941
33941 33994
33994 34105
34105 34216
34216 34326
34326 34437
34437 34548
34548 34659
34659 34770
34770 34881
34881 34992
34992 35103
35103 35213
35213 35324
35324 35435
35435 35546
35546 35656
35656 35768
35768 35878
35878 35989
35989 36101
36101 36211
36211 36322
36322 36433
36433 36544
36544 36654
36654 36766
36766 36876
36876 36987
36987 37098
37098 37208
37208 37319
37319 37430
37430 37476
37476 37541
37541 37626
37626 37737
37737 37848
37848 37959
37959 38070
38070 38181
38181 38292
38292 38403
38403 38514
38514 38625
38625 38737
38737 38847
38847 38959
38959 39070
39070 39181
39181 39293
39293 39403
39403 39514
39514 39600
39600 39711
39711 39821
39821 39933
39933 40043
40043 40154
40154 40265
40265 40375
40375 40486
40486 40571
40571 40682
40682 40792
40792 40903
40903 41014
41014 41123
41123 41234
41234 41289
41289 41344
41344 41455
41455 41566
41566 41675
41675 41786
41786 41896
41896 42006
42006 42117
42117 42227
42227 42336
42336 42447
42447 42557
42557 42668
42668 42715
42715 42779
42779 42864
42864 42974
42974 43085
43085 43195
43195 43305
43305 43416
43416 43466
43466 43526
43526 43637
43637 43747
43747 43858
43858 43969
43969 44079
44079 44190
44190 44245
44245 44300
44300 44411
44411 44522
44522 44632
44632 44743
44743 44853
44853 44964
44964 45074
45074 45185
45185 45233
45233 45295
45295 45384
45384 45494
45494 45604
45604 45714
45714 45825
45825 45935
45935 46046
46046 46157
46157 46267
46267 46463
46463 46574
46574 46684
46684 46730
46730 46794
46794 46885
46885 46995
46995 47105
47105 47215
47215 47325
47325 47436
47436 47546
47546 47656
47656 47766
47766 47877
47877 47987
47987 48096
48096 48207
48207 48262
48262 48317
48317 48427
48427 48537
48537 48647
48647 48757
48757 48868
48868 48978
48978 49088
49088 49198
49198 49308
49308 49360
49360 49418
49418 49528
49528 49639
49639 49748
49748 49859
49859 49969
49969 50080
50080 50190
50190 50301
50301 50412
50412 50523
50523 50633
50633 50743
50743 50854
50854 50965
50965 51076
51076 51187
51187 51297
51297 51407
51407 51465
51465 51518
51518 51628
51628 51739
51739 51849
51849 51959
51959 52069
52069 52180
52180 52289
52289 52400
52400 52510
52510 52621
52621 52732
52732 52842
52842 52952
52952 53062
53062 53173
53173 53283
53283 53394
53394 53504
53504 53614
53614 53725
53725 53834
53834 53945
53945 54054
54054 54165
54165 54219
54219 54275
54275 54385
54385 54495
54495 54605
54605 54715
54715 54825
54825 54873
54873 54935
54935 55045
55045 55155
55155 55264
55264 55374
55374 55483
55483 55594
55594 55643
55643 55703
55703 55787
55787 55898
55898 56007
56007 56117
56117 56164
56164 56225
56225 56334
56334 56391
56391 56435
56435 56530
56530 56638
56638 56688
56688 56745
56745 56789
56789 56853
56853 56903
56903 56961
56961 57087
57087 57131
57131 57190
57190 57234
57234 57293
57293 57339
57339 57396
57396 57442
57442 57500
57500 57577
57577 57680
57680 57726
57726 57782
57782 57861
57861 57906
57906 57963
57963 58006
58006 58116
58116 58170
58170 58215
58215 58375
58375 58418
58418 58477
58477 58523
58523 58579
58579 58624
58624 58682
58682 58730
58730 58784
58784 58845
58845 58887
58887 58933
58933 58990
58990 59037
59037 59171
59171 59218
59218 59273
59273 59319
59319 59377
59377 59422
59422 59480
59480 59528
59528 59582
59582 59686
59686 59732
59732 59788
59788 59892
59892 59939
59939 59996
59996 60041
60041 60098
60098 60202
60202 60248
60248 60305
60305 60408
60408 60512
60512 60555
60555 60615
60615 60720
60720 60766
60766 60823
60823 60928
60928 60972
60972 61033
61033 61137
61137 61183
61183 61241
61241 61286
61286 61346
61346 61451
61451 61556
61556 61660
61660 61765
61765 61812
61812 61870
61870 61915
61915 61976
61976 62023
62023 62081
62081 62129
62129 62186
62186 62291
62291 62396
62396 62439
62439 62501
62501 62581
62581 62688
62688 62737
62737 62793
62793 62899
62899 62943
62943 63004
63004 63085
63085 63190
63190 63237
63237 63296
63296 63342
63342 63401
63401 63506
63506 63612
63612 63717
63717 63823
63823 63870
63870 63930
63930 63975
63975 64035
64035 64142
64142 64248
