10 108
108 212
699 778
891 1003
1178 1257
1370 1484
1582 1636
2040 2076
2076 2115
2115 2151
2151 2230
2230 2346
2346 2417
2417 2534
2534 2596
2596 2632
2632 2707
2707 2807
2807 2898
2898 2998
2998 3113
3113 3175
3175 3229
3229 3304
3304 3379
3379 3479
3479 3558
3558 3594
3594 3656
3656 3692
3692 3754
3754 3871
3871 3985
3985 4088
4088 4178
4178 4276
4276 4363
4363 4465
4465 4569
4569 4657
4657 4744
4744 4782
4782 4873
4873 4971
4971 5034
5034 5086
5086 5125
5125 5165
5165 5227
5227 5342
5342 5458
5458 5517
5517 5631
5631 5731
5731 5844
5844 5921
5921 5962
5962 6012
6012 6070
6070 6147
6147 6265
6265 6363
6363 6453
6453 6551
6551 6671
6671 6746
6746 6867
6867 6944
6944 7059
7059 7134
7134 7248
7248 7352
7352 7425
7425 7502
7502 7540
7540 7617
7617 7708
7708 7806
