4735 4819
4819 4878
22923 23066
26957 27042
33113 33196
33196 33253
43814 43897
43897 43955
51694 51780
52439 52524
52524 52585
52922 53005
53005 53063
53063 53146
53146 53228
53228 53310
53310 53392
53392 53475
53475 53558
53558 53641
53641 53724
53724 53808
53808 53892
53892 53977
53977 54061
54061 54145
54145 54231
54231 54309
54309 54399
54399 54484
54484 54569
54569 54654
54654 54738
54738 54822
54822 54906
54906 54990
54990 55075
55075 55159
55159 55242
55242 55327
55327 55411
55411 55496
55496 55580
55580 55665
55665 55750
55750 55835
55835 55920
55920 56004
56004 56090
56090 56175
56175 56260
56260 56344
56344 56428
56428 56513
56513 56598
56598 56682
56682 56766
56766 56852
56852 56937
56937 57021
57021 57106
57106 57192
57192 57278
57278 57363
57363 57449
57449 57534
57534 57620
57620 57705
57705 57790
57790 57874
57874 57959
57959 58044
58044 58128
58128 58212
58212 58295
58295 58380
58380 58463
58463 58546
58546 58629
58629 58713
58713 58796
58796 58879
58879 58962
58962 59045
59045 59129
59129 59212
59212 59295
59295 59378
59378 59462
59462 59546
59546 59630
59630 59714
59714 59798
59798 59882
59882 59967
59967 60051
60051 60134
60134 60219
60219 60304
60304 60389
60389 60474
60474 60559
60559 60644
60644 60730
60730 60814
60814 60898
60898 60984
60984 61069
61069 61154
61154 61238
61238 61323
61323 61408
61408 61492
61492 61576
61576 61660
61660 61745
61745 61829
61829 61913
61913 61997
61997 62081
62081 62165
62165 62250
62250 62333
62333 62417
62417 62501
62501 62585
62585 62668
62668 62750
62750 62833
62833 62917
62917 63000
63000 63084
63084 63167
63167 63251
63251 63335
63335 63419
63419 63502
63502 63587
63587 63671
63671 63756
63756 63840
63840 63925
63925 64010
64010 64095
64095 64179
64179 64263
64263 64347
64347 64432
64432 64515
64515 64599
64599 64683
64683 64767
64767 64852
64852 64936
64936 65020
65020 65083
65083 65166
65166 65250
65250 65334
65334 65417
65417 65500
65500 65584
65584 65667
65667 65751
65751 65833
65833 65916
65916 66000
66000 66083
66083 66165
66165 66248
66248 66331
66331 66414
66414 66496
66496 66578
66578 66661
66661 66744
66744 66826
66826 66909
66909 66991
66991 67075
67075 67159
67159 67243
67243 67326
67326 67411
67411 67495
67495 67579
67579 67663
