121 194
194 267
267 340
340 414
414 487
487 560
560 633
633 707
707 780
780 854
854 927
927 999
999 1115
1115 1189
1189 1262
1262 1337
1337 1411
1411 1485
1485 1558
1558 1632
1632 1706
1706 1781
1781 1855
1855 1929
1929 2003
2003 2078
2078 2152
2152 2227
2227 2302
2302 2375
2375 2451
2451 2526
2526 2601
2601 2676
2676 2749
2749 2825
2825 2900
2900 2975
2975 3050
3050 3124
3124 3200
3200 3275
3275 3351
3351 3425
3425 3500
3500 3575
3575 3650
3650 3726
3726 3801
3801 3875
3875 3950
3950 4026
4026 4101
4101 4176
4176 4251
4251 4326
4326 4402
4402 4478
4478 4553
4553 4628
4628 4705
4705 4781
4781 4857
4857 4932
4932 5008
5008 5084
5084 5135
5135 5212
5212 5287
5287 5362
5362 5438
5438 5514
5514 5589
5589 5664
5664 5739
5739 5814
5814 5890
5890 5965
5965 6040
6040 6115
6115 6191
6191 6266
6266 6342
6342 6418
6418 6493
6493 6569
6569 6645
6645 6721
6721 6796
6796 6871
6871 6947
6947 7023
7023 7099
7099 7174
7174 7250
7250 7326
7326 7403
7403 7479
7479 7555
7555 7631
7631 7708
7708 7784
7784 7861
7861 7937
7937 8013
8013 8061
8061 8138
8138 8215
8215 8292
8292 8368
8368 8444
8444 8521
8521 8599
8599 8676
8676 8752
8752 8829
8829 8906
8906 8984
8984 9062
9062 9138
9138 9215
9215 9293
9293 9370
9370 9448
9448 9524
9524 9601
9601 9679
9679 9757
9757 9835
9835 9911
9911 9989
9989 10066
10066 10144
10144 10222
10222 10298
10298 10376
10376 10454
10454 10531
10531 10608
10608 10684
10684 10762
10762 10840
10840 10918
10918 10995
10995 11072
11072 11150
11150 11228
11228 11306
11306 11383
11383 11460
11460 11538
11538 11616
11616 11693
11693 11770
11770 11847
11847 11925
11925 12003
12003 12081
12081 12158
12158 12235
12235 12313
12313 12390
12390 12468
12468 12544
12544 12622
12622 12699
12699 12777
12777 12854
12854 12930
12930 13008
13008 13086
13086 13164
13164 13241
13241 13318
13318 13396
13396 13474
13474 13527
13527 13604
13604 13681
13681 13759
13759 13837
13837 13915
13915 13992
13992 14070
14070 14148
14148 14226
14226 14304
14304 14381
14381 14459
14459 14537
14537 14615
14615 14693
14693 14769
14769 14847
14847 14925
14925 15003
15003 15080
15080 15157
15157 15235
15235 15313
15313 15391
15391 15469
15469 15546
15546 15624
15624 15703
15703 15781
15781 15858
15858 15935
15935 16013
16013 16104
16104 16182
16182 16259
16259 16336
16336 16414
16414 16491
16491 16569
16569 16647
16647 16724
16724 16802
16802 16880
16880 16958
16958 17035
17035 17113
17113 17191
17191 17269
17269 17347
17347 17424
17424 17502
17502 17580
17580 17658
17658 17736
17736 17813
17813 17891
17891 17969
17969 18035
18035 18114
18114 18191
18191 18269
18269 18348
18348 18427
18427 18505
18505 18583
18583 18662
18662 18741
18741 18821
18821 18899
18899 18977
18977 19056
19056 19135
19135 19214
19214 19293
19293 19370
19370 19450
19450 19529
19529 19608
19608 19686
19686 19765
19765 19844
19844 19922
19922 20001
20001 20047
20047 20177
20177 20257
20257 20335
20335 20414
20414 20545
20545 20625
20625 20704
20704 20783
20783 20862
20862 20935
20935 21015
21015 21116
21116 21195
21195 21274
21274 21355
21355 21435
21435 21516
21516 21595
21595 21675
21675 21756
21756 21836
21836 21916
21916 21996
21996 22045
22045 22125
22125 22206
22206 22286
22286 22365
22365 22445
22445 22526
22526 22607
22607 22687
22687 22766
22766 22847
22847 22927
22927 23007
23007 23086
23086 23165
23165 23244
23244 23324
23324 23403
23403 23481
23481 23559
23559 23639
23639 23719
23719 23798
23798 23876
23876 23955
23955 24034
24034 24113
24113 24193
24193 24270
24270 24350
24350 24429
24429 24508
24508 24587
24587 24665
24665 24745
24745 24825
24825 24904
24904 24983
24983 25057
25057 25141
25141 25221
25221 25300
25300 25378
25378 25457
25457 25511
25511 25590
25590 25669
25669 25747
25747 25827
25827 25906
25906 25986
25986 26066
26066 26144
26144 26225
26225 26305
26305 26386
26386 26465
26465 26544
26544 26625
26625 26705
26705 26786
26786 26865
26865 26945
26945 27026
27026 27107
27107 27187
27187 27266
27266 27347
27347 27428
27428 27509
27509 27588
27588 27668
27668 27749
27749 27829
27829 27909
27909 27988
27988 28068
28068 28149
28149 28229
28229 28309
28309 28388
28388 28468
28468 28549
28549 28629
28629 28709
28709 28789
28789 28869
