970 1025
1468 1523
1523 1600
1600 1672
1672 1736
1736 1838
1838 1918
1918 2040
2040 2118
2118 2213
2213 2304
2304 2394
2394 2476
2476 2577
2577 2662
2662 2737
2737 2840
2840 2910
2910 3011
3011 3122
3122 3218
3218 3293
3293 3394
3394 3477
3477 3580
3580 3673
3673 3742
3742 3851
3851 3945
3945 4019
4019 4119
4119 4203
4203 4279
4279 4374
4374 4461
4461 4540
4540 4629
4629 4728
4728 4805
4805 4906
4906 4983
4983 5054
5054 5120
5120 5207
5207 5275
5275 5363
5363 5434
5434 5515
5515 5605
5605 5664
5664 5757
5757 5817
5817 5879
5879 5967
5967 6028
6028 6074
6074 6131
6131 6206
6206 6305
6305 6389
6389 6458
6458 6559
6559 6637
6637 6725
6725 6814
6814 6913
6913 6988
6988 7064
7064 7160
7160 7243
7243 7312
7312 7402
7402 7454
7454 7517
7517 7594
7594 7663
7663 7728
7728 7788
7788 7858
7858 7940
7940 8025
8025 8093
8093 8183
8183 8270
8270 8355
