1578 1698
3188 3305
3305 3394
4993 5110
6051 6166
6166 6259
6259 6348
6348 6436
6436 6528
6528 6622
6622 6784
6784 6892
7323 7412
7412 7498
7498 7586
7586 7675
7675 7762
7762 7850
7850 7939
7939 8029
8029 8118
8118 8208
8208 8299
8299 8388
8388 8477
8477 8568
8568 8659
8659 8749
8749 8838
8838 8929
8929 9019
9019 9262
9262 9621
9262 9621
9621 11645
11645 12098
12098 12457
12457 12816
12816 13213
13213 16171
16171 16262
16262 16523
16523 16613
16613 16877
16877 16967
16967 17230
17230 17586
17586 19930
19930 19995
19995 21225
21225 22035
22035 22406
22406 22589
22589 22683
22683 22774
22774 23037
23037 23127
23127 23213
23213 23300
23300 23392
23392 23481
23481 23657
23657 23748
23748 23987
23987 24164
24164 24254
24254 24341
24341 24514
24514 24603
24603 24868
24868 24957
24957 25225
25225 25852
25852 25919
25919 26683
26683 26947
26947 27038
27038 27125
27125 27298
27298 27389
27389 27478
27478 27720
27720 28283
28283 28375
28375 28645
28645 28735
