486 573
924 1099
1099 1187
1187 1274
1274 1362
1362 1449
1449 1537
1537 1624
1624 1712
1712 1800
1800 1887
1887 1974
1974 2047
2047 2134
2134 2221
2221 2309
2309 2396
3442 3529
3529 3615
3615 3702
3702 3789
3875 3963
3875 3963
3963 4108
5933 6020
6020 6073
6931 7016
7060 7146
7146 7232
7232 7318
7318 7404
7404 7491
7491 7577
7577 7663
7663 7749
7749 7835
7835 7921
7921 8008
8008 8093
8093 8180
8180 8265
8265 8351
8351 8437
8437 8523
8523 8603
8603 8694
8694 8781
8781 8867
8867 8953
8953 9073
9073 9160
9160 9246
9246 9333
9333 9419
9419 9505
9505 9592
9592 9678
9678 9764
9764 9851
9851 9938
9938 10024
10024 10077
10077 10164
10164 10251
10251 10338
10338 10425
10425 10512
10512 10600
10600 10685
10685 10859
10859 10946
10946 11033
11033 11120
11120 11207
11207 11294
11294 11381
11381 11468
11468 11555
11555 11730
11730 11817
11817 11905
11905 11992
11992 12080
12080 12168
12168 12343
12343 12430
12430 12692
12692 12780
12780 12946
12946 13130
13130 13917
13917 14004
13917 14004
14004 14173
14173 14266
14266 14354
14354 14442
14442 14529
14529 14616
14616 14792
14792 14879
14879 15142
15142 15230
15230 15399
15399 15494
15494 15582
15582 15671
15671 15759
15759 15847
15847 15935
15935 16023
16023 16111
16111 16199
16199 16287
16287 16370
16370 16463
16463 16551
16551 16621
16621 16816
16816 16904
16904 16992
16992 17080
17080 17167
17167 17256
17256 17343
17343 17431
17431 17519
17519 17607
17607 17694
17694 17782
17782 17869
17869 17956
17956 18044
18044 18132
18132 18219
18219 18307
18307 18394
18394 18559
18559 18657
18657 18744
18744 18832
18832 18920
18920 19008
19008 19095
19095 19183
19183 19271
19271 19358
19358 19446
19446 19621
19621 19708
19708 19796
19796 19885
19885 19973
19973 20061
20061 20149
20149 20237
20237 20326
20326 20485
20485 20680
20680 21008
21008 21096
21096 21272
21272 21361
21361 21449
21449 21537
21537 21625
21625 21712
21712 21801
21801 21889
21889 21977
21977 22083
22083 22171
22171 22258
22258 22345
22345 22432
22432 22608
22608 22695
22695 22770
22770 22958
22958 23058
23058 23147
23147 23235
23235 23324
23324 23412
23412 23501
23501 23589
23589 23678
23678 23767
23767 23850
23850 23943
23943 24033
24033 24122
24122 24185
24185 24274
24274 24363
24363 24451
24451 24543
24543 24628
24628 24716
24716 24798
24798 24892
