952 1072
1900 2010
2010 2086
2614 2828
2828 2926
2926 3030
3030 3084
3084 3186
3186 3291
3291 3394
3394 3496
3496 3598
3598 3707
3707 3807
3807 3913
3913 4015
4015 4064
4064 4185
4185 4295
4295 4406
4406 4504
4504 4616
4616 4718
4718 4922
4922 5028
5028 5080
5080 5184
5184 5293
5293 5403
5403 5507
5507 5618
5618 5723
5723 5831
5831 5940
5940 6060
6060 6170
6170 6279
6279 6388
6388 6491
6491 6707
6707 6816
6816 6918
6918 7030
7030 7072
7072 7172
7172 7383
7383 7475
7475 7576
7576 7676
7676 7783
7783 7880
7880 7988
7988 8092
8092 8199
8199 8298
8298 8408
8408 8512
8512 8617
8617 8726
8726 8819
8819 9029
9029 9093
9093 9202
9202 9303
9303 9412
9412 9629
9629 9734
9734 9816
9816 9925
9925 10030
10030 10074
10074 10190
10190 10297
10297 10399
10399 10505
10505 10603
10603 10703
10703 10814
