197 309
3919 4041
4041 4128
4128 4216
4216 4303
4303 4392
4392 4437
4437 4527
4527 4613
4613 4701
4701 4789
4789 4877
4877 4966
4966 5055
5055 5142
5142 5230
5230 5316
5316 5404
5404 5493
5493 5580
5580 5669
5669 5757
5757 5845
5845 5931
5931 6019
6019 6106
6106 6195
6195 6281
6281 6367
6367 6456
6456 6544
6544 6631
6631 6718
6718 6808
6808 6894
6894 6982
6982 7070
7070 7157
7157 7245
7245 7334
7334 7421
7421 7507
7507 7597
7597 7683
7683 7771
7771 7857
7857 7946
7946 8033
8033 8121
8121 8208
8208 8296
8296 8383
8383 8469
8469 8556
8556 8644
8644 8732
8732 8819
8819 8906
8906 8992
8992 9081
9081 9169
9169 9256
9256 9342
9342 9429
9429 9518
9518 9605
9605 9692
9692 9778
9778 9867
