193 388
388 481
481 669
669 745
745 786
786 881
881 932
932 1103
1103 1174
1174 1246
1246 1302
1302 1362
1362 1410
1410 1510
1510 1585
1849 2018
2018 2153
2153 2219
2219 2284
2284 2474
2563 2693
2693 2927
2927 3011
3011 3234
3234 3486
3486 3603
3603 3757
3757 3818
3818 3871
3871 3942
3942 4044
4044 4209
4209 4491
4491 4559
4559 4691
4691 4780
4780 4844
4844 5108
5108 5185
5185 5364
5364 5471
5471 5583
5583 5664
5664 5873
5873 6007
6007 6069
6069 6201
6201 6291
6291 6463
6463 6570
6570 6654
6654 6780
6780 6822
6822 6879
6879 6923
6923 6973
6973 7202
7202 7303
7303 7342
7342 7481
7481 7800
7800 8415
8415 8521
8521 9210
9210 9761
9761 9867
9867 10085
10085 10162
10162 10239
10239 10314
10314 10391
10391 10467
10467 10544
10544 10622
10622 10700
10700 10781
10781 10864
10864 10949
10949 11105
11105 11183
11183 11261
11261 11338
11338 11415
11415 11492
11492 11572
11572 11651
11651 11732
11732 11816
11816 11898
11898 11984
11984 12069
12069 12157
12157 12245
12245 12427
12427 12611
12611 12700
12700 12788
12788 12874
12874 12960
12960 13043
13043 13127
13127 13210
13210 13292
13292 13374
13374 13459
13459 13638
13638 13826
13826 14010
14010 14185
14185 14272
14272 14443
14443 14530
14530 14699
14699 14952
14952 15037
15037 15210
15210 15296
15296 15561
15561 15834
15834 15922
15922 16055
16055 16137
16137 16221
16221 16306
16306 16392
16392 16475
16475 16560
16560 16645
16645 16731
16731 16821
16821 16915
16915 17062
17062 17163
17163 17758
17758 17856
17856 17954
17954 18595
18595 18693
18693 18975
18975 19253
19253 19943
19943 20726
