98 172
172 245
245 317
317 389
389 461
461 534
534 680
3202 3284
3994 4060
4560 4633
4633 4706
4706 4778
4778 4885
4885 4954
4954 5035
5035 5105
5105 5175
5175 5243
5243 5312
5312 5380
5380 5448
5448 5517
5517 5584
5584 5653
5653 5723
5723 5792
5792 5862
5862 6001
6001 6053
6053 6125
6125 6197
6197 6269
6269 6341
6341 6413
6413 6487
6487 6562
6562 6636
6636 6712
6712 6790
6790 6870
6870 6954
6954 7115
7115 7198
7198 7282
7282 7368
7368 7545
7545 7630
7630 7690
7690 7771
7771 7853
7853 7933
7933 8042
8042 8120
8120 8197
8197 8273
8273 8346
8346 8419
8419 8491
8491 8539
8539 8612
8612 8686
8686 8760
8760 8835
8835 8910
8910 8985
8985 9036
9036 9109
9109 9182
9182 9256
9256 9328
9328 9401
9401 9474
9474 9548
9548 9620
9620 9692
9692 9763
9763 9836
9836 9909
9909 9982
9982 10038
10038 10109
10109 10182
10182 10254
10254 10329
10329 10403
10403 10477
10477 10551
10551 10624
10624 10697
10697 10769
10769 10840
10840 10910
10910 10981
10981 11036
11036 11117
11117 11194
11194 11272
11272 11350
11350 11429
