7101 7182
7182 7263
7263 7343
7343 7424
7424 7505
7505 7586
7586 7668
7668 7750
7750 7832
7832 7914
7914 7997
7997 8080
8080 8162
8162 8246
8246 8329
8329 8414
8414 8498
8498 8581
8581 8665
8665 8749
8749 8832
8832 8917
8917 9001
9001 9085
9085 9167
9167 9251
9251 9333
9333 9415
9415 9497
9497 9578
9578 9661
9661 9744
9744 9826
9826 9910
9910 9994
9994 10077
10077 10161
10161 10246
10246 10332
10332 10419
10419 10507
10507 10595
10595 10684
10684 10771
10771 10858
10858 10945
10945 11032
11032 11119
11119 11206
11206 11293
11293 11382
11382 11470
11470 11557
11557 11645
11645 11733
11733 11820
11820 11906
11906 11993
11993 12081
12081 12168
12168 12256
12256 12346
12346 12437
12437 12528
12528 12618
12618 12709
12709 12801
12801 12893
12893 12987
12987 13053
13053 13147
13147 13241
13241 13338
13338 13432
13432 13524
13524 13617
13617 13709
13709 13801
13801 13890
13890 13981
13981 14072
14072 14161
14161 14251
14251 14342
14342 14430
14430 14517
14517 14582
14582 14670
14670 14759
14759 14848
14848 14939
14939 15030
15030 15121
15121 15211
15211 15300
15300 15389
15389 15478
15478 15568
15568 15655
15655 15745
15745 15835
15835 15925
15925 16015
16015 16104
16104 16193
16193 16282
16282 16372
16372 16463
16463 16553
16553 16642
16642 16730
16730 16820
16820 16908
16908 16998
16998 17087
17087 17176
17176 17266
17266 17356
17356 17447
17447 17536
17536 17625
17625 17715
17715 17804
17804 17894
17894 17983
17983 18049
18049 18130
18130 18212
18212 18294
18294 18375
18375 18458
18458 18540
18540 18623
18623 18705
18705 18788
18788 18871
18871 18953
18953 19037
19037 19096
19096 19181
19181 19265
19265 19349
19349 19434
19434 19519
19519 19605
19605 19692
19692 19779
19779 19866
19866 19953
19953 20040
20040 20127
20127 20213
20213 20297
20297 20382
20382 20466
20466 20551
20551 20637
20637 20722
20722 20808
20808 20892
20892 20978
20978 21062
21062 21146
21146 21229
21229 21313
21313 21397
21397 21480
21480 21563
21563 21646
21646 21729
21729 21812
21812 21896
21896 21979
21979 22062
22062 22145
22145 22230
22230 22316
22316 22402
22402 22488
22488 22575
22575 22663
22663 22751
22751 22840
22840 22929
22929 23020
23020 23109
23109 23198
23198 23287
23287 23374
23374 23462
23462 23550
23550 23637
23637 23726
23726 23813
23813 23901
23901 23990
23990 24078
24078 24165
24165 24252
24252 24337
24337 24424
24424 24486
24486 24571
24571 24657
24657 24743
24743 24828
24828 24913
24913 24997
24997 25080
25080 25164
25164 25247
25247 25331
25331 25416
25416 25501
25501 25587
25587 25675
25675 25761
25761 25848
25848 25933
25933 26018
26018 26131
26131 26215
26215 26299
26299 26385
26385 26472
26472 26562
26562 26652
26652 26744
26744 26833
26833 26924
26924 27014
27014 27104
27104 27195
27195 27286
27286 27378
27378 27470
27470 27561
27561 27651
27651 27739
27739 27828
27828 27916
27916 28002
28002 28088
28088 28175
28175 28260
28260 28346
28346 28432
28432 28516
28516 28603
28603 28688
28688 28774
28774 28859
28859 28946
28946 29034
29034 29123
29123 29213
29213 29304
29304 29395
29395 29487
29487 29580
29580 29674
29674 29767
29767 29862
29862 29958
29958 30055
30055 30151
30151 30243
30243 30333
30333 30423
30423 30512
30512 30600
30600 30687
30687 30776
30776 30864
30864 30952
31088 31186
32532 32621
32621 32710
32710 32798
32798 32887
32887 32977
32977 33067
33067 33159
33159 33249
33249 33340
33340 33431
33431 33524
33524 33614
33614 33706
33706 33799
33799 33895
33895 33991
33991 34104
34104 34201
34201 34300
34300 34400
34400 34501
34501 34602
34602 34702
34702 34799
34799 34896
34896 34996
34996 35092
35092 35185
35185 35278
35278 35372
35372 35466
35466 35558
35558 35648
35648 35737
35737 35824
35824 35912
35912 35998
35998 36075
36075 36178
36178 36280
36280 36382
36382 36482
36482 36585
36585 36689
36689 36793
36793 36897
36897 36977
36977 37084
37084 37173
37173 37264
37264 37355
37355 37445
37445 37536
37536 37629
37629 37724
37724 37820
37820 37917
37917 38010
38010 38132
38132 38221
38221 38309
38309 38396
38396 38483
38483 38570
38570 38657
38657 38742
38742 38830
38830 38919
38919 39008
39008 39099
39099 39192
39192 39288
39288 39386
39386 39486
39486 39583
39583 39682
39682 39782
39782 39884
39884 39988
39988 40078
40078 40172
40172 40265
