121 303
484 666
666 757
757 848
848 938
938 1030
1030 1311
1311 1786
1786 1878
1878 2253
2253 2345
2345 2438
2438 2808
2808 2899
2899 2991
2991 3369
3369 3461
3461 3529
3529 3991
3991 4082
4082 4644
4644 4736
4736 5111
5111 5203
5203 5479
5479 5570
5570 6146
6146 6241
6241 6823
6823 6915
6915 7058
7058 7147
7147 7514
7514 7606
7606 7976
7976 8067
8067 8436
8436 8526
8526 8617
8617 8987
8987 9041
9041 9122
9122 9202
9202 9284
9284 9365
9365 9448
9448 9532
9532 9618
9618 9705
9705 9791
9791 9852
9852 10022
10022 10107
10107 10192
10192 10276
10276 10362
10362 10447
10447 10532
10532 10707
10707 10768
10768 10945
10945 11035
11035 11124
11124 11213
11213 11303
11303 11391
11391 11660
11660 11843
11843 11935
11935 12025
12025 12210
12210 12301
12301 12487
12487 12870
12870 13452
13452 13547
13547 13940
13940 14036
14036 14428
14428 14523
14523 14618
14618 14897
14897 14989
14989 15174
15174 15264
15264 15644
15644 15738
15738 16028
16028 16519
16519 16615
16615 16907
16907 17004
17004 17326
17326 17420
17420 18176
18176 18690
18690 19213
19213 19315
19315 19807
19807 19903
19903 20051
20051 20448
20448 20544
20544 21029
21029 21123
21123 21283
21283 21372
21372 21460
21460 21721
21721 21808
21808 22164
22164 22251
22251 22507
22507 22593
22593 22678
22678 22944
22944 23032
23032 23121
23121 23300
23300 23390
23390 23573
23573 23848
23848 24120
24120 24302
24302 24391
24391 24570
24570 24933
24933 25401
25401 25500
25500 25898
25898 25995
25995 26050
26050 26225
26225 26313
26313 26404
26404 26492
26492 26675
26675 26765
26765 26855
26855 26944
26944 27081
27081 27175
27175 27269
27269 27363
27363 27458
27458 27608
27608 27698
27698 27791
27791 27885
27885 27981
27981 28080
28080 28175
28175 28271
28271 28366
28366 28460
28460 28551
28551 28735
28735 28826
28826 29041
29041 29131
29131 29223
29223 29316
29316 29410
29410 29501
29501 29590
29590 29680
29680 29770
29770 30046
30046 30137
30137 30326
30326 30418
30418 30510
30510 30602
30602 30787
30787 30969
30969 31059
31059 31149
31149 31239
31239 31517
31517 31608
31608 31701
