1976 2053
2053 2102
2186 2266
2764 2832
2925 3006
3431 3513
3513 3584
3677 3744
4174 4261
4261 4332
4332 4390
4563 4644
4644 4726
4726 4809
4809 4870
5206 5288
5373 5454
5454 5534
5534 5614
6310 6378
6783 6864
6864 6932
7025 7106
7106 7188
7188 7257
7349 7428
7428 7507
7507 7573
7738 7806
7899 7980
7980 8063
8063 8145
8145 8214
8309 8387
8387 8456
8550 8614
9391 9470
9470 9551
9551 9620
10203 10286
10286 10354
10446 10524
10524 10591
10680 10747
11082 11152
11248 11331
11331 11401
11573 11653
11653 11730
11730 11797
11797 11874
12042 12123
12123 12192
12284 12368
12368 12436
12609 12690
12690 12760
12851 12934
12934 13002
13253 13321
13415 13485
13580 13647
14719 14767
14767 14849
14849 14898
14898 14937
14937 14988
14988 15059
15059 15137
15137 15216
15216 15284
15284 15363
15363 15454
15454 15533
15533 15615
15615 15698
15698 15783
15783 15853
15853 15945
15945 16024
16024 16106
16106 16185
16185 16265
16265 16345
16345 16428
16428 16509
16509 16589
16589 16669
16669 16752
16752 16835
16835 16921
16921 16994
16994 17093
17093 17175
17175 17259
17259 17341
17341 17412
17412 17493
17493 17573
17573 17664
17664 17744
17744 17825
17825 17905
17905 17977
17977 18057
18057 18150
18150 18232
18232 18314
18314 18397
18397 18475
18475 18545
18545 18637
18637 18692
18692 18774
18774 18855
18855 18936
18936 19016
19016 19087
19087 19157
19157 19242
19242 19314
19314 19408
19408 19493
19493 19577
19577 19662
19662 19747
19747 19818
19818 19915
19915 20002
20002 20123
20123 20205
20205 20288
20288 20367
20367 20448
20448 20528
20528 20609
20609 20677
20677 20767
20767 20832
20832 20922
20922 20986
20986 21064
21064 21143
21143 21223
21223 21302
21302 21391
21391 21469
21469 21534
21534 21612
21612 21690
21690 21767
21767 21844
21844 21921
21921 22008
22008 22085
22085 22160
22160 22239
22239 22314
22314 22380
22380 22470
22470 22550
22550 22629
22629 22710
22710 22795
22795 22864
22864 22960
22960 23039
23039 23124
23124 23206
23206 23275
23275 23367
23367 23447
23447 23529
23529 23609
23609 23691
23691 23771
23771 23853
23853 23921
23921 24011
24011 24091
24091 24170
24170 24251
24251 24332
24332 24403
24403 24496
24496 24578
24578 24660
24660 24740
24740 24824
24824 24896
24896 24989
24989 25074
25074 25153
25153 25224
25224 25320
25320 25389
25389 25482
25482 25565
25565 25645
25645 25725
25725 25808
25808 25889
25889 25959
25959 26052
26052 26132
26132 26212
26212 26296
26296 26375
26375 26458
26458 26529
26529 26622
26622 26704
26704 26784
26784 26868
26868 26939
26939 27021
27021 27063
27063 27158
27158 27237
27237 27323
27323 27405
27405 27490
27490 27575
27575 27660
27660 27741
27741 27825
27825 27906
27906 27990
27990 28034
28034 28116
28116 28184
28184 28276
28276 28356
28356 28439
28439 28518
28518 28603
28603 28670
28670 28761
28761 28846
28846 28924
28924 29007
29007 29050
29050 29136
29136 29219
29219 29302
29302 29384
29384 29466
29466 29548
29548 29632
29632 29712
29712 29796
29796 29865
29865 29958
29958 30038
30038 30120
30120 30202
30202 30287
30287 30372
30372 30453
30453 30533
30533 30618
30618 30699
30699 30784
30784 30866
30866 30935
30935 31028
31028 31107
31107 31190
31190 31271
31271 31352
31352 31423
31423 31515
31515 31595
31595 31676
31676 31746
31746 31841
31841 31922
31922 31991
31991 32083
32083 32162
32162 32243
32243 32327
32327 32409
32409 32490
32490 32567
32567 32650
32650 32729
32729 32808
32808 32891
32891 32959
32959 33040
33040 33131
33131 33210
33210 33292
33292 33372
33372 33455
33455 33525
33525 33619
33619 33699
33699 33782
33782 33864
33864 33933
33933 34025
34025 34105
34105 34188
34188 34271
34271 34352
34352 34422
34422 34514
34514 34594
34594 34676
34676 34757
34757 34835
34835 34916
34916 34998
34998 35077
35077 35159
35159 35241
35241 35322
35322 35390
35390 35482
35482 35562
35562 35642
35642 35721
35721 35805
35805 35886
35886 35955
35955 36047
36047 36125
36125 36206
36206 36287
36287 36370
36370 36435
36435 36527
36527 36606
36606 36690
36690 36770
36770 36850
36850 36919
36919 36986
36986 37069
37069 37148
37148 37230
37230 37311
37311 37382
37382 37475
37475 37553
37553 37637
37637 37718
37718 37799
37799 37880
37880 37958
37958 38041
38041 38120
38120 38197
38197 38267
38267 38359
38359 38439
38439 38518
38518 38598
38598 38676
38676 38760
38760 38840
38840 38909
38909 39001
39001 39082
39082 39161
39161 39240
39240 39323
39323 39408
39408 39476
39476 39546
39546 39624
39624 39709
39709 39788
39788 39870
39870 39952
39952 40035
40035 40113
40113 40196
40196 40280
40280 40362
40362 40445
40445 40514
40514 40609
40609 40685
40685 40768
40768 40848
40848 40930
40930 41013
41013 41093
41093 41173
41173 41257
41257 41340
41340 41422
41422 41493
41493 41586
41586 41669
41669 41751
41751 41837
41837 41918
41918 41991
41991 42086
42086 42164
42164 42247
42247 42331
42331 42416
42416 42500
42500 42572
42572 42667
42667 42751
42751 42836
42836 42920
42920 43002
43002 43073
43073 43166
43166 43250
43250 43335
43335 43416
43416 43505
43505 43585
43585 43664
43664 43746
43746 43829
43829 43911
43911 43993
43993 44049
44049 44141
44141 44224
44224 44308
44308 44394
44394 44479
44479 44554
44554 44650
44650 44734
44734 44817
44817 44901
44901 44974
44974 45057
45057 45151
45151 45234
45234 45316
45316 45400
45400 45484
45484 45566
45566 45639
45639 45733
45733 45816
45816 45901
45901 45984
45984 46068
46068 46141
46141 46236
46236 46319
46319 46404
46404 46488
46488 46572
46572 46646
46646 46740
46740 46826
46826 46906
46906 46991
46991 47075
47075 47161
47161 47232
47232 47325
47325 47408
47408 47491
47491 47575
47575 47660
47660 47733
47733 47827
47827 47912
