1182 1251
1251 1986
1986 6063
6063 10414
10414 10450
10450 10496
10496 10543
10543 10579
10579 10619
10619 10845
10845 11018
11018 19401
19401 19438
19438 19480
19480 19561
19561 19598
19598 19636
19636 19707
19707 19761
19761 19836
19836 19872
