5973 6071
10945 11045
11045 11113
11113 11183
11183 11251
11251 11320
11320 11388
11388 11458
11458 11526
11526 11595
11595 11663
11663 11732
11732 11802
11802 11870
11870 11939
11939 12008
12008 12077
12077 12146
12146 12214
12214 12283
12283 12351
12351 12422
12422 12490
12490 12559
12559 12628
12628 12697
12697 12766
12766 12835
12835 12904
12904 12972
12972 13070
13070 13138
13138 13206
13206 13275
13275 13344
13344 13412
13412 13480
13480 13548
13548 13617
13617 13686
13686 13753
13753 13822
13822 13891
13891 13959
13959 14027
14027 14127
14127 14196
14196 14265
14265 14333
14333 14402
14402 14471
14471 14539
14539 14609
14609 14677
14677 14746
14746 14814
14814 14883
14883 14952
14952 15054
15054 15122
15122 15191
15191 15260
15260 15328
15328 15397
15397 15466
15466 15534
15534 15603
15603 15670
15670 15740
15740 15807
15807 15875
15875 15944
15944 16012
16012 16063
16063 16133
16133 16200
16200 16269
16269 16338
16338 16405
16405 16475
16475 16544
16544 16612
16612 16680
16680 16750
16750 16818
16818 16886
16886 16955
16955 17024
17024 17092
17092 17160
17160 17228
17228 17296
17296 17365
17365 17432
17432 17501
17501 17569
17569 17638
17638 17707
17707 17775
17775 17843
17843 17911
17911 17981
17981 18049
18049 18117
18117 18185
18185 18255
18255 18324
18324 18393
18393 18461
18461 18532
18532 18600
18600 18669
18669 18738
18738 18807
18807 18876
18876 18945
18945 19014
19014 19082
19082 19152
19152 19220
19220 19288
19288 19357
19357 19426
19426 19495
19495 19563
19563 19631
19631 19700
19700 19770
19770 19838
19838 19907
19907 19976
19976 20067
20067 20136
20136 20204
20204 20272
20272 20342
20342 20410
20410 20478
20478 20546
20546 20615
20615 20683
20683 20751
20751 20819
20819 20888
20888 20957
20957 21025
21025 21111
21111 21180
21980 22087
22703 22771
