2 47
47 115
115 182
182 253
253 322
322 389
389 457
457 528
528 596
596 664
664 732
732 801
801 870
870 938
938 1006
1006 1055
1055 1124
1124 1194
1194 1263
1263 1331
1331 1401
1401 1470
1470 1539
1539 1608
1608 1678
1678 1747
1747 1817
1817 1886
1886 1957
1957 2026
2026 2095
2095 2164
2164 2235
2235 2304
2304 2372
2372 2441
2441 2511
2511 2581
2581 2649
2649 2718
2718 2788
2788 2858
2858 2926
2926 2996
2996 3065
3065 3133
3133 3201
3201 3272
3272 3342
3342 3410
3410 3479
3479 3549
3549 3618
3618 3686
3686 3757
3757 3826
3826 3894
3894 3964
3964 4033
4033 4101
4101 4170
4170 4239
4239 4311
4311 4380
4380 4450
4450 4518
4518 4590
4590 4660
4936 5005
5005 5097
5097 5166
5097 5166
5166 5235
5235 5304
5304 5375
5375 5444
5444 5514
5514 5582
5582 5654
5654 5723
5723 5792
5792 5863
5863 5932
5932 6002
6002 6042
6042 6111
6111 6181
6181 6249
6249 6319
6319 6388
6388 6457
6457 6526
6526 6594
6594 6664
6664 6732
6732 6800
6800 6870
6870 6939
6939 7007
7007 7111
20995 21088
21994 22081
27943 28013
28013 28063
30427 30498
30498 30543
31938 32008
32008 32052
44942 45012
45012 45055
