27 74
2877 2955
2955 3032
3032 3111
3111 3183
3183 3264
3264 3336
3336 3412
3412 3489
3489 3564
3564 3642
3642 3717
3717 3792
3792 3868
3868 3945
3945 4017
4017 4094
4094 4167
4167 4244
4244 4318
4318 4392
4392 4469
4469 4542
4542 4621
4621 4684
4684 4773
4773 4844
4844 4923
4923 4997
4997 5071
5071 5147
5147 5224
5224 5298
5298 5375
5375 5449
5449 5525
5525 5602
5602 5676
5676 5754
5754 5829
5829 5904
5904 5979
5979 6057
6057 6130
6130 6204
6204 6280
6280 6357
6357 6435
6435 6510
6510 6585
6585 6660
6660 6737
6737 6812
6812 6890
6890 6965
6965 7045
7045 7118
7118 7195
7195 7273
7273 7350
7350 7428
7428 7477
7477 7555
7555 7619
7619 7709
7709 7785
7785 7862
7862 7940
7940 8013
8013 8092
8092 8167
8167 8247
8247 8321
8321 8398
8398 8475
8475 8553
8553 8629
8629 8704
8704 8783
8783 8848
8848 8935
8935 9012
9012 9091
9091 9167
9167 9244
9244 9322
9322 9398
9398 9477
9477 9554
9554 9630
9630 9708
9708 9783
9783 9859
9859 9936
9936 10014
10014 10089
10089 10166
10166 10245
10245 10320
10320 10399
10399 10477
10477 10554
10554 10629
10629 10706
10706 10784
10784 10860
10860 10934
10934 11016
11016 11091
11091 11166
11166 11243
11243 11322
11322 11398
11398 11471
11471 11549
11549 11626
11626 11703
11703 11779
11779 11856
11856 11932
11932 12010
12010 12086
12086 12163
12163 12240
12240 12316
12316 12393
12393 12469
12469 12546
12546 12623
12623 12700
12700 12776
12776 12853
12853 12926
12926 13004
13004 13081
13081 13159
13159 13233
13233 13314
13314 13392
13392 13469
13469 13545
13545 13624
13624 13700
13700 13775
13775 13856
13856 13934
13934 14010
14010 14097
14097 14146
14146 14255
14255 14329
14329 14409
14409 14480
14480 14555
14555 14634
14634 14707
14707 14784
14784 14857
14857 14933
14933 15009
15009 15071
15071 15158
15158 15234
15234 15310
15310 15384
15384 15461
15461 15536
15536 15610
15610 15688
15688 15763
15763 15839
15839 15904
15904 15990
15990 16069
16069 16144
16144 16219
16219 16298
16298 16375
16375 16452
16452 16529
16529 16606
16606 16683
16683 16763
16763 16838
16838 16919
16919 16998
16998 17077
17077 17152
17152 17229
17229 17305
17305 17385
17385 17462
17462 17540
17540 17617
17617 17695
17695 17771
17771 17850
17850 17924
17924 18003
18003 18079
18079 18156
18156 18233
18233 18312
18312 18387
18387 18464
18464 18543
18543 18621
18621 18697
18697 18773
18773 18850
18850 18927
18927 19002
19002 19054
19054 19131
19131 19208
19208 19283
19283 19360
19360 19425
19425 19512
19512 19590
19590 19664
19664 19737
19737 19814
19814 19889
19889 19962
19962 20027
20027 20113
20113 20187
20187 20261
20261 20336
20336 20410
20410 20485
20485 20560
20560 20635
20635 20710
20710 20783
20783 20858
20858 20933
20933 21006
21006 21053
21053 21128
21128 21203
21203 21276
21276 21340
21340 21426
21426 21499
21499 21574
21574 21649
21649 21724
21724 21796
21796 21870
21870 21945
21945 22020
22020 22095
22095 22168
22168 22243
22243 22316
22316 22390
22390 22466
22466 22540
22540 22612
22612 22689
22689 22764
22764 22839
22839 22912
22912 22987
22987 23059
23059 23135
23135 23210
23210 23282
23282 23345
23345 23431
23431 23506
23506 23579
23579 23656
23656 23730
23730 23801
23801 23877
23877 23952
23952 24027
24027 24101
24101 24176
24176 24248
24248 24324
24324 24399
24399 24462
24462 24549
24549 24624
24624 24687
24687 24774
24774 24849
24849 24899
24899 24972
24972 25047
25047 25122
25122 25195
25195 25272
25272 25347
25347 25420
25420 25497
25497 25572
25572 25635
25635 25724
25724 25797
25797 25872
25872 25945
25945 26020
26020 26095
26095 26168
26168 26245
26245 26317
26317 26391
26391 26468
26468 26541
26541 26603
26603 26691
26691 26763
26763 26837
26837 26911
26911 26986
26986 27061
27061 27134
27134 27209
27209 27284
27284 27359
27359 27432
27432 27507
27507 27580
27580 27655
27655 27728
27728 27803
27803 27880
27880 27953
27953 28015
28015 28104
28104 28176
28176 28250
28250 28326
28326 28401
28401 28475
28475 28549
28549 28624
28624 28699
28699 28774
28774 28851
28851 28926
28926 29001
29001 29076
29076 29151
29151 29227
29227 29303
29303 29379
29379 29453
29453 29516
29516 29605
29605 29680
29680 29753
29753 29830
29830 29905
29905 29980
29980 30056
30056 30131
30131 30205
30205 30269
30269 30357
30357 30432
30432 30494
30494 30581
30581 30656
30656 30732
30732 30807
30807 30884
30884 30955
30955 31034
31034 31109
31109 31184
31184 31259
31259 31336
31336 31410
31410 31486
31486 31560
31560 31636
31636 31711
31711 31787
31787 31863
31863 31937
31937 32016
32016 32092
32092 32164
32164 32242
32242 32318
32318 32391
32391 32456
32456 32545
32545 32619
32619 32694
32694 32769
32769 32845
32845 32921
32921 32998
32998 33073
33073 33149
33149 33224
33224 33300
33300 33379
33379 33453
33453 33527
33527 33606
33606 33681
33681 33758
33758 33835
33835 33910
33910 33987
33987 34064
34064 34139
34139 34216
34216 34289
34289 34365
34365 34441
34441 34516
34516 34591
34591 34666
34666 34741
34741 34816
34816 34891
34891 34966
34966 35040
35040 35115
35115 35190
35190 35268
35268 35341
35341 35415
35415 35492
35492 35565
35565 35692
35692 35765
35765 35840
35840 35916
35916 35990
35990 36091
36091 36166
36166 36239
36239 36312
36312 36387
36387 36460
36460 36535
36535 36610
36610 36683
36683 36755
36755 36832
36832 36905
36905 36980
36980 37053
37053 37127
37127 37203
37203 37279
37279 37350
37350 37425
37425 37500
37500 37573
37573 37648
37648 37725
37725 37800
37800 37873
37873 37948
37948 38022
38022 38098
38098 38145
38145 38221
38221 38298
38298 38371
38371 38446
38446 38522
38522 38595
38595 38673
38673 38747
38747 38822
38822 38897
38897 38972
38972 39047
39047 39120
39120 39199
39199 39271
39271 39349
39349 39424
39424 39499
39499 39574
39574 39649
39649 39724
39724 39800
39800 39875
39875 39949
39949 40026
40026 40101
40101 40178
40178 40250
40250 40325
40325 40401
40401 40477
40477 40551
40551 40627
40627 40702
40702 40777
40777 40852
40852 40929
40929 41004
41004 41079
41079 41155
41155 41231
41231 41306
41306 41381
41381 41458
41458 41535
41535 41611
41611 41685
41685 41762
41762 41837
41837 41912
41912 41964
41964 42039
42039 42114
42114 42193
42193 42268
42268 42343
42343 42408
42408 42495
42495 42572
42572 42647
42647 42722
42722 42799
42799 42874
42874 42949
42949 43026
43026 43101
43101 43176
43176 43253
43253 43328
43328 43405
43405 43478
43478 43555
43555 43632
43632 43697
43697 43784
43784 43859
43859 43936
43936 44011
44011 44088
44088 44165
44165 44240
44240 44315
44315 44392
44392 44467
44467 44542
44542 44619
44619 44694
44694 44771
44771 44846
44846 44923
44923 44998
44998 45073
45073 45148
45148 45225
45225 45289
45289 45377
45377 45452
45452 45529
45529 45606
45606 45681
45681 45757
45757 45835
45835 45912
45912 45989
45989 46062
46062 46141
46141 46218
46218 46293
46293 46372
46372 46449
46449 46524
46524 46601
46601 46678
46678 46755
46755 46832
46832 46909
46909 46988
46988 47067
47067 47144
47144 47221
47221 47298
47298 47375
47375 47452
47452 47530
47530 47609
47609 47685
47685 47763
47763 47840
47840 47918
47918 47996
47996 48074
48074 48152
48152 48231
48231 48307
48307 48385
48385 48462
48462 48542
48542 48619
48619 48697
48697 48774
48774 48853
48853 48933
48933 49008
49008 49087
49087 49164
49164 49239
49239 49316
49316 49393
49393 49474
49474 49547
49547 49624
49624 49699
49699 49778
49778 49853
49853 49930
49930 50005
50005 50082
50082 50157
50157 50234
50234 50309
50309 50388
50388 50463
50463 50540
50540 50613
50613 50690
50690 50767
50767 50844
50844 50917
50917 50994
50994 51069
51069 51146
51146 51221
51221 51298
51298 51375
51375 51449
51449 51525
51525 51602
51602 51679
51679 51754
51754 51830
51830 51906
51906 51985
51985 52058
52058 52134
52134 52212
52212 52289
52289 52362
52362 52439
52439 52516
52516 52593
52593 52668
52668 52745
52745 52822
52822 52897
52897 52976
52976 53050
53050 53126
53126 53203
53203 53280
53280 53355
53355 53431
53431 53507
53507 53584
53584 53659
53659 53736
53736 53813
53813 53889
53889 53967
53967 54044
54044 54119
54119 54197
54197 54274
54274 54350
54350 54427
54427 54504
54504 54581
54581 54656
54656 54733
54733 54808
54808 54883
54883 54960
54960 55037
55037 55112
55112 55187
55187 55252
55252 55340
55340 55416
55416 55543
55543 55617
55617 55695
55695 55772
55772 55846
55846 55922
55922 55999
55999 56074
56074 56151
56151 56226
56226 56303
56303 56377
56377 56452
56452 56529
56529 56604
56604 56679
56679 56756
56756 56831
56831 56908
56908 56985
56985 57062
57062 57137
57137 57216
57216 57291
57291 57368
57368 57445
57445 57510
57510 57597
57597 57664
57664 57752
57752 57830
57830 57906
57906 57982
57982 58059
58059 58138
58138 58216
58216 58290
58290 58367
58367 58446
58446 58524
58524 58601
58601 58678
58678 58755
58755 58832
58832 58898
58898 58988
58988 59065
59065 59142
59142 59216
59216 59294
59294 59360
59360 59450
59450 59525
59525 59602
59602 59681
59681 59758
59758 59834
59834 59910
59910 59987
59987 60066
60066 60141
60141 60216
60216 60295
60295 60372
60372 60445
60445 60524
60524 60599
60599 60676
60676 60753
60753 60829
60829 60905
60905 60984
60984 61057
61057 61136
61136 61213
61213 61292
61292 61367
61367 61447
61447 61524
61524 61588
61588 61640
61640 61731
61731 61807
61807 61884
61884 61959
61959 62038
62038 62114
62114 62192
62192 62267
62267 62346
62346 62423
62423 62500
62500 62576
62576 62653
62653 62731
62731 62806
62806 62883
62883 62962
62962 63036
63036 63114
63114 63191
63191 63268
63268 63343
63343 63422
63422 63496
63496 63574
63574 63650
63650 63728
63728 63805
63805 63882
63882 63959
63959 64036
64036 64102
64102 64192
64192 64267
64267 64344
64344 64421
64421 64498
64498 64575
64575 64652
64652 64732
64732 64806
64806 64883
64883 64962
64962 65039
65039 65114
65114 65191
65191 65270
65270 65347
65347 65425
65425 65502
65502 65579
65579 65656
65656 65731
65731 65808
65808 65885
65885 65964
65964 66039
66039 66115
66115 66193
