46409 46494
53845 53941
53941 54026
54026 54110
54110 54193
54193 54276
54276 54361
54361 54447
54447 54532
54532 54617
54617 54701
54701 54785
54785 54874
54874 54955
54955 55040
55040 55123
55123 55206
55206 55290
55290 55375
55375 55459
55459 55543
55543 55625
55625 55708
55708 55791
55791 55876
55876 55958
55958 56043
56043 56127
56127 56212
56212 56293
56293 56376
56376 56462
56462 56543
56543 56628
56628 56709
56709 56795
56795 56878
56878 56961
56961 57042
57042 57127
57127 57211
57211 57294
57294 57378
57378 57461
57461 57546
57546 57630
57630 57713
57713 57796
57796 57882
57882 57965
57965 58051
58051 58133
58133 58207
58207 58304
58304 58388
58388 58471
58471 58554
58554 58639
58639 58720
58720 58806
58806 58887
58887 58974
58974 59030
59030 59113
59113 59195
59195 59281
59281 59363
59363 59447
59447 59530
59530 59614
59614 59700
59700 59783
59783 59869
59869 59953
59953 60036
60036 60121
60121 60208
60208 60288
60288 60371
60371 60456
60456 60542
60542 60623
60623 60708
60708 60794
60794 60875
60875 60960
60960 61044
61044 61129
61129 61212
61212 61296
61296 61383
61383 61468
61468 61550
61550 61637
61637 61720
61720 61807
61807 61891
61891 61974
61974 62047
62047 62141
62141 62226
62226 62310
62310 62398
62398 62479
62479 62565
62565 62649
62649 62734
62734 62819
62819 62901
62901 62984
62984 63070
63070 63152
63152 63235
63235 63320
63320 63402
63402 63486
63486 63569
63569 63654
63654 63737
63737 63821
63821 63906
63906 63989
63989 64072
64072 64156
64156 64239
64239 64321
64321 64405
64405 64487
64487 64571
64571 64653
64653 64736
64736 64820
64820 64905
64905 64986
64986 65070
65070 65155
65155 65237
65237 65320
65320 65401
65401 65486
65486 65570
65570 65653
65653 65737
65737 65821
65821 65905
65905 65988
65988 66069
66069 66154
66154 66238
66238 66321
66321 66406
66406 66488
66488 66573
66573 66657
66657 66738
66738 66821
66821 66905
66905 66990
66990 67073
67073 67156
67156 67238
67238 67321
67321 67407
67407 67489
67489 67572
67572 67658
67658 67741
67741 67827
67827 67909
67909 67993
67993 68076
68076 68161
68161 68247
68247 68329
68329 68412
68412 68495
68495 68580
68580 68664
68664 68744
68744 68828
68828 68913
68913 68994
68994 69078
69078 69159
69159 69243
69243 69323
69323 69407
69407 69487
69487 69573
69573 69652
69652 69738
69738 69819
69819 69901
69901 69985
69985 70067
70067 70151
70151 70236
70236 70317
70317 70400
70400 70485
70485 70569
70569 70652
70652 70734
70734 70818
70818 70900
70900 70983
70983 71069
71069 71152
71152 71235
71235 71318
71318 71401
71401 71485
71485 71568
71568 71650
71650 71735
71735 71817
71817 71902
71902 71983
71983 72068
72068 72150
72150 72232
72232 72316
72316 72401
72401 72484
72484 72567
72567 72653
72653 72737
72737 72819
72819 72903
72903 72986
72986 73069
73069 73153
73153 73236
73236 73320
73320 73403
73403 73486
73486 73571
73571 73655
