6836 6901
6901 6969
6969 7046
7046 7121
7121 7197
7197 7277
7277 7352
7352 7427
7427 7504
7504 7577
7577 7655
7655 7731
7731 7806
7806 7881
7881 7960
7960 8035
8035 8110
8110 8186
8186 8266
8266 8339
8339 8418
8418 8491
8491 8570
8570 8645
8645 8723
8723 8798
8798 8876
8876 8954
8954 9028
9028 9105
9105 9182
9182 9256
9256 9333
9333 9409
9409 9485
9485 9561
9561 9636
9636 9716
9716 9788
9788 9865
9865 9940
9940 10017
10017 10091
10091 10167
10167 10242
10242 10319
10319 10396
10396 10472
10472 10547
10547 10624
10624 10698
10698 10776
10776 10851
10851 10925
10925 11002
11002 11076
11076 11152
11152 11230
11230 11305
11305 11379
11379 11458
11458 11508
11508 11584
11584 11658
11658 11737
11737 11811
11811 11887
11887 11963
11963 12040
12040 12115
12115 12192
12192 12266
12266 12344
12344 12421
12421 12496
12496 12570
12570 12648
12648 12723
12723 12800
12800 12875
12875 12952
12952 13029
13029 13104
13104 13179
13179 13258
13258 13333
13333 13408
13408 13483
13483 13562
13562 13635
13635 13712
13712 13787
13787 13864
13864 13939
13939 14016
14016 14089
14089 14166
14166 14241
14241 14316
14316 14391
14391 14468
14468 14543
14543 14618
14618 14693
14693 14768
14768 14843
14843 14918
14918 14992
14992 15070
15070 15144
15144 15220
15220 15294
15294 15372
15372 15447
15447 15522
15522 15597
15597 15671
15671 15748
15748 15821
15821 15897
15897 15974
15974 16048
16048 16124
16124 16200
16200 16278
16278 16353
16353 16427
16427 16502
16502 16580
16580 16657
16657 16732
16732 16806
16806 16884
16884 16961
16961 17035
17035 17110
17110 17187
17187 17263
17263 17340
17340 17416
17416 17492
17492 17569
17569 17621
17621 17698
17698 17772
17772 17850
17850 17927
17927 18002
18002 18079
18079 18154
18154 18231
18231 18309
18309 18383
18383 18460
18460 18537
18537 18612
18612 18687
18687 18762
18762 18841
18841 18916
18916 18991
18991 19066
19066 19143
19143 19219
19219 19293
19293 19369
19369 19446
19446 19520
19520 19596
19596 19673
19673 19750
19750 19825
19825 19901
19901 19976
19976 20055
20055 20129
20129 20205
20205 20281
20281 20358
20358 20437
20437 20512
20512 20589
20589 20666
20666 20741
20741 20818
20818 20893
20893 20972
20972 21047
21047 21122
21122 21197
21197 21276
21276 21351
21351 21426
21426 21502
21502 21580
21580 21657
21657 21732
21732 21807
21807 21886
21886 21937
21937 22012
22012 22088
22088 22165
22165 22242
22242 22317
22317 22392
22392 22472
22472 22549
22549 22622
22622 22697
22697 22776
22776 22851
22851 22926
22926 23003
23003 23080
23080 23155
23155 23230
23230 23307
23307 23382
23382 23459
23459 23533
23533 23607
23607 23682
23682 23759
23759 23834
23834 23909
23909 23983
23983 24058
24058 24134
24134 24209
24209 24284
24284 24359
24359 24434
24434 24511
24511 24586
24586 24661
24661 24736
24736 24815
24815 24888
24888 24965
24965 25042
25042 25117
25117 25192
25192 25271
25271 25346
25346 25421
25421 25500
25500 25575
25575 25650
25650 25727
25727 25777
25777 25854
25854 25931
25931 26008
26008 26082
26082 26161
26161 26237
26237 26312
26312 26390
26390 26467
26467 26542
26542 26619
26619 26694
26694 26773
26773 26848
26848 26925
26925 27002
27002 27048
27048 27125
27125 27200
27200 27277
27277 27354
27354 27429
27429 27504
27504 27583
27583 27658
27658 27733
27733 27810
27810 27887
27887 27962
27962 28039
28039 28114
28114 28191
28191 28267
28267 28342
28342 28418
28418 28495
28495 28571
28571 28646
28646 28719
28719 28796
28796 28871
28871 28943
28943 29018
29018 29094
29094 29167
29167 29241
29241 29314
29314 29392
29392 29466
29466 29538
29538 29614
29614 29692
29692 29765
29765 29841
29841 29916
29916 29992
29992 30069
30069 30146
30146 30223
30223 30297
30297 30375
30375 30450
30450 30526
30526 30602
30602 30681
30681 30758
30758 30833
30833 30910
30910 30987
30987 31065
31065 31144
31144 31217
31217 31296
31296 31375
31375 31452
31452 31529
31529 31604
31604 31683
31683 31758
31758 31835
31835 31913
31913 31989
31989 32064
32064 32141
32141 32221
32221 32296
32296 32373
32373 32447
32447 32525
32525 32602
32602 32679
32679 32754
32754 32831
32831 32908
32908 32983
32983 33060
33060 33137
33137 33213
33213 33289
33289 33366
33366 33441
33441 33519
33519 33593
33593 33669
33669 33746
33746 33825
33825 33900
33900 33977
33977 34054
34054 34129
34129 34206
34206 34281
34281 34360
34360 34435
34435 34512
34512 34587
34587 34666
34666 34742
34742 34818
34818 34896
34896 34972
34972 35050
35050 35125
35125 35202
35202 35279
35279 35356
35356 35433
35433 35510
35510 35587
35587 35664
35664 35741
35741 35819
35819 35894
35894 35973
35973 36050
36050 36126
36126 36204
36204 36281
36281 36356
36356 36436
36436 36510
36510 36589
36589 36664
36664 36742
36742 36817
36817 36896
36896 36974
36974 37050
37050 37124
37124 37204
37204 37279
37279 37356
37356 37433
37433 37511
37511 37585
37585 37662
37662 37738
37738 37815
37815 37894
37894 37969
37969 38043
38043 38123
38123 38200
38200 38275
38275 38350
38350 38429
38429 38502
38502 38579
38579 38654
38654 38732
38732 38806
38806 38883
38883 38960
38960 39037
39037 39113
39113 39189
39189 39266
39266 39342
39342 39421
39421 39496
39496 39573
39573 39650
39650 39729
39729 39804
39804 39881
39881 39956
39956 40035
40035 40110
40110 40187
40187 40265
40265 40342
40342 40417
40417 40494
40494 40570
40570 40646
40646 40725
40725 40802
40802 40879
40879 40954
40954 41033
41033 41109
41109 41186
41186 41262
41262 41340
41340 41417
41417 41494
41494 41571
41571 41650
41650 41725
41725 41802
41802 41879
41879 41958
41958 42035
42035 42112
42112 42189
42189 42264
42264 42342
42342 42418
42418 42496
42496 42573
42573 42650
42650 42726
42726 42802
42802 42879
42879 42956
42956 43033
43033 43108
43108 43185
43185 43262
43262 43339
43339 43417
43417 43493
43493 43568
43568 43647
43647 43723
43723 43800
43800 43877
43877 43954
43954 44031
44031 44108
44108 44185
44185 44264
44264 44339
44339 44416
44416 44493
44493 44573
44573 44648
44648 44727
44727 44801
44801 44879
44879 44929
44929 45006
45006 45079
45079 45158
45158 45233
45233 45310
45310 45387
45387 45464
45464 45540
45540 45617
45617 45693
45693 45770
45770 45847
45847 45922
45922 45999
45999 46077
46077 46152
46152 46227
46227 46304
46304 46379
46379 46455
46455 46531
46531 46608
46608 46685
46685 46759
46759 46835
46835 46912
46912 46989
46989 47064
47064 47141
47141 47218
47218 47295
47295 47370
47370 47447
47447 47524
47524 47604
47604 47679
47679 47757
47757 47834
47834 47912
47912 47987
47987 48066
48066 48143
48143 48220
48220 48297
48297 48374
48455 48533
48533 48610
48610 48687
48687 48766
48766 48841
48841 48918
48918 48998
48998 49076
49076 49151
49151 49228
49228 49306
49306 49383
49383 49459
49459 49538
49538 49616
49616 49693
49693 49770
49770 49847
49847 49926
49926 50004
50004 50080
50080 50158
50158 50237
50237 50315
50315 50391
50391 50468
50468 50547
50547 50624
50624 50701
50701 50780
