16639 16716
16716 16771
20033 20108
20108 20187
20187 20264
20264 20341
20341 20416
20416 20493
20493 20571
20571 20648
20648 20725
20725 20804
20804 20878
20878 20958
20958 21035
21035 21087
21087 21164
21164 21239
21239 21320
21320 21397
21397 21474
21474 21554
21554 21631
21631 21708
21708 21788
21788 21862
21862 21939
21939 22016
22016 22095
22095 22170
22170 22247
22247 22325
22325 22403
22403 22481
22481 22558
22558 22631
22631 22710
22710 22785
22785 22862
22862 22937
22937 23014
23014 23089
23089 23166
23166 23241
23241 23318
23318 23393
23393 23468
23468 23543
23543 23620
23620 23700
23700 23772
23772 23847
23847 23925
23925 23999
23999 24077
24077 24154
24154 24228
24228 24306
24306 24381
24381 24458
24458 24532
24532 24607
24607 24683
24683 24759
24759 24837
24837 24912
24912 24989
24989 25064
25064 25139
25139 25214
25214 25291
25291 25366
25366 25443
25443 25520
25520 25595
25595 25670
25670 25749
25749 25824
25824 25901
25901 25976
25976 26051
26051 26129
26129 26203
26203 26280
26280 26358
26358 26435
26435 26512
26512 26587
26587 26662
26662 26737
26737 26814
26814 26891
26891 26968
26968 27043
27043 27120
27120 27195
27195 27272
27272 27351
27351 27426
27426 27502
27502 27581
27581 27657
27657 27734
27734 27812
27812 27889
27889 27966
27966 28043
28043 28120
28120 28197
28197 28276
28276 28351
28351 28428
28428 28506
28506 28583
28583 28660
28660 28737
28737 28816
28816 28893
28893 28968
28968 29047
29047 29124
29124 29201
29201 29278
29278 29355
29355 29435
29435 29511
29511 29589
29589 29665
29665 29742
29742 29820
29820 29897
29897 29973
29973 30051
30051 30128
30128 30207
30207 30282
30282 30359
30359 30437
30437 30516
30516 30593
30593 30670
30670 30746
30746 30822
30822 30899
30899 30976
30976 31057
31057 31132
31132 31209
31209 31286
31286 31366
31366 31442
31442 31518
31518 31597
31597 31676
31676 31751
31751 31828
31828 31905
31905 31980
31980 32057
32057 32136
32136 32209
32209 32290
32290 32364
32364 32438
32438 32520
32520 32592
32592 32671
32671 32747
32747 32799
32799 32881
32881 32951
32951 33027
33027 33104
33104 33178
33178 33255
33255 33332
33332 33409
33409 33484
33484 33561
33561 33637
33637 33715
33715 33791
33791 33863
33863 33942
33942 34004
34004 34093
34093 34165
34165 34242
34242 34317
34317 34390
34390 34464
34464 34539
34539 34616
34616 34689
34689 34759
34759 34836
34836 34913
34913 34984
34984 35060
35060 35105
35105 35180
35180 35253
35253 35328
35328 35399
35399 35472
35472 35545
35545 35617
35617 35693
