12901 12955
15689 15823
21869 21948
21948 22027
22027 22104
22104 22183
22183 22262
22262 22341
22341 22423
22423 22500
22500 22579
22579 22660
22660 22739
22739 22820
22820 22898
22898 22977
22977 23056
23056 23135
23135 23216
23216 23295
23295 23373
23373 23452
23452 23529
23529 23608
23608 23687
23687 23762
23762 23843
23843 23920
23920 23999
23999 24078
24078 24153
24153 24232
24232 24309
24309 24388
24388 24441
24441 24522
24522 24599
24599 24676
24676 24753
24753 24834
24834 24913
24913 24993
24993 25072
25072 25149
25149 25228
25228 25307
25307 25386
25386 25465
25465 25542
25542 25622
25622 25701
25701 25782
25782 25859
25859 25938
25938 26015
26096 26175
26175 26255
26255 26336
26336 26415
26415 26494
26494 26573
26894 26973
27856 27935
27935 28047
28516 28595
28516 28595
28676 28755
28755 28833
28993 29072
29072 29151
29391 29470
30028 30105
30186 30264
30424 30503
31859 31940
31940 32021
32021 32098
32261 32340
32340 32419
32663 32742
32742 32823
32823 32902
32902 32984
32984 33063
33388 33467
33631 33710
34196 34275
34275 34356
34356 34435
34516 34596
34596 34675
34756 34837
34837 34916
34916 34993
35049 35096
35096 35177
35177 35256
35256 35337
35337 35419
35419 35498
35498 35579
35579 35656
35656 35737
35737 35819
35819 35900
35900 35979
35979 36058
36058 36137
36137 36217
36217 36294
36294 36375
36375 36456
36456 36535
36535 36614
36614 36691
36691 36775
36775 36852
36852 36933
36933 37012
37012 37091
37091 37168
37168 37249
37249 37331
37331 37410
37410 37491
37491 37570
37570 37649
37649 37731
37731 37810
37810 37889
37889 37968
37968 38049
38049 38128
38128 38208
38208 38287
38287 38366
38366 38445
38445 38526
38526 38607
38607 38686
38686 38766
38766 38847
38847 38928
38928 39005
39005 39088
39088 39170
39170 39249
39249 39328
39328 39407
39407 39488
39488 39567
39567 39647
39647 39728
39728 39807
39807 39886
39886 39965
39965 40046
40046 40126
40126 40205
40205 40284
40284 40365
40365 40444
40444 40522
40522 40603
40603 40684
40684 40763
40763 40840
40840 40923
40923 41002
41002 41080
41080 41161
41161 41240
41240 41319
41319 41398
41398 41477
41477 41558
41558 41636
41636 41715
41715 41796
41796 41875
41875 41954
41954 42033
42033 42112
42112 42190
42190 42271
42271 42350
42350 42431
42431 42508
42508 42588
42588 42667
42667 42746
42746 42827
42827 42906
42906 42985
42985 43064
43064 43146
43146 43225
43225 43304
43304 43383
43383 43464
43464 43543
43543 43624
43624 43704
43704 43785
43785 43864
43864 43945
43945 44025
44025 44104
44104 44183
44183 44262
44262 44346
44346 44422
44422 44504
44504 44583
44583 44662
44662 44741
44741 44822
44822 44904
44904 44983
44983 45062
45062 45141
45141 45222
45222 45303
45303 45379
45379 45462
45462 45541
45541 45622
45622 45701
45701 45782
45782 45862
45862 45943
45943 46022
46022 46103
46103 46182
46182 46264
46264 46343
46343 46422
46422 46503
46503 46580
46580 46662
46662 46743
46743 46822
46822 46903
46903 46982
46982 47063
47063 47142
47142 47222
47222 47301
47301 47382
47382 47462
47462 47541
47541 47620
47620 47703
47703 47782
47782 47861
47861 47940
47940 48020
48020 48097
48097 48180
48180 48261
48261 48340
48340 48417
48417 48501
48501 48580
48580 48661
48661 48740
48740 48821
48821 48903
48903 48984
48984 49061
49061 49146
49146 49225
49225 49307
49307 49386
49386 49467
49467 49545
49545 49627
49627 49709
49709 49788
49788 49867
49867 49945
49945 50026
50026 50105
50105 50184
50184 50265
50265 50344
50344 50421
50421 50502
50502 50583
50583 50663
50663 50744
50744 50823
50823 50904
50904 50985
50985 51064
51064 51142
51142 51227
51227 51304
51304 51388
51388 51467
51467 51548
51548 51627
51627 51706
51706 51787
51787 51869
51869 51950
51950 52027
52027 52108
52108 52187
52187 52269
52269 52348
52348 52429
52429 52508
52508 52589
52589 52671
52671 52750
52750 52831
52831 52910
52910 52991
52991 53071
53071 53152
53152 53229
53229 53312
53312 53393
53393 53472
53472 53550
53550 53633
53633 53714
53714 53791
53791 53872
53872 53952
53952 54031
54031 54108
54108 54191
54191 54270
54270 54349
54349 54431
54431 54506
54506 54589
54589 54670
54670 54747
54747 54828
54828 54912
54912 54989
54989 55070
55070 55149
55149 55230
55230 55310
55310 55387
55387 55470
55470 55549
55549 55630
55630 55709
55709 55789
55789 55868
55868 55949
55949 56026
56026 56107
56107 56186
56186 56265
56265 56347
56347 56426
56426 56504
56504 56582
56582 56663
56663 56741
56741 56822
56822 56903
56903 56984
56984 57063
57063 57140
57140 57222
57222 57303
57303 57382
57382 57463
57463 57545
57545 57623
57623 57703
57703 57784
57784 57865
57865 57944
57944 58022
58022 58105
58105 58184
58184 58265
58265 58344
58344 58423
58423 58505
58505 58582
58582 58663
58663 58740
58740 58821
58821 58900
58900 58979
58979 59059
59059 59136
59136 59217
59217 59300
59300 59377
59377 59455
59455 59536
59536 59619
59619 59696
59696 59777
59777 59856
59856 59938
59938 60017
60017 60096
60096 60173
60173 60254
60254 60335
60335 60414
60414 60494
60494 60575
60575 60654
60654 60731
60731 60812
60812 60896
60896 60972
60972 61054
61054 61131
61131 61212
61212 61293
61293 61374
61374 61454
61454 61533
61533 61614
61614 61691
61691 61770
61770 61850
61850 61931
61931 62012
62012 62089
62089 62168
62168 62247
62247 62326
62326 62405
62405 62485
62485 62564
62564 62643
62643 62722
62722 62801
62801 62880
62880 62959
62959 63039
63039 63120
63120 63199
63199 63278
63278 63357
63357 63438
63438 63518
63518 63599
63599 63678
63678 63757
63757 63838
63838 63917
63917 63997
63997 64078
64078 64157
64157 64238
64238 64317
64317 64396
64396 64476
64476 64557
64557 64636
64636 64717
64717 64794
64794 64878
64878 64957
64957 65038
65038 65117
65117 65198
65198 65278
65278 65355
65355 65438
65438 65517
65517 65598
65598 65677
65677 65759
65759 65838
65838 65915
65915 65996
65996 66075
66075 66155
66155 66235
66235 66315
66315 66396
66396 66475
66475 66554
66554 66630
66630 66715
66715 66794
66794 66873
66873 66952
66952 67031
67031 67109
67109 67191
67191 67269
67269 67350
67350 67431
67431 67510
67510 67589
67589 67668
67668 67749
67749 67828
67828 67908
67908 67987
67987 68066
68066 68145
68145 68225
68225 68306
68306 68385
68385 68464
68464 68543
68543 68622
68622 68702
68702 68783
68783 68862
68862 68941
68941 69022
69022 69103
69103 69180
69180 69264
69264 69345
69345 69426
69426 69505
69505 69584
69584 69666
69666 69746
69746 69826
69826 69907
69907 69988
69988 70068
70068 70151
70151 70230
70230 70311
70311 70390
70390 70471
70471 70551
70551 70630
70630 70711
70711 70790
70790 70871
70871 70950
70950 71032
71032 71111
71111 71192
71192 71269
71269 71352
71352 71430
71430 71509
71509 71590
71590 71669
71669 71748
71748 71829
71829 71909
71909 71990
71990 72069
72069 72150
72150 72231
72231 72310
72310 72389
72389 72469
72469 72550
