6 42
4827 4908
4908 4993
4993 5041
8928 8990
8990 9069
9069 9152
9152 9234
9234 9314
9314 9395
9395 9477
9477 9555
9555 9640
9640 9721
9721 9801
9801 9882
9882 9965
9965 10048
10048 10129
10129 10210
10210 10292
10292 10375
10375 10453
10453 10539
10539 10619
10619 10701
10701 10783
10783 10864
10864 10945
10945 11026
11026 11107
11107 11190
11190 11270
11270 11351
11351 11432
11432 11512
11512 11593
11593 11674
11674 11755
11755 11834
11834 11916
11916 11997
11997 12080
12080 12161
12161 12240
12240 12323
12323 12403
12403 12485
12485 12565
12565 12648
12648 12729
12729 12809
12809 12892
12892 12973
12973 13054
13054 13134
13134 13219
13219 13302
13302 13383
13383 13464
13464 13545
13545 13604
13604 13685
13685 13766
13766 13848
13848 13929
13929 14011
14011 14095
14095 14174
14174 14257
14257 14339
14339 14420
14420 14501
14501 14582
14582 14663
14663 14744
14744 14826
14826 14908
14908 14988
14988 15069
15069 15153
15153 15234
15234 15311
15311 15396
15396 15477
15477 15556
15556 15640
15640 15721
15721 15804
15804 15885
15885 15967
15967 16050
16050 16130
16130 16212
16212 16296
16296 16377
16377 16458
16458 16539
16539 16623
16623 16704
16704 16785
16785 16870
16870 16949
16949 17030
17030 17112
17112 17194
17194 17276
17276 17359
17359 17438
17438 17520
17520 17601
17601 17682
17682 17766
17766 17847
17847 17928
17928 18009
18009 18093
18093 18172
18172 18255
18255 18338
18338 18419
18419 18500
18500 18583
18583 18665
18665 18746
18746 18829
18829 18911
18911 18994
18994 19075
19075 19158
19158 19241
19241 19323
19323 19406
19406 19487
19487 19570
19570 19651
19651 19735
19735 19816
19816 19900
19900 19980
19980 20062
20062 20145
20145 20228
20228 20310
20310 20391
20391 20476
20476 20557
20557 20638
20638 20720
20720 20801
20801 20884
20884 20965
20965 21048
21048 21129
21129 21211
21211 21292
21292 21377
21377 21458
21458 21539
21539 21619
21619 21702
21702 21782
21782 21865
21865 21946
21946 22027
22027 22108
22108 22189
22189 22272
22272 22353
22353 22435
22435 22518
22518 22598
22598 22680
22680 22761
22761 22843
22843 22924
22924 23007
23007 23061
23061 23144
23144 23226
23226 23307
23307 23388
23388 23469
23469 23550
23550 23634
23634 23715
23715 23798
23798 23869
23869 23959
23959 24016
24016 24097
24097 24181
24181 24262
24262 24343
24343 24426
24426 24510
24510 24591
24591 24670
24670 24755
24755 24836
24836 24920
24920 25002
25002 25086
25086 25167
25167 25249
25249 25332
25332 25416
25416 25496
25496 25581
25581 25663
25663 25746
25746 25828
25828 25910
25910 25992
25992 26072
26072 26156
26156 26237
26237 26320
26320 26401
26401 26484
26484 26566
26566 26649
26649 26730
26730 26811
26811 26893
26893 26974
26974 27053
27053 27139
27139 27219
27219 27301
27301 27384
27384 27463
27463 27546
27546 27627
27627 27708
27708 27790
27790 27870
27870 27952
27952 28031
28031 28114
28114 28195
28195 28278
28278 28358
28358 28439
28439 28520
28520 28604
28604 28684
28684 28766
28766 28847
28847 28931
28931 29013
29013 29093
29093 29178
29178 29257
29257 29338
29338 29419
29419 29502
29502 29583
29583 29665
29665 29745
29745 29825
29825 29907
29907 29988
29988 30069
30069 30149
30149 30231
30231 30310
30310 30391
30391 30472
30472 30554
30554 30637
30637 30693
30693 30772
30772 30856
30856 30939
30939 31020
31020 31103
31103 31187
31187 31268
31268 31351
31351 31434
31434 31518
31518 31600
31600 31680
31680 31765
31765 31846
31846 31929
31929 32009
32009 32094
32094 32175
32175 32259
32259 32342
32342 32425
32425 32506
32506 32588
32588 32671
32671 32755
32755 32837
32837 32916
32916 33001
33001 33082
33082 33164
33164 33247
33247 33333
33333 33412
33412 33495
33495 33574
33574 33662
33662 33743
33743 33824
33824 33911
33911 33992
33992 34076
34076 34159
34159 34242
34242 34325
34325 34407
34407 34492
34492 34573
34573 34654
34654 34735
34735 34821
34821 34902
34902 34983
34983 35064
35064 35147
35147 35228
35228 35310
35310 35393
35393 35474
35474 35554
35554 35636
35636 35716
35716 35797
35797 35878
35878 35959
35959 36040
36040 36121
36121 36202
36202 36282
36282 36363
36363 36446
36446 36527
36527 36609
36609 36690
36690 36773
36773 36854
36854 36934
36934 37017
37017 37100
37100 37182
37182 37264
37264 37345
37345 37427
37427 37508
37508 37591
37591 37674
37674 37755
37755 37839
37839 37920
37920 38001
38001 38084
38084 38167
38167 38251
38251 38333
38333 38415
38415 38498
38498 38581
38581 38663
38663 38745
38745 38827
38827 38910
38910 38992
38992 39075
39075 39158
39158 39239
39239 39321
39321 39406
39406 39486
39486 39568
39568 39650
39650 39733
39733 39816
39816 39899
39899 39980
39980 40062
40062 40141
40141 40226
40226 40307
40307 40388
40388 40471
40471 40555
40555 40636
40636 40717
40717 40801
40801 40882
40882 40963
40963 41044
41044 41128
41128 41210
41210 41291
41291 41373
41373 41454
41454 41535
41535 41616
41616 41698
41698 41777
41777 41858
41858 41939
41939 42020
42020 42099
42099 42180
42180 42261
42261 42343
42343 42424
42424 42505
42505 42586
42586 42666
42666 42750
42750 42830
42830 42913
42913 42994
42994 43077
43077 43158
43158 43214
43214 43298
43298 43378
43378 43462
43462 43544
43544 43627
43627 43706
43706 43789
43789 43870
43870 43952
43952 44035
44035 44117
44117 44198
44198 44280
44280 44363
44363 44446
44446 44528
44528 44610
44610 44693
44693 44774
44774 44855
44855 44938
44938 45020
45020 45103
45103 45186
45186 45267
45267 45350
45350 45433
45433 45516
45516 45598
45598 45679
45679 45763
45763 45844
45844 45927
45927 46010
46010 46091
46091 46173
46173 46256
46256 46337
46337 46418
46418 46501
46501 46583
46583 46665
46665 46747
46747 46828
46828 46914
46914 46993
46993 47076
47076 47157
47157 47238
47238 47319
47319 47398
47398 47479
47479 47559
47559 47640
47640 47721
47721 47802
47802 47881
47881 47962
47962 48042
48042 48123
48123 48202
48202 48285
48285 48367
48367 48448
48448 48531
48531 48614
48614 48696
48696 48777
48777 48858
48858 48939
48939 49022
49022 49103
49103 49185
49185 49268
49268 49349
49349 49435
49435 49516
49516 49595
49595 49679
49679 49760
49760 49842
49842 49924
49924 50007
50007 50088
50088 50170
50170 50251
50251 50334
50334 50415
50415 50498
50498 50580
50580 50661
50661 50744
50744 50826
50826 50909
50909 50990
50990 51071
51071 51154
51154 51234
51234 51317
51317 51398
51398 51480
51480 51562
51562 51642
51642 51725
51725 51806
51806 51887
51887 51969
51969 52052
52052 52133
52133 52214
52214 52293
52293 52376
52376 52457
52457 52539
52539 52622
52622 52701
52701 52780
52780 52865
52865 52943
52943 53024
53024 53107
53107 53186
53186 53265
53265 53347
53347 53428
53428 53509
53509 53589
53589 53671
53671 53751
53751 53832
53832 53913
53913 53994
53994 54075
54075 54156
54156 54238
54238 54321
54321 54401
54401 54483
54483 54564
54564 54647
54647 54727
54727 54814
54814 54894
54894 54974
54974 55058
55058 55142
55142 55224
55224 55306
55306 55389
55389 55470
55470 55552
55552 55635
55635 55718
55718 55800
55800 55882
55882 55964
55964 56045
56045 56128
56128 56209
56209 56292
56292 56372
56372 56451
56451 56536
56536 56619
56619 56698
56698 56780
56780 56863
56863 56944
56944 57025
57025 57107
57107 57188
57188 57269
57269 57352
57352 57435
57435 57514
57514 57598
57598 57677
57677 57757
57757 57840
57840 57919
57919 58005
58005 58085
58085 58166
58166 58248
58248 58330
58330 58410
58410 58493
58493 58576
58576 58656
58656 58738
58738 58820
58820 58901
58901 58982
58982 59066
59066 59145
59145 59226
59226 59309
59309 59390
59390 59474
59474 59553
59553 59637
59637 59717
59717 59796
59796 59880
59880 59961
59961 60044
60044 60125
60125 60209
60209 60290
60290 60372
60372 60453
60453 60534
60534 60615
60615 60700
60700 60782
60782 60864
60864 60945
60945 61028
61028 61108
61108 61190
61190 61274
61274 61356
61356 61438
61438 61521
61521 61605
61605 61686
61686 61767
61767 61852
61852 61933
61933 62015
62015 62100
62100 62181
62181 62264
62264 62346
62346 62429
62429 62511
62511 62595
62595 62677
62677 62758
62758 62844
62844 62924
62924 63006
63006 63089
63089 63170
63170 63250
63250 63333
63333 63414
63414 63495
63495 63576
63576 63660
63660 63741
63741 63822
63822 63906
63906 63987
63987 64069
64069 64151
64151 64236
64236 64318
64318 64401
64401 64480
64480 64563
64563 64646
64646 64728
64728 64813
64813 64893
64893 64974
64974 65057
65057 65140
65140 65222
65222 65303
65303 65386
65386 65468
65468 65549
65549 65632
65632 65713
65713 65794
65794 65876
65876 65959
65959 66040
66040 66122
66122 66203
66203 66286
66286 66367
66367 66449
66449 66532
66532 66613
66613 66696
66696 66777
66777 66857
66857 66940
66940 67021
67021 67102
67102 67185
67185 67266
67266 67348
67348 67429
67429 67513
67513 67593
67593 67675
67675 67758
67758 67842
67842 67923
67923 68007
68007 68092
68092 68173
68173 68256
68256 68338
68338 68421
68421 68504
68504 68586
68586 68670
68670 68752
68752 68834
68834 68917
68917 69000
69000 69083
69083 69164
69164 69246
69246 69329
69329 69412
69412 69496
69496 69576
69576 69658
69658 69741
69741 69823
69823 69904
69904 69987
69987 70043
70043 70128
70128 70208
70208 70289
70289 70371
70371 70454
70454 70535
70535 70616
70616 70700
70700 70781
70781 70864
70864 70946
70946 71028
71028 71110
71110 71193
71193 71274
71274 71355
71355 71436
71436 71516
71516 71599
71599 71679
71679 71760
