4954 5037
5037 5094
26946 27089
27089 27171
27171 27255
27255 27338
27338 27420
27420 27501
27501 27586
27586 27669
27669 27753
27753 27838
27838 27921
27921 28002
28002 28090
28090 28169
28169 28253
28253 28336
28336 28418
28418 28502
28502 28558
28558 28642
28642 28724
28724 28808
28808 28891
28891 28973
28973 29058
29058 29140
29140 29227
29227 29308
29308 29389
29389 29476
29476 29559
29559 29643
29643 29726
29726 29811
29811 29895
29895 29978
29978 30062
30062 30145
30145 30226
30226 30314
30314 30395
30395 30480
30480 30563
30563 30646
30646 30728
30728 30811
30811 30896
30896 30977
30977 31060
31060 31144
31144 31227
31227 31310
31310 31392
31392 31475
31475 31559
31559 31639
31639 31723
31723 31804
31804 31887
31887 31969
31969 32053
32053 32134
32134 32216
32216 32299
32299 32383
32383 32463
32463 32545
32545 32628
32628 32709
32709 32792
32792 32876
32876 32957
32957 33038
33038 33122
33122 33203
33203 33286
33286 33368
33368 33453
33453 33534
33534 33617
33617 33698
33698 33782
33782 33863
33863 33946
33946 34004
34004 34088
34088 34169
34169 34252
34252 34333
34333 34414
34414 34496
34496 34581
34581 34662
34662 34743
34743 34826
34826 34906
34906 34986
34986 35068
35068 35150
35150 35230
35230 35312
35312 35395
35395 35476
35476 35557
35557 35638
35638 35720
35720 35801
35801 35884
35884 35963
35963 36047
36047 36130
36130 36211
36211 36294
36294 36375
36375 36459
36459 36540
36540 36621
36621 36705
36705 36785
36785 36867
36867 36952
36952 37031
37031 37115
37115 37198
37198 37279
37279 37362
37362 37445
37445 37529
37529 37612
37612 37695
37695 37777
37777 37859
37859 37941
37941 38022
38022 38108
38108 38189
38189 38270
38270 38355
38355 38436
38436 38519
38519 38601
38601 38682
38682 38765
38765 38847
38847 38930
38930 39011
39011 39094
39094 39178
39178 39263
39263 39344
39344 39427
39427 39513
39513 39596
39596 39681
39681 39764
39764 39847
39847 39931
39931 40014
40014 40098
40098 40180
40180 40262
40262 40348
40348 40432
40432 40516
40516 40599
40599 40684
40684 40768
40768 40851
40851 40934
40934 41018
41018 41102
41102 41184
41184 41267
41267 41350
41350 41434
41434 41519
41519 41603
41603 41686
41686 41769
41769 41854
41854 41937
41937 42021
42021 42104
42104 42188
42188 42270
42270 42354
42354 42437
42437 42520
42520 42604
42604 42685
42685 42768
42768 42852
42852 42937
42937 43018
43018 43102
43102 43185
43185 43268
43268 43351
43351 43434
43434 43518
43518 43601
43601 43685
43685 43768
43768 43851
43851 43932
43932 44016
44016 44099
44099 44181
44181 44265
44265 44348
44348 44429
44429 44513
44513 44596
44596 44679
44679 44762
44762 44845
44845 44931
44931 45013
45013 45096
45096 45181
45181 45265
45265 45348
45348 45431
45431 45514
45514 45597
45597 45681
45681 45764
45764 45847
45847 45933
45933 46014
46014 46097
46097 46180
46180 46264
46264 46347
46347 46430
46430 46513
46513 46597
46597 46678
46678 46761
46761 46847
46847 46928
46928 47010
47010 47095
47095 47177
47177 47260
47260 47344
47344 47426
47426 47509
47509 47592
47592 47674
47674 47757
47757 47840
47840 47923
47923 48004
48004 48088
48088 48169
48169 48250
48250 48332
48332 48415
48415 48495
48495 48577
48577 48658
48658 48741
48741 48823
48823 48904
48904 48987
48987 49068
49068 49151
49151 49235
49235 49318
49318 49401
49401 49485
49485 49568
49568 49649
49649 49733
49733 49816
49816 49901
49901 49981
49981 50065
50065 50147
50147 50229
50229 50313
50313 50395
50395 50475
50475 50559
50559 50640
50640 50721
50721 50805
50805 50887
50887 50971
50971 51052
51052 51135
51135 51218
51218 51300
51300 51382
51382 51466
51466 51547
51547 51633
51633 51714
51714 51795
51795 51878
51878 51960
51960 52043
52043 52126
52126 52207
52207 52291
52291 52374
52374 52457
52457 52540
52540 52624
52624 52708
52708 52791
52791 52874
52874 52957
52957 53043
53043 53126
53126 53209
53209 53292
53292 53376
53376 53459
53459 53542
53542 53624
53624 53708
53708 53790
53790 53874
53874 53956
53956 54040
54040 54123
54123 54204
54204 54287
54287 54370
54370 54452
54452 54535
54535 54616
54616 54702
54702 54783
54783 54866
54866 54949
54949 55030
55030 55113
55113 55195
55195 55280
55280 55362
55362 55443
55443 55526
55526 55610
55610 55692
55692 55774
55774 55858
55858 55942
55942 56024
56024 56107
56107 56190
56190 56273
56273 56355
56355 56437
56437 56521
56521 56604
56604 56688
56688 56771
56771 56852
56852 56935
56935 57019
57019 57104
57104 57186
57186 57272
57272 57356
57356 57439
57439 57521
57521 57607
57607 57691
57691 57774
57774 57858
57858 57943
57943 58026
58026 58080
58080 58159
58159 58242
58242 58327
58327 58407
58407 58489
58489 58571
58571 58655
58655 58737
58737 58806
58806 58898
58898 58979
58979 59061
59061 59148
59148 59228
59228 59312
59312 59396
59396 59481
59481 59563
59563 59647
59647 59729
59729 59812
59812 59895
59895 59979
59979 60059
60059 60141
60141 60224
60224 60307
60307 60388
60388 60472
60472 60553
60553 60635
60635 60719
60719 60803
60803 60884
60884 60967
60967 61052
61052 61133
61133 61217
61217 61300
61300 61383
61383 61468
61468 61550
61550 61637
61637 61719
61719 61802
61802 61887
61887 61970
61970 62054
62054 62139
62139 62221
62221 62304
62304 62389
62389 62470
62470 62553
62553 62637
62637 62718
62718 62801
62801 62884
62884 62968
62968 63049
63049 63134
63134 63218
63218 63300
63300 63384
63384 63467
63467 63549
63549 63634
63634 63715
63715 63796
63796 63880
63880 63963
63963 64044
64044 64129
64129 64210
64210 64293
64293 64375
64375 64456
64456 64539
64539 64621
64621 64704
64704 64785
64785 64869
64869 64952
64952 65037
65037 65118
65118 65201
65201 65283
65283 65368
65368 65450
65450 65533
65533 65616
65616 65699
65699 65781
65781 65864
65864 65947
65947 66030
66030 66113
66113 66197
66197 66279
66279 66361
66361 66445
66445 66530
66530 66611
66611 66694
66694 66778
66778 66860
66860 66942
66942 67024
67024 67066
67066 67179
67179 67233
67233 67314
67314 67395
67395 67476
67476 67562
67562 67641
67641 67710
67710 67803
67803 67885
