932 1009
7939 8013
8013 8050
23947 24022
24022 24131
24131 24206
24206 24283
24283 24358
24358 24424
24424 24511
24511 24587
24587 24664
24664 24739
24739 24814
24814 24889
24889 24966
24966 25041
25041 25117
25117 25182
25182 25268
25268 25345
25345 25422
25422 25495
25495 25571
25571 25647
25647 25722
25722 25799
25799 25874
