3358 3431
3431 3476
5858 5931
5931 6004
6004 6076
6076 6149
6149 6221
6221 6294
6294 6366
6366 6439
6439 6510
6510 6583
6583 6656
6656 6729
6729 6801
6801 6872
6872 6945
6945 7018
7018 7091
7091 7164
7164 7237
7237 7308
7308 7380
7380 7453
7453 7524
7524 7597
7597 7669
7669 7740
7740 7786
7786 7859
7859 7932
7932 8003
8003 8076
8076 8147
8147 8220
8220 8290
8290 8365
8365 8434
8434 8507
8507 8579
8579 8650
8650 8722
8722 8794
8794 8867
8867 8938
8938 9011
9011 9082
9082 9155
9155 9227
9227 9298
9298 9369
9369 9444
9444 9514
9514 9586
9586 9659
9659 9729
9729 9802
9802 9873
9873 9944
9944 10015
10015 10088
10088 10160
10160 10233
10233 10302
10302 10375
10375 10448
10448 10518
10518 10589
10589 10659
10659 10731
10731 10802
10802 10873
10873 10943
10943 11016
11016 11087
11087 11156
11156 11227
11227 11299
11299 11370
11370 11441
11441 11514
11514 11584
11584 11658
11658 11729
11729 11802
11802 11874
11874 11947
11947 12018
12018 12090
12090 12162
12162 12234
12234 12307
12307 12378
12378 12449
12449 12521
12521 12593
12593 12664
12664 12736
12736 12807
12807 12879
12879 12953
12953 13023
13023 13096
13096 13167
13167 13240
13240 13313
13313 13384
13384 13457
13457 13530
13530 13603
13603 13675
13675 13748
13748 13821
13821 13894
13894 13965
13965 14038
14038 14112
14112 14183
14183 14256
14256 14329
14329 14400
14400 14473
14473 14545
14545 14618
14618 14691
14691 14762
14906 14977
14977 15049
15049 15120
15120 15193
15193 15263
15263 15335
15335 15407
15407 15479
15479 15549
15549 15620
15620 15693
15693 15764
15764 15835
15835 15907
15907 15978
15978 16049
16049 16122
16122 16193
16193 16263
16263 16336
16336 16407
16407 16480
16480 16553
16553 16623
16623 16696
16696 16767
16767 16840
16840 16911
16911 16984
16984 17057
17057 17130
17130 17200
17200 17273
17273 17345
17345 17417
17417 17488
17488 17561
17561 17634
17634 17705
17705 17776
17776 17848
17848 17919
17919 17992
17992 18062
18062 18135
18135 18207
18207 18277
18277 18347
18347 18421
18421 18491
18491 18565
18565 18633
18633 18704
18704 18777
18777 18848
18848 18921
18921 18992
18992 19064
19064 19137
19137 19208
19208 19279
19279 19350
19350 19422
19422 19496
19496 19566
19566 19639
19639 19711
19711 19785
19785 19857
19857 19931
19931 20002
20002 20077
20077 20147
20147 20222
20222 20293
20293 20366
20366 20440
20440 20512
20512 20584
20584 20657
20657 20730
20730 20803
20803 20874
20874 20947
20947 21020
21020 21093
21093 21164
21164 21236
21236 21309
21309 21382
21382 21453
21453 21526
21526 21597
21597 21669
21669 21743
21743 21813
21813 21886
21886 21957
21957 22028
22028 22101
22101 22171
22171 22244
22244 22315
22315 22386
22386 22459
22459 22530
22530 22603
22603 22673
22673 22744
22744 22817
22817 22890
22890 22961
22961 23033
23033 23105
23105 23177
23177 23248
23248 23321
23321 23392
23392 23462
23462 23535
23535 23609
23609 23679
23679 23750
23750 23822
23822 23893
23893 23965
23965 24035
24035 24106
24106 24179
24179 24250
24250 24320
24320 24392
24392 24462
24462 24534
24534 24606
24606 24677
24677 24749
24749 24820
24820 24891
24891 24964
24964 25035
25035 25108
25108 25179
25179 25251
25251 25322
25322 25395
25395 25468
25468 25539
25539 25612
25612 25682
25682 25754
25754 25826
25826 25899
25899 25970
25970 26043
26043 26114
26114 26185
26185 26256
26256 26328
26328 26400
26400 26473
26473 26543
26543 26614
26614 26686
26686 26757
26757 26829
26829 26901
26901 26972
26972 27045
27045 27115
27115 27188
27188 27259
27259 27332
27332 27403
27403 27474
27474 27547
27547 27620
27620 27689
27689 27759
27759 27832
27832 27903
27903 27974
27974 28047
28047 28119
28119 28191
28191 28263
28263 28336
28336 28407
28407 28478
28478 28550
28550 28621
28621 28694
28694 28765
28765 28838
28838 28909
28909 28982
28982 29053
29053 29125
29125 29196
29196 29266
29266 29338
29338 29411
29411 29482
29482 29552
29552 29625
29625 29696
29696 29767
29767 29840
29840 29911
29911 29981
29981 30052
30052 30125
30125 30196
30196 30267
30267 30340
30340 30410
30410 30483
30483 30554
30554 30627
30627 30698
30698 30769
30769 30841
30841 30912
30912 30985
30985 31056
31056 31129
31129 31200
31200 31272
31272 31343
31343 31416
31416 31489
31489 31560
31560 31633
31633 31705
31705 31778
31778 31849
31849 31922
31922 31995
31995 32066
32066 32138
32138 32212
32212 32283
32283 32357
32357 32428
32428 32501
32501 32572
32572 32644
32644 32715
32715 32788
32788 32859
32859 32932
32932 33002
33002 33075
33075 33146
33146 33218
33218 33290
33290 33363
33363 33435
33435 33507
33507 33578
33578 33652
33652 33724
33724 33797
33797 33867
33867 33942
33942 34013
34013 34087
34087 34156
34156 34229
34229 34300
34300 34373
34373 34443
34443 34516
34516 34588
34588 34660
34660 34731
34731 34803
34803 34875
34875 34948
34948 35018
35018 35091
35091 35164
35164 35237
35237 35308
35308 35381
35381 35454
35454 35525
35525 35597
35597 35670
35670 35743
35743 35814
35814 35886
35886 35957
35957 36031
36031 36101
36101 36172
36172 36244
36244 36315
36315 36389
36389 36434
36434 36505
36505 36576
36576 36648
36648 36720
36720 36791
36791 36863
36863 36934
36934 37007
37007 37078
37078 37151
37151 37222
37222 37294
37294 37365
37365 37438
37438 37510
37510 37581
37581 37651
37651 37725
37725 37796
37796 37869
37869 37942
37942 38011
38011 38085
38085 38156
38156 38229
38229 38300
38300 38373
38373 38446
38446 38517
38517 38589
38589 38663
38663 38733
38733 38804
38804 38876
38876 38950
38950 39020
39020 39091
39091 39162
39162 39235
39235 39306
39306 39377
39377 39447
39447 39518
39518 39591
39591 39660
39660 39730
39730 39802
39802 39874
39874 39945
39945 40016
40016 40087
40087 40157
40157 40228
40228 40301
40301 40373
40373 40445
40445 40515
40515 40586
40586 40659
40659 40730
40730 40801
40801 40873
40873 40946
40946 41017
41017 41088
41088 41161
41161 41232
41232 41304
41304 41375
41375 41446
41446 41518
41518 41592
41592 41663
41663 41732
41732 41802
41802 41875
41875 41945
41945 42016
42016 42090
42090 42158
42158 42229
42229 42300
42300 42373
42373 42443
42443 42514
42514 42585
42585 42656
42656 42727
42727 42797
42797 42870
42870 42942
42942 43012
43012 43084
43084 43156
43156 43228
43228 43298
43298 43370
43370 43441
43441 43513
43513 43559
43559 43630
43630 43703
43703 43774
43774 43844
43844 43917
43917 43989
43989 44061
44061 44130
44130 44203
44203 44275
44275 44346
44346 44419
44419 44490
44490 44563
44563 44634
44634 44704
44704 44777
44777 44849
44849 44921
44921 44992
44992 45064
45064 45137
45137 45210
45210 45281
45281 45352
45352 45425
45425 45495
45495 45585
45585 45655
45655 45727
45727 45798
45798 45869
45869 45941
45941 46012
46012 46083
46083 46131
46131 46201
46201 46272
46272 46346
46346 46416
46416 46489
46489 46560
46560 46632
46632 46703
46703 46774
46774 46847
46847 46918
46918 46988
46988 47060
47060 47108
47108 47178
47178 47249
47249 47322
47322 47392
47392 47464
47464 47534
47534 47605
47605 47678
47678 47749
47749 47822
47822 47892
47892 47963
47963 48036
48036 48106
48106 48177
48177 48248
48248 48321
48321 48392
48392 48462
48462 48536
48536 48604
48604 48677
48677 48748
48748 48819
48819 48890
48890 48960
48960 49033
49033 49104
49104 49175
49175 49248
49248 49318
49318 49389
49389 49460
49460 49533
49533 49604
49604 49676
49676 49748
49748 49820
49820 49891
49891 49962
49962 50034
50034 50105
50105 50151
50151 50222
50222 50293
50293 50364
50364 50434
50434 50507
50507 50578
50578 50649
50649 50720
50720 50792
50792 50863
50863 50936
50936 51007
51007 51078
51078 51150
51150 51222
51222 51294
51294 51365
51365 51437
51437 51509
51509 51580
51580 51652
51652 51723
51723 51794
51794 51867
51867 51935
51935 52008
52008 52077
52077 52150
52150 52220
52220 52291
52291 52362
52362 52435
52435 52506
52506 52576
52576 52647
52647 52718
52718 52789
52789 52860
52860 52931
52931 53003
53003 53074
53074 53144
53144 53216
53216 53287
53287 53357
53357 53426
53426 53499
53499 53569
53569 53641
53641 53711
53711 53781
53781 53853
53853 53924
53924 53969
53969 54040
54040 54111
54111 54182
54182 54253
54253 54325
54325 54396
54396 54467
54467 54540
54540 54611
54611 54681
54681 54752
54752 54823
54823 54896
54896 54966
54966 55040
55040 55110
55110 55183
55183 55254
55254 55326
55326 55397
55397 55470
55470 55541
55541 55612
55612 55683
55683 55756
55756 55827
55827 55898
55898 55970
55970 56043
56043 56112
56112 56183
56183 56256
56256 56324
56324 56395
56395 56468
56468 56539
56539 56609
56609 56680
56680 56753
56753 56824
56824 56895
56895 56965
56965 57036
57036 57109
57109 57182
57182 57251
57251 57323
57323 57395
57395 57467
57467 57538
57538 57611
57611 57682
57682 57753
57753 57825
57825 57896
57896 57969
57969 58040
58040 58111
58111 58184
58184 58256
58256 58327
58327 58398
58398 58469
58469 58542
58542 58613
58613 58683
58683 58754
58754 58801
58801 58873
58873 58943
58943 59014
59014 59085
59085 59158
59158 59229
59229 59300
59300 59373
59373 59443
59443 59514
59514 59587
59587 59658
59658 59731
59731 59802
59802 59874
59874 59947
59947 60018
60018 60066
60066 60139
60139 60212
60212 60283
60283 60355
60355 60428
60428 60499
60499 60572
60572 60645
60645 60717
60717 60788
60788 60861
60861 60934
60934 61007
61007 61078
61078 61150
61150 61222
61222 61294
61294 61365
61365 61438
61438 61511
61511 61584
61584 61655
61655 61725
61725 61798
61798 61869
61869 61941
61941 62013
62013 62085
62085 62156
62156 62227
62227 62300
62300 62372
62372 62444
62444 62514
62514 62587
62587 62660
62660 62731
62731 62802
62802 62874
62874 62947
62947 63018
63018 63089
63089 63160
63160 63233
63233 63303
63303 63374
63374 63447
63447 63518
63518 63592
63592 63664
63664 63735
63735 63807
63807 63878
63878 63949
63949 64022
64022 64093
64093 64166
64166 64238
64238 64309
64309 64382
64382 64453
64453 64523
64523 64594
64594 64666
64666 64737
64737 64809
64809 64880
64880 64951
64951 65024
65024 65094
65094 65165
65165 65238
65238 65309
65309 65381
65381 65452
65452 65526
65526 65596
65596 65669
65669 65742
65742 65813
65813 65885
65885 65958
65958 66031
66031 66104
66104 66177
66177 66249
66249 66321
66321 66392
66392 66464
66464 66537
66537 66609
66609 66679
66679 66752
66752 66825
66825 66896
66896 66966
66966 67038
67038 67110
67110 67181
67181 67253
67253 67326
67326 67398
67398 67468
67468 67541
67541 67614
67614 67685
67685 67757
67757 67828
67828 67901
67901 67973
67973 68045
68045 68118
68118 68189
68189 68261
68261 68332
68332 68405
68405 68476
68476 68548
68548 68618
68618 68690
68690 68763
68763 68834
68834 68905
68905 68977
68977 69048
69048 69119
69119 69192
69192 69263
69263 69336
69336 69406
69406 69477
69477 69550
69550 69621
69621 69692
69692 69764
69764 69838
69838 69908
69908 69979
69979 70052
70052 70125
70125 70196
70196 70269
70269 70339
70339 70410
70410 70483
70483 70554
70554 70626
70626 70697
70697 70768
70768 70840
70840 70912
70912 70985
70985 71056
71056 71128
71128 71201
71201 71272
71272 71345
71345 71418
71418 71489
71489 71562
71562 71635
71635 71708
71708 71778
71778 71851
71851 71924
71924 71995
71995 72066
72066 72138
72138 72211
72211 72282
72282 72355
72355 72425
72425 72497
72497 72567
72567 72640
72640 72711
72711 72782
72782 72853
72853 72924
72924 72994
72994 73065
73065 73136
73136 73207
73207 73277
73277 73346
73346 73419
73419 73488
73488 73558
