23728 23802
23802 23879
23879 23955
23955 24030
24030 24106
24106 24183
24183 24260
24260 24335
24335 24413
24413 24489
24489 24565
24565 24642
24642 24717
24717 24794
24794 24868
24868 24946
24946 25020
25020 25095
25095 25170
25170 25245
25245 25320
25320 25397
25397 25472
25472 25547
25547 25622
25772 25849
25849 25924
25924 25997
25997 26038
26038 26112
26112 26186
26186 26260
26260 26333
26333 26408
26408 26481
26481 26554
26554 26629
26629 26702
26702 26775
26775 26847
26847 26920
26920 26993
26993 27068
27068 27141
27141 27214
27214 27287
27287 27360
27360 27432
27432 27507
27507 27580
27580 27653
27653 27728
27728 27799
27799 27874
27874 27949
27949 28022
28022 28094
28094 28169
28169 28242
28242 28317
28317 28390
28390 28465
28465 28538
28538 28611
28611 28686
28686 28758
28758 28833
28833 28907
28907 28981
28981 29054
29054 29131
29131 29204
29204 29277
29277 29352
29352 29427
29427 29502
29502 29577
29577 29652
29652 29727
29727 29802
29802 29877
29877 29953
29953 30026
30026 30103
30103 30180
30180 30253
30253 30330
30330 30405
30405 30480
30480 30557
30557 30632
30632 30707
30707 30784
30784 30859
30859 30936
30936 31011
31011 31088
31088 31165
31165 31240
31240 31315
31315 31392
31392 31467
31467 31542
31542 31619
31619 31694
31694 31771
31771 31846
31846 31921
31921 31998
31998 32073
32073 32150
32150 32223
32223 32300
32300 32373
32373 32450
32450 32525
32525 32589
32589 32677
32677 32752
32752 32827
32827 32904
32904 32979
32979 33054
33054 33131
33131 33208
33208 33280
33280 33358
33358 33433
33433 33482
33482 33557
33557 33632
33632 33709
33709 33784
33784 33859
33859 33934
33934 34009
34009 34084
34084 34161
34161 34236
34236 34311
34311 34386
34386 34463
34463 34538
34538 34615
34615 34690
34690 34765
34765 34840
34840 34917
34917 34992
34992 35067
35067 35142
35142 35217
35217 35294
35294 35367
35367 35444
35444 35519
35519 35594
35594 35669
35669 35744
35744 35821
35821 35896
35896 35973
35973 36048
36048 36123
36123 36198
36198 36275
36275 36352
36352 36427
36427 36502
36502 36576
36576 36652
36652 36726
36726 36801
36801 36876
36876 36951
36951 37026
37026 37101
37101 37178
37178 37253
37253 37330
37330 37403
37403 37480
37480 37555
37555 37632
37632 37707
37707 37782
37782 37857
37857 37932
37932 38007
38007 38084
38084 38159
38159 38234
38234 38309
38309 38384
38384 38461
38461 38538
38538 38613
38613 38688
38688 38763
38763 38840
38840 38915
38915 38990
38990 39067
39067 39144
39144 39219
39219 39294
39294 39371
39371 39446
39446 39525
39525 39600
39600 39677
39677 39752
39752 39827
39827 39904
39904 39979
39979 40056
40056 40131
40131 40206
40206 40283
40283 40356
40356 40433
40433 40506
40506 40583
40583 40658
40658 40733
40733 40810
40810 40885
40885 40960
40960 41037
41037 41112
41112 41187
41187 41264
41264 41339
41339 41414
41414 41491
41491 41566
41566 41641
41641 41716
41716 41793
41793 41868
41868 41943
41943 42018
42018 42095
42095 42172
42172 42247
42247 42322
42322 42399
42399 42474
42474 42551
42551 42626
42626 42703
42703 42778
42778 42855
42855 42932
42932 43007
43007 43084
43084 43159
43159 43236
43236 43311
43311 43388
43388 43463
43463 43538
43538 43613
43613 43688
43688 43765
43765 43840
43840 43915
43915 43992
43992 44067
44067 44140
44140 44217
44217 44292
44292 44367
44367 44442
44442 44517
44517 44592
44592 44669
44669 44744
44744 44821
44821 44896
44896 44973
44973 45048
45048 45125
45125 45200
45200 45277
45277 45352
45352 45429
45429 45504
45504 45581
45581 45656
45656 45731
45731 45808
45808 45883
45883 45958
45958 46035
46035 46110
46110 46185
46185 46262
46262 46337
46337 46412
46412 46489
46489 46564
46564 46639
46639 46714
46714 46791
46791 46864
46864 46941
46941 47016
47016 47091
47091 47166
47166 47241
47241 47316
47316 47393
47393 47467
47467 47543
47543 47618
47618 47692
47692 47767
47767 47842
47842 47917
47917 47992
47992 48068
48068 48145
48145 48220
48220 48294
48294 48370
48370 48444
48444 48521
48521 48597
48597 48674
48674 48748
48748 48824
48824 48898
48898 48974
48974 49051
49051 49124
49124 49200
49200 49275
49275 49350
49350 49425
49425 49502
49502 49577
49577 49652
49652 49729
49729 49804
49804 49879
49879 49956
49956 50029
50029 50104
50104 50181
50181 50256
50256 50333
50333 50408
50408 50485
50485 50561
50561 50635
50635 50712
50712 50787
50787 50864
50864 50939
50939 51014
51014 51091
51091 51168
51168 51243
51243 51320
51320 51396
51396 51473
51473 51547
51547 51623
51623 51702
51702 51777
51777 51851
51851 51927
51927 52004
52004 52078
52078 52153
52153 52229
52229 52304
52304 52379
52379 52453
52453 52528
52528 52606
52606 52681
52681 52755
52755 52830
52830 52908
52908 52982
52982 53057
53057 53132
53132 53207
53207 53283
53283 53359
53359 53435
53435 53511
53511 53586
53586 53662
53662 53738
53738 53813
53813 53890
53890 53964
53964 54108
54108 54179
54179 54253
54253 54328
54328 54401
54401 54476
54476 54549
54549 54624
54624 54697
54697 54772
54772 54847
54847 54920
54920 54995
54995 55070
55070 55143
55143 55218
55218 55292
55292 55370
55370 55444
55444 55519
55519 55595
55595 55671
55671 55746
55746 55821
55821 55898
55898 55948
55948 56023
56023 56098
56098 56173
56173 56248
56248 56323
56323 56398
56398 56473
56473 56550
56550 56623
56623 56700
56700 56775
56775 56850
56850 56925
56925 57002
57002 57077
57077 57152
57152 57227
57227 57302
57302 57379
57379 57454
57454 57529
57529 57604
57604 57681
57681 57756
57756 57831
57831 57906
57906 57981
57981 58056
58056 58132
58132 58208
58208 58284
58284 58359
58359 58434
58434 58509
58509 58586
58586 58663
58663 58738
58738 58815
58815 58890
58890 58967
58967 59044
59044 59121
59121 59197
59197 59273
59273 59349
59349 59426
59426 59503
59503 59578
59578 59655
59655 59732
59732 59807
59807 59884
59884 59959
59959 60036
60036 60112
60112 60190
60190 60265
60265 60341
60341 60417
60417 60494
60494 60571
60571 60646
60646 60723
60723 60798
60798 60875
60875 60950
60950 61029
61029 61078
61078 61166
61166 61238
61238 61314
61314 61389
61389 61463
61463 61536
61536 61611
61611 61684
61684 61747
61747 61832
61832 61907
61907 61980
61980 62055
62055 62128
62128 62203
62203 62274
62274 62346
62346 62421
62421 62494
62494 62567
62567 62642
62642 62715
62715 62788
62788 62863
62863 62933
62933 63007
63007 63079
63079 63152
63152 63227
63227 63300
63300 63375
63375 63448
63448 63523
63523 63596
63596 63669
63669 63744
63744 63815
63815 63889
63889 63963
63963 64037
64037 64110
64110 64185
64185 64258
64258 64331
64331 64404
64404 64479
64479 64552
64552 64627
64627 64700
64700 64772
64772 64845
64845 64920
64920 64993
64993 65068
65068 65141
65141 65216
65216 65289
65289 65364
65364 65439
65439 65514
65514 65589
65589 65662
65662 65737
65737 65812
65812 65885
65885 65959
65959 66034
66034 66109
66109 66182
66182 66257
66257 66332
66332 66405
66405 66480
66480 66555
66555 66630
66630 66705
66705 66780
66780 66855
66855 66930
66930 67003
67003 67102
67102 67177
67177 67253
67253 67329
67329 67404
67404 67479
67479 67554
67554 67631
67631 67707
67707 67781
67781 67856
67856 67933
67933 68008
68008 68083
68083 68160
68160 68235
68235 68312
68312 68385
68385 68437
68437 68512
68512 68587
68587 68662
68662 68739
68739 68814
68814 68889
68889 68964
68964 69039
69039 69116
69116 69191
69191 69268
69268 69343
69343 69420
69420 69493
