4 57
57 134
134 210
210 284
284 357
357 434
434 511
511 586
586 661
661 737
737 812
812 887
887 963
963 1038
1038 1113
1113 1188
1188 1263
1263 1340
1340 1414
1414 1491
1491 1564
1564 1642
1642 1717
1717 1792
1792 1869
1869 1944
1944 2020
2020 2095
2095 2171
2171 2246
2246 2323
2323 2398
2398 2473
2473 2548
2548 2624
2624 2701
2701 2775
2775 2851
2851 2928
2928 3001
3001 3078
3078 3153
3153 3228
3228 3303
3303 3377
3377 3453
3453 3528
3528 3603
3603 3678
3678 3753
3753 3828
3828 3903
3903 3978
3978 4053
4053 4128
4128 4203
4203 4278
4278 4353
4353 4428
4428 4505
4505 4580
4580 4655
4655 4728
4728 4805
4805 4879
4879 4954
4954 5030
5030 5105
5105 5180
5180 5255
5255 5332
5332 5405
5405 5482
5482 5557
5557 5632
5632 5707
5707 5784
5784 5857
5857 5932
5932 6007
6007 6084
6084 6159
6159 6234
6234 6311
6311 6386
6386 6463
6463 6538
6538 6613
6613 6724
10090 10142
10361 10434
10434 10506
10506 10579
10579 10651
10651 10724
10724 10797
10797 10870
10870 10944
10944 11018
11018 11091
11091 11165
11165 11237
11237 11312
11312 11384
11384 11457
11457 11530
11530 11603
11603 11677
11677 11750
11750 11825
11825 11896
11896 11969
11969 12044
12044 12119
12119 12191
12191 12264
12264 12340
12340 12413
12413 12488
12488 12561
12561 12636
12636 12709
12709 12782
