30 81
2408 2478
2478 2529
17248 17322
17322 17367
19009 19081
19081 19126
20794 20867
20867 20917
26913 26986
26986 27033
27910 27986
27986 28034
31963 32035
32035 32081
32515 32586
32586 32657
32657 32729
32729 32802
32802 32873
33058 33132
33132 33201
33201 33273
33273 33344
33344 33416
33416 33486
33486 33556
33556 33628
33628 33700
33700 33769
33769 33840
33840 33910
33910 33982
33982 34054
34054 34099
34099 34171
34171 34241
34241 34315
34315 34383
34383 34454
34454 34527
34527 34599
34599 34670
34670 34740
34740 34810
34810 34882
34882 34953
34953 35026
35026 35097
35097 35168
35168 35239
35239 35311
35311 35384
35384 35454
35454 35525
35525 35597
35597 35670
35670 35740
35740 35814
35814 35885
35885 35955
35955 36028
36028 36100
36100 36174
36174 36245
36245 36317
36317 36389
36389 36462
36462 36534
36534 36605
36605 36676
36676 36750
36750 36820
36820 36893
36893 36964
36964 37035
37035 37107
37107 37179
37179 37252
37252 37324
37324 37394
37394 37468
37468 37540
37540 37612
37612 37683
37683 37755
37755 37828
37828 37901
37901 37974
37974 38047
38047 38118
38118 38191
38191 38263
38263 38337
38337 38409
38409 38482
38482 38555
38555 38626
38626 38699
38699 38772
38772 38845
38845 38916
38916 38990
38990 39063
39063 39136
39136 39207
39207 39280
39280 39353
39353 39426
39426 39499
39499 39572
39572 39645
39645 39717
39717 39790
39790 39863
39863 39936
39936 40011
40011 40084
40084 40155
40155 40228
40228 40301
40301 40374
40374 40446
40446 40520
40520 40592
40592 40665
40665 40738
40738 40811
40811 40884
40884 40957
40957 41030
41030 41103
41103 41176
41176 41248
41248 41322
41322 41395
41395 41467
41467 41540
41540 41613
41613 41686
41686 41759
41759 41832
41832 41903
41903 41978
41978 42051
42051 42123
42123 42197
42197 42270
42270 42342
42342 42415
42415 42486
42486 42559
42559 42632
42632 42705
42705 42778
42778 42851
42851 42924
42924 42996
42996 43068
43068 43142
43142 43213
43213 43285
43285 43359
43359 43431
43431 43503
43503 43576
43576 43648
43648 43720
43720 43791
43791 43865
43865 43938
43938 44010
44010 44081
44081 44153
44153 44227
44227 44298
44298 44372
44372 44446
44446 44518
44518 44590
44590 44663
44663 44735
44735 44808
44808 44884
44884 44956
44956 45027
45027 45102
45102 45175
45175 45247
45247 45320
45320 45393
45393 45466
45466 45539
45539 45612
45612 45684
45684 45757
45757 45829
45829 45904
45904 45978
45978 46050
46050 46122
46122 46196
46196 46269
46269 46342
46342 46416
46416 46492
46492 46565
46565 46637
46637 46712
46712 46786
46786 46859
46859 46933
46933 47005
47005 47078
47078 47152
47152 47226
47226 47299
47299 47371
47371 47445
47445 47517
47517 47591
47591 47663
47663 47736
47736 47810
47810 47882
47882 47955
47955 48030
48030 48101
48101 48174
48174 48248
48248 48320
48320 48393
48393 48466
48466 48537
48537 48612
48612 48682
48682 48753
48753 48828
48828 48899
48899 48972
48972 49044
49044 49118
49118 49191
49191 49264
49264 49336
49336 49410
49410 49483
49483 49556
49556 49629
49629 49703
49703 49776
49776 49849
49849 49922
49922 49995
49995 50070
50070 50143
50143 50218
50218 50291
50291 50364
50364 50439
50439 50510
50510 50583
50583 50658
50658 50731
50731 50804
50804 50877
50877 50952
50952 51023
51023 51096
51096 51167
51167 51240
51240 51313
51313 51385
51385 51458
51458 51531
51531 51607
51607 51677
51677 51752
51752 51826
51826 51900
51900 51973
51973 52048
52048 52123
52123 52196
52196 52271
52271 52345
52345 52418
52418 52492
52492 52565
52565 52640
52640 52712
52712 52785
52785 52859
52859 52932
52932 53006
53006 53079
53079 53152
53152 53225
53225 53296
53296 53370
53370 53444
53444 53516
53516 53588
53588 53660
53660 53732
53732 53780
53780 53853
53853 53924
53924 53998
53998 54069
54069 54142
54142 54216
54216 54288
54288 54360
54360 54434
54434 54505
54505 54578
54578 54650
54650 54722
54722 54792
54792 54864
54864 54936
54936 55007
55007 55079
55079 55152
55152 55223
55223 55295
55295 55366
55366 55438
55438 55508
55508 55582
55582 55653
55653 55725
55725 55787
55787 55866
55866 55938
55938 56011
56011 56082
56082 56155
56155 56226
56226 56298
56298 56371
56371 56443
56443 56514
56514 56587
56587 56660
56660 56731
56731 56802
56802 56876
56876 56947
56947 57018
57018 57091
57091 57163
57163 57235
57235 57307
57307 57379
57379 57451
57451 57522
57522 57595
57595 57668
57668 57738
57738 57810
57810 57880
57880 57951
57951 58024
58024 58095
58095 58166
58166 58239
58239 58309
58309 58382
58382 58453
58453 58524
58524 58595
58595 58668
58668 58739
58739 58809
58809 58882
58882 58952
58952 59027
59027 59097
59097 59170
59170 59243
59243 59314
59314 59387
59387 59460
59460 59531
59531 59603
59603 59674
59674 59749
59749 59820
59820 59893
59893 59964
59964 60037
60037 60108
60108 60180
60180 60251
60251 60326
60326 60397
60397 60470
60470 60541
60541 60612
60612 60660
60660 60733
60733 60803
60803 60874
60874 60945
60945 61018
61018 61091
61091 61162
61162 61232
61232 61303
61303 61376
61376 61447
61447 61518
61518 61591
61591 61661
61661 61732
61732 61803
61803 61875
61875 61947
61947 62017
62017 62088
62088 62159
62159 62232
62232 62304
62304 62374
62374 62445
62445 62517
62517 62588
62588 62660
62660 62732
62732 62803
62803 62876
62876 62949
62949 63020
63020 63092
63092 63165
63165 63234
63234 63307
63307 63379
63379 63451
63451 63526
63526 63597
63597 63670
63670 63742
63742 63813
63813 63886
63886 63960
63960 64032
64032 64105
64105 64177
64177 64249
64249 64321
64321 64395
64395 64467
64467 64540
64540 64611
64611 64684
64684 64757
64757 64828
64828 64901
64901 64972
64972 65031
65031 65104
65104 65174
65174 65248
65248 65321
65321 65393
65393 65466
65466 65538
65538 65610
65610 65683
65683 65755
65755 65829
65829 65900
65900 65973
65973 66046
66046 66119
66119 66191
66191 66262
66262 66335
66335 66408
66408 66479
66479 66552
66552 66625
66625 66696
66696 66769
66769 66841
66841 66914
66914 66985
66985 67058
67058 67131
67131 67204
67204 67278
67278 67350
67350 67424
67424 67495
67495 67570
67570 67641
67641 67714
67714 67787
67787 67860
67860 67933
67933 68003
68003 68076
68076 68149
68149 68222
68222 68295
68295 68366
68366 68439
68439 68510
68510 68582
68582 68656
68656 68728
68728 68801
68801 68874
68874 68945
68945 69020
69020 69091
69091 69164
69164 69235
69235 69307
69307 69380
69380 69453
69453 69524
69524 69597
69597 69670
69670 69742
