170 245
245 346
346 420
420 494
494 569
569 639
639 713
713 787
787 861
861 934
934 1008
1008 1081
1081 1154
1154 1227
1227 1302
1302 1375
1375 1448
1448 1523
1523 1597
1597 1670
1670 1745
1745 1818
1818 1894
1894 1968
1968 2043
2043 2116
2116 2191
2191 2264
2264 2339
2339 2415
2415 2489
2489 2564
2564 2637
2637 2712
2712 2787
2787 2860
2860 2935
2935 3010
3010 3085
3085 3158
3158 3233
3233 3305
3305 3381
3381 3455
3455 3531
3531 3604
3604 3678
3678 3752
3752 3826
3826 3900
3900 3974
3974 4047
4047 4120
4120 4195
4195 4268
4268 4343
4343 4416
4416 4491
4491 4564
4564 4639
4639 4712
4712 4785
4785 4859
4859 4934
4934 5007
5007 5080
5080 5153
5153 5227
5227 5301
5301 5374
5374 5447
5447 5522
5522 5595
5595 5670
5670 5743
5743 5818
5818 5889
5889 5965
5965 6038
6038 6112
6112 6187
6187 6261
6261 6336
6336 6393
6393 6485
6485 6542
6542 6633
7966 8049
9525 9598
9598 9647
11035 11110
11110 11157
12031 12106
12106 12152
14790 14877
15458 15529
16973 17045
17045 17093
24011 24084
24084 24157
24157 24228
24228 24301
24301 24373
24373 24449
24449 24519
24519 24590
24590 24663
24663 24734
24734 24808
24808 24879
24879 24950
24950 25023
25023 25096
25096 25165
25165 25236
25236 25311
25311 25382
25382 25455
25455 25525
25525 25596
25596 25667
25667 25738
25738 25811
25811 25883
25883 25955
25955 26026
26026 26096
26096 26170
26170 26241
26241 26313
26313 26386
26386 26456
26456 26527
26527 26600
26600 26672
26672 26745
26745 26816
26816 26889
26889 26960
26960 27031
27031 27105
27105 27154
27154 27228
27228 27299
27299 27371
27371 27444
27444 27518
27518 27590
27590 27665
27665 27736
27736 27808
27808 27883
27883 27954
27954 28027
28027 28102
28102 28175
28175 28247
28247 28321
28321 28395
28395 28470
28470 28541
28541 28616
28616 28689
28689 28762
28762 28835
28835 28909
28909 28983
28983 29054
29054 29130
29130 29201
29201 29276
29276 29351
29351 29424
29424 29472
29472 29544
29544 29618
29618 29692
29692 29766
29766 29839
29839 29912
29912 29987
29987 30058
30058 30133
30133 30205
30205 30277
30277 30351
30351 30424
30424 30499
30499 30572
30572 30644
30644 30718
30718 30792
30792 30864
30864 30937
30937 31011
31011 31085
31085 31156
31156 31230
31230 31303
31303 31376
31376 31450
31450 31497
31497 31571
31571 31644
31644 31718
31718 31790
31790 31863
31863 31936
31936 32009
32009 32082
32082 32155
32155 32228
32228 32300
32300 32373
32373 32446
32446 32519
32519 32592
32592 32665
32665 32740
32740 32813
32813 32886
32886 32961
32961 33034
33034 33109
33109 33182
33182 33255
33255 33329
33329 33404
33404 33478
33478 33550
33550 33625
33625 33698
33698 33773
33773 33846
33846 33921
33921 33994
33994 34069
34069 34141
34141 34217
34217 34287
34287 34360
34360 34435
34435 34508
34508 34583
34583 34656
34656 34727
34727 34802
34802 34875
34875 34950
34950 35020
35020 35095
35095 35168
35168 35241
35241 35316
35316 35387
35387 35460
35460 35535
35535 35606
35606 35678
35678 35751
35751 35822
35822 35897
35897 35970
35970 36041
36041 36089
36089 36162
36162 36233
36233 36304
36304 36378
36378 36449
36449 36522
36522 36593
36593 36666
36666 36739
36739 36811
36811 36883
37026 37074
37074 37146
37146 37218
37218 37292
37292 37363
37363 37437
37437 37509
37509 37583
37583 37657
37657 37729
37729 37804
37804 37876
37876 37951
37951 38024
38024 38145
38145 38218
38218 38292
38292 38364
38364 38437
38437 38510
38510 38584
38584 38658
38658 38731
38731 38803
38803 38877
38877 38951
38951 39022
39022 39070
39070 39145
39145 39216
39216 39290
39290 39362
39362 39434
39434 39508
39508 39580
39580 39652
39652 39725
39725 39798
39798 39869
39869 39942
39942 40015
40015 40087
40087 40159
40159 40233
40233 40306
40306 40377
40377 40450
40450 40521
40521 40594
40594 40666
40666 40739
40739 40811
40811 40885
40885 40957
40957 41029
41029 41100
41100 41173
41173 41245
41245 41318
41318 41391
41391 41463
41463 41536
41536 41610
41610 41681
41681 41754
41754 41827
41827 41900
41900 41972
42078 42153
42078 42153
42153 42224
42224 42297
42297 42372
42372 42443
42443 42518
42518 42588
42588 42661
42661 42734
42734 42805
42805 42878
42878 42953
42953 43026
43026 43097
43097 43171
43171 43245
43245 43318
43318 43390
43390 43463
43463 43536
43536 43611
43611 43684
43684 43757
43757 43830
43830 43905
43905 43976
43976 44051
44051 44124
44124 44196
44196 44269
44269 44342
44342 44415
44415 44490
44490 44561
44561 44634
44634 44709
44709 44782
44782 44855
44855 44927
44927 45001
45001 45073
45073 45146
45146 45219
45219 45292
45292 45363
45363 45436
45436 45509
45509 45581
45581 45653
45653 45728
45728 45800
45800 45874
45874 45947
45947 46020
46020 46092
46092 46166
46166 46238
46238 46311
46311 46386
46386 46456
46456 46531
46531 46603
46603 46677
46677 46751
46751 46824
46824 46898
46898 46972
46972 47045
47045 47118
47118 47192
47192 47263
47263 47338
47338 47410
47410 47482
47482 47555
47555 47628
47628 47701
47701 47775
47775 47848
47848 47921
47921 47994
47994 48067
48067 48140
48140 48212
48212 48287
48287 48360
48360 48432
48432 48506
48506 48580
48580 48653
48653 48725
48725 48800
48800 48874
48874 48946
48946 49020
49020 49092
49092 49164
49164 49237
49237 49310
49310 49384
49384 49456
49456 49529
49529 49605
49605 49677
49677 49752
49752 49824
49824 49897
49897 49972
49972 50046
50046 50118
50118 50192
50192 50267
50267 50340
50340 50413
50413 50488
50488 50560
50560 50635
50635 50709
50709 50781
50781 50855
50855 50928
50928 51000
51000 51075
51075 51147
51147 51221
51221 51295
51295 51369
51369 51442
51442 51514
51514 51588
51588 51663
51663 51734
51734 51807
51807 51881
51881 51952
51952 52025
52025 52100
52100 52173
52173 52246
52246 52317
52317 52392
52392 52465
52465 52537
52537 52610
52610 52683
52683 52758
52758 52831
52831 52904
52904 52977
52977 53050
53050 53123
53123 53195
53195 53269
53269 53341
53341 53415
53415 53487
53487 53562
53562 53633
53633 53706
53706 53781
53781 53853
53853 53927
53927 53999
53999 54072
54072 54145
54145 54218
54218 54291
54291 54363
54363 54435
54435 54508
54508 54581
54581 54655
54655 54728
54728 54801
54801 54874
54874 54947
54947 55020
55020 55093
55093 55166
55166 55239
55239 55314
55314 55386
55386 55459
55459 55532
55532 55605
55605 55677
55677 55750
55750 55822
55822 55895
55895 55968
55968 56040
56040 56114
56114 56186
56186 56260
56260 56331
56331 56405
56405 56479
56479 56552
56552 56624
56624 56697
56697 56770
56770 56843
56843 56917
56917 56990
56990 57063
57063 57135
57135 57210
57210 57282
57282 57357
57357 57429
57429 57501
57501 57575
57575 57648
57648 57721
57721 57796
57796 57867
57867 57942
57942 58015
58015 58088
58088 58161
58161 58235
58235 58308
58308 58381
58381 58454
58454 58527
58527 58601
58601 58674
58674 58746
58746 58819
58819 58892
58892 58965
58965 59038
59038 59113
59113 59187
59187 59261
59261 59334
59334 59407
59407 59480
59610 59702
59702 59774
59774 59849
59849 59923
59923 59998
59998 60070
60070 60143
60143 60216
60216 60289
60289 60363
60363 60435
60435 60509
60509 60583
60583 60656
60656 60729
60729 60802
60802 60877
60877 60950
60950 61023
61023 61098
61098 61171
61171 61244
61244 61318
61318 61391
61391 61466
61466 61539
61539 61612
61612 61685
61685 61760
