2867 2936
2936 2977
3548 3621
3621 3687
3687 3754
3754 3821
3821 3885
3885 3954
3954 4016
4016 4083
4083 4150
4150 4216
4216 4283
4283 4348
4348 4416
4416 4479
4479 4547
4547 4616
4616 4681
4681 4745
4745 4812
4812 4879
4879 4945
4945 5012
5012 5081
5081 5143
5143 5212
5212 5253
5253 5320
5320 5385
5385 5451
5451 5518
5518 5584
5584 5651
5651 5718
5718 5784
5784 5849
5849 5916
5916 5984
5984 6049
6049 6116
6116 6184
6184 6249
6249 6315
6315 6382
6382 6449
6449 6515
6515 6584
6584 6651
6651 6717
6717 6786
6786 6855
6855 6921
6921 6988
6988 7055
7055 7121
7121 7190
7190 7257
7257 7325
7325 7392
7392 7459
7459 7525
7525 7594
7594 7661
7661 7727
7727 7794
7794 7863
7863 7929
7929 7996
7996 8065
8065 8131
8131 8198
8198 8265
8265 8331
8331 8398
8398 8464
8464 8530
8530 8599
8599 8666
8666 8732
8732 8799
8799 8867
8867 8935
8935 9001
9001 9069
9069 9136
9136 9201
9201 9267
9267 9377
13530 13597
13597 13639
14314 14381
14381 14425
18825 18892
18892 19002
28212 28285
28897 28954
37354 37415
37545 37610
37610 37675
37675 37741
37741 37806
37806 37871
37871 37937
37937 38004
38004 38083
38083 38149
38149 38216
38216 38283
38283 38349
38349 38416
38416 38481
38481 38549
38549 38614
38614 38681
38681 38747
38747 38814
38814 38881
38881 38945
38945 39012
39012 39079
39079 39143
39143 39212
39212 39279
39279 39345
39345 39412
39412 39479
39479 39543
39543 39612
39612 39679
39679 39745
39745 39812
39812 39879
39879 39947
39947 40012
40012 40079
40079 40145
40145 40214
40214 40280
40280 40345
40345 40414
40414 40481
40481 40545
40545 40614
40614 40681
40681 40747
40747 40816
40816 40897
40897 40966
40966 41035
41035 41075
41075 41143
41143 41208
41208 41304
41304 41371
41371 41438
41438 41506
41506 41573
41573 41640
41640 41706
41706 41773
41773 41840
41840 41908
41908 41975
41975 42041
42041 42108
42108 42175
42175 42242
42242 42311
42311 42378
42378 42444
42444 42511
42511 42579
42579 42646
42646 42714
42714 42780
42780 42847
42847 42915
42915 42982
42982 43048
43048 43117
43117 43184
43184 43252
43252 43319
43319 43386
43386 43455
43455 43521
43521 43590
43590 43656
43656 43723
43723 43791
43791 43857
43857 43924
43924 43992
43992 44057
44057 44125
44125 44192
44192 44259
44259 44325
44325 44392
44392 44461
44461 44527
44527 44595
44595 44661
44661 44728
44728 44796
44796 44862
44862 44929
44929 44995
44995 45064
45064 45130
45130 45198
45198 45264
45264 45330
45330 45398
45398 45466
45466 45534
45534 45600
45600 45665
45665 45734
45734 45801
45801 45868
45868 45936
45936 46005
46005 46069
46069 46138
46138 46204
46204 46271
46271 46338
46338 46404
46404 46471
46471 46539
46539 46607
46607 46673
46673 46742
46742 46807
46807 46875
46875 46941
46941 47008
47008 47077
47077 47142
47142 47211
47211 47278
47278 47344
47344 47413
47413 47480
47480 47546
47546 47613
47613 47682
47682 47747
47747 47813
47813 47880
47880 47949
47949 48013
48013 48080
48080 48147
48147 48213
48213 48282
48282 48348
48348 48415
48415 48484
48484 48551
48551 48617
48617 48686
48686 48751
48751 48817
48817 48884
48884 48951
48951 49017
49017 49084
49084 49151
49151 49217
49217 49286
49286 49351
49351 49419
49419 49486
49486 49555
49555 49622
49622 49688
49688 49755
49755 49821
49821 49888
49888 49955
49955 50024
50024 50090
50090 50157
50157 50224
50224 50292
50292 50357
50357 50426
50426 50492
50492 50559
50559 50626
50626 50693
50693 50761
50761 50826
50826 50894
50894 50961
50961 51042
51042 51107
51107 51175
51175 51242
51242 51309
51309 51377
51377 51444
51444 51510
51510 51577
51577 51655
51655 51722
51722 51790
51790 51858
51858 51924
51924 51993
51993 52059
52059 52126
52126 52193
52193 52260
52260 52328
52328 52397
52397 52463
52463 52530
52530 52597
52597 52665
52665 52732
52732 52799
52799 52867
52867 52934
52934 53000
53000 53068
53068 53136
53136 53205
53205 53273
53273 53338
53338 53404
53404 53472
53472 53538
53538 53606
53606 53674
53674 53741
53741 53808
53808 53878
53878 53944
53944 54011
54011 54080
54080 54147
54147 54213
54213 54281
54281 54350
54350 54416
54416 54484
54484 54551
54551 54617
54617 54686
54686 54753
54753 54822
54822 54888
54888 54955
54955 55025
55025 55090
55090 55161
55161 55226
55226 55295
55295 55363
55363 55430
55430 55497
55497 55563
55563 55631
55631 55699
55699 55769
55769 55834
55834 55900
55900 55972
55972 56036
56036 56103
56103 56167
56167 56236
56236 56305
56305 56369
56369 56436
56436 56507
56507 56571
56571 56640
56640 56684
56684 56751
56751 56817
56817 56884
56884 56953
56953 57017
57017 57086
57086 57155
57155 57219
57219 57286
57286 57353
57353 57420
57420 57488
57488 57553
57553 57624
57624 57688
57688 57755
57755 57824
57824 57890
57890 57957
57957 58024
58024 58090
58090 58159
58159 58226
58226 58292
58292 58359
58359 58426
58426 58491
58491 58559
58559 58626
58626 58695
58695 58759
58759 58828
58828 58893
58893 58961
58961 59028
59028 59118
59118 59185
59185 59251
59251 59314
59314 59383
59383 59448
59448 59514
59514 59583
59583 59645
59645 59712
59712 59779
59779 59846
59846 59910
59910 59977
59977 60041
60041 60107
60107 60172
60172 60239
60239 60304
60304 60370
60370 60435
60435 60499
60499 60564
60564 60631
60631 60697
60697 60761
60761 60826
60826 60893
60893 60956
60956 61023
61023 61089
61089 61154
61154 61219
61219 61285
61285 61350
61350 61417
61417 61483
61483 61548
61548 61614
61614 61681
61681 61747
61747 61812
61812 61877
61877 61944
61944 62009
62009 62075
62075 62141
62141 62208
62208 62275
62275 62341
62341 62405
62405 62473
62473 62538
62538 62604
62604 62672
62672 62738
62738 62804
62804 62869
62869 62935
62935 63002
63002 63068
63068 63135
63135 63201
63201 63266
63266 63336
63336 63400
63400 63466
63466 63534
63534 63599
63599 63667
63667 63733
63733 63800
63800 63867
63867 63931
63931 63998
63998 64064
64064 64132
64132 64198
64198 64267
64267 64333
64333 64398
