136 195
195 255
255 317
317 376
376 436
436 559
559 625
625 686
686 746
746 794
794 869
869 932
932 996
996 1080
1080 1144
1144 1207
1207 1265
1265 1328
1328 1390
1390 1454
1454 1515
1515 1574
1574 1636
1636 1698
1698 1760
1760 1819
1819 1881
1881 1943
1943 2004
2004 2103
2103 2166
2166 2254
2254 2352
2352 2417
2417 2475
2475 2537
2537 2600
2600 2662
2662 2724
2724 2844
2844 2885
2885 3010
3010 3046
3046 3108
3108 3169
3169 3231
3231 3290
3290 3352
3352 3390
3390 3452
3452 3511
3511 3573
3573 3635
3635 3696
3696 3759
3759 3821
3821 3885
3885 3946
3946 4008
4008 4056
4056 4119
4119 4183
4183 4246
4246 4307
4307 4369
4369 4433
4433 4496
4496 4558
4558 4620
4620 4683
4683 4748
4748 4808
4808 4870
4870 4935
4935 4997
4997 5060
5060 5125
5125 5189
5189 5249
5249 5312
5312 5376
5376 5439
5439 5501
5501 5566
5566 5630
5630 5693
5693 5755
5755 5820
5820 5884
5884 5947
5947 6011
6011 6076
6076 6141
6141 6203
6203 6268
6268 6332
6332 6395
6395 6499
6499 6563
6563 6628
6628 6693
6693 6757
6757 6819
6819 6886
6886 6951
6951 7013
7013 7080
7080 7144
7144 7207
