4271 4398
9077 9233
9233 9323
9323 9415
9415 9506
9506 9596
9596 9688
9688 9781
9781 9873
9873 9964
9964 10058
10058 10148
10148 10239
10239 10333
10333 10427
10427 10522
10522 10616
10616 10710
10710 10806
10806 10899
10899 10993
10993 11085
11085 11176
11176 11268
11268 11360
11360 11451
11451 11541
11541 11632
11632 11722
11722 11814
11814 11905
11905 11997
11997 12090
12090 12182
12182 12278
12278 12372
12372 12467
12467 12563
12563 12654
12654 12748
12748 12842
12842 12936
12936 13030
13030 13121
13121 13213
13213 13307
13307 13398
13398 13492
13492 13581
13581 13673
13673 13767
13767 13824
13824 13929
13929 14021
14021 14115
14115 14207
14207 14300
14300 14394
14394 14485
14485 14579
14579 14673
14673 14767
14767 14860
14860 14954
14954 15050
15050 15143
15143 15237
15237 15329
15329 15423
15423 15516
15516 15610
15610 15704
15704 15796
15796 15889
15889 15985
15985 16077
16077 16170
16170 16264
16264 16358
16358 16449
16449 16543
16543 16635
16635 16728
16728 16822
16822 16916
16916 17010
17010 17078
17078 17174
17174 17266
17266 17358
17358 17451
17451 17543
17543 17635
17635 17728
17728 17820
17820 17911
17911 18003
18003 18097
18097 18189
18189 18282
18282 18376
18376 18470
18470 18563
18563 18657
18657 18751
18751 18843
18843 18936
18936 19028
19028 19120
19120 19212
19212 19305
19305 19399
19399 19490
19490 19582
19582 19674
19674 19766
19766 19859
19859 19951
19951 20045
20045 20138
20138 20230
20230 20322
20322 20414
20414 20509
20509 20603
20603 20697
20697 20790
20790 20872
20872 20978
20978 21072
21072 21141
21141 21236
21236 21328
21328 21419
21419 21514
21514 21605
21605 21699
21699 21791
21791 21884
21884 21976
21976 22070
22070 22163
22163 22255
22255 22349
22349 22441
22441 22532
22532 22626
22626 22717
22717 22811
22811 22903
22903 22997
22997 23091
23091 23157
23157 23251
23251 23343
23343 23436
23436 23532
23532 23624
23624 23720
23720 23813
23813 23909
23909 24003
24003 24095
24095 24186
24186 24278
24278 24370
24370 24464
24464 24555
24555 24649
24649 24741
24741 24834
24834 24893
24893 24966
24966 25020
25020 25149
25149 25197
26057 26243
26243 26339
26339 26432
26432 26526
26526 26620
26620 26714
26714 26807
26807 26899
26899 26993
26993 27135
27135 27212
27212 27270
27270 27364
27364 27458
27458 27549
27549 27643
27643 27736
27736 27828
27828 27922
27922 28013
28013 28107
28107 28201
28201 28293
28293 28480
28480 28574
28574 28666
28666 28755
28755 28847
28847 28939
28939 29030
29030 29124
29124 29218
29218 29310
29310 29405
29405 29497
29497 29591
29591 29684
29684 29774
29774 29866
29866 29958
29958 30049
30049 30141
30141 30232
30232 30324
30324 30416
30416 30506
30506 30599
30599 30691
30691 30783
30783 30874
30874 30966
30966 31058
31058 31151
31151 31278
31278 31345
31345 31428
31428 31522
31522 31618
31618 31686
31686 31781
31781 31872
31872 31966
31966 32060
32060 32153
32153 32249
32249 32343
32343 32437
32437 32535
32535 32628
32628 32713
32713 32820
32820 32912
32912 33006
33006 33097
33097 33224
33224 33280
33280 33372
33372 33464
33464 33558
33558 33651
33651 33743
33743 33838
33838 33995
33995 34087
34087 34178
34178 34308
34308 34366
34366 34458
34458 34551
34551 34647
34647 34739
34739 34834
34834 34930
34930 35024
35024 35118
35118 35211
35211 35303
35303 35399
35399 35491
35491 35584
35584 35678
35678 35774
35774 35866
35866 35959
35959 36053
36053 36147
36147 36241
36241 36334
36334 36428
36428 36518
36518 36609
36609 36703
36703 36795
36795 36889
36889 36927
36927 37054
37054 37104
37104 37181
37181 37277
37277 37369
37369 37464
37464 37523
37523 37617
37617 37710
37710 37804
37804 37840
37840 37896
37896 37987
37987 38081
38081 38173
38173 38267
38267 38360
38360 38454
38454 38546
38546 38639
38639 38733
38733 38825
38825 38919
38919 39010
39010 39104
39104 39198
39198 39291
39291 39387
39387 39481
39481 39577
39577 39633
39633 39764
39764 39858
39858 39952
39952 40045
40045 40139
40139 40266
40266 40358
40358 40414
40414 40504
40504 40597
40597 40687
40687 40767
40767 40870
40870 40962
40962 41054
41054 41145
41145 41237
41237 41329
41329 41422
41422 41514
41514 41608
41608 41701
41701 41797
41797 41881
41881 41989
41989 42083
42083 42179
42179 42272
42272 42368
42368 42461
42461 42555
42555 42649
42649 42743
42743 42836
42836 42930
42930 43022
43022 43116
43116 43207
43207 43301
43301 43391
43391 43470
43470 43572
43572 43666
43666 43755
43755 43844
43844 43934
43934 44024
44024 44118
44118 44209
44209 44303
44303 44362
44362 44470
44470 44565
44565 44657
44657 44753
44753 44822
44822 44915
44915 45007
45007 45101
45101 45194
45194 45286
45286 45380
45380 45472
45472 45565
45565 45659
45659 45753
45753 45846
45846 45940
45940 46032
46032 46128
46128 46217
46217 46311
46311 46392
46392 46496
46496 46586
46586 46679
46679 46773
46773 46829
46829 46961
46961 47052
47052 47146
47146 47238
47238 47333
47333 47425
47425 47515
47515 47608
47608 47665
47665 47798
47798 47892
47892 47983
47983 48077
48077 48171
48171 48298
48298 48346
48346 48425
48425 48521
48521 48614
48614 48708
48708 48800
48800 48894
48894 48989
48989 49083
49083 49177
49177 49271
49271 49364
49364 49433
49433 49526
49526 49618
49618 49712
49712 49804
49804 49895
49895 49987
49987 50078
50078 50172
50172 50266
50266 50362
50362 50453
50453 50547
50547 50643
50643 50738
50738 50832
50832 50928
50928 51022
51022 51118
51118 51209
51209 51305
51305 51397
51397 51549
51549 51654
51654 51690
51690 51749
51749 51842
51842 51936
51936 52030
52030 52123
52123 52217
52217 52310
52310 52402
52402 52495
52495 52588
52588 52681
52681 52773
52773 52867
52867 52993
52993 53050
53050 53144
53144 53225
53225 53329
53329 53422
53422 53516
53516 53608
53608 53701
53701 53793
53793 53875
53875 53979
53979 54073
54073 54166
54166 54258
54258 54351
54351 54443
54443 54535
54535 54624
54624 54715
54715 54807
54807 54899
54899 54993
54993 55084
55084 55176
55176 55270
55270 55363
55363 55457
55457 55605
55605 55736
55736 55828
55828 55921
55921 55978
55978 56084
56084 56175
56175 56269
56269 56363
56363 56455
56455 56548
56548 56642
56642 56735
56735 56829
56829 56923
56923 57014
57014 57108
57108 57202
57202 57296
57296 57387
57387 57479
57479 57572
57572 57666
57666 57760
57760 57854
57854 57946
57946 58037
58037 58131
58131 58225
58225 58314
58314 58407
58407 58501
58501 58568
58568 58662
58662 58756
58756 58851
58851 58943
58943 59036
59036 59130
59130 59224
59224 59320
59320 59413
59413 59505
59505 59599
59599 59695
59695 59788
59788 59882
59882 59976
59976 60069
60069 60161
60161 60255
60255 60348
60348 60442
60442 60536
60536 60632
60632 60728
60728 60819
60819 60915
60915 61008
61008 61102
61102 61196
61196 61288
61288 61381
61381 61473
61473 61567
61567 61660
61660 61752
61752 61846
61846 61939
61939 62033
62033 62127
62127 62221
62221 62314
62314 62350
62350 62412
62412 62506
62506 62601
62601 62695
62695 62791
62791 62887
62887 62981
62981 63078
63078 63172
63172 63268
63268 63364
63364 63460
63460 63555
63555 63651
63651 63747
63747 63838
63838 63932
63932 64026
64026 64119
64119 64213
64213 64307
64307 64401
64401 64496
64496 64590
64590 64685
64685 64777
64777 64869
64869 64963
64963 65056
65056 65146
65146 65241
65241 65333
65333 65429
65429 65521
65521 65614
65614 65708
65708 65799
65799 65893
65893 65985
65985 66079
66079 66170
66170 66262
66262 66354
66354 66445
66445 66538
66538 66630
66630 66722
66722 66815
66815 66907
66907 66999
66999 67092
67092 67184
67184 67278
67278 67371
67371 67465
67465 67559
67559 67653
67653 67744
67744 67838
67838 67932
67932 68026
68026 68119
68119 68213
68213 68306
68306 68398
68398 68491
68491 68583
68583 68677
68677 68769
68769 68862
68862 68958
68958 69052
69052 69110
69110 69239
69239 69335
69335 69427
69427 69520
69520 69616
69616 69707
69707 69776
69776 69868
69868 69959
69959 70051
70051 70142
70142 70236
70236 70325
70325 70417
70417 70511
70511 70590
70590 70694
70694 70750
70750 70877
70877 70971
70971 71061
71061 71154
71154 71246
71246 71340
71340 71433
71433 71527
71527 71623
71623 71714
71714 71810
71810 71906
71906 71999
71999 72097
72097 72191
72191 72287
72287 72382
72382 72478
72478 72572
72572 72664
72664 72755
72755 72849
72849 72941
72941 73034
73034 73128
73128 73219
73219 73311
73311 73405
73405 73496
73496 73589
73589 73681
73681 73775
73775 73869
