141 332
528 820
820 918
918 1013
1013 1209
1209 1307
1307 1378
1378 1478
1478 1574
1574 1670
1670 1767
1767 1863
1863 1959
1959 2055
2055 2153
2153 2250
2250 2446
2446 2542
2542 2640
2640 2740
2740 2934
2934 3021
3021 3077
3077 3173
3173 3273
3273 3373
3373 3468
3468 3568
3568 3666
3666 3764
3764 3862
3862 3956
3956 4054
4054 4150
4150 4243
4243 4339
4339 4435
4435 4533
4533 4628
4628 4726
4726 4824
4824 4922
4922 5022
5022 5122
5122 5222
5222 5322
5322 5420
5420 5518
5518 5593
5593 5666
5666 5766
5766 5866
5866 5964
5964 6061
6061 6162
6162 6257
6257 6357
6357 6455
6455 6555
6555 6653
6653 6753
6753 6851
6851 6949
6949 7047
7047 7142
7142 7240
7240 7336
7336 7434
7434 7530
7530 7628
7628 7722
7722 7817
7817 7913
7913 8009
8009 8106
8106 8204
8204 8302
8302 8400
8400 8498
8498 8596
8596 8694
8694 8792
8792 8889
8889 8987
8987 9087
9087 9185
9185 9283
9283 9379
9379 9479
9479 9577
9577 9675
9675 9774
9774 9872
9872 9970
9970 10068
10068 10166
10166 10266
10266 10364
10364 10460
10460 10557
10557 10655
10655 10751
10751 10849
10849 10945
10945 11041
11041 11139
11139 11236
11236 11334
11334 11432
11432 11530
11530 11630
11630 11730
11730 11832
11832 11932
11932 12034
12034 12138
12138 12240
12240 12340
12340 12440
12440 12542
12542 12644
12644 12744
12744 12842
12842 12946
12946 13044
13044 13142
13142 13242
13242 13340
13340 13435
13435 13535
13535 13635
13635 13708
13708 13806
13806 13906
13906 14004
14004 14101
14101 14202
14202 14302
14302 14404
14404 14504
14504 14577
14577 14678
14678 14776
14776 14874
14874 15010
15010 15126
15126 15227
15227 15330
15330 15432
15432 15532
15532 15634
15634 15734
15734 15836
15836 15935
15935 16036
16036 16137
16137 16235
16235 16335
16335 16436
16436 16536
16536 16635
16635 16733
16733 16831
16831 16933
16933 17006
17006 17106
17106 17206
17206 17308
17308 17410
17410 17510
17510 17614
17614 17714
17714 17814
17814 17914
17914 18013
18013 18114
18114 18211
18211 18309
18309 18407
18407 18505
18505 18603
18603 18703
18703 18803
18803 18905
18905 19009
19009 19113
19113 19213
19213 19313
19313 19412
19412 19514
19514 19619
19619 19694
19694 19798
19798 19900
19900 20004
20004 20108
20108 20210
20210 20314
20314 20416
20416 20452
20452 20514
20514 20618
20618 20720
20720 20826
20826 20928
20928 21005
21005 21112
21112 21216
21216 21316
21316 21418
21418 21522
21522 21622
21622 21721
21721 21822
21822 21926
21926 22030
22030 22132
22132 22232
22232 22333
22333 22436
22436 22538
22538 22640
22640 22742
22742 22844
22844 22948
22948 23050
23050 23156
23156 23263
23263 23367
23367 23469
23469 23636
23636 23779
23779 23887
23887 24024
24024 24087
24087 24187
24187 24285
24285 24382
24382 24480
24480 24582
24582 24684
24684 24787
24787 24968
24968 25069
25069 25171
25171 25246
25246 25347
25347 25451
25451 25553
25553 25629
25629 25729
25729 25829
25829 25867
25867 25929
25929 25965
25965 26032
26032 26131
26131 26233
26233 26333
26333 26435
26435 26535
26535 26641
26641 26745
26745 26852
26852 26954
26954 27056
27056 27156
27156 27260
27260 27358
27358 27459
27459 27561
27561 27662
27662 27766
27766 27868
27868 27945
27945 28045
28045 28147
28147 28246
28246 28349
28349 28386
28386 28453
28453 28555
28555 28657
28657 28759
28759 28858
28858 28961
28961 29065
29065 29165
29165 29241
29241 29344
29344 29448
29448 29550
29550 29587
29587 29652
29652 29689
29689 29754
29858 29960
29960 30062
30370 30472
30472 30576
30576 30678
30782 30882
30882 30988
30988 31069
31069 31177
31177 31365
31469 31571
32079 32181
32691 32793
34425 34529
34529 34635
34635 34740
35166 35203
35203 35266
35967 36069
36069 36107
36688 36725
36725 36789
36789 36889
36889 36991
36991 37043
37043 37139
37139 37235
37235 37331
37331 37420
37420 37510
37510 37599
37599 37686
37686 37776
37776 37867
37867 37955
37955 38099
38099 38195
38195 38293
38293 38384
38384 38480
38480 38576
38576 38671
38671 38769
38769 38863
38863 38957
38957 39050
39050 39146
39146 39236
39236 39329
39329 39427
39427 39523
39523 39623
39623 39715
39715 39808
39808 39904
39904 40000
40000 40102
40102 40193
40193 40287
40287 40383
40383 40481
40481 40573
40573 40666
40666 40764
40764 40862
40862 40960
40960 41052
41052 41147
41147 41241
41241 41339
41339 41439
41439 41530
41530 41624
41624 41720
41720 41818
41818 41916
41916 42005
42005 42097
42097 42191
42191 42288
42288 42384
42384 42478
42478 42574
42574 42669
42669 42763
42763 42859
42859 42951
42951 43046
43046 43142
43142 43236
43236 43330
43330 43425
43425 43519
43519 43613
43613 43706
43706 43798
43798 43892
43892 43983
43983 44079
44079 44173
44173 44267
44267 44360
44360 44458
44458 44554
44554 44645
44645 44743
44743 44837
44837 44933
44933 45028
45028 45124
45124 45220
45220 45316
45316 45412
45412 45509
45509 45603
45603 45701
45701 45797
45797 45892
45892 45986
45986 46082
46082 46178
46178 46274
46274 46369
46369 46465
46465 46561
46561 46657
46657 46753
46753 46848
46848 46942
46942 47035
47035 47129
47129 47225
47225 47315
47315 47408
47408 47502
47502 47596
47596 47691
47691 47785
47785 47879
47879 47974
47974 48066
48066 48158
48158 48252
48252 48343
48343 48437
48437 48530
48530 48624
48624 48716
48716 48809
48809 48901
48901 48995
48995 49088
49088 49182
49182 49274
49274 49367
49367 49434
49434 49528
49528 49619
49619 49709
49709 49800
49800 49890
49890 49982
49982 50071
50071 50165
50165 50253
50253 50344
50344 50436
50436 50527
50527 50617
50617 50706
50706 50798
50798 50887
50887 50977
50977 51066
51066 51158
51158 51247
51247 51337
51337 51428
51428 51520
51520 51612
51612 51703
51703 51793
51793 51885
51885 51949
51949 52041
52041 52132
52132 52222
52222 52311
52311 52401
52401 52490
52490 52580
52580 52667
52667 52757
52757 52847
52847 52940
52940 53030
53030 53121
53121 53213
53213 53304
53304 53396
53396 53488
53488 53577
53577 53667
53667 53756
53756 53848
53848 53935
53935 54025
54025 54114
54114 54206
54206 54295
54295 54385
54385 54474
54474 54564
54564 54651
54651 54742
54742 54833
54833 54889
54889 54993
54993 55085
55085 55176
55176 55270
55270 55365
55365 55461
55461 55559
55559 55657
55657 55759
55759 55859
55859 55959
55959 56061
56061 56162
56162 56265
56265 56371
56371 56477
56477 56577
56577 56683
56683 56785
56785 56889
56889 56997
56997 57104
57104 57210
57210 57316
57316 57398
57398 57483
57483 57588
57588 57689
57689 57791
57791 57876
57876 57963
57963 58052
58052 58143
58143 58233
58233 58323
58323 58409
58409 58497
58497 58581
58581 58668
58668 58756
58756 58844
58844 58933
58933 59023
59023 59114
59114 59204
59204 59289
59289 59380
59380 59471
59471 59558
59558 59644
59644 59738
59738 59834
59834 59921
59921 60013
60013 60099
60099 60184
60184 60271
60271 60359
60359 60445
60445 60530
60530 60613
60613 60693
60693 60779
