229 331
331 404
1383 1481
1770 1806
1806 1868
5116 5153
5153 5211
8126 8162
8162 8222
8222 8318
8318 8413
8413 8511
8511 8609
8609 8704
8704 8800
8800 8896
8896 8990
8990 9086
9086 9184
9184 9279
9279 9375
9375 9471
9471 9565
9565 9665
9665 9736
9736 9833
9833 9929
9929 10025
10025 10125
10125 10220
10220 10316
10316 10416
10416 10498
10498 10606
10606 10701
10701 10795
10795 10893
10893 10987
10987 11080
11080 11176
11176 11272
11272 11366
11366 11461
11461 11557
11557 11653
11653 11747
11747 11844
11844 11940
11940 12038
12038 12136
12136 12232
12232 12330
12330 12427
12427 12523
12523 12619
12619 12713
12713 12808
12808 12903
12903 13000
13000 13100
13100 13198
13198 13296
13296 13383
13383 13496
13496 13594
13594 13693
13693 13791
13791 13888
13888 13987
13987 14081
14081 14176
14176 14270
14270 14364
14364 14460
14460 14554
14554 14649
14649 14732
14732 14839
14972 15109
20140 20180
20180 20238
20238 20334
20334 20429
20429 20529
20529 20625
20625 20721
20721 20821
20821 20892
20892 20992
20992 21085
21085 21181
21181 21279
21279 21361
21361 21468
21468 21564
21564 21660
21660 21758
21758 21852
21852 21949
21949 22045
22045 22143
22143 22241
22241 22335
22335 22434
22434 22533
22533 22628
22628 22728
22728 22826
22826 22922
22922 23022
23022 23117
23117 23213
23213 23311
23311 23409
23409 23507
23507 23601
23601 23699
23699 23799
23799 23894
23894 23988
23988 24086
24086 24180
24180 24275
24275 24371
24371 24467
24467 24567
24567 24663
24663 24761
24761 24858
24858 24956
24956 25054
25054 25152
25152 25252
25252 25350
25350 25444
25444 25544
25544 25643
25643 25727
25727 25835
25835 25935
25935 26031
26031 26129
26129 26225
26225 26322
26322 26418
26418 26514
26514 26610
26610 26706
26706 26799
26799 26885
26885 26993
26993 27089
27089 27185
27185 27268
27268 27378
27378 27474
27474 27572
27572 27668
27668 27764
27764 27863
27863 27961
27961 28061
28061 28159
28159 28253
28253 28351
28351 28388
28388 28424
28424 28522
28522 28620
28620 28659
28659 28717
28717 28813
28813 28913
28913 28986
28986 29082
29082 29180
29180 29278
29278 29373
29373 29469
29469 29565
29565 29663
29663 29756
29756 29852
29852 29950
29950 30046
30046 30083
30083 30142
30142 30240
30240 30327
30327 30438
30438 30534
30534 30633
30633 30729
30729 30825
30825 30925
30925 31021
31021 31119
31119 31254
31254 31390
31390 31487
31487 31523
31523 31581
31581 31679
31679 31777
31777 31871
31871 31969
31969 32031
32031 32083
32083 32120
32120 32183
32183 32283
32283 32381
32381 32481
32481 32579
32579 32676
32676 32772
32772 32868
32868 32966
32966 33062
33062 33160
33160 33231
33231 33328
33328 33424
33424 33520
33520 33674
33674 33811
33811 33903
33903 33999
33999 34093
34093 34191
34191 34282
34282 34378
34378 34476
34476 34572
34572 34670
34670 34732
34732 34838
34838 34938
34938 35038
35038 35136
35136 35236
35236 35334
35334 35434
35434 35532
35532 35632
35632 35730
35730 35828
35828 35925
35925 36025
36025 36121
36121 36217
36217 36313
36313 36407
36407 36502
36502 36600
36600 36638
36638 36684
36684 36794
36794 36892
36892 36990
36990 37086
37086 37181
37181 37281
37281 37377
37377 37475
37475 37571
37571 37667
37667 37767
37767 37864
37864 37950
37950 38062
38062 38160
38160 38246
38246 38354
38354 38452
38452 38546
38546 38641
38641 38735
38735 38831
38831 38924
38924 39018
39018 39114
39114 39208
39208 39304
39304 39401
39401 39489
39489 39599
39599 39697
39697 39799
39799 39897
39897 39997
39997 40095
40095 40191
40191 40289
40289 40389
40389 40483
40483 40580
40580 40678
40678 40762
40762 40874
40874 40970
40970 41055
41055 41167
41167 41266
41266 41363
41363 41463
41463 41561
41561 41634
41634 41730
41730 41826
41826 41924
41924 42020
42020 42063
42063 42159
42159 42259
42259 42361
42361 42459
42459 42559
42559 42656
42656 42694
42694 42754
42754 42854
42854 42950
42950 43038
43038 43146
43146 43246
43246 43342
43342 43436
43436 43531
43531 43631
43631 43667
43667 43727
43727 43827
43827 43927
43927 44013
44013 44125
44125 44221
44221 44319
44319 44417
44417 44514
44514 44552
44552 44614
44614 44712
44712 44808
44808 44906
44906 45000
45000 45096
45096 45191
45191 45283
45283 45379
45379 45472
45472 45554
45554 45662
45662 45756
45756 45848
45848 45941
45941 46034
46034 46131
46131 46220
46220 46314
46314 46408
46408 46490
46490 46597
46597 46691
46691 46787
46787 46880
46880 46976
46976 47072
47072 47164
47164 47257
47257 47349
47349 47430
47430 47537
47537 47628
47628 47718
47718 47809
47809 47901
47901 47968
47968 48055
48055 48147
48147 48236
48236 48326
48326 48418
48418 48507
48507 48597
48597 48686
48686 48774
48774 48853
48853 48955
48955 49046
49046 49136
49136 49227
49227 49319
49319 49409
49409 49500
49500 49592
49592 49684
49684 49775
49775 49832
49832 49958
49958 50048
50048 50140
50140 50234
50234 50323
50323 50404
50404 50506
50506 50575
50575 50667
50667 50746
50746 50847
50847 50939
50939 51033
51033 51123
51123 51216
51216 51306
51306 51400
51400 51489
51489 51545
51545 51673
51673 51764
51764 51858
51858 51949
51949 52031
52031 52133
52133 52199
52199 52289
52289 52376
52376 52465
52465 52553
52553 52643
52643 52697
52697 52816
52816 52893
52893 52993
52993 53080
53080 53166
53166 53255
53255 53342
53342 53430
53430 53505
53505 53605
53605 53692
53692 53780
53780 53867
53867 53956
53956 54046
54046 54134
54134 54223
54223 54314
54314 54404
54404 54479
54479 54581
54581 54673
54673 54752
54752 54854
54854 54946
54946 55037
55037 55116
55116 55219
55219 55310
55310 55389
55389 55493
55493 55585
55585 55677
55677 55768
55768 55860
55860 55949
55949 56041
56041 56133
56133 56222
56222 56303
56303 56405
56405 56497
56497 56589
56589 56678
56678 56732
56732 56859
56859 56938
56938 57040
57040 57130
57130 57224
57224 57309
57309 57400
57400 57490
57490 57579
57579 57671
57671 57763
57763 57854
57854 57944
57944 58034
58034 58127
58127 58214
58214 58304
58304 58383
58383 58485
58485 58575
58575 58666
58666 58756
58756 58833
58833 58935
58935 59024
59024 59103
59103 59203
59203 59293
59293 59383
59383 59472
59472 59562
59562 59651
59651 59743
59743 59834
59834 59924
59924 60013
60013 60105
60105 60194
60194 60284
60284 60374
60374 60463
60463 60540
60540 60640
60640 60730
60730 60819
60819 60907
60907 60984
60984 61084
61084 61173
61173 61260
61260 61350
61350 61435
61435 61525
61525 61612
61612 61700
61700 61776
61776 61877
61877 61954
61954 62043
62043 62144
62144 62233
62233 62325
62325 62413
62413 62503
62503 62581
62581 62670
62670 62759
62759 62862
62862 62951
62951 63039
63039 63116
63116 63205
63205 63305
63305 63380
63380 63469
63469 63567
63567 63644
63644 63744
63744 63832
63832 63919
63919 64007
64007 64082
64082 64181
64181 64269
64269 64354
64354 64443
64443 64531
64531 64619
64619 64706
64706 64783
64783 64883
64883 64958
64958 65048
65048 65147
65147 65235
65235 65310
65310 65412
65412 65499
65499 65575
65575 65661
65661 65762
65762 65849
65849 65926
65926 66013
66013 66113
66113 66201
66201 66276
66276 66378
66378 66463
66463 66540
66540 66628
66628 66727
66727 66805
66805 66902
66902 66994
66994 67081
67081 67158
67158 67258
67258 67348
67348 67435
67435 67511
67511 67612
67612 67699
67699 67775
67775 67877
67877 67964
67964 68054
68054 68131
68131 68231
68231 68307
68307 68394
68394 68495
68495 68584
68584 68672
68672 68749
68749 68849
68849 68938
68938 69013
69013 69117
69117 69193
69193 69292
69292 69370
69370 69458
69458 69558
69558 69646
69646 69738
69738 69825
69825 69901
69901 70004
70004 70081
70081 70170
70170 70269
70269 70360
70360 70437
70437 70524
70524 70626
70626 70716
70716 70794
