2540 2621
2621 2677
6570 6694
7873 7964
7964 8018
10047 10126
10126 10193
10280 10361
10361 10426
10515 10590
10590 10669
10669 10734
10824 10890
10978 11056
11056 11124
11290 11369
11369 11434
11525 11591
11681 11746
11823 11901
11901 11977
11977 12041
12041 12122
12280 12359
12438 12517
12517 12596
12675 12754
12754 12836
12836 12915
12915 12990
12990 13069
13229 13306
13623 13702
13702 13781
13860 13927
14095 14162
14329 14406
14406 14483
14483 14560
14560 14639
14639 14716
14716 14793
14793 14870
14870 14949
14949 15026
15026 15103
15103 15180
15180 15245
15334 15399
15488 15566
15566 15632
15721 15801
15801 15876
15876 15953
15953 16021
16188 16265
16265 16330
16421 16500
16500 16564
16654 16732
16732 16798
16888 16964
16964 17031
17119 17198
17198 17275
17275 17339
17429 17508
17508 17573
17739 17806
17895 17962
18051 18128
18128 18205
18205 18283
18283 18359
18359 18437
18437 18516
18516 18581
18670 18749
18749 18826
18826 18901
18901 18968
19055 19134
19134 19211
19211 19288
19288 19365
19365 19432
19520 19597
19597 19676
19676 19753
19753 19830
19830 19907
19907 19973
20065 20142
20142 20207
20299 20376
20376 20442
20532 20611
20611 20688
20688 20767
20767 20844
20844 20921
20921 20998
20998 21077
21077 21144
21233 21300
21389 21469
21469 21545
21545 21625
21625 21702
21702 21781
21781 21860
21860 21925
21925 22015
22015 22062
22151 22217
22304 22368
22456 22533
22533 22608
22762 22839
22839 22914
22914 22991
22991 23066
23066 23141
23141 23205
23205 23292
23292 23370
23370 23447
23447 23524
23524 23601
23601 23666
23666 23755
23755 23832
23832 23909
23909 23976
23976 24076
24076 24142
24142 24217
24217 24306
24306 24384
24384 24448
24448 24526
24526 24603
24603 24680
24680 24767
24767 24844
24844 24921
24921 24996
24996 25063
25063 25152
25152 25215
25215 25304
25304 25381
25381 25446
25446 25536
25536 25602
25602 25677
