27 74
1075 1158
1158 1242
1242 1289
2545 2614
2614 2707
2707 2768
3429 3515
3515 3596
3596 3652
5061 5145
5145 5228
5228 5370
8914 8956
8956 8998
9341 9420
9420 9505
9505 9551
10796 10882
10882 10961
10961 11008
