974 1049
1049 1099
2048 2121
2121 2194
2194 2269
2269 2340
2340 2412
2412 2486
2486 2560
2560 2631
2631 2704
2704 2767
2912 2996
2996 3036
3036 3120
3120 3193
3193 3266
3266 3339
3339 3412
3412 3483
3483 3557
3557 3630
3630 3703
3703 3776
3776 3849
3849 3924
3924 3997
3997 4070
4070 4134
4134 4220
4220 4293
4293 4368
4368 4442
4442 4518
4518 4593
4593 4665
4665 4740
4740 4815
4815 4890
4890 4963
4963 5038
5038 5111
5111 5186
5186 5261
5261 5334
5334 5409
5409 5484
5484 5546
5546 5619
5619 5705
5705 5780
5780 5842
5842 5924
5924 6000
6000 6071
6071 6144
6144 6219
6219 6290
6290 6363
6363 6436
6436 6509
6509 6579
6579 6652
6652 6725
6725 6796
6796 6869
6869 6942
6942 7015
7015 7088
7088 7158
7158 7231
7231 7302
7302 7375
7375 7436
7436 7521
7521 7594
7594 7667
7667 7739
7739 7808
7808 7883
7883 7956
7956 8029
8029 8100
8100 8173
8173 8245
8245 8318
8318 8389
8389 8462
8462 8537
8537 8608
8608 8679
8679 8754
8754 8825
8825 8897
8897 8970
8970 9043
9043 9116
9116 9189
9189 9262
9262 9335
9335 9408
9408 9479
9479 9551
9551 9624
9624 9699
9699 9770
9770 9843
9843 9916
9916 9989
9989 10061
10061 10132
10132 10205
10205 10278
10278 10351
10351 10422
10422 10495
10495 10568
10568 10638
10638 10711
10711 10784
10784 10855
10855 10928
10928 11001
11001 11053
11053 11126
11126 11198
11198 11271
11271 11341
11341 11412
11412 11485
11485 11558
11558 11629
11629 11702
11702 11774
11774 11835
11835 11920
11920 12029
12029 12125
12125 12208
12208 12281
12281 12352
12352 12496
12496 12568
12568 12641
12641 12714
12714 12787
12787 12858
12858 12931
12931 13003
13003 13076
13076 13149
13149 13195
13195 13268
13268 13341
13341 13413
13413 13484
13484 13557
13557 13630
13630 13705
13705 13774
13774 13846
13846 13919
13919 13990
13990 14075
14075 14146
14146 14218
14218 14289
14289 14362
14362 14414
14414 14485
14485 14533
14533 14605
14605 14676
14676 14749
14749 14820
14820 14891
14891 14939
14939 15011
15011 15081
15081 15152
15152 15222
15222 15293
15293 15364
15364 15435
15435 15507
15507 15578
15578 15647
15647 15695
15695 15765
15765 15825
15825 15909
15909 15980
15980 16051
16051 16122
16122 16195
16195 16266
16266 16336
16336 16409
16409 16480
16480 16552
16552 16623
16623 16694
16694 16765
16765 16838
16838 16908
16908 16981
16981 17054
17054 17125
17125 17194
17194 17265
17265 17337
17337 17408
17408 17481
17481 17552
17552 17625
17625 17698
17698 17768
17768 17827
17827 17912
17912 17983
17983 18054
18054 18127
18127 18197
18197 18270
18270 18341
18341 18401
18401 18485
18485 18556
18556 18628
18628 18701
18701 18772
18772 18845
18845 18916
18916 18991
18991 19061
19061 19132
19132 19205
19205 19278
19278 19351
19351 19424
19424 19497
19497 19567
19567 19640
19640 19713
19713 19784
19784 19846
19846 19930
19930 20001
20001 20073
20073 20144
20144 20217
20217 20290
20290 20363
20363 20436
20436 20509
20509 20579
20579 20650
20650 20713
20713 20796
20796 20856
20856 20939
20939 21002
21002 21085
21085 21145
21145 21229
21229 21302
21302 21375
21375 21435
21435 21516
21516 21589
21589 21662
21662 21735
21735 21806
21806 21879
21879 21949
21949 22022
22022 22093
22093 22166
22166 22237
22237 22309
22309 22382
22382 22451
22451 22524
22524 22572
22572 22645
22645 22716
22716 22786
22786 22859
22859 22930
22930 23001
23001 23074
23074 23144
23144 23215
23215 23288
23288 23359
23359 23430
23430 23503
23503 23573
23573 23644
23644 23717
23717 23790
23790 23863
23863 23934
23934 24005
24005 24077
24077 24148
24148 24209
24209 24292
24292 24363
24363 24434
24434 24506
24506 24577
24577 24650
24650 24723
24723 24794
24794 24866
24866 24937
24937 25010
25010 25081
25081 25154
25154 25225
25225 25297
25297 25343
25343 25416
25416 25476
25476 25560
25560 25622
25622 25705
25705 25776
25776 25847
25847 25920
25920 25991
25991 26064
26064 26134
26134 26207
26207 26278
26278 26351
26351 26424
26424 26495
26495 26566
26566 26640
26640 26711
26711 26782
26782 26855
26855 26926
26926 26996
26996 27078
27078 27151
27151 27224
27224 27295
27295 27368
27368 27439
27439 27511
27511 27582
27582 27655
27655 27728
27728 27799
27799 27872
27872 27932
27932 28015
28015 28088
28088 28161
28161 28232
28232 28307
28307 28378
28378 28450
28450 28524
28524 28596
28596 28667
28667 28742
28742 28811
28811 28886
28886 28956
28956 29029
29029 29095
29095 29168
29168 29236
29236 29309
29309 29380
29380 29465
29465 29535
29535 29606
29606 29677
29677 29748
29748 29821
29821 29891
29891 29964
29964 30025
30025 30120
30120 30193
30193 30266
30266 30337
30337 30409
30409 30482
30482 30555
