2479 2591
2591 2637
17319 17398
17398 17477
21487 21566
21724 21801
21801 21880
21880 21957
21957 22037
22037 22116
22116 22195
22195 22272
22272 22349
22349 22428
22428 22497
22497 22586
22586 22663
22663 22742
22742 22819
22819 22899
22899 22975
22975 23054
23054 23132
23132 23211
23211 23288
23288 23354
23354 23444
23444 23521
23521 23600
23600 23679
23679 23754
23754 23821
23821 23910
23910 23977
23977 24066
24066 24144
24144 24221
24221 24287
24287 24377
24377 24456
24456 24533
24533 24610
24610 24689
24689 24768
24768 24835
24835 24924
24924 25001
25001 25080
25080 25160
25160 25237
25237 25316
25316 25393
25393 25472
25472 25549
25549 25628
25628 25705
25705 25784
25784 25862
25862 25938
25938 26017
26017 26097
26097 26174
26174 26253
26253 26330
26330 26409
26409 26488
26488 26565
26565 26646
26646 26722
26722 26801
26801 26880
26880 26961
26961 27038
27038 27117
27117 27196
27196 27263
27263 27352
27352 27421
27421 27512
27512 27588
27588 27654
27654 27746
27746 27821
27821 27898
27898 27975
27975 28052
28052 28131
28131 28208
28208 28285
28285 28350
28350 28439
28439 28516
28516 28595
28595 28660
28660 28736
28736 28824
28824 28901
28901 28978
28978 29055
29055 29133
29133 29210
29210 29287
29287 29363
29363 29428
29428 29515
29515 29593
29593 29670
29670 29747
29747 29813
29813 29889
29889 29978
29978 30055
30055 30122
30122 30211
30211 30288
30288 30365
30365 30442
30442 30521
30521 30599
30599 30678
30678 30755
30755 30834
30834 30915
30915 30992
30992 31069
31069 31148
31148 31229
31229 31306
31306 31386
31386 31463
31463 31542
31542 31608
31608 31688
31688 31777
31777 31844
31844 31933
31933 32011
32011 32092
32092 32159
32159 32250
32250 32329
32329 32406
32406 32473
32473 32564
32564 32644
32644 32723
32723 32802
32802 32881
32881 32948
32948 33042
33042 33119
33119 33187
33187 33266
33266 33356
33356 33435
33435 33514
33514 33593
33593 33671
33671 33750
33750 33829
33829 33908
33908 33975
33975 34064
34064 34141
34141 34209
34209 34300
34300 34379
34379 34456
34456 34535
34535 34602
34602 34693
34693 34772
34772 34852
34852 34931
34931 34997
34997 35089
35089 35168
35168 35247
35247 35326
35326 35404
35404 35483
35483 35562
35562 35639
35639 35718
35718 35797
35797 35874
35874 35952
35952 36030
36030 36097
36097 36185
36185 36252
36252 36341
36341 36418
36418 36495
36495 36572
36572 36651
36651 36729
36729 36808
36808 36885
36885 36964
36964 37041
37041 37120
37120 37199
37199 37276
37276 37343
37343 37435
37435 37514
37514 37593
37593 37672
37672 37749
37749 37830
37830 37908
37908 37976
37976 38066
38066 38145
38145 38222
38222 38291
38291 38380
38380 38458
38458 38535
38535 38614
38614 38693
38693 38770
38770 38847
38847 38926
38926 38992
38992 39083
39083 39160
39160 39239
39239 39318
39318 39395
39395 39476
39476 39554
39554 39635
39635 39712
39712 39793
39793 39872
39872 39951
39951 40031
40031 40108
40108 40175
40175 40266
40266 40343
40343 40422
40422 40501
40501 40578
40578 40656
40656 40735
40735 40812
40812 40891
40891 40970
40970 41035
41035 41126
41126 41204
41204 41272
41272 41362
41362 41441
41441 41520
41520 41599
41599 41681
41681 41760
41760 41841
41841 41908
41908 41999
41999 42080
42080 42160
42160 42239
42239 42318
42318 42397
42397 42481
42481 42558
42558 42637
42637 42716
42716 42793
42793 42861
42861 42951
42951 43031
43031 43108
43108 43187
43187 43255
43255 43345
43345 43424
43424 43506
43506 43585
43585 43664
43664 43744
43744 43824
43824 43904
43904 43985
43985 44064
44064 44131
44131 44222
44222 44356
44356 44435
44435 44502
44502 44595
44595 44672
44672 44751
44751 44831
44831 44910
44910 44991
44991 45058
45058 45137
45137 45229
45229 45308
45308 45389
45389 45468
45468 45545
45545 45614
45614 45704
45704 45773
45773 45864
45864 45943
45943 46010
46010 46101
46101 46181
46181 46258
46258 46337
46337 46416
46416 46495
46495 46575
46575 46654
46654 46733
46733 46810
46810 46889
46889 46968
46968 47047
47047 47125
47125 47204
47204 47281
47281 47360
47360 47439
47439 47518
47518 47597
47597 47677
47677 47756
47756 47835
47835 47914
47914 47993
47993 48073
48073 48152
48152 48231
48231 48310
48310 48379
48379 48469
48469 48547
48547 48629
48629 48708
48708 48789
48789 48867
48867 48948
48948 49029
49029 49108
49108 49187
49187 49268
49268 49348
49348 49414
49414 49506
49506 49587
49587 49664
49664 49733
49733 49810
49810 49902
49902 49981
49981 50060
50060 50137
50137 50217
50217 50284
50284 50375
50375 50452
50452 50533
50533 50610
50610 50689
50689 50766
50766 50835
50835 50925
50925 51002
51002 51081
51081 51158
51158 51237
51237 51315
51315 51391
51391 51469
51469 51548
51548 51625
51625 51693
51693 51781
51781 51860
51860 51927
51927 52004
52004 52093
52093 52161
52161 52250
52250 52327
52327 52406
52406 52483
52483 52562
52562 52639
52639 52717
52717 52796
52796 52873
52873 52952
52952 53029
53029 53108
53108 53185
53185 53262
53262 53329
53329 53418
53418 53498
53498 53575
53575 53654
53654 53733
53733 53810
53810 53889
53889 53968
53968 54048
54048 54127
54127 54193
54193 54285
54285 54364
54364 54443
54443 54523
54523 54602
54602 54669
54669 54760
54760 54839
54839 54906
54906 54997
54997 55074
55074 55152
55152 55231
55231 55310
55310 55377
55377 55466
55466 55545
55545 55624
55624 55702
55702 55768
55768 55858
55858 55937
55937 56014
56014 56093
56093 56170
56170 56252
56252 56329
56329 56406
56406 56483
56483 56550
56550 56641
56641 56718
56718 56795
56795 56875
56875 56952
56952 57029
57029 57108
57108 57185
57185 57264
57264 57341
57341 57407
57407 57484
57484 57574
57574 57641
57641 57731
57731 57808
57808 57885
57885 57952
57952 58043
58043 58120
58120 58197
58197 58274
58274 58354
58354 58433
58433 58512
58512 58589
58589 58668
58668 58745
58745 58824
58824 58891
58891 58982
58982 59059
59059 59137
59137 59216
59216 59293
59293 59374
59374 59451
59451 59530
59530 59609
59609 59689
59689 59768
59768 59847
59847 59924
59924 60003
60003 60053
60053 60142
60142 60219
60219 60298
60298 60338
60338 60428
60428 60495
60495 60584
60584 60651
60651 60740
60740 60817
60817 60896
60896 60974
60974 61051
61051 61117
61117 61207
61207 61284
61284 61361
61361 61438
61438 61503
61503 61592
61592 61669
61669 61748
61748 61825
61825 61890
61890 61980
61980 62057
62057 62136
62136 62213
62213 62292
62292 62369
62369 62448
62448 62527
62527 62604
62604 62682
62682 62761
62761 62842
62842 62919
62919 62998
62998 63077
63077 63144
63144 63236
63236 63317
63317 63394
63394 63463
63463 63542
63542 63633
63633 63711
63711 63794
63794 63875
63875 63944
63944 64034
64034 64117
64117 64196
64196 64277
64277 64358
64358 64437
64437 64519
64519 64598
64598 64667
64667 64758
64758 64827
64827 64919
64919 64998
64998 65067
65067 65156
65156 65235
65235 65315
65315 65394
65394 65475
65475 65554
65554 65631
65631 65710
65710 65789
65789 65868
65868 65948
65948 66027
66027 66106
66106 66187
66187 66266
66266 66335
66335 66426
66426 66506
66506 66573
66573 66666
66666 66733
66733 66824
66824 66904
66904 66983
66983 67062
67062 67143
67143 67222
67222 67291
67291 67383
67383 67451
67451 67541
67541 67622
67622 67701
67701 67782
67782 67862
67862 67941
67941 68020
68020 68089
68089 68180
68180 68260
68260 68339
68339 68420
68420 68499
68499 68580
68580 68648
68648 68739
68739 68818
68818 68897
68897 68976
68976 69055
69055 69124
69124 69203
69203 69292
69292 69359
69359 69449
69449 69526
69526 69603
69603 69682
69682 69759
69759 69826
69826 69915
69915 69992
69992 70069
70069 70135
70135 70226
70226 70303
70303 70355
70355 70432
70432 70509
70509 70584
70584 70663
70663 70740
70740 70807
70807 70884
70884 70969
70969 71048
71048 71123
71123 71202
71202 71277
71277 71354
71354 71429
71429 71509
71509 71585
71585 71663
71663 71740
71740 71815
71815 71892
