28 82
15449 15516
15516 15560
30515 30584
30584 30650
30650 30719
30719 30786
30786 30854
30854 30921
30921 30988
30988 31057
31057 31125
31125 31192
31192 31260
31260 31329
31329 31396
31396 31464
31464 31530
31530 31598
31598 31666
31666 31733
31733 31800
31800 31869
31869 31938
31938 32003
32003 32071
32071 32139
32139 32205
32205 32272
32272 32339
32339 32406
32406 32474
32474 32541
32541 32609
32609 32676
32676 32743
32743 32812
32812 32879
32879 32945
32945 33014
33014 33081
33081 33148
33148 33216
33216 33284
33284 33351
33351 33420
33420 33486
33486 33554
33554 33622
33622 33688
33688 33755
33755 33824
33824 33891
33891 33959
33959 34025
34025 34092
34092 34159
34159 34228
34228 34294
34294 34361
34361 34430
34430 34497
34497 34563
34563 34632
34632 34698
34698 34765
34765 34833
34833 34900
34900 34967
34967 35036
35036 35102
35102 35171
35171 35238
35238 35306
35306 35372
35372 35440
35440 35508
35508 35575
35575 35642
35642 35709
35709 35776
35776 35844
35844 35911
35911 35978
35978 36046
36046 36113
36113 36181
36181 36248
36248 36316
36316 36383
36383 36452
36452 36519
36519 36586
36586 36655
36655 36722
36722 36791
36791 36858
36858 36926
36926 36995
36995 37062
37062 37131
37131 37199
37199 37267
37267 37335
37335 37403
37403 37472
37472 37538
37538 37607
37607 37675
37675 37743
37743 37811
37811 37878
37878 37947
37947 38015
38015 38082
38082 38151
38151 38217
38217 38287
38287 38355
38355 38422
38422 38490
38490 38559
38559 38626
38626 38694
38694 38763
38763 38830
38830 38898
38898 38965
38965 39034
39034 39103
39103 39171
39171 39237
39237 39306
39306 39373
39373 39442
39442 39508
39508 39577
39577 39645
39645 39713
39713 39779
39779 39848
39848 39917
39917 39984
39984 40052
40052 40120
40120 40189
40189 40256
40256 40325
40325 40392
40392 40461
40461 40529
40529 40598
40598 40666
40666 40735
40735 40802
40802 40871
40871 40938
40938 41006
41006 41074
41074 41141
41141 41210
41210 41277
41277 41346
41346 41412
41412 41481
41481 41548
41548 41616
41616 41683
41683 41752
41752 41820
41820 41887
41887 41955
41955 42022
42022 42090
42090 42158
42158 42226
42226 42295
42295 42362
42362 42430
42430 42499
42499 42566
42566 42635
42635 42703
42703 42771
42771 42839
42839 42908
42908 42978
42978 43046
43046 43114
43114 43182
43182 43250
43250 43317
43317 43386
43386 43455
43455 43524
43524 43590
43590 43658
43658 43726
43726 43795
43795 43863
43863 43931
43931 44000
44000 44067
44067 44135
44135 44204
44204 44271
44271 44341
44341 44408
44408 44476
44476 44544
44544 44613
44613 44680
44680 44748
44748 44815
44815 44884
44884 44953
44953 45019
45019 45087
45087 45155
45155 45223
45223 45290
45290 45358
45358 45426
45426 45494
45494 45561
45561 45630
45630 45697
45697 45767
45767 45834
45834 45901
45901 45969
45969 46036
46173 46240
46240 46309
46309 46377
46377 46444
46444 46513
46513 46581
46581 46649
46649 46717
46717 46786
46786 46854
46854 46922
46922 46990
46990 47058
47058 47125
47125 47194
47194 47261
47261 47329
47329 47398
47398 47467
47467 47531
47531 47600
47600 47666
47666 47733
47733 47801
47801 47868
47868 47936
47936 48002
48002 48071
48071 48137
48137 48204
48204 48273
48273 48339
48339 48406
48406 48473
48473 48540
48540 48607
48607 48675
48675 48741
48741 48810
48810 48876
48876 48943
48943 49010
49010 49079
49079 49145
49145 49212
49212 49279
49279 49348
49348 49414
49414 49481
49481 49548
49548 49616
49616 49683
49683 49751
49751 49818
49818 49885
49885 49953
49953 50020
50020 50089
50089 50156
50156 50224
50224 50291
50291 50359
50359 50426
50426 50495
50495 50562
50562 50629
50629 50697
50697 50764
50764 50832
50832 50899
50899 50967
50967 51035
51035 51103
51103 51170
51170 51237
51237 51305
51305 51372
51372 51438
51438 51507
51507 51574
51574 51640
51640 51707
51707 51774
51774 51840
51840 51909
51909 51975
51975 52042
52042 52110
52110 52177
52177 52244
52244 52311
52311 52379
52379 52446
52446 52513
52513 52581
52581 52648
52648 52715
52715 52784
52784 52850
52850 52919
52919 52986
52986 53054
53054 53123
53123 53190
53190 53258
53258 53325
53325 53394
53394 53460
53460 53529
53529 53596
53596 53664
53664 53731
53731 53800
53800 53867
53867 53935
53935 54002
54002 54069
54069 54137
54137 54206
54206 54273
54273 54340
54340 54410
54410 54477
54477 54544
54544 54612
54612 54681
54681 54750
54750 54817
54817 54885
54885 54954
54954 55022
55022 55091
55091 55158
55158 55226
55226 55294
55294 55362
55362 55430
55430 55498
55498 55566
55566 55633
55633 55701
55701 55770
55770 55838
55838 55907
55907 55974
55974 56044
56044 56111
56111 56180
56180 56247
56247 56317
56317 56384
56384 56495
56495 56563
56495 56563
56563 56632
56632 56699
56699 56767
