165 231
231 295
295 359
359 423
423 487
487 552
552 616
616 678
678 744
744 808
808 873
873 936
936 1002
1002 1066
1066 1129
1129 1195
1195 1260
1260 1325
1325 1389
1389 1454
1454 1517
1517 1583
1583 1647
1647 1712
1712 1777
1777 1841
1841 1905
1905 1970
1970 2008
2008 2072
2203 2266
2266 2330
2330 2395
2395 2460
2460 2524
2524 2589
2589 2655
2655 2718
2718 2784
2784 2849
2849 2916
2916 2980
2980 3044
3044 3112
3112 3178
3178 3245
3245 3309
3309 3376
3376 3441
3441 3507
3507 3574
3574 3640
3640 3707
3707 3774
3774 3842
3842 3907
3907 3974
3974 4042
4042 4109
4109 4176
4176 4242
4242 4310
4310 4377
4377 4444
4444 4511
4511 4577
4577 4644
4644 4709
4709 4777
4777 4844
4844 4911
4911 4977
4977 5044
5044 5110
5110 5177
5177 5246
5246 5311
5311 5379
5379 5443
5443 5510
5510 5577
5577 5644
5644 5710
5710 5777
5777 5843
5843 5908
5908 5977
5977 6043
6043 6108
6108 6174
6174 6241
6241 6308
6308 6375
6375 6441
6441 6508
6508 6574
6574 6643
6643 6708
6708 6776
6776 6841
6841 6910
6910 6975
6975 7042
7042 7109
7109 7178
7178 7245
7245 7311
7311 7378
7378 7445
7445 7513
7513 7580
7580 7647
7647 7715
7715 7784
7784 7851
7851 7917
7917 7986
7986 8053
8053 8121
8121 8188
8188 8257
8257 8325
8325 8393
8393 8461
8461 8528
8528 8596
8596 8663
8663 8730
8730 8798
8798 8867
8867 8934
8934 9000
9000 9068
9068 9136
9136 9204
9204 9272
9272 9338
9338 9406
9406 9473
9473 9540
9540 9608
9608 9673
9673 9742
9742 9808
9808 9875
9875 9943
9943 10010
10010 10079
10079 10144
10144 10212
10212 10281
10281 10348
10348 10415
10415 10483
10483 10550
10550 10618
10618 10685
10685 10753
10753 10820
10820 10889
10889 10956
10956 11023
11023 11093
11093 11160
11160 11228
11228 11295
11295 11363
11363 11432
11432 11499
11499 11568
11568 11635
11635 11703
11703 11770
11770 11837
11837 11903
11903 11972
11972 12041
12041 12107
12107 12174
12174 12243
12243 12309
12309 12378
12378 12445
12445 12514
12514 12580
12580 12647
12647 12715
12715 12784
12784 12851
12851 12917
12917 12986
12986 13054
13054 13121
13121 13188
13188 13257
13257 13323
13323 13392
13392 13458
13458 13525
13525 13594
13594 13660
13660 13729
13729 13796
13796 13863
13863 13931
13931 14000
14000 14066
14066 14148
14148 14214
14214 14281
14281 14348
14348 14414
14414 14483
14483 14549
14549 14616
14616 14683
14683 14749
14749 14816
14816 14885
14885 14949
14949 15018
15018 15082
15082 15149
15149 15216
15216 15282
15282 15348
15348 15414
15414 15480
15480 15547
15547 15613
15613 15680
15680 15746
15746 15811
15811 15878
15878 15944
15944 16013
16013 16078
16078 16145
16145 16212
16212 16278
16278 16345
16345 16413
16413 16478
16478 16545
16545 16614
16614 16680
16680 16747
16747 16815
16815 16884
16884 16950
16950 17018
17018 17086
17086 17153
17153 17221
17221 17288
17288 17357
17357 17423
17423 17492
17492 17558
17558 17625
17625 17694
17694 17761
17761 17828
17828 17896
17896 17965
17965 18033
18033 18100
18100 18169
18169 18237
18237 18306
18306 18373
18373 18442
18442 18510
18510 18578
18578 18647
18647 18714
18714 18782
18782 18851
18851 18920
18920 18987
18987 19055
19055 19124
19124 19191
19191 19259
19259 19328
19328 19397
19397 19464
19464 19532
19532 19601
19601 19670
19670 19737
19737 19805
19805 19874
19874 19916
19916 19986
19986 20053
20053 20121
20121 20188
20188 20257
20257 20325
20325 20392
20392 20460
20460 20530
20530 20597
20597 20663
20663 20734
20734 20803
20803 20870
20870 20938
20938 21005
21005 21074
21074 21142
21142 21210
21210 21277
21277 21346
21346 21415
21415 21484
21484 21550
21550 21621
21621 21688
21688 21758
21758 21825
21825 21894
21894 21962
21962 22031
22031 22098
22098 22166
22166 22237
22237 22304
22304 22373
22373 22441
22441 22510
22510 22579
22579 22648
22648 22718
22718 22785
22785 22853
22853 22921
22921 22991
22991 23060
23060 23126
23126 23195
23195 23264
23264 23332
23332 23399
23399 23468
23468 23536
23536 23603
23603 23672
23672 23740
23740 23809
23809 23878
23878 23945
23945 24013
24013 24082
24082 24151
24151 24217
24217 24286
24286 24355
24355 24423
24423 24490
24490 24559
24559 24628
24628 24696
24696 24765
24765 24832
24832 24900
24900 24969
24969 25037
25037 25105
25105 25174
25174 25241
25241 25309
25309 25377
25377 25447
25447 25514
25514 25582
25582 25651
25651 25720
25720 25788
25788 25856
25856 25924
25924 25993
25993 26061
26061 26130
26130 26199
26199 26266
26266 26334
26334 26403
26403 26471
26471 26538
26538 26606
26606 26675
26675 26742
26742 26811
26811 26878
26878 26946
26946 27015
27015 27082
27082 27151
27151 27219
27219 27286
27286 27354
27354 27423
27423 27492
27492 27559
27559 27630
27630 27696
27696 27766
27766 27831
27831 27900
27900 27967
27967 28035
28035 28104
28104 28171
28171 28239
28239 28306
28306 28375
28375 28441
28441 28508
28508 28575
28575 28644
28644 28709
28709 28777
28777 28844
28844 28912
28912 28977
28977 29045
29045 29114
29114 29179
29179 29247
29247 29314
29314 29381
29381 29449
29449 29516
29516 29582
29582 29649
29649 29717
29717 29782
29782 29849
29849 29916
29916 29985
29985 30051
30051 30120
30120 30186
30186 30255
30255 30324
30324 30389
30389 30455
30455 30522
30522 30590
30590 30657
30657 30724
30724 30790
30790 30859
30859 30924
30924 30991
30991 31057
31057 31124
31124 31191
31191 31258
31258 31324
31324 31391
31391 31457
31457 31522
31522 31590
31590 31657
31657 31724
31724 31790
31790 31857
31857 31899
31899 31964
31964 32030
32030 32097
32097 32163
32163 32230
32230 32296
32296 32363
32363 32428
32428 32495
32495 32561
32561 32630
32630 32694
32694 32761
32761 32827
32827 32894
32894 32961
32961 33027
33027 33095
33095 33161
33161 33228
33228 33295
33295 33362
33362 33430
33430 33496
33496 33563
33563 33631
33631 33698
33698 33765
33765 33833
33833 33900
33900 33967
33967 34035
34035 34104
34104 34173
34173 34239
34239 34308
34308 34375
34375 34444
34444 34512
34512 34579
34579 34647
34647 34716
34716 34785
34785 34852
34852 34920
34920 34989
34989 35056
35056 35124
35124 35191
35191 35260
35260 35328
35328 35395
35395 35464
35464 35530
35530 35597
35597 35666
35666 35732
35732 35799
35799 35866
35866 35935
35935 36001
36001 36068
36068 36137
36137 36205
36205 36272
36272 36339
36339 36407
36407 36474
36474 36545
36545 36611
36611 36680
36680 36747
36747 36813
36813 36880
36880 36951
36951 37019
37019 37083
37083 37151
37151 37219
37219 37288
37288 37355
37355 37421
37421 37488
37488 37557
37557 37623
37623 37692
37692 37759
37759 37827
37827 37893
37893 37961
37961 38028
38028 38095
38095 38162
38162 38229
38229 38297
38297 38364
38364 38432
38432 38499
38499 38565
38565 38632
38632 38700
38700 38768
38768 38837
38837 38902
38902 38970
38970 39036
39036 39105
39105 39172
39172 39238
39238 39305
39305 39372
39372 39438
39438 39505
39505 39571
39571 39636
39636 39704
39704 39771
39771 39838
39838 39905
39905 39972
39972 40038
40038 40105
40105 40173
40173 40238
40238 40305
40305 40371
40371 40438
40438 40502
40502 40569
40569 40636
40636 40702
40702 40768
40768 40834
40834 40902
40902 40967
40967 41033
41033 41100
41100 41166
41166 41233
41233 41298
41298 41364
41364 41431
41431 41497
41497 41563
41563 41629
41629 41696
41696 41763
41763 41829
41829 41896
41896 41959
41959 42027
42027 42091
42091 42157
42157 42225
42225 42290
42290 42356
42356 42423
42423 42490
42490 42556
42556 42621
42621 42688
42688 42754
42754 42821
42821 42887
42887 42954
42954 43021
43021 43087
43087 43154
43154 43220
43220 43287
43287 43354
43354 43420
43420 43487
43487 43554
43554 43620
43620 43687
43687 43754
43754 43820
43820 43887
43887 43956
43956 44022
44022 44089
44089 44156
44156 44222
44222 44291
44291 44356
44356 44424
44424 44491
44491 44557
44557 44624
44624 44691
44691 44757
44757 44826
44826 44892
44892 44959
44959 45026
45026 45092
45092 45159
45159 45226
45226 45293
45293 45359
45359 45428
45428 45494
45494 45561
45561 45628
45628 45694
45694 45761
45761 45828
45828 45896
45896 45963
45963 46030
46030 46096
46096 46165
46165 46231
46231 46298
46298 46365
46365 46433
46433 46500
46500 46566
46566 46633
46633 46700
46700 46767
46767 46835
46835 46900
46900 46968
46968 47035
47035 47102
47102 47171
47171 47235
47235 47304
47304 47370
47370 47437
47437 47506
47506 47571
47571 47639
47639 47705
47705 47772
47772 47839
47839 47906
47906 47972
47972 48039
48039 48106
48106 48174
48174 48241
48241 48307
48307 48376
48376 48441
48441 48509
48509 48578
48578 48645
48645 48711
48711 48779
48779 48847
48847 48915
48915 48982
48982 49049
49049 49117
49117 49185
49185 49250
49250 49318
49318 49386
49386 49452
49452 49519
49519 49586
49586 49652
49652 49717
49717 49786
49786 49852
49852 49919
49919 49988
49988 50052
50052 50119
50119 50185
50185 50252
50252 50318
50318 50386
50386 50453
50453 50520
50520 50587
50587 50655
50655 50720
50720 50790
50790 50856
