96 303
303 717
717 786
786 2930
2930 3638
3638 5246
5246 5316
5316 5720
5720 5965
5965 6101
6101 6305
6305 10487
10487 10887
10887 11222
11222 11492
11492 11561
11561 12033
12033 12438
12438 12640
12640 12775
12775 13116
13116 13183
13183 13316
13316 13385
13385 13450
13450 13584
13584 13716
13716 14186
14186 14388
14388 14522
14522 14658
14658 14789
14789 14994
14994 15095
15095 15162
15162 15241
15241 15305
15305 15372
15372 15904
15904 16151
16151 16217
16217 16419
16419 16620
16620 16686
16686 17155
17155 17222
17222 17554
17554 17620
17620 18039
18039 18304
18304 18436
18436 19095
19095 20020
20020 20306
20306 21375
21375 21832
21832 21897
21897 21962
21962 22159
22159 22422
22422 22553
22553 22951
22951 23146
23146 23277
23277 23411
23411 23475
23475 23605
23605 23736
23736 24268
24268 24331
24331 24530
24530 24662
24662 24794
24794 24930
24930 24990
24990 25055
25055 25120
25120 25321
25321 25518
25518 25716
25716 26112
26112 26246
26246 26313
26313 26511
26511 26712
26712 26912
26912 26979
26979 27308
27308 27377
27377 27432
27432 27508
27508 27976
27976 28175
28175 28373
28373 28443
28443 28509
28509 28575
28575 28708
28708 28839
28839 28909
28909 29039
29039 29095
29095 29240
29240 29304
29304 29369
29369 29501
29501 29570
29570 29833
29833 29900
29900 29961
29961 30033
30033 30163
30163 30226
30226 30357
30357 30423
30423 30557
30557 30619
30619 30688
30688 30748
30748 31011
31011 31076
31076 31339
31339 31536
31536 32259
32259 32787
32787 32853
32853 33050
33050 33119
33119 33181
33181 33314
33314 33446
33446 33514
33514 33575
33575 33644
33644 33706
33706 34037
34037 34167
34167 34298
34298 34429
34429 34559
34559 34688
34688 34823
34823 34883
34883 35014
35014 35079
35079 35210
35210 36386
36386 36450
36450 36516
36516 36581
36581 36636
36636 36711
36711 36766
36766 36842
36842 36909
36909 36973
36973 37039
37039 37165
37165 37235
37235 37299
37299 37363
37363 37952
37952 38217
38217 38346
38346 39008
39008 39075
39075 39405
39405 39470
39470 39539
39539 39602
39602 39668
39668 39741
39741 39804
39804 39933
39933 42063
42063 43528
43528 43593
43593 43859
43859 44178
44178 44255
44255 44319
44319 44386
44386 44453
44453 44583
44583 44722
44722 44779
44779 44845
44845 45737
45737 45801
45801 46450
46450 46843
46843 47366
47366 47433
47433 47564
47564 47892
47892 47958
47958 48154
48154 48290
48290 48352
48352 48550
48550 48867
48867 48942
48942 49009
49009 49071
49071 49137
49137 49268
49268 49465
49465 49527
49527 49593
49593 49647
49647 49723
49723 49852
49852 49985
49985 50037
50037 50370
50370 50426
50426 50503
50503 50568
50568 50632
50632 50696
50696 50832
50832 50881
50881 50955
