119 191
119 191
191 266
266 339
339 412
412 487
487 560
560 635
635 708
708 783
783 858
858 931
931 1005
1005 1080
1080 1155
1155 1228
1228 1303
1303 1378
1378 1451
1451 1526
1526 1600
1600 1675
1675 1748
1748 1821
1821 1896
1896 1971
1971 2044
2044 2119
2119 2194
2194 2269
2269 2342
2419 2494
2494 2566
2566 2641
2641 2716
2716 2791
2791 2866
2866 2939
2939 3014
3014 3089
3089 3162
3162 3236
3236 3309
3309 3384
3384 3457
3457 3532
3532 3605
3605 3680
3680 3755
3755 3826
3826 3900
3900 3972
3972 4044
4044 4121
4121 4194
4194 4267
4267 4342
4342 4417
4417 4490
4490 4563
4563 4637
4637 4710
4710 4785
4785 4860
4860 4935
4935 5008
5008 5110
5110 5181
5181 5258
5258 5333
5333 5406
5406 5481
5481 5554
5554 5627
5627 5704
5704 5776
5776 5868
5868 5942
5942 6018
6018 6091
6091 6166
6166 6239
6239 6314
6314 6389
6389 6462
6462 6537
6537 6611
6611 6686
6686 6761
6761 6834
6834 6911
6911 6986
6986 7061
7061 7136
7136 7209
7209 7286
7286 7361
7361 7438
7438 7511
7511 7583
7583 7660
7660 7735
7735 7811
7811 7886
7886 7960
7960 8035
8035 8112
8112 8190
8190 8262
8262 8337
8337 8416
8416 8487
8487 8563
8563 8637
8637 8714
8714 8789
8789 8864
8864 8939
8939 9013
9013 9087
9087 9164
9164 9237
9237 9313
9313 9386
9386 9461
9461 9536
9536 9611
9611 9686
9686 9761
9761 9836
9836 9911
9911 9986
9986 10062
10062 10138
10138 10215
10215 10290
10290 10367
10367 10441
10441 10519
10519 10596
10596 10672
10672 10748
10748 10824
10824 10904
10904 10979
10979 11054
11054 11130
11130 11208
11208 11283
11283 11360
11360 11436
11436 11511
11511 11585
11585 11661
11661 11738
11738 11813
11813 11888
11888 11965
11965 12040
12040 12115
12115 12192
12192 12268
12268 12340
12340 12419
12419 12492
12492 12567
12567 12642
12642 12717
12717 12792
12792 12867
12867 12942
12942 13017
13017 13096
13096 13171
13171 13246
13246 13323
13323 13400
13400 13475
13475 13549
13549 13626
13626 13703
13703 13777
13777 13853
13853 13928
13928 14005
14005 14110
14110 14182
14182 14255
14255 14324
14324 14396
14396 14471
14471 14540
14540 14613
14613 14684
14684 14754
14754 14825
14825 14896
14896 14959
14959 15103
15103 15176
15176 15249
15249 15322
15322 15395
15395 15470
15470 15540
15540 15614
15614 15686
15686 15759
15759 15832
15832 15905
15905 15980
15980 16052
16052 16125
16125 16200
16200 16273
16273 16346
16346 16421
16421 16494
16494 16567
16567 16642
16642 16705
16705 16788
16788 16863
16863 16939
16939 17012
17012 17085
17085 17160
17160 17233
17233 17306
17306 17381
17381 17454
17454 17531
17531 17604
17604 17680
17680 17753
17753 17829
17829 17902
17902 17977
17977 18053
18053 18127
18127 18202
18202 18276
18276 18351
18351 18426
18426 18503
18503 18576
18576 18651
18651 18728
18728 18801
18801 18876
18876 18951
18951 19026
19026 19101
19101 19176
19176 19251
19251 19326
19326 19401
19401 19476
19476 19553
19553 19628
19628 19707
19707 19780
19780 19857
19857 19908
19908 19984
19984 20059
20059 20136
20136 20213
20213 20288
20288 20362
20362 20437
20437 20513
20513 20590
20590 20665
20665 20740
20740 20816
20816 20892
20892 20966
20966 21042
21042 21118
21118 21193
21193 21268
21268 21343
21343 21418
21418 21488
21488 21565
21565 21640
21640 21716
21716 21789
21789 21864
21864 21939
21939 22012
22012 22089
22089 22160
22160 22235
22235 22309
22309 22385
22385 22458
22458 22530
22530 22606
22606 22681
22681 22756
22756 22803
22803 22876
22876 22953
22953 23028
23028 23103
23103 23176
23176 23253
23253 23326
23326 23403
23403 23478
23478 23551
23551 23626
23626 23701
23701 23776
23776 23850
23850 23924
