928 1003
1003 1112
1112 1175
1264 1341
1972 2045
2045 2124
2124 2199
2199 2276
2276 2353
2353 2432
2432 2511
2511 2588
2588 2667
2667 2746
2746 2825
2825 2900
2900 2980
2980 3059
3059 3138
3138 3206
3206 3284
3284 3375
3375 3454
3454 3534
3534 3602
3602 3680
3680 3771
3771 3850
3850 3929
3929 4008
4008 4087
4087 4142
4142 4221
4221 4302
4302 4377
4377 4458
4458 4537
4537 4618
4618 4695
4695 4776
4776 4856
4856 4937
4937 5016
5016 5093
5093 5162
5162 5252
5252 5320
5320 5410
5410 5487
5487 5568
5568 5637
5637 5726
5726 5807
5807 5887
5887 5967
5967 6045
6045 6126
6126 6207
6207 6286
6286 6355
6355 6435
6435 6526
6526 6597
6597 6675
6675 6767
6767 6851
6851 6932
6932 7011
7011 7092
7092 7173
7173 7254
7254 7333
7333 7401
7401 7492
7492 7575
7575 7642
7642 7734
7734 7815
7815 7894
7894 7961
7961 8079
8079 8156
8156 8289
8289 8370
8839 8931
9034 9126
9126 9193
9193 9284
9284 9349
9349 9439
9439 9520
9520 9599
9599 9676
9676 9744
9744 9834
9834 9913
9913 9990
9990 10068
10068 10146
10146 10225
10225 10307
10307 10373
10373 10465
10465 10544
10544 10625
10625 10702
10702 10758
10758 10838
10838 10905
10905 10996
10996 11072
11072 11153
11153 11233
11233 11307
11307 11385
11385 11462
11462 11541
11541 11619
11619 11694
11694 11773
11773 11852
11852 11917
11917 12007
12007 12085
12085 12166
12166 12243
12243 12310
12310 12399
12399 12479
12479 12558
12558 12639
12639 12718
12718 12795
12795 12874
12874 12951
12951 13030
13030 13108
13108 13176
13176 13264
13264 13343
13343 13420
13420 13497
13497 13574
13574 13657
13657 13736
13736 13817
13817 13897
13897 13974
13974 14053
14053 14121
14121 14213
14213 14292
14292 14372
14372 14451
14451 14532
14532 14613
14613 14694
14694 14771
14771 14825
14825 14907
14907 14986
14986 15069
15069 15150
15150 15219
15219 15296
15296 15389
15389 15471
15471 15552
15552 15620
15620 15712
15712 15794
15794 15874
15874 15942
15942 16033
16033 16117
16117 16198
16198 16275
16275 16356
16356 16437
16437 16518
16518 16585
16585 16676
16676 16757
16757 16839
16839 16905
16905 16997
16997 17078
17078 17160
17160 17225
17225 17316
17316 17395
17395 17478
17478 17546
17546 17636
17636 17718
17718 17801
17801 17880
17880 17959
17959 18042
18042 18123
18123 18201
18201 18283
18283 18362
18362 18442
18442 18520
18520 18598
18598 18682
18682 18760
18760 18840
18840 18919
18919 18997
18997 19062
19062 19140
19140 19215
19215 19294
19294 19370
19370 19447
19447 19522
19522 19601
19601 19680
19680 19746
19746 19834
19834 19911
19911 19988
19988 20065
20065 20141
20141 20219
20219 20299
20299 20366
20366 20455
20455 20534
20534 20615
20615 20682
20682 20759
20759 20850
20850 20931
20931 21010
21010 21092
21092 21169
21169 21248
21248 21314
21314 21406
21406 21485
21485 21563
21563 21639
21639 21718
21718 21797
21797 21875
21875 21954
21954 22031
22031 22110
22110 22189
22189 22264
22264 22343
22343 22422
22422 22501
22501 22567
22567 22655
22655 22735
22735 22814
22814 22897
22897 22976
22976 23055
23055 23134
23134 23213
23213 23292
23292 23370
23370 23450
23450 23532
23532 23611
23611 23679
23679 23769
23769 23848
23848 23929
23929 23997
23997 24085
24085 24165
24165 24248
24248 24325
24325 24402
24402 24481
24481 24563
24563 24633
24633 24721
24721 24801
24801 24879
24879 24960
24960 25027
25027 25116
25116 25195
25195 25278
25278 25343
25343 25433
25433 25512
25512 25593
25593 25672
25672 25749
25749 25830
25830 25911
25911 25978
25978 26067
26067 26147
26147 26229
26229 26306
26306 26373
26373 26463
26463 26544
26544 26623
26623 26702
26702 26769
26769 26859
26859 26938
26938 27016
27016 27093
27093 27173
27173 27254
27254 27331
27331 27397
27397 27487
27487 27569
27569 27648
27648 27727
27727 27804
27804 27883
27883 27964
27964 28039
28039 28106
28106 28195
28195 28274
28274 28351
28351 28429
28429 28510
28510 28588
28588 28666
28666 28745
28745 28826
28826 28907
28907 28973
28973 29061
29061 29132
29132 29226
29226 29303
29303 29371
29371 29463
29463 29544
29544 29623
29623 29702
29702 29782
29782 29865
29865 29940
29940 30019
30019 30100
30100 30179
30179 30258
30258 30337
30337 30434
30434 30513
30513 30594
30594 30671
30671 30751
30751 30834
30834 30913
30913 30980
30980 31074
31074 31154
31154 31235
31235 31314
31314 31395
31395 31477
31477 31544
31544 31636
31636 31720
31720 31801
31801 31881
31881 31964
31964 32045
32045 32112
32112 32205
32205 32289
32289 32369
32369 32448
32448 32529
32529 32609
32609 32691
32691 32768
32768 32849
32849 32930
32930 33008
33008 33084
33084 33165
33165 33244
33244 33323
33323 33404
33404 33484
33484 33565
33565 33633
33633 33723
33723 33804
33804 33883
33883 33962
33962 34044
34044 34113
34113 34206
34206 34285
34285 34352
34352 34443
34443 34525
34525 34602
34602 34683
34683 34761
34761 34830
34830 34920
34920 35000
35000 35068
35068 35157
35157 35237
35237 35318
35318 35397
35397 35476
35476 35557
35557 35624
35624 35717
35717 35797
35797 35878
35878 35957
35957 36038
36038 36120
36120 36200
36200 36279
36279 36360
36360 36440
36440 36484
36484 36573
36573 36654
36654 36735
36735 36813
36813 36882
36882 36973
36973 37055
37055 37133
37133 37212
37212 37294
37294 37377
37377 37445
37445 37537
37537 37616
37616 37687
37687 37766
37766 37856
37856 37937
37937 38018
38018 38097
38097 38176
38176 38256
38256 38339
38339 38416
38416 38483
38483 38576
38576 38657
38657 38727
38727 38816
38816 38897
38897 38976
38976 39057
39057 39124
39124 39215
39215 39296
39296 39377
39377 39444
39444 39537
39537 39617
39617 39696
39696 39775
39775 39857
39857 39938
39938 40017
40017 40086
40086 40179
40179 40258
40258 40342
40342 40409
40409 40504
40504 40585
40585 40666
40666 40746
40746 40831
40831 40911
40911 40993
40993 41071
41071 41154
41154 41235
41235 41318
41318 41395
41395 41481
41481 41560
41560 41641
41641 41722
41722 41805
41805 41887
41887 41968
41968 42047
42047 42128
42128 42211
42211 42290
42290 42357
42357 42451
42451 42534
42534 42611
42611 42692
42692 42774
42774 42852
42852 42930
42930 43013
43013 43092
43092 43159
43159 43249
43249 43331
43331 43413
43413 43490
43490 43571
43571 43642
43642 43731
43731 43799
43799 43891
43891 43975
43975 44053
44053 44133
44133 44216
44216 44298
44298 44377
44377 44458
44458 44539
44539 44620
44620 44701
44701 44769
44769 44860
44860 44918
44918 44997
44997 45076
45076 45160
45160 45241
45241 45322
45322 45399
45399 45482
45482 45554
45554 45643
45643 45730
45730 45809
45809 45891
45891 45972
45972 46055
46055 46136
46136 46214
46214 46296
46296 46377
46377 46457
46457 46538
46538 46622
46622 46701
46701 46781
46781 46861
46861 46942
46942 47024
47024 47094
47094 47182
47182 47265
47265 47344
47344 47426
47426 47495
47495 47587
47587 47669
47669 47749
47749 47818
47818 47912
47912 47992
47992 48073
48073 48152
48152 48235
48235 48315
48315 48396
48396 48476
48476 48556
48556 48637
48637 48716
48716 48785
48785 48877
48877 48960
48960 49038
49038 49118
49118 49199
49199 49280
49280 49350
49350 49440
49440 49522
49522 49603
49603 49685
49685 49764
49764 49843
49843 49924
49924 50005
50005 50086
50086 50163
50163 50246
50246 50326
50326 50405
50405 50474
50474 50567
50567 50647
50647 50727
50727 50805
50805 50888
50888 50967
50967 51036
51036 51125
51125 51207
51207 51286
51286 51367
51367 51446
51446 51515
51515 51597
51597 51688
51688 51769
51769 51850
51850 51931
51931 52011
52011 52094
52094 52175
52175 52256
52256 52335
52335 52417
52417 52498
52498 52567
52567 52660
52660 52740
52740 52823
52823 52900
52900 52983
52983 53095
53095 53174
53174 53255
53255 53337
53337 53416
53416 53498
53498 53580
53580 53659
53659 53739
53739 53819
53819 53900
53900 53980
53980 54061
54061 54142
54142 54209
54209 54303
54303 54384
54384 54465
54465 54544
54544 54626
54626 54707
54707 54783
54783 54867
54867 54936
54936 55025
55025 55123
55123 55215
55215 55295
55295 55374
55374 55448
55448 55531
55531 55583
55583 55650
55650 55741
55741 55821
55821 55888
55888 55978
55978 56058
56058 56127
56127 56216
56216 56297
56297 56366
56366 56445
56445 56522
56522 56616
56616 56695
56695 56761
56761 56849
56849 56934
56934 57010
57010 57074
57074 57168
57168 57242
57242 57311
57311 57397
57397 57478
57478 57555
57555 57622
57622 57709
57709 57791
57791 57869
57869 57946
57946 58011
58011 58084
58084 58160
58160 58239
58239 58319
58319 58383
58383 58475
58475 58554
58554 58631
58631 58696
58696 58789
58789 58866
58866 58945
58945 59010
59010 59102
59102 59179
59179 59257
59257 59335
59335 59414
59414 59491
59491 59570
59570 59644
59644 59724
59724 59793
59793 59881
59881 59957
59957 60041
60041 60118
60118 60197
60197 60273
60273 60341
60341 60430
60430 60509
60509 60589
60589 60666
60666 60751
60751 60824
60824 60906
60906 60982
60982 61044
61044 61128
61128 61178
61178 61257
61257 61334
61334 61415
61415 61483
61483 61560
61560 61653
61653 61731
61731 61809
