540 741
741 783
783 826
826 1114
1114 1305
1305 1385
1385 1465
1465 1545
1545 1625
1625 1704
1704 1785
1785 1865
1865 1945
1945 2035
2035 2114
2114 2194
2194 2273
2273 2353
2353 2749
2749 2828
2828 2907
2907 2985
2985 3064
3064 3143
3143 3222
3222 3299
3299 3379
3379 3460
3460 3696
3696 3776
3776 3855
3855 3934
3934 4012
4012 4093
4093 4173
4173 4252
4252 4330
4330 4411
4411 4491
4491 4570
4570 4648
4648 4729
4729 4810
4810 4889
4889 4968
4968 5049
5049 5129
5129 5209
5209 5289
5289 5370
5370 5449
5449 5529
5529 5609
5609 5690
5690 5769
5769 5849
5849 5930
5930 6010
6010 6090
6090 6171
6171 6251
6251 6331
6331 6410
6410 6492
6492 6572
6572 6651
6651 6732
6732 6813
6813 6893
6893 6974
6974 7037
7037 7130
7130 7215
7215 7374
7374 7457
7457 7539
7539 7621
7621 7702
7702 7785
7785 7866
7866 7947
7947 8031
8031 8114
8114 8196
8196 8278
8278 8359
8359 8442
8442 8535
8535 8617
8617 8699
8699 8781
8781 8863
8863 8946
8946 9028
9028 9110
9110 9191
9191 9273
9273 9357
9357 9439
9439 9521
9521 9604
9604 9685
9685 9767
9767 10098
10098 10167
10167 10342
10342 10426
10426 10508
10508 10590
10590 10672
10672 10755
10755 10838
10838 10920
10920 11001
11001 11085
11085 11167
11167 11250
11250 11331
11331 11414
11414 11497
11497 11580
11580 11662
11662 11827
11827 11909
11909 11991
11991 12074
12074 12157
12157 12240
12240 12322
12322 12404
12404 12486
12486 12569
12569 12651
12651 12733
12733 12816
12816 12899
12899 12982
12982 13064
13064 13146
13146 13229
13229 13312
13312 13545
13545 13628
13628 13711
13711 13794
13794 14094
14094 14176
14176 14258
14258 14342
14342 14424
14424 14507
14507 14589
14589 14672
14672 14755
14755 14837
14837 14920
14920 15004
15004 15086
15086 15169
15169 15251
15251 15334
15334 15417
15417 15499
15499 15665
15665 15723
15723 15814
15814 15913
15913 16036
16036 16083
16083 16164
16164 16388
16388 16485
16485 16549
16549 16730
16730 16833
16833 16883
16883 16969
16969 17048
17048 17130
17130 17214
17214 17378
17378 17546
17546 17632
17632 17713
17713 17963
17963 18046
18046 18211
18211 18295
18295 18379
18379 18462
18462 18544
18544 18630
18630 18713
18713 18795
18795 18960
18960 19145
19145 19228
19228 19311
19311 19394
19394 19478
19478 19562
19562 19645
19645 19726
19726 19811
19811 19894
19894 19977
19977 20060
20060 20144
20144 20227
20227 20311
20311 20394
20394 20476
20476 20560
20560 20644
20644 20727
20727 20810
20810 20894
20894 20978
20978 21061
21061 21144
21144 21227
21227 21310
21310 21394
21394 21476
21476 21561
21561 21644
21644 21728
21728 21810
21810 21894
21894 21979
21979 22062
22062 22146
22146 22229
22229 22312
22312 22397
22397 22481
22481 22564
22564 22648
22648 22731
22731 22816
22816 22900
22900 22983
22983 23066
23066 23151
23151 23235
23235 23319
23319 23402
23402 23487
23487 23571
23571 23654
23654 23725
23725 23810
23810 23894
23894 23978
23978 24062
24062 24145
24145 24222
24222 24306
24306 24389
24389 24474
24474 24558
24558 24642
24642 24726
24726 24810
24810 24894
24894 24978
24978 25061
25061 25144
25144 25229
25229 25313
25313 25396
25396 25479
25479 25564
25564 25648
25648 25731
25731 25815
25815 25897
25897 25982
25982 26066
26066 26150
26150 26232
26232 26317
26317 26401
26401 26484
26484 26568
26568 26650
26650 26735
26735 26818
26818 26902
26902 26985
26985 27068
27068 27152
27152 27236
27236 27319
27319 27402
27402 27486
27486 27570
27570 27653
27653 27736
27736 27820
27820 27904
27904 27988
27988 28071
28071 28154
28154 28239
28239 28322
28322 28406
28406 28488
28488 28573
28573 28657
28657 28741
28741 28823
28823 28908
28908 28992
28992 29075
29075 29158
29158 29242
29242 29326
29326 29410
29410 29494
29494 29576
29576 29661
29661 29744
29744 29828
29828 29911
