1840 1892
1892 1969
1969 2033
2121 2198
2198 2264
2350 2427
2427 2504
2504 2541
2580 2647
2647 2734
2734 2800
2800 2890
2890 2966
2966 3032
3032 3111
3111 3200
3200 3276
3276 3353
3353 3419
3419 3506
3506 3583
3583 3633
3633 3710
3710 3775
3775 3863
3863 3940
3940 4006
4006 4094
4094 4174
4174 4238
4238 4316
4316 4403
4403 4480
4480 4561
4561 4623
4623 4698
4698 4775
4775 4863
4863 4938
4938 5017
5017 5093
5093 5158
5158 5235
5235 5322
5322 5387
5387 5473
5473 5551
5551 5627
5627 5691
5691 5777
5777 5844
5844 5930
5930 6008
6008 6084
6084 6150
6150 6239
6239 6317
6317 6381
6381 6469
6469 6548
6548 6613
6613 6703
6703 6779
6779 6844
6844 6934
6934 6998
6998 7085
7085 7160
7160 7238
7238 7317
7317 7390
7390 7471
7471 7548
7548 7613
7613 7699
7699 7777
7777 7856
7856 7933
7933 7986
7986 8066
8066 8127
8127 8204
8204 8281
8281 8357
8357 8446
8446 8521
8521 8598
8598 8675
8675 8754
8754 8833
8833 8911
8911 8986
8986 9061
9061 9128
9128 9215
9215 9296
9296 9359
9359 9448
9448 9527
9527 9591
9591 9670
9670 9757
9757 9824
9824 9913
9913 9991
9991 10057
10057 10145
10145 10214
10214 10290
10290 10380
10380 10458
10458 10523
10523 10599
10599 10688
10688 10766
10766 10830
10830 10918
10918 10999
10999 11037
11037 11122
11122 11200
11200 11277
11277 11352
11352 11420
11420 11507
11507 11572
11572 11661
11661 11726
11726 11812
11812 11877
11877 11964
11964 12041
12041 12116
12116 12192
12192 12269
12269 12335
12335 12430
12430 12518
12518 12595
12595 12660
12660 12748
12748 12825
12825 12891
12891 12967
12967 13056
13056 13131
13131 13197
13197 13285
13285 13363
13363 13429
13429 13517
13517 13585
13585 13661
13661 13750
13750 13825
13825 13891
13891 13967
13967 14055
14055 14133
14133 14198
14198 14286
14286 14361
14361 14439
14439 14504
14504 14592
14592 14660
14660 14736
14736 14824
14824 14902
14902 14969
14969 15056
15056 15123
15123 15211
15211 15277
15277 15365
15365 15432
15432 15509
15509 15585
15585 15673
15673 15751
15751 15816
15816 15893
15893 15981
15981 16058
16058 16124
16124 16212
16212 16290
16290 16355
16355 16433
16433 16520
16520 16586
16586 16673
16673 16749
16749 16816
16816 16901
16901 16968
16968 17054
17054 17120
17120 17208
17208 17286
17286 17350
17350 17438
17438 17513
17513 17589
17589 17653
17653 17740
17740 17817
17817 17892
17892 17958
17958 18044
18044 18121
18121 18186
18186 18274
18274 18339
18339 18414
18414 18492
18492 18569
18569 18656
18656 18734
18734 18810
18810 18874
18874 18962
18962 19093
19093 19168
19168 19245
19245 19323
19323 19388
19388 19477
19477 19555
19555 19620
19620 19710
19710 19776
19776 19863
19863 19940
19940 20018
20018 20083
20083 20172
20172 20238
20238 20325
20325 20402
20402 20468
20468 20556
20556 20621
20621 20710
20710 20787
20787 20865
20865 20941
20941 21018
21018 21096
21096 21173
21173 21252
21252 21329
21329 21396
21396 21485
21485 21564
21564 21631
21631 21720
21720 21800
21800 21866
21866 21956
21956 22035
22035 22111
22111 22181
22181 22270
22270 22338
22338 22425
22425 22505
22505 22584
22584 22662
22662 22741
22741 22817
22817 22886
22886 22974
22974 23052
23052 23118
23118 23209
23209 23278
23278 23366
23366 23434
23434 23526
23526 23605
23605 23672
23672 23764
23764 23832
23832 23911
23911 24000
24000 24079
24079 24157
24157 24235
24235 24313
24313 24379
24379 24469
24469 24548
24548 24614
24614 24703
24703 24784
24784 24859
24859 24936
24936 25013
25013 25081
25081 25157
25157 25235
25235 25324
25324 25389
25389 25478
25478 25555
25555 25633
25633 25700
25700 25778
25778 25866
25866 25932
25932 26021
26021 26088
26088 26176
26176 26242
26242 26331
26331 26397
26397 26484
26484 26549
26549 26637
26637 26713
26713 26788
26788 26863
26863 26929
26929 27016
27016 27052
27052 27127
27127 27192
27192 27269
27269 27356
27356 27431
27431 27510
27510 27585
27585 27652
27652 27742
27742 27810
27810 27900
27900 27965
27965 28046
28046 28135
28135 28215
28215 28296
28296 28364
28364 28444
28444 28602
28602 28692
28692 28773
28773 28854
28854 28933
28933 29014
29014 29094
29094 29173
29173 29252
29252 29331
29331 29412
29412 29492
29492 29560
29560 29652
29652 29731
29731 29808
29808 29887
29887 29964
29964 30041
30041 30118
30118 30196
30196 30261
30261 30350
30350 30427
30427 30490
30490 30581
30581 30658
30658 30721
30721 30810
30810 30887
30887 30953
30953 31043
31043 31120
31120 31185
31185 31274
31274 31353
31353 31418
31418 31506
31506 31573
31573 31649
31649 31737
31737 31816
31816 31891
31891 31968
31968 32035
32035 32111
32111 32199
32199 32277
32277 32343
32343 32432
32432 32510
32510 32576
32576 32666
32666 32733
32733 32810
32810 32901
32901 32978
32978 33044
33044 33132
33132 33212
33212 33287
33287 33366
33366 33443
33443 33512
33512 33599
33599 33678
33678 33757
33757 33834
33834 33912
33912 33991
33991 34058
34058 34136
34136 34224
34224 34303
34303 34368
34368 34461
34461 34539
34539 34617
34617 34695
34695 34776
34776 34853
34853 34931
34931 35009
35009 35081
35081 35175
35175 35257
35257 35327
35327 35405
35405 35498
35498 35579
35579 35649
35649 35738
35738 35821
35821 35902
35902 35982
35982 36050
36050 36144
36144 36223
36223 36291
36291 36383
36383 36464
36464 36532
36532 36625
36625 36704
36704 36783
36783 36860
36860 36941
36941 37021
37021 37084
37084 37163
37163 37240
37240 37321
37321 37398
37398 37463
37463 37554
37554 37633
37633 37697
37697 37787
37787 37864
37864 37941
37941 38016
38016 38095
38095 38170
38170 38245
38245 38324
38324 38389
38389 38462
38462 38549
38549 38615
38615 38708
38708 38785
38785 38864
38864 38941
38941 39054
39054 39201
39201 39283
39283 39373
39373 39454
39454 39534
39534 39601
39601 39694
39694 39773
39773 39843
39843 39931
39931 40053
40053 40130
40130 40197
40197 40284
40284 40349
40349 40438
40438 40503
40503 40588
40588 40665
40665 40740
40740 40815
40815 40880
40880 40955
40955 41048
41048 41133
41133 41200
41200 41288
41288 41365
41365 41429
41429 41515
41515 41593
41593 41668
41668 41743
41743 41818
41818 41891
41891 41966
41966 42043
42043 42120
42120 42193
42193 42266
42266 42345
42345 42420
42420 42493
42493 42568
42568 42647
42647 42761
42761 42868
42868 42959
42959 43043
43043 43120
43120 43186
43186 43276
43276 43354
43354 43420
43420 43509
43509 43586
43586 43666
43666 43743
43743 43824
43824 43901
43901 43967
43967 44059
44059 44136
44136 44215
44215 44292
44292 44371
44371 44444
44444 44524
44524 44605
44605 44676
44676 44755
44755 44834
44834 44912
44912 44987
44987 45085
45085 45166
45166 45245
45245 45310
45310 45401
45401 45480
45480 45557
45557 45635
45635 45714
45714 45780
45780 45871
45871 45939
45939 46015
46015 46139
46139 46202
46202 46292
46292 46359
46359 46433
46433 46525
46525 46591
46591 46665
46665 46756
46756 46835
46835 46898
