4 56
972 1068
1068 1149
1149 1233
1233 1317
1317 1399
1399 1482
1482 1566
1566 1647
1647 1730
1730 1814
1814 1895
1895 1978
1978 2043
2043 2126
2126 2209
2209 2291
2291 2376
2376 2457
2457 2540
2540 2622
2622 2703
2703 2786
2786 2871
2871 2952
2952 3033
3033 3117
3117 3200
3200 3282
3282 3364
3364 3447
3447 3529
3529 3612
3612 3695
3695 3777
3777 3859
3859 3942
3942 4025
4025 4108
4108 4192
4192 4273
4273 4356
4356 4413
4413 4496
4496 4580
4580 4620
4620 4740
4740 4822
4822 4906
4906 4987
4987 5070
5070 5153
5153 5235
5235 5316
5316 5399
5399 5482
5482 5563
5563 5647
5647 5728
5728 5812
5812 5893
5893 5976
5976 6073
6073 6154
6154 6238
6238 6323
6323 6405
6405 6488
6488 6571
6571 6654
6654 6738
6738 6820
6820 6902
6902 6986
6986 7069
7069 7152
7152 7234
7234 7317
7317 7400
7400 7482
7482 7564
7564 7648
7648 7731
7731 7813
7813 7895
7895 7977
7977 8061
