1 68
2826 2909
2909 2995
2995 3037
3541 3652
3652 3736
3652 3736
3736 3773
3901 3949
3901 3949
4936 5019
5201 5279
5439 5518
5678 5755
5755 5824
5824 5914
5914 5993
5993 6068
6068 6149
6149 6228
6228 6308
6308 6389
6389 6468
6468 6549
6549 6628
6628 6709
6709 6790
6790 6870
6870 6951
6951 7032
7032 7111
7111 7192
7192 7274
7274 7353
7353 7433
7433 7515
7515 7594
7594 7675
7675 7755
7755 7825
7825 7906
7906 7998
7998 8056
8056 8145
8145 8222
8222 8300
8300 8378
8378 8445
8445 8533
