2468 2547
2547 2626
2626 2705
2705 2783
2863 2941
2941 3021
3021 3097
3097 3173
3173 3251
3251 3330
3330 3407
3407 3484
3484 3563
3563 3640
3640 3718
3718 3795
3795 3874
3874 3951
3951 4030
4030 4107
4107 4176
4264 4342
4342 4411
4578 4656
4656 4734
4734 4813
4813 4892
4892 4971
4971 5046
5126 5194
5438 5517
5517 5596
5596 5673
7092 7170
7800 7879
7879 7956
7956 8009
8483 8560
9904 9981
10454 10531
10766 10845
10845 10924
10924 11003
11003 11047
11047 11124
11124 11202
11202 11282
11282 11359
11359 11438
11438 11518
11518 11595
11595 11663
11832 11909
12385 12465
12465 12542
12702 12780
12938 13017
13017 13096
13096 13175
13175 13252
13252 13332
13332 13408
13488 13567
13567 13634
13723 13800
13800 13879
13879 13956
14036 14114
14114 14192
14349 14429
14429 14506
14664 14743
15219 15295
16649 16728
18067 18146
18146 18223
18223 18302
18302 18381
18381 18458
18694 18771
20595 20674
20835 20914
20914 20993
21074 21153
21153 21230
21468 21547
21786 21865
22510 22589
22589 22667
22667 22748
22748 22827
22827 22906
22906 22985
22985 23066
23066 23146
23146 23225
23225 23303
23303 23382
23382 23460
23460 23540
23540 23619
23619 23697
23697 23778
23778 23858
23858 23937
23937 24016
24016 24094
24094 24173
24173 24251
24251 24331
24331 24412
24412 24489
24489 24569
24569 24647
24647 24727
24727 24807
24807 24884
24884 24964
24964 25046
25046 25123
25123 25203
25203 25282
25282 25361
25361 25442
25442 25522
25522 25600
25600 25680
25680 25761
25761 25840
25840 25919
25919 26001
26001 26080
26080 26160
26160 26238
26238 26319
26319 26400
26400 26477
26477 26557
26557 26639
26639 26718
26718 26798
26798 26877
26877 26958
26958 27038
27038 27118
27118 27200
27200 27279
27279 27360
27360 27441
27441 27524
27524 27606
27606 27685
27685 27766
27766 27845
27845 27927
27927 28008
28008 28091
28091 28171
28171 28253
28253 28334
28334 28416
28416 28487
28487 28568
28568 28659
28659 28741
28741 28822
28822 28901
28901 28982
28982 29062
29062 29145
29145 29222
29222 29305
29305 29385
29385 29465
29465 29534
29534 29624
29624 29705
29705 29784
29784 29863
29863 29947
29947 30024
30024 30105
30105 30184
30184 30265
30265 30344
30344 30428
30428 30505
30505 30575
30575 30667
30667 30746
30746 30817
30817 30896
30896 30987
30987 31067
31067 31146
31146 31227
31227 31309
31309 31386
31386 31467
31467 31546
31546 31627
31627 31705
31705 31787
31787 31865
31865 31946
31946 32025
32025 32106
32106 32185
32185 32264
32264 32343
32343 32425
32425 32503
32503 32583
32583 32662
32662 32743
32743 32822
32822 32903
32903 32983
32983 33064
33064 33145
33145 33224
33224 33295
33295 33385
33385 33466
33466 33547
33547 33628
33628 33709
33709 33779
33779 33872
33872 33951
33951 34059
34059 34140
34140 34221
34221 34300
34300 34382
34382 34461
34461 34542
34542 34620
34620 34701
34701 34782
34782 34861
34861 34942
34942 35023
35023 35102
35102 35181
35181 35261
35261 35342
35342 35421
35421 35502
35502 35582
35582 35662
35662 35741
35741 35823
35823 35902
35902 35970
35970 36060
36060 36141
36141 36218
36218 36298
36298 36379
36379 36458
36458 36537
36537 36618
36618 36698
36698 36779
36779 36858
36858 36937
36937 37018
37018 37097
37097 37178
37178 37258
37258 37337
37337 37417
37417 37497
37497 37579
37579 37658
37658 37727
37727 37820
37820 37899
37899 37980
37980 38061
38061 38140
38140 38220
38220 38301
38301 38381
38381 38461
38461 38543
38543 38622
38622 38691
38691 38782
38782 38861
38861 38930
38930 39009
39009 39098
39098 39177
39177 39255
39255 39335
39335 39415
39415 39482
39482 39571
39571 39631
39631 39708
39708 39785
39785 39853
39853 39942
39942 40019
40019 40099
40099 40167
40167 40258
40258 40339
40339 40404
40404 40498
40498 40573
40573 40652
40652 40731
40731 40810
40810 40888
40888 40969
40969 41046
41046 41123
41123 41203
41203 41281
41281 41359
41359 41437
41437 41516
41516 41584
41584 41671
41671 41750
41750 41829
41829 41906
41906 41985
41985 42064
42064 42144
42144 42222
42222 42301
42301 42381
42381 42460
42460 42540
42540 42617
42617 42697
42697 42777
42777 42855
42855 42934
42934 43014
43014 43092
43092 43172
43172 43226
43226 43305
43305 43386
43386 43465
43465 43545
43545 43625
43625 43705
43705 43784
43784 43864
43864 43944
43944 44024
44024 44105
44105 44185
44185 44265
44265 44344
44344 44427
44427 44508
44508 44587
44587 44667
44667 44749
44749 44828
44828 44908
44908 44988
44988 45068
45068 45148
45148 45227
45227 45308
45308 45388
45388 45469
45469 45548
45548 45629
45629 45709
45709 45790
45790 45871
45871 45950
45950 46043
46043 46123
46123 46204
46204 46286
46286 46365
46365 46446
46446 46526
46526 46606
46606 46686
46686 46767
46767 46846
46846 46927
46927 47006
47006 47087
47087 47157
47157 47247
47247 47327
47327 47408
47408 47489
47489 47569
47569 47648
47648 47729
47729 47808
47808 47887
47887 47968
47968 48048
48048 48128
48128 48199
48199 48291
48291 48370
48370 48452
48452 48531
48531 48612
48612 48690
48690 48772
48772 48851
48851 48934
48934 49013
49013 49094
49094 49176
49176 49254
49254 49335
49335 49418
49418 49497
49497 49568
49568 49649
49649 49739
49739 49820
49820 49900
49900 49980
49980 50061
50061 50140
50140 50219
50219 50300
50300 50379
50379 50458
50458 50539
50539 50619
50619 50698
50698 50777
50777 50858
50858 50939
50939 51018
51018 51098
51098 51179
51179 51258
51258 51339
51339 51420
51420 51499
51499 51579
51579 51658
51658 51741
51741 51820
51820 51899
51899 51980
51980 52060
52060 52140
52140 52222
52222 52301
52301 52382
52382 52463
52463 52543
52543 52614
52614 52705
52705 52786
52786 52866
52866 52946
52946 53027
53027 53111
53111 53188
53188 53259
53259 53350
53350 53430
53430 53511
53511 53592
53592 53673
53673 53742
53742 53833
53833 53914
53914 53994
53994 54075
54075 54154
54154 54235
54235 54314
54314 54395
54395 54475
54475 54556
54556 54635
54635 54716
54716 54795
54795 54874
54874 54956
54956 55035
55035 55105
55105 55198
55198 55276
55276 55345
55345 55436
55436 55515
55515 55597
55597 55676
55676 55757
55757 55836
55836 55915
55915 55997
55997 56075
56075 56154
56154 56235
56235 56314
56314 56394
56394 56475
56475 56554
56554 56634
56634 56714
56714 56793
56793 56873
56873 56954
56954 57031
57031 57110
57110 57191
57191 57270
57270 57339
57339 57431
57431 57508
57508 57588
57588 57667
57667 57746
57746 57826
57826 57905
57905 57985
57985 58065
58065 58145
58145 58224
58224 58303
58303 58372
58372 58463
58463 58542
58542 58623
58623 58702
58702 58781
58781 58862
58862 58942
58942 59012
59012 59102
59102 59171
59171 59263
59263 59333
59333 59423
59423 59504
59504 59585
59585 59664
59664 59745
59745 59827
59827 59908
59908 59986
59986 60068
60068 60147
60147 60228
60228 60308
60308 60389
60389 60457
60457 60549
60549 60619
60619 60711
60711 60791
60791 60872
60872 60953
60953 61032
61032 61113
61113 61184
61184 61275
61275 61356
61356 61436
61436 61517
61517 61598
61598 61679
61679 61762
61762 61842
61842 61924
61924 62004
62004 62085
62085 62166
62166 62247
62247 62327
62327 62408
62408 62489
62489 62570
62570 62651
62651 62732
62732 62812
62812 62893
62893 62976
62976 63057
63057 63136
63136 63217
63217 63299
63299 63380
63380 63461
63461 63542
63542 63621
63621 63703
63703 63784
63784 63853
63853 63944
63944 64025
64025 64104
64104 64184
64184 64266
64266 64344
64344 64424
64424 64504
64504 64586
64586 64666
64666 64735
64735 64827
64827 64906
64906 64976
64976 65068
65068 65139
65139 65230
65230 65310
65310 65391
65391 65472
65472 65553
65553 65633
65633 65714
65714 65785
65785 65876
65876 65957
65957 66038
66038 66118
66118 66199
66199 66280
66280 66361
66361 66442
66442 66523
66523 66605
66605 66686
66686 66765
66765 66848
66848 66929
66929 67009
67009 67102
67102 67183
67183 67266
67266 67345
67345 67426
67426 67508
67508 67589
