1 46
449 531
449 531
531 613
613 689
768 851
851 929
929 1036
1036 1114
1114 1168
1168 1245
1245 1324
1324 1403
1403 1478
1478 1557
1557 1636
1636 1714
1714 1792
1792 1870
1870 1944
1944 2026
2026 2082
2082 2161
2161 2236
2236 2313
2313 2394
2394 2473
2473 2552
2552 2630
2630 2705
2705 2783
2783 2866
2866 2941
2941 3018
3018 3117
3117 3195
3195 3272
3272 3352
3352 3429
3429 3507
3507 3588
3588 3664
3664 3742
3742 3822
3822 3901
3901 3979
3979 4054
4054 4138
4138 4213
4213 4291
4291 4372
4372 4452
4452 4528
4528 4610
4610 4689
4689 4766
4766 4842
4842 4923
4923 5000
5000 5078
5078 5161
5161 5236
5236 5317
5317 5394
5394 5473
5473 5551
5551 5633
5633 5710
5710 5787
5787 5868
5868 5947
5947 6025
6025 6113
6113 6190
6190 6273
6273 6348
6348 6425
6425 6507
6507 6583
6583 6660
6660 6741
6741 6817
6817 6895
6895 6977
6977 7051
7051 7129
7129 7209
7209 7285
7285 7364
7364 7444
7444 7522
7522 7598
7598 7675
7675 7756
7756 7832
7832 7910
7910 7991
7991 8063
8063 8142
8142 8219
8219 8301
8301 8377
8377 8455
8455 8537
8537 8613
8613 8691
8691 8772
8772 8852
8852 8928
8928 9007
9007 9056
9056 9138
9138 9213
9213 9292
9292 9370
