1671 1745
1745 1821
1821 1892
1892 1964
1964 2041
2041 2114
2114 2187
2187 2258
2258 2331
2331 2405
2405 2479
2479 2552
2552 2625
2625 2699
2699 2774
2774 2846
2846 2920
2920 2993
2993 3067
3067 3141
3141 3214
3214 3290
3290 3361
3361 3438
3438 3510
3510 3586
3586 3657
3657 3731
3731 3807
3807 3880
3880 3952
3952 4025
4025 4101
4101 4172
4172 4246
4246 4320
4320 4396
4396 4468
4468 4541
4541 4615
4615 4689
4689 4764
4764 4836
4836 4910
4910 4983
4983 5056
5056 5132
5132 5205
5205 5276
5276 5349
5349 5424
5424 5496
5496 5571
5571 5642
5642 5716
5716 5791
5791 5863
5863 5934
5934 6007
6007 6081
6081 6155
6155 6228
6228 6302
6302 6376
6376 6452
6452 6524
6524 6598
6598 6672
6672 6746
6746 6823
6823 6895
6895 6969
6969 7043
7043 7118
7118 7193
7193 7265
7265 7340
7340 7413
7413 7491
7491 7564
7564 7636
7636 7713
7713 7785
7785 7859
7859 7934
7934 8004
8004 8104
8104 8181
8181 8252
8252 8326
8326 8397
8397 8470
8470 8544
8544 8617
8617 8691
8691 8763
8763 8835
8835 8909
8909 8982
8982 9053
9053 9126
9126 9197
9197 9271
9271 9345
9345 9414
9414 9485
9485 9557
9557 9629
9629 9700
9700 9772
9772 9843
9843 9916
9916 9987
9987 10058
10058 10129
10129 10200
10200 10275
10275 10347
10347 10418
10418 10489
10489 10562
10562 10634
10634 10706
10706 10778
10778 10852
10852 10925
10925 10998
10998 11065
11065 11139
11139 11213
11213 11287
11287 11362
11362 11436
11436 11510
11510 11584
11584 11657
11657 11734
11734 11806
11806 11880
11880 11954
11954 12027
12027 12126
12126 12199
12199 12272
12272 12345
12345 12418
12418 12494
12494 12567
12567 12640
12640 12715
12715 12791
12791 12864
12864 12940
12940 13013
13013 13103
13103 13175
13175 13248
13248 13322
13322 13395
13395 13468
13468 13541
13541 13616
13616 13688
13688 13760
13760 13833
13833 13905
13905 13978
13978 14052
14052 14126
14126 14197
14197 14270
14270 14343
14343 14416
14416 14487
14487 14559
14559 14630
14630 14703
14703 14775
14775 14849
14849 14919
14919 14991
14991 15044
15044 15115
15115 15187
15187 15258
15258 15330
15330 15401
15401 15474
15474 15546
15546 15618
15618 15690
15690 15763
15763 15835
15835 15907
15907 15978
15978 16070
16070 16141
16141 16213
16213 16284
16284 16359
16359 16431
16431 16503
16503 16575
16575 16648
16648 16720
16720 16794
16794 16865
16865 16937
16937 17010
17010 17064
17064 17136
17136 17209
17209 17282
17282 17354
17354 17427
17427 17499
17499 17572
17572 17643
17643 17716
17716 17788
17788 17859
17859 17932
17932 18006
18006 18079
18079 18151
18151 18225
18225 18296
18296 18370
18370 18444
18444 18516
18516 18589
18589 18663
18663 18735
18735 18807
18807 18880
18880 18954
18954 19026
19026 19070
19070 19144
19144 19216
19216 19288
19288 19360
19360 19434
19434 19507
19507 19580
19580 19653
19653 19726
19726 19799
19799 19870
19870 19945
19945 20018
