5969 6082
7886 7960
8033 8104
8104 8151
12963 13035
13035 13106
13106 13175
13175 13244
13244 13314
13314 13385
13385 13453
13453 13526
13526 13595
13595 13666
13666 13735
13735 13805
13805 13876
13876 13946
13946 14017
14017 14086
14086 14156
14156 14228
14228 14299
14299 14370
14370 14441
14441 14484
14484 14557
14557 14626
14626 14697
14697 14769
14769 14838
14838 14909
14909 14980
14980 15051
15051 15120
15120 15190
15190 15261
15261 15332
15332 15403
15403 15473
15473 15544
15544 15615
15615 15686
15686 15757
15757 15827
15827 15898
15898 15969
15969 16041
16041 16112
16112 16182
16182 16254
16254 16325
16325 16394
16394 16465
16465 16536
16536 16607
16607 16677
16677 16748
16748 16819
16819 16889
16889 16959
16959 17031
17031 17100
17100 17171
17171 17243
17243 17310
17310 17381
17381 17452
17452 17523
17523 17594
17594 17665
17665 17734
17734 17805
17805 17875
17875 17945
17945 18017
18017 18086
18086 18158
18158 18228
18228 18299
18299 18370
18370 18441
18441 18512
18512 18584
18584 18654
18654 18726
18726 18797
18797 18868
18868 18939
18939 19011
19011 19068
19068 19138
19138 19207
19207 19278
19278 19349
19349 19418
19418 19488
19488 19559
19559 19630
19630 19699
19699 19770
19770 19840
19840 19911
19911 19983
19983 20053
20053 20123
20123 20194
20194 20265
20265 20335
20335 20406
20406 20477
20477 20548
20548 20617
20617 20689
20689 20760
20760 20829
20829 20900
20900 20971
20971 21042
21042 21113
21113 21182
21182 21254
21254 21325
21325 21395
21395 21467
21467 21536
21536 21607
21607 21677
21677 21748
21748 21818
21818 21890
21890 21960
21960 22032
22032 22104
22104 22173
22173 22246
22246 22316
22316 22385
22385 22456
22456 22528
22528 22598
22598 22669
22669 22741
22741 22813
22813 22883
22883 22953
22953 23026
23026 23129
23129 23200
23200 23271
23271 23340
23340 23411
23411 23482
23482 23553
23553 23623
23623 23694
23694 23763
23763 23836
23836 23906
23906 23976
23976 24048
24048 24117
24117 24188
24188 24259
24259 24330
24330 24400
24400 24471
24471 24542
24542 24611
24611 24681
24681 24752
24752 24823
24823 24892
24892 24963
24963 25033
25033 25104
25104 25173
25173 25243
25243 25314
25314 25385
25385 25456
25456 25526
25526 25595
25595 25666
25666 25737
25737 25807
25807 25877
25877 25947
25947 26018
26018 26087
26087 26159
26159 26228
26228 26299
26299 26368
26368 26439
26439 26510
26510 26580
26580 26650
26650 26722
26722 26790
26790 26861
26861 26931
26931 27002
27002 27072
27072 27144
27144 27214
27214 27286
27286 27356
27356 27426
27426 27498
27498 27569
27569 27638
27638 27711
27711 27780
27780 27851
27851 27921
27921 27992
27992 28063
28063 28135
28135 28205
28205 28275
28275 28346
28346 28417
28417 28488
28488 28559
28559 28629
28629 28702
28702 28770
28770 28844
28844 28912
28912 28983
28983 29054
29054 29123
29123 29194
29194 29264
29264 29335
29335 29405
29405 29476
29476 29545
29545 29616
29616 29687
29687 29758
29758 29828
29828 29898
29898 29970
29970 30040
30040 30111
30111 30182
30182 30251
30251 30324
30324 30393
30393 30465
30465 30535
30535 30605
30605 30676
30676 30747
30747 30817
30817 30888
30888 30959
30959 31029
31029 31120
31120 31190
31190 31260
31260 31329
31329 31400
31400 31469
31469 31541
31541 31584
31584 31654
31654 31723
31723 31795
31795 31864
31864 31935
31935 32005
32005 32076
32076 32145
32145 32216
32216 32286
32286 32357
32357 32428
32428 32497
32497 32568
32568 32636
32636 32707
32707 32778
32778 32849
32849 32920
32920 32988
32988 33092
33092 33160
33160 33231
33231 33302
33302 33371
33371 33442
33442 33513
33513 33583
33583 33654
33654 33724
33724 33793
33793 33864
33864 33934
33934 34006
34006 34075
34075 34147
34147 34216
34216 34287
34287 34357
34357 34427
34427 34497
34497 34566
34566 34637
34637 34708
34708 34778
34778 34848
34848 34918
34918 34988
34988 35060
35060 35129
35129 35199
35199 35270
35270 35340
35340 35409
35409 35480
35480 35551
35551 35621
35621 35688
35688 35759
35759 35828
35828 35899
35899 35967
35967 36038
36038 36107
36107 36177
36177 36247
36247 36317
36317 36386
36386 36456
36456 36526
36526 36596
36596 36665
36665 36736
36736 36804
36804 36874
36874 36944
36944 37014
37014 37083
37083 37154
37154 37223
37223 37293
37293 37363
37363 37432
37432 37502
37502 37573
37573 37642
37642 37712
37712 37783
37783 37851
37851 37922
37922 37992
37992 38062
38062 38130
38130 38246
38246 38316
38316 38385
38385 38456
38456 38524
38524 38595
38595 38664
38664 38735
38735 38803
38803 38874
38874 38945
38945 39014
39014 39084
39084 39153
39153 39223
39223 39292
39292 39363
39363 39432
39432 39501
39501 39572
39572 39642
39642 39711
39711 39782
39782 39851
39851 39922
39922 39965
39965 40038
40038 40107
40107 40178
40178 40247
40247 40319
40319 40388
40388 40459
40459 40530
40530 40600
40600 40671
40671 40742
40742 40813
40813 40883
40883 40954
40954 41023
41023 41094
41094 41165
41165 41235
41235 41306
41306 41376
41376 41446
41446 41516
41516 41587
41587 41658
41658 41729
41729 41799
41799 41869
41869 41940
41940 42010
42010 42109
42109 42178
42178 42249
42249 42319
42319 42389
42389 42459
42459 42505
42505 42574
42574 42645
42645 42715
42715 42786
42786 42857
42857 42926
42926 42996
42996 43088
43088 43157
43157 43225
43225 43296
43296 43365
43365 43434
43434 43504
43504 43573
43573 43644
43644 43713
43713 43783
43783 43852
43852 43921
43921 43991
43991 44033
44033 44104
44104 44172
44172 44243
44243 44313
44313 44385
44385 44454
44454 44524
44524 44595
44595 44664
44664 44737
44737 44805
44805 44876
44876 44947
44947 45016
45016 45086
45086 45156
45156 45226
45226 45297
45297 45368
45368 45437
45437 45508
45508 45578
45578 45647
45647 45718
45718 45788
45788 45857
45857 45928
45928 45998
45998 46066
46066 46138
46138 46207
46207 46277
46277 46347
46347 46415
46415 46485
46485 46555
46555 46624
46624 46694
46694 46765
46765 46832
46832 46904
46904 46971
46971 47106
47106 47177
47177 47248
47248 47319
47319 47389
47389 47460
47460 47529
47529 47600
47600 47670
47670 47741
47741 47810
47810 47881
47881 47950
47950 48020
48020 48072
48072 48143
48143 48213
48213 48282
48282 48352
48352 48422
48422 48492
48492 48564
48564 48632
48632 48703
48703 48772
48772 48842
48842 48912
48912 48981
48981 49051
49051 49122
49122 49190
49190 49259
49259 49330
49330 49400
49400 49469
49469 49540
49540 49609
