4342 4561
4561 4635
4635 4705
4705 4778
4778 4851
4851 4924
4924 5000
5000 5073
5073 5146
5146 5220
5220 5294
5294 5370
5370 5444
5444 5515
5515 5590
5590 5663
5663 5739
5739 5811
5811 5885
5885 5958
5958 6031
6031 6106
6106 6180
6180 6255
6255 6328
6328 6404
6404 6479
6479 6550
6550 6625
6625 6699
6699 6772
6772 6849
6849 6923
6923 6997
6997 7070
7070 7145
7145 7218
7218 7294
7294 7345
7345 7416
7416 7493
7493 7566
7566 7641
7641 7713
7713 7788
7788 7860
7860 7937
7937 8009
8009 8067
8067 8153
8300 8372
8372 8444
8444 8519
8519 8592
8592 8662
8662 8736
8736 8809
8809 8881
8881 8955
8955 9027
9027 9100
9100 9171
9171 9246
9246 9318
9318 9390
9390 9462
9462 9536
9536 9606
9606 9681
9681 9754
9754 9825
9825 9897
9897 9973
9973 10044
10044 10116
10116 10189
10189 10261
10261 10335
10335 10405
10405 10479
10479 10553
10553 10626
10626 10696
10696 10768
10768 10843
10843 10913
10913 10987
10987 11061
11061 11133
11133 11206
11206 11276
11276 11349
11349 11424
11424 11497
11497 11567
11567 11642
11642 11713
11713 11756
11756 11864
11864 11938
11938 12011
12011 12085
12085 12160
12160 12232
12232 12305
12305 12379
12379 12449
12449 12524
12524 12595
12595 12668
12668 12740
12740 12815
12815 12888
12888 12959
12959 13036
13036 13107
13107 13179
13179 13252
13252 13325
13325 13399
13399 13471
13471 13544
13544 13617
13617 13691
13691 13763
13763 13837
13837 13910
13910 13983
13983 14058
14058 14130
14130 14200
14200 14274
14274 14347
14347 14420
14420 14492
14492 14564
14564 14639
14639 14712
14712 14784
14784 14857
14857 14930
14930 15004
15004 15076
15076 15150
15150 15224
15224 15299
15299 15372
15372 15447
15447 15519
15519 15593
15593 15666
15666 15740
15740 15816
15816 15888
15888 16012
16012 16084
16084 16161
16161 16236
16236 16307
16307 16381
16381 16458
16458 16533
16533 16606
16606 16683
16683 16758
16758 16832
16832 16905
16905 16978
16978 17054
17054 17129
17129 17202
17202 17274
17274 17350
17350 17424
17424 17500
17500 17571
17571 17645
17645 17718
17718 17791
17791 17868
17868 17939
17939 18015
18015 18086
18086 18161
18161 18235
18235 18309
18309 18380
18380 18456
18456 18530
18530 18603
18603 18679
18679 18750
18750 18826
18826 18899
18899 18975
18975 19048
19048 19120
19120 19196
19196 19271
19271 19344
19344 19418
19418 19495
19495 19569
19569 19643
19643 19717
19717 19792
19792 19865
19865 19942
19942 20014
20014 20087
20087 20164
20164 20236
20236 20312
20312 20385
20385 20461
20461 20535
20535 20607
20607 20681
20681 20756
20756 20828
20828 20901
20901 20974
20974 21051
21051 21123
21123 21196
21196 21272
21272 21345
21345 21417
21417 21492
21492 21565
21565 21640
21640 21713
21713 21829
21829 21901
21901 21975
21975 22048
22048 22119
22119 22193
22193 22267
22267 22341
22341 22411
22411 22534
22534 22607
22607 22680
22680 22756
22756 22829
22829 22902
22902 22977
22977 23052
23052 23125
23125 23197
23197 23274
23274 23344
23344 23421
23421 23492
23492 23566
23566 23641
23641 23715
23715 23788
23788 23862
23862 23936
23936 24009
24009 24083
24083 24157
24157 24232
24232 24307
24307 24382
24382 24456
24456 24527
24527 24601
24601 24674
24674 24748
24748 24822
24822 24894
24894 24969
24969 25044
25044 25115
25115 25190
25190 25261
25261 25335
25335 25407
25407 25482
25482 25554
25554 25626
25626 25698
25698 25773
25773 25842
25842 25916
25916 25988
25988 26060
26060 26133
26133 26208
26208 26281
26281 26354
26354 26426
26426 26500
26500 26573
26573 26643
26643 26717
26717 26791
26791 26864
26864 26936
26936 27011
27011 27084
27084 27158
27158 27231
27231 27307
27307 27378
27378 27453
27453 27526
27526 27599
27599 27676
27676 27747
27747 27823
27823 27897
27897 27971
27971 28045
28045 28120
28120 28193
28193 28266
28266 28341
28341 28415
28415 28486
28486 28561
28561 28633
28633 28706
28706 28782
28782 28892
28892 28967
28967 29040
29040 29116
29116 29189
29189 29265
29265 29337
29337 29413
29413 29486
29486 29563
29563 29636
29636 29710
29710 29784
29784 29859
29859 29931
29931 30005
30005 30080
30080 30156
30156 30230
30230 30304
30304 30380
30380 30451
30451 30527
30527 30602
30602 30676
30676 30750
30750 30825
30825 30868
30868 30967
30967 31039
31039 31113
31113 31188
31188 31262
31262 31336
31336 31407
31407 31482
31482 31556
31556 31631
31631 31705
31705 31779
31779 31853
31853 31926
31926 32001
32001 32078
32078 32150
32150 32226
32226 32303
32303 32376
32376 32453
32453 32527
32527 32601
32601 32678
32678 32753
32753 32828
32828 32902
32902 32975
32975 33049
33049 33126
33126 33201
33201 33273
33273 33348
33348 33423
33423 33496
33496 33570
33570 33644
33644 33717
33717 33792
33792 33866
33866 33941
33941 34013
34013 34086
34086 34135
34135 34208
34208 34283
34283 34356
34356 34429
34429 34501
34501 34575
34575 34648
34648 34722
34722 34791
34791 34867
34867 34940
34940 35014
35014 35088
