956 1093
5918 5995
5995 6108
6108 6186
6186 6264
6264 6342
6342 6420
6420 6498
6498 6576
6576 6655
6655 6732
6732 6810
6810 6888
6888 6967
6967 7044
7044 7123
7123 7201
7201 7280
7280 7357
7357 7436
8915 8993
8993 9105
9105 9182
9182 9260
9260 9338
9338 9416
9416 9493
9493 9572
9572 9650
9650 9728
9728 9806
9806 9885
9885 9933
9933 10034
15717 15793
16177 16255
16255 16333
16333 16410
16410 16488
16488 16566
16566 16643
16643 16720
16876 16954
16954 17046
17046 17118
17118 17195
17195 17272
17272 17347
17347 17422
17422 17495
17495 17570
17570 17646
17646 17719
17719 17793
17793 17867
17867 17943
17943 18154
18154 18231
18836 18911
18911 18986
18986 19072
19072 19146
19146 19221
19221 19300
19300 19376
19376 19454
19454 19532
19532 19609
19609 19684
19684 19763
19763 19837
19837 19914
19914 19991
19991 20069
20069 20144
20144 20222
20222 20297
20297 20374
20374 20451
20451 20525
20525 20600
20600 20676
20676 20750
20750 20826
20826 20901
20901 20974
20974 21081
21081 21158
21158 21234
21234 21309
21309 21384
21384 21459
21459 21536
21536 21609
21609 21685
21685 21759
21759 21837
21837 21911
21911 21986
21986 22035
22035 22109
22109 22187
22187 22261
22261 22337
22337 22410
22410 22489
22489 22561
22561 22637
22637 22712
22712 22785
22785 22860
22860 22935
22935 23008
23008 23050
23050 23122
23122 23197
23197 23271
23271 23347
23347 23418
23418 23493
23493 23570
23570 23641
23641 23718
23718 23791
23791 23864
23864 23941
23941 24016
24016 24089
24089 24166
24166 24243
24243 24320
24320 24394
24394 24470
24470 24547
24547 24620
24620 24699
24699 24773
24773 24848
24848 24924
24924 25000
25000 25077
25077 25151
25151 25225
25225 25302
25302 25379
25379 25452
