4795 4872
4872 4921
14405 14498
15576 15705
15933 16009
16009 16120
16120 16196
16196 16275
16275 16351
16351 16430
16430 16505
16505 16582
16582 16660
16660 16736
16736 16814
16968 17094
17243 17319
17319 17395
17395 17471
17471 17547
17547 17621
17621 17697
17697 17772
17772 17849
17849 17926
17926 18001
18001 18078
18078 18152
18152 18229
18229 18306
18306 18382
18382 18459
18459 18534
18534 18612
18612 18687
18687 18765
18765 18840
18840 18915
18915 18991
18991 19066
19066 19142
19142 19215
19215 19291
19291 19342
19342 19417
19417 19493
19493 19568
19568 19644
19644 19694
19694 19771
19771 19870
19870 19945
19945 20019
20019 20085
20085 20162
20162 20238
20238 20314
20314 20391
20391 20468
20468 20545
20545 20621
20621 20698
20698 20776
20776 20853
20853 20929
20929 21007
21007 21087
21087 21163
21163 21240
21240 21318
21318 21395
21395 21472
21472 21548
21548 21627
21627 21777
21777 21853
21853 21932
21932 22008
22008 22085
22085 22160
22160 22237
22237 22312
22312 22389
22389 22464
22464 22541
22541 22616
22616 22691
22691 22768
22768 22846
22846 22916
22916 22979
22979 23065
23065 23139
23139 23215
23215 23291
23291 23365
23365 23443
23443 23518
23518 23598
23598 23670
23670 23748
23748 23825
23825 23900
23900 23975
23975 24054
24054 24129
24129 24204
24204 24281
24281 24357
24357 24433
24433 24510
24510 24586
24586 24663
24663 24739
24739 24815
24815 24889
24889 24965
24965 25043
25043 25118
25118 25195
25195 25269
25269 25344
25344 25422
25422 25497
25497 25575
25575 25651
25651 25726
25726 25804
25804 25880
25880 25956
25956 26034
26034 26107
26107 26184
26184 26259
26259 26336
26336 26411
26411 26486
26486 26563
26563 26640
26640 26689
26689 26764
26764 26839
26839 26914
26914 26989
26989 27064
27064 27138
27138 27214
27214 27288
27288 27364
27364 27437
27437 27514
27514 27588
27588 27659
27659 27734
27734 27808
27808 27882
27882 27958
27958 28032
28032 28106
28106 28182
28182 28258
28258 28334
28334 28407
28407 28482
28482 28557
28557 28632
28632 28706
28706 28783
28783 28858
28858 28934
28934 29007
29007 29083
29083 29158
29158 29234
29234 29307
29307 29384
29384 29459
29459 29535
29535 29610
29610 29686
29686 29758
29758 29835
29835 29909
29909 29984
29984 30060
30060 30134
30134 30210
30210 30284
30284 30361
30361 30437
30437 30512
30512 30588
30588 30664
30664 30739
30739 30813
30813 30889
30889 30966
30966 31041
31041 31116
31116 31192
31192 31264
31264 31341
31341 31415
31415 31491
31491 31565
31565 31642
31642 31716
31716 31791
31791 31866
31866 31943
31943 32022
