18205 18281
18353 18428
18428 18502
18502 18575
18575 18648
18648 18722
18722 18796
18796 18869
18869 18944
18944 19017
19017 19089
19089 19164
19164 19237
19237 19309
19309 19385
19385 19455
19455 19531
19531 19603
19603 19676
