140 220
857 913
913 993
993 1072
1072 1151
1151 1232
1232 1313
1313 1392
1392 1472
1472 1551
1551 1632
1632 1712
1712 1791
1791 1871
1871 1951
1951 2031
2031 2110
2110 2190
2190 2270
2270 2349
2349 2429
2429 2508
2508 2588
2588 2669
2669 2765
2765 2846
2846 2926
2926 3006
3006 3085
3085 3166
3166 3248
3248 3328
3328 3409
3409 3489
3489 3569
3569 3651
3651 3731
3731 3812
3812 3892
3892 3972
3972 4053
4053 4133
4133 4213
4213 4294
4294 4373
4373 4454
4454 4535
4535 4615
4615 4695
4695 4775
4775 4855
4855 4936
4936 5016
5016 5096
5096 5176
5176 5256
5256 5335
5335 5416
5416 5496
