6 56
56 102
3911 3992
3992 4073
4073 4132
6456 6498
6498 6537
6537 6619
6619 6702
6702 6785
6785 6866
6866 6947
6947 7024
7024 7104
7104 7187
7187 7268
7268 7352
7352 7433
7433 7514
7514 7598
7598 7679
7679 7760
7760 7843
7843 7924
7924 8008
8008 8062
8062 8142
8142 8217
8217 8295
8295 8373
8373 8451
8451 8526
8526 8607
8607 8675
8675 8725
8725 8798
8798 8846
8846 8917
8917 8988
8988 9066
9066 9142
9142 9223
9223 9300
9300 9376
9376 9455
9455 9535
9535 9611
9611 9691
9691 9768
9768 9846
9846 9924
9924 10001
10001 10080
10080 10157
10157 10235
10235 10312
10312 10392
10392 10470
10470 10549
10549 10628
10628 10706
10706 10784
10784 10860
10860 10940
10940 11021
11021 11073
11073 11153
11153 11234
11234 11315
11315 11393
11393 11475
11475 11551
11551 11631
11631 11712
11712 11791
11791 11870
11870 11950
11950 12031
12031 12112
12112 12192
12192 12271
12271 12353
12353 12434
12434 12516
12516 12596
12596 12678
12678 12760
12760 12842
12842 12923
12923 13005
13005 13085
13085 13166
13166 13248
13248 13328
13328 13407
13407 13487
13487 13567
13567 13648
13648 13729
13729 13809
13809 13889
13889 13967
13967 14048
14048 14128
14128 14209
14209 14287
14287 14367
14367 14446
14446 14527
14527 14608
14608 14688
14688 14767
14767 14849
14849 14929
14929 15010
15010 15088
15088 15169
15169 15251
15251 15329
15329 15411
15411 15489
15489 15567
15567 15648
15648 15726
15726 15806
15806 15887
15887 15963
15963 16066
16066 16145
16145 16223
16223 16303
16303 16381
16381 16460
16460 16537
16537 16617
16617 16697
16697 16775
16775 16854
16854 16934
16934 17013
17013 17095
17095 17174
17174 17251
17251 17332
17332 17413
17413 17492
17492 17571
17571 17650
17650 17730
17730 17810
17810 17892
17892 17969
17969 18049
18049 18128
18128 18207
18207 18286
18286 18366
18366 18445
18445 18525
18525 18603
18603 18685
18685 18763
18763 18842
18842 18923
18923 19002
19002 19081
19081 19160
19160 19239
19239 19317
19317 19398
19398 19476
19476 19553
19553 19632
19632 19711
19711 19789
19789 19868
19868 19948
19948 20059
20059 20136
20136 20212
20212 20287
20287 20364
20364 20443
20443 20517
20517 20593
20593 20672
20672 20749
20749 20824
20824 20902
20902 20977
20977 21055
21055 21133
21133 21210
21210 21286
21286 21363
21363 21440
21440 21518
21518 21596
21596 21675
21675 21751
21751 21828
21828 21907
21907 21986
21986 22063
22063 22142
22142 22221
22221 22300
