403 476
476 601
823 895
895 971
971 1043
1043 1118
1118 1190
1190 1265
1265 1340
1340 1412
1412 1486
1486 1560
1560 1634
1634 1708
1708 1781
1781 1856
1856 1930
1930 2004
2004 2127
2127 2201
2127 2201
2201 2277
2277 2351
2351 2425
2425 2500
2500 2573
2573 2649
2649 2724
2724 2797
2797 2872
2872 2947
2947 3022
3022 3097
3097 3172
3172 3247
3247 3321
3321 3397
3397 3471
3471 3547
3547 3597
3597 3671
3671 3746
3746 3822
3822 3896
3896 3972
3972 4047
4047 4121
4121 4196
4196 4273
4273 4348
4348 4425
4425 4500
4500 4575
4575 4651
4651 4727
4727 4803
4803 4880
4880 4954
4954 5031
5031 5108
5108 5185
5185 5262
5262 5328
5413 5491
5491 5566
5566 5644
5644 5720
5720 5796
5796 5872
5872 5949
5949 6024
6024 6153
6913 6965
6965 7042
7042 7188
7188 7263
7263 7340
7340 7415
7415 7489
7489 7564
7564 7638
7638 7714
7714 7788
7788 7862
7862 7937
7937 8012
8012 8088
8088 8161
8161 8235
8235 8310
8310 8383
8383 8458
8458 8495
8495 8605
8605 8678
8678 8756
8756 8826
8826 8902
8902 8976
8976 9049
9049 9124
9124 9198
9198 9272
9272 9349
9349 9422
9422 9498
9498 9571
9571 9646
9646 9721
9721 9795
9795 9871
9871 9944
9944 10021
10021 10094
10094 10168
10168 10243
10243 10319
10319 10393
10393 10499
10499 10541
10541 10616
10616 10681
10681 10765
10765 10841
10841 10916
10916 10991
10991 11068
11068 11141
11141 11216
11216 11293
11293 11367
11367 11442
11442 11518
11518 11593
11593 11668
11668 11741
11741 11818
11818 11892
11892 11969
11969 12043
12043 12118
12118 12193
12193 12268
12268 12343
12343 12418
12418 12492
12492 12567
12567 12642
12642 12719
12719 12792
12792 12868
12868 12942
12942 13017
13017 13092
13092 13168
13168 13241
13241 13316
13316 13391
13391 13465
13465 13541
13541 13614
13614 13691
13691 13764
13764 13839
13839 13915
13915 13989
13989 14065
14065 14138
14138 14216
14216 14288
14288 14364
14364 14439
14439 14513
14513 14589
14589 14663
14663 14737
14737 14811
14811 14886
14886 14961
14961 15034
15034 15109
15109 15183
15183 15257
15257 15331
15331 15405
15405 15480
15480 15554
15554 15629
15629 15703
15703 15777
15777 15851
15851 15925
15925 16002
16002 16075
16075 16150
16150 16223
16223 16297
16297 16371
16371 16446
16446 16519
16519 16592
16592 16667
16667 16741
16741 16814
16814 16889
16889 16962
16962 17037
17037 17112
17112 17184
17184 17258
17258 17334
17334 17408
17408 17482
17482 17555
17555 17630
17630 17703
17703 17777
17777 17851
17851 17925
17925 17999
17999 18073
18073 18146
18146 18219
18219 18294
18294 18367
18367 18442
18442 18516
18516 18589
18589 18663
18663 18739
18739 18810
18810 18887
18887 18960
18960 19035
19035 19110
19110 19183
19183 19260
19260 19333
19333 19408
19408 19483
19483 19557
19557 19633
19633 19707
19707 19781
19781 19856
19856 19933
19933 20006
20006 20081
20081 20155
20155 20230
20230 20303
20303 20378
20378 20455
20455 20530
20530 20601
20601 20677
20677 20752
20752 20828
20828 20902
20902 20975
20975 21050
21050 21126
21126 21200
21200 21275
21275 21350
21350 21424
21424 21498
21498 21573
21573 21647
21647 21722
21722 21795
21795 21870
21870 21944
21944 22019
22019 22094
22094 22167
22167 22243
22243 22316
22316 22393
22393 22467
22467 22543
22543 22616
22616 22691
22691 22765
22765 22840
22840 22915
22915 22991
22991 23064
23064 23138
23138 23188
23188 23261
23261 23336
23336 23411
23411 23486
23486 23559
23559 23633
23633 23709
23709 23782
23782 23857
23857 23932
23932 24006
24006 24079
24079 24154
24154 24229
24229 24304
24304 24379
24379 24452
24452 24527
24527 24602
24602 24676
24676 24752
24752 24825
24825 24900
24900 24952
24952 25027
25027 25117
25117 25190
25190 25265
25265 25338
25338 25413
25413 25486
25486 25562
25562 25636
25636 25711
25711 25785
25785 25859
25859 25933
25933 26009
26009 26082
26082 26157
26157 26231
26231 26306
26306 26380
26380 26456
26456 26531
26531 26605
26605 26679
26679 26755
26755 26829
26829 26905
26905 26979
26979 27053
27053 27129
27129 27203
27203 27280
27280 27354
27354 27430
27430 27503
27503 27578
27578 27654
27654 27728
27728 27803
27803 27878
27878 27953
27953 28027
28027 28102
28102 28177
28177 28254
28254 28328
28328 28403
28403 28478
28478 28553
28553 28627
28627 28702
28702 28776
28776 28852
28852 28926
28926 29001
29001 29076
29076 29151
29151 29228
29228 29301
29301 29375
29375 29449
29449 29524
29524 29600
29600 29674
29674 29749
29749 29823
29823 29898
29898 29971
29971 30049
30049 30122
30122 30199
30199 30274
30274 30351
30351 30424
30424 30501
30501 30576
30576 30650
30650 30728
30728 30800
30800 30876
30876 30952
30952 31028
31028 31102
31102 31176
31176 31251
31251 31326
31326 31400
31400 31474
31474 31551
31551 31623
31623 31698
31698 31773
31773 31848
31848 31923
31923 31997
31997 32071
32071 32146
32146 32222
32222 32297
32297 32372
32372 32447
32447 32522
32522 32598
32598 32674
32674 32749
32749 32826
32826 32899
32899 32975
32975 33049
33049 33124
33124 33199
33199 33275
33275 33350
33350 33424
33424 33498
33498 33574
33574 33648
33648 33724
33724 33800
33800 33873
33873 33948
33948 34023
34023 34084
34084 34160
34160 34234
34234 34308
34308 34381
34381 34457
34457 34531
34531 34605
34605 34680
34680 34754
34754 34828
34828 34904
34904 34980
34980 35053
35053 35127
35127 35202
35202 35278
35278 35352
35352 35428
35428 35501
35501 35577
35577 35652
35652 35727
35727 35803
35803 35877
35877 35954
35954 36028
36028 36079
36079 36155
36155 36230
36230 36305
36305 36381
36381 36457
36457 36532
36532 36606
36606 36683
36683 36758
36758 36833
36833 36909
36909 36982
36982 37059
37059 37135
37135 37208
37208 37285
37285 37360
37360 37435
37435 37511
37511 37587
37587 37662
37662 37738
37738 37812
37812 37887
37887 37963
37963 38039
38039 38115
38115 38189
38189 38264
38264 38339
38339 38414
38414 38489
38489 38566
38566 38639
38639 38716
38716 38791
38791 38866
38866 38942
38942 39018
39018 39094
39094 39170
39170 39244
39244 39319
39319 39396
39396 39469
39469 39546
39546 39621
39621 39698
39698 39772
39772 39848
39848 39922
39922 39997
39997 40073
40073 40148
40148 40222
40222 40298
40298 40373
40373 40448
40448 40525
40525 40597
40597 40673
40673 40748
40748 40822
40822 40898
40898 40972
40972 41047
41047 41122
41122 41197
41197 41270
41270 41344
41344 41419
41419 41493
41493 41568
41568 41642
41642 41718
41718 41791
41791 41865
41865 41942
41942 42015
42015 42091
42091 42165
42165 42240
42240 42314
42314 42390
42390 42464
42464 42539
42539 42615
42615 42688
42688 42762
42762 42837
42837 42912
42912 42988
42988 43062
43062 43138
43138 43213
43213 43287
43287 43362
43362 43437
43437 43513
43513 43588
43588 43664
43664 43739
43739 43813
43813 43889
43889 43964
43964 44058
44058 44132
44132 44206
44206 44282
44282 44357
44357 44432
44432 44507
44507 44580
44580 44657
44657 44732
44732 44807
44807 44882
44882 44958
44958 45033
45033 45108
45108 45184
45184 45258
45258 45334
45334 45407
45407 45484
45484 45559
45559 45634
45634 45711
45711 45784
45784 45858
45858 45934
45934 46009
46009 46084
46084 46159
46159 46234
46234 46306
46306 46381
46381 46456
46456 46530
46530 46605
46605 46679
46679 46753
46753 46829
46829 46903
46903 46981
46981 47054
47054 47129
47129 47204
47204 47279
47279 47353
47353 47429
47429 47504
47504 47580
47580 47654
47654 47729
47729 47806
47806 47881
47881 47957
47957 48030
48030 48108
48108 48183
48183 48259
48259 48333
48333 48410
48410 48487
48487 48563
48563 48638
48638 48716
48716 48789
48789 48864
48864 48941
48941 49015
49015 49091
49091 49166
49166 49241
49241 49317
49317 49391
49391 49466
49466 49539
49539 49615
49615 49690
49690 49766
49766 49840
49840 49914
49914 49988
49988 50064
50064 50139
50139 50215
50215 50288
50288 50364
50364 50439
50439 50513
50513 50588
50588 50664
50664 50740
50740 50813
50813 50889
50889 50965
50965 51039
51039 51116
51116 51190
51190 51266
51266 51342
51342 51418
51418 51495
51495 51568
51568 51644
51644 51720
51720 51796
51796 51872
51872 51947
51947 52023
52023 52100
52100 52174
52174 52249
52249 52324
52324 52399
52399 52475
52475 52550
52550 52625
52625 52700
52700 52778
52778 52851
52851 52928
52928 53002
53002 53078
53078 53153
53153 53227
53227 53303
53303 53378
53378 53453
53453 53528
53528 53602
53602 53676
53676 53751
53751 53827
53827 53902
53902 53951
53951 54026
54026 54122
54122 54174
54174 54248
54248 54323
54323 54398
54398 54472
54472 54548
54548 54623
54623 54698
54698 54773
54773 54848
54848 54923
54923 54999
54999 55072
55072 55148
55148 55223
55223 55299
55299 55373
55373 55447
55447 55520
55520 55596
55596 55670
55670 55747
55747 55820
55820 55895
55895 55970
55970 56045
56045 56121
56121 56194
56194 56270
56270 56344
56344 56418
56418 56494
56494 56570
56570 56644
56644 56718
56718 56792
56792 56867
56867 56941
56941 57017
57017 57119
57119 57193
57193 57269
57269 57343
57343 57419
57419 57496
57496 57569
57569 57645
57645 57719
57719 57793
57793 57868
57868 57944
57944 58019
58019 58093
58093 58169
58169 58243
58243 58319
58319 58394
58394 58470
58470 58545
58545 58619
58619 58694
58694 58770
58770 58845
58845 58919
58919 58996
58996 59070
59070 59146
59146 59222
59222 59298
59298 59375
59375 59449
59449 59524
59524 59599
59599 59675
59675 59752
59752 59826
59826 59904
59904 59979
59979 60053
60053 60128
60128 60205
60205 60280
60280 60356
60356 60431
60431 60507
60507 60583
60583 60658
60658 60733
60733 60808
60808 60883
60883 60960
60960 61033
61033 61107
61107 61183
61183 61257
61257 61331
61331 61405
61405 61447
61447 61553
61553 61628
61628 61699
61699 61774
61774 61849
61849 61923
61923 61999
61999 62062
62062 62121
62121 62196
62196 62271
62271 62346
62346 62421
62421 62495
62495 62572
62572 62649
62649 62723
62723 62797
62797 62874
62874 62948
62948 63024
63024 63099
63099 63174
63174 63250
63250 63326
63326 63399
63399 63476
63476 63548
63548 63624
63624 63698
63698 63774
63774 63848
63848 63923
63923 63997
63997 64073
64073 64148
64148 64224
64224 64297
64297 64375
64375 64448
64448 64524
64524 64599
64599 64675
64675 64751
64751 64826
64826 64901
64901 64977
64977 65052
65052 65129
65129 65203
65203 65278
65278 65353
65353 65429
65429 65505
65505 65581
65581 65657
65657 65731
65731 65805
65805 65883
65883 65933
65933 66009
66009 66083
66083 66160
66160 66234
66234 66310
