54 120
120 188
188 253
253 320
320 386
386 453
453 518
518 584
584 651
651 718
718 784
784 851
851 917
917 983
983 1078
1078 1143
1143 1211
1211 1278
1278 1345
1345 1411
1411 1478
1478 1545
1545 1611
1611 1676
1676 1744
1744 1809
1809 1876
1876 1942
1942 2009
2009 2085
2085 2150
2150 2216
2216 2282
2282 2348
2348 2414
2414 2479
2479 2544
2544 2609
2609 2675
2675 2742
