22 98
98 141
141 208
208 273
273 340
340 404
404 470
470 536
536 604
604 668
668 734
734 801
801 868
1002 1048
1048 1116
1116 1182
1182 1248
1248 1315
1315 1382
1382 1450
1450 1516
1516 1585
1585 1651
1651 1716
1716 1784
1784 1850
1850 1917
1917 1984
1984 2050
2050 2117
2117 2185
2185 2250
2250 2317
2317 2384
2384 2452
2452 2517
2517 2585
2585 2653
2653 2719
2719 2787
2787 2854
2854 2919
2919 2987
2987 3054
3054 3121
3121 3187
3187 3254
3254 3322
3322 3388
3388 3455
3455 3523
3523 3590
3590 3658
3658 3725
3725 3792
3792 3860
3860 3926
3926 3994
3994 4061
4061 4128
4128 4195
4195 4264
4264 4332
4332 4399
4399 4464
4464 4533
4533 4601
4601 4668
4668 4735
4735 4802
4802 4870
4870 4938
4938 5005
5005 5072
5072 5141
5141 5207
5207 5275
5275 5343
5343 5409
5409 5477
5477 5544
5544 5611
5611 5676
5676 5755
5755 5821
5821 5889
5889 5953
5953 6020
6020 6086
6086 6153
6153 6219
6219 6286
6286 6352
6352 6418
6418 6484
6484 6550
6550 6617
6617 6682
6682 6749
6749 6816
6816 6882
6882 6947
6947 7013
7013 7107
7107 7172
7172 7239
7239 7304
7304 7370
7370 7436
7436 7503
7503 7569
7569 7634
7634 7701
7701 7767
7767 7834
7834 7901
7901 7966
7966 8033
8033 8100
8100 8165
8165 8231
8231 8298
8298 8365
8365 8430
