7477 7546
7546 7591
14666 14733
14733 14801
14801 14868
14868 14937
14937 15006
15006 15072
15072 15141
15141 15210
15210 15277
15277 15344
15344 15412
15412 15483
15483 15551
15551 15620
15620 15687
15687 15755
15755 15825
15825 15893
15893 15962
15962 16030
16030 16101
16101 16170
16170 16237
16237 16305
16305 16374
16374 16445
16445 16511
16511 16580
16580 16647
16647 16717
16717 16786
16786 16853
16853 16922
16922 16993
16993 17062
17062 17130
17130 17197
17197 17268
17268 17334
17334 17403
17403 17472
17472 17540
17540 17611
17611 17680
17680 17748
17748 17817
17817 17886
17886 17957
17957 18024
18024 18094
18094 18163
18163 18234
18234 18303
18303 18371
18371 18442
18442 18511
18511 18580
18580 18650
18650 18719
18719 18790
18790 18859
18859 18930
18930 18999
18999 19069
19069 19138
19138 19209
19209 19277
19277 19346
19346 19417
19417 19486
19486 19555
19555 19623
19623 19692
19692 19761
19761 19829
19829 19900
19900 19967
19967 20036
20036 20102
20102 20169
20169 20238
20238 20306
20306 20373
20373 20442
20442 20509
20509 20579
20579 20646
20646 20715
20715 20783
20783 20852
20852 20921
20921 20990
20990 21058
21058 21127
21127 21196
21196 21265
21265 21332
21332 21402
21402 21471
21471 21542
21542 21608
21608 21677
21677 21746
21746 21816
21816 21868
21868 21931
21931 22000
22000 22070
22070 22138
22138 22206
22206 22277
22277 22345
22345 22414
22414 22483
22483 22552
22552 22620
22620 22693
22693 22760
22760 22830
22830 22899
22899 22968
22968 23041
23041 23109
23109 23179
23179 23249
23249 23318
23318 23389
23389 23459
23459 23527
23527 23596
23596 23666
23666 23736
23736 23805
23805 23874
23874 23943
23943 24013
24013 24082
24082 24151
24289 24356
24356 24426
24426 24497
24497 24564
24564 24632
24632 24701
24701 24772
24772 24840
24840 24909
24909 24980
24980 25049
25049 25117
25117 25188
25188 25256
25256 25326
25326 25397
25397 25466
25466 25534
25534 25603
25603 25674
25674 25743
25743 25811
25811 25880
25880 25949
25949 26020
26020 26088
26088 26157
26157 26226
26226 26292
26292 26361
26361 26432
26432 26499
26499 26568
26568 26636
26636 26707
26707 26776
26776 26844
26844 26913
26913 26982
26982 27051
27051 27119
27119 27186
27186 27254
27254 27322
