397 590
590 720
720 787
787 850
1106 1233
1233 1299
1299 1361
1361 1424
1424 1487
1487 1549
1549 1612
1612 1676
1676 1800
1800 1863
1863 1929
1929 1993
1993 2051
2051 2114
2114 2179
2179 2239
2239 2367
2367 2429
2429 2493
2493 2556
2556 2619
2619 2745
2745 2837
2837 2960
2960 3025
3025 3315
3315 3443
3443 3507
3507 3634
3634 3761
3761 3827
3827 3890
3890 4018
4018 4147
4147 4211
4211 4342
4342 4475
4475 4607
4607 4738
4738 4807
4807 4875
4875 5055
5055 5123
5123 5188
5188 5255
5255 5318
5318 5383
5383 5444
5444 5572
5572 5637
5637 5700
5700 5766
5766 5828
5828 5891
5891 5957
5957 6020
6020 6092
6092 6158
6158 6225
6225 6293
6293 6361
6361 6429
6429 6564
6564 6632
6632 6699
6699 6906
6906 6973
6973 7097
7097 7231
7231 7296
7296 7363
7363 7501
7501 7569
7569 7638
7638 7706
7706 7846
7846 7983
7983 8052
8052 8190
8190 8260
8260 8329
8329 8398
8398 8466
8466 8603
8603 8673
8673 8808
8808 8877
8877 8945
8945 9014
9014 9083
9083 9150
9150 9219
9219 9288
9288 9357
9357 9425
9425 9560
9560 9699
9699 9835
