438 505
505 546
546 587
983 1060
1060 1170
1305 1373
1373 1441
1441 1506
1506 1572
1572 1638
1638 1705
1705 1770
1770 1837
1837 1901
1901 1966
1966 2033
2033 2097
2097 2163
2163 2230
2230 2293
2293 2359
2359 2426
2426 2491
2491 2557
2557 2624
2624 2689
2689 2757
2757 2820
2820 2886
2886 2957
2957 3024
3024 3091
3091 3160
3160 3230
3230 3295
3295 3363
3363 3429
3429 3499
3499 3567
3567 3636
3636 3705
3705 3774
3774 3843
3843 3913
3913 3982
3982 4051
4051 4120
4120 4191
4191 4259
4259 4329
4329 4397
4397 4466
4466 4533
4533 4601
4601 4669
4669 4736
4736 4803
4803 4870
4870 4938
4938 5005
5005 5072
5072 5137
5137 5208
5208 5272
5272 5340
5340 5406
5406 5474
5474 5530
5530 5601
5601 5646
5646 5685
5685 5752
5752 5817
5817 5882
5882 5947
5947 6014
6014 6080
6080 6143
6143 6210
6210 6275
6275 6341
6341 6404
6404 6470
6470 6512
6512 6576
6576 6640
6640 6705
6705 6769
6769 6835
6835 6900
6900 6964
6964 7027
7027 7091
7091 7156
7156 7221
7221 7285
7285 7349
7349 7413
7413 7476
7476 7542
7542 7606
7606 7669
7669 7733
7733 7796
7796 7859
7859 7923
7923 7987
7987 8050
8050 8113
8113 8177
8177 8242
8242 8306
8306 8368
8368 8432
8432 8496
8496 8560
8560 8621
8621 8687
8687 8749
8749 8813
8813 8875
8875 8938
8938 9002
9002 9066
9066 9129
9129 9191
9191 9232
9232 9291
9291 9354
9354 9419
9419 9456
9456 9520
9520 9580
9580 9643
9643 9705
9705 9768
9768 9832
9832 9895
9895 9957
9957 10020
10020 10083
10083 10147
10147 10211
10211 10272
10272 10337
10337 10399
10399 10462
10462 10525
10525 10588
10588 10651
10651 10716
10716 10777
10777 10844
10844 10907
10907 10973
10973 11031
11031 11100
11100 11160
11160 11222
11222 11286
11286 11347
11347 11412
11412 11473
11473 11536
11536 11601
11601 11662
11662 11726
11726 11789
11789 11853
11853 11915
11915 11981
11981 12045
12045 12106
12106 12170
12170 12233
12233 12297
12297 12359
12359 12425
12425 12486
12486 12549
12549 12614
12614 12677
12677 12740
12740 12802
12802 12866
12866 12929
12929 12992
12992 13055
13055 13119
13119 13183
13183 13248
13248 13309
13309 13372
13372 13438
13438 13499
13499 13562
13562 13628
13628 13691
13691 13754
13754 13819
13819 13882
13882 13944
13944 14007
14007 14071
14071 14134
14134 14198
14198 14263
14263 14325
14325 14390
14390 14453
14453 14517
14517 14581
14581 14646
14646 14708
14708 14774
14774 14836
14836 14902
14902 14962
14962 15027
15027 15091
15091 15154
15154 15217
15217 15281
15281 15346
15346 15408
15408 15473
15473 15536
15536 15599
15599 15663
15663 15729
15729 15792
15792 15854
15854 15918
15918 15981
15981 16045
16045 16109
16109 16172
16172 16236
16236 16299
16299 16363
16363 16428
16428 16491
16491 16556
16556 16594
16594 16657
16657 16720
16720 16784
16784 16846
16846 16908
16908 16973
16973 17036
17036 17100
17100 17162
17162 17226
17226 17290
17290 17352
17352 17416
17416 17455
17455 17518
17518 17581
17581 17648
17648 17711
17711 17775
17775 17837
17837 17902
17902 17965
17965 18004
18004 18067
18067 18130
18130 18195
18195 18259
18259 18324
18324 18387
18387 18450
18450 18515
18515 18580
18580 18642
18642 18706
18706 18770
18770 18833
18833 18898
18898 18961
18961 19027
19027 19088
19088 19151
19151 19215
19215 19280
19280 19342
19342 19408
19408 19471
19471 19535
19535 19600
19600 19665
19665 19730
19730 19796
19796 19834
19834 19899
19899 19965
19965 20030
20030 20096
20096 20160
20160 20225
20225 20289
20289 20353
20353 20419
20419 20484
20484 20550
20550 20613
20613 20677
20677 20743
20743 20810
20810 20848
20848 20913
20913 20977
20977 21041
21041 21105
21105 21170
21170 21233
21233 21297
21297 21362
21362 21427
21427 21490
21490 21554
21554 21618
21618 21683
21683 21746
21746 21812
21812 21876
21876 21939
21939 22004
22004 22068
22068 22133
22133 22197
22197 22262
22262 22326
22326 22391
22391 22454
22454 22518
22518 22581
22581 22645
22645 22711
22711 22773
22773 22839
22839 22902
22902 22965
22965 23029
23029 23092
23092 23158
23158 23221
23221 23283
23283 23349
23349 23385
23385 23449
23449 23513
23513 23578
