579 648
648 732
732 799
799 869
869 930
930 988
988 1038
1184 1276
1276 1350
1350 1426
1426 1507
1507 1568
1568 1631
1631 1697
1697 1777
1777 1862
1862 1933
1933 2014
2014 2110
2110 2189
2189 2275
2275 2343
2343 2434
2434 2506
2506 2579
2579 2651
2651 2758
2758 2841
2841 2900
2900 3001
3001 3081
3081 3140
3140 3199
3199 3288
3288 3347
3347 3400
3400 3483
3483 3634
3634 3721
3721 3783
3783 3872
3872 3929
3929 3985
3985 4041
4041 4132
4132 4201
4201 4256
4256 4307
4307 4389
4389 4444
4444 4515
4515 4616
4616 4688
4688 4747
4747 4835
4835 4970
4970 5038
5038 5135
5135 5197
5197 5282
5282 5337
5337 5416
5416 5501
5501 5567
5567 5651
5651 5716
5716 5801
5801 5912
5912 5996
5996 6056
