917 1014
1014 1082
2960 3071
4025 4117
4117 4211
4970 5037
5037 5101
5101 5195
5195 5286
5286 5378
5378 5473
5473 5565
5565 5656
5656 5750
5750 5843
5843 5935
5935 6028
6028 6123
6123 6216
6216 6310
6310 6406
6406 6500
6500 6595
6595 6690
6690 6786
6786 6884
6884 6980
6980 7063
7063 7156
7156 7252
7252 7346
7346 7439
7439 7537
7537 7631
7631 7725
7725 7820
7820 7918
7918 8012
8012 8062
8062 8127
8127 8217
8217 8307
8307 8400
8400 8520
8520 8611
8611 8671
8671 8761
8761 8853
8853 8946
8946 9072
9072 9163
9163 9252
9252 9344
9344 9436
9436 9526
9526 9616
9616 9709
9709 9800
9800 9889
9889 9982
9982 10075
10075 10165
10165 10256
10256 10351
10351 10442
10442 10533
10533 10628
10628 10720
10720 10812
10812 10933
10933 11000
11000 11092
11092 11184
11184 11278
11278 11372
11372 11464
11464 11555
11555 11651
11651 11743
11743 11835
11835 11928
11928 12024
12024 12115
12115 12207
12207 12301
12301 12394
12394 12485
12485 12576
12576 12667
12667 12759
12759 12879
12879 12944
12944 13036
13036 13129
13129 13222
13222 13313
13313 13407
13407 13500
13500 13592
13592 13685
13685 13779
13779 13871
13871 13964
13964 14059
14059 14122
14122 14215
14215 14307
14307 14399
14399 14490
14490 14584
14584 14675
14675 14766
14766 14859
14859 14951
14951 15043
15043 15135
15135 15227
15227 15319
15319 15412
15412 15504
15504 15595
15595 15686
15686 15776
15776 15869
15869 15960
15960 16071
16071 16165
16165 16257
16257 16349
16349 16442
16442 16535
16535 16627
16627 16718
16718 16811
16811 16933
16933 16996
16996 17038
17038 17130
17130 17222
17222 17314
17314 17408
17408 17499
17499 17590
17590 17684
17684 17778
17778 17869
17869 17960
17960 18054
18054 18146
18146 18238
18238 18330
18330 18424
18424 18517
18517 18609
18609 18701
18701 18796
18796 18888
18888 18980
18980 19089
19089 19180
19180 19272
19272 19366
19366 19456
19456 19547
