15 53
691 1035
1035 1114
1035 1114
1114 1194
9063 9144
9144 9226
9956 10036
10036 10117
10117 10196
10196 10276
10276 10356
10356 10436
10436 10516
10516 10596
10596 10676
10676 10757
10757 10838
10838 10919
10919 11001
11001 11084
11084 11168
11168 11253
11253 11341
11341 11427
11427 11512
11512 11597
11597 11682
11682 11767
11767 11852
11852 11936
11936 12020
12020 12104
12104 12188
12188 12270
12270 12352
12352 12434
12434 12516
12516 12598
12598 12680
12680 12761
12761 12843
12843 12924
12924 13005
13005 13087
13087 13168
13168 13249
13249 13330
13330 13411
13411 13492
13492 13573
13573 13653
13653 13734
13734 13814
13814 13895
13895 13975
13975 14055
14055 14136
14136 14217
14217 14298
14298 14379
14379 14460
14460 14540
14540 14622
14622 14703
14703 14785
14785 14866
14866 14949
14949 15031
15031 15113
15113 15195
15195 15276
15276 15359
15359 15441
15441 15523
15523 15605
15605 15687
15687 15770
15770 15853
15853 15936
15936 16020
16020 16121
16121 16204
16204 16288
16288 16371
16371 16454
16454 16537
16537 16619
16619 16701
16701 16783
16783 16866
16866 16993
16993 17075
17075 17157
17157 17240
17240 17322
17322 17404
17404 17487
17487 17569
17569 17652
17652 17735
17735 17818
17818 17902
17902 17986
17986 18085
18085 18166
18166 18248
18248 18329
18329 18410
18410 18491
18491 18572
18572 18654
18654 18737
18737 18819
18819 18902
18902 18984
18984 19068
19068 19150
19150 19233
19233 19316
19316 19400
19400 19484
19484 19570
19570 19656
19656 19741
19741 19827
19827 19912
19912 19999
19999 20036
20036 20117
20117 20199
20199 20280
20280 20362
20362 20445
20445 20530
20530 20703
20703 20788
20788 20873
20873 20958
20958 21107
21107 21189
21189 21271
21271 21354
21354 21437
21437 21521
21521 21603
21603 21686
21686 21768
21768 21851
21851 21934
21934 22017
22017 22068
22068 22152
22152 22236
22236 22320
22320 22404
22404 22487
22487 22572
22572 22655
22655 22738
22738 22821
22821 22904
22904 23000
23000 23071
23071 23154
23154 23237
23237 23322
23322 23407
23407 23493
23493 23579
23579 23665
23665 23750
23750 23836
23836 23922
23922 24008
24008 24095
24095 24181
24181 24268
24268 24356
24356 24445
24445 24533
24533 24620
24620 24708
24708 24796
24796 24884
24884 24971
24971 25065
25065 25148
25148 25230
25230 25313
