180 266
266 353
353 611
611 870
870 956
956 1216
1216 1464
1464 1547
1547 1630
1630 1796
1796 1878
1878 2045
2045 2127
2127 2294
2294 2376
2376 2458
2458 2541
2541 2706
2706 2788
2788 3024
3024 3131
3131 3215
3215 3299
3299 3383
3383 3552
3552 3636
3636 4219
4219 4301
4301 4628
4628 4710
4710 4875
4875 4956
4956 5443
5443 5524
5524 6062
6062 6146
6146 6403
6403 6488
6488 6573
6573 6658
6658 6744
6744 6916
6916 7001
7001 7043
7043 7126
7126 7292
7292 7375
7375 7627
7627 7711
7711 7967
7967 8052
8052 8137
8137 8394
8394 8479
8479 8828
8828 9093
9093 9180
9180 9450
9450 9540
9540 9630
9630 9903
9903 9994
9994 10264
10264 10352
10352 10617
10617 10705
10705 10881
10881 10969
10969 11056
11056 11317
11317 11404
11404 11665
11665 11752
11752 11840
11840 12109
12109 12198
12198 12289
12289 12380
12380 12470
12470 12653
12653 12746
12746 12838
12838 13022
13022 13112
13112 13469
13469 13557
13557 13830
13830 13921
13921 14011
14011 14370
14370 14642
14642 14734
14734 14824
14824 14913
14913 15093
15093 15181
15181 15360
15360 15449
15449 15626
15626 15716
15716 15806
15806 16077
16077 16350
16350 16441
16441 16532
16532 16807
16807 16899
16899 17989
17989 18079
18079 18345
18345 18434
18434 18523
18523 18702
18702 18790
18790 18968
18968 19059
19059 19149
19149 19239
19239 19328
19328 19692
19692 20145
20145 20235
20235 20325
20325 20503
20503 20592
20592 20680
20680 20855
20855 20941
20941 21097
21097 21186
21186 21450
21450 21538
21538 21626
21626 21804
21804 21892
21892 22071
22071 22160
22160 22247
22247 22509
22509 22597
22597 22950
22950 23189
23189 23282
23282 23651
23651 23741
23741 24009
24009 24098
24098 24372
24372 24463
24463 24650
24650 24742
24742 25016
25016 25106
25106 25198
25198 25290
25290 25380
25380 25656
25656 25748
25748 25840
25840 25932
25932 26297
26297 26386
26386 26654
26654 26742
26742 26830
26830 27046
27046 27134
27134 27310
27310 27398
27398 27487
27487 27579
27579 27668
27668 27757
