6075 6282
6282 6318
6318 6383
6383 6420
6420 6486
6486 6630
6630 6692
6692 6751
6751 7034
7034 7107
7107 7289
7289 8189
8189 8990
8990 9064
9064 9127
9127 9190
9190 10143
10143 10371
10371 10428
10428 10481
10481 10561
10561 10626
10626 10769
10769 10817
10817 10896
10896 12621
12621 12658
12658 13469
13469 14217
14217 14549
14549 14804
14804 14881
14881 16296
