147 213
213 278
278 344
344 410
410 476
476 542
542 609
609 675
675 742
742 808
808 875
875 942
942 1009
1009 1086
1086 1153
1286 1353
1353 1419
1419 1487
1487 1554
1554 1622
1622 1689
1689 1757
1757 1824
1824 1892
1892 1959
1959 2027
2027 2094
2094 2162
2162 2229
2229 2297
2297 2364
2364 2432
2432 2500
2500 2567
2567 2635
2635 2771
2771 2839
2839 2907
2907 2976
2976 3078
3078 3145
3145 3211
3211 3278
3278 3345
3345 3411
3411 3478
3478 3544
3544 3611
3611 3678
3678 3745
3745 3812
3812 3879
3879 3946
3946 4013
4013 4090
4090 4157
4157 4224
4224 4290
4290 4357
4357 4424
4424 4491
4491 4558
4558 4624
4624 4691
4691 4759
4759 4825
4825 4892
4892 4959
4959 5026
5026 5086
5086 5153
5153 5221
5221 5289
5289 5357
5357 5425
5425 5493
5493 5561
5561 5630
5630 5698
5698 5767
5767 5835
5835 5903
5903 5971
5971 6040
6040 6108
6108 6176
6176 6244
6244 6312
6312 6380
6380 6447
6447 6515
6515 6583
6583 6650
6650 6718
6718 6785
6785 6853
6853 6921
6921 6989
6989 7057
7057 7193
7193 7262
7262 7330
7330 7399
7399 7467
7467 7536
7536 7604
7604 7672
7672 7741
7741 7809
7809 7878
7878 7947
7947 8015
8015 8084
8084 8152
8152 8220
8220 8288
8288 8357
8357 8425
8425 8493
8493 8561
8561 8629
8629 8697
8697 8765
8765 8833
8833 8901
8901 8969
8969 9038
9038 9106
9106 9174
9174 9243
9243 9311
9311 9379
9379 9448
9448 9584
9584 9653
9653 9721
9721 9790
9790 9859
9859 9927
9927 9995
9995 10064
10064 10132
10132 10200
10200 10268
10268 10337
10337 10405
10405 10473
10473 10542
10542 10611
10611 10680
10680 10817
10817 10886
10886 10955
10955 11024
11024 11092
11092 11161
11161 11230
11230 11298
11298 11367
11367 11435
11435 11503
11503 11571
11571 11639
11639 11707
11707 11774
11774 11842
11842 11909
11909 11976
11976 12043
12043 12110
12110 12177
12177 12244
12244 12310
12310 12377
12377 12444
12444 12511
12511 12578
12578 12645
12645 12713
12713 12780
12780 12848
12848 12915
12915 12983
12983 13051
13051 13119
13119 13187
13187 13255
13255 13322
13322 13391
13391 13458
13458 13526
13526 13594
13594 13662
13662 13730
13730 13798
13798 13866
13866 13934
13934 13993
13993 14052
14052 14119
14119 14186
14186 14253
14253 14320
14320 14387
14387 14455
14455 14523
