401 537
537 605
605 673
673 741
741 809
809 877
877 945
945 1013
1013 1082
1082 1150
1150 1218
1218 1355
1355 1423
1423 1491
1491 1559
1559 1627
1627 1696
1696 1764
1764 1832
1832 1900
1900 2037
2037 2105
2105 2174
2174 2242
2242 2310
2310 2379
2379 2447
2447 2515
2515 2580
2580 2648
2648 2716
2716 2919
2919 2987
2987 3055
3055 3123
3123 3191
3191 3259
3259 3327
3327 3395
3395 3463
3463 3530
3530 3598
3598 3802
3802 3869
3869 3937
3937 4141
4141 4209
4209 4276
4276 4344
4344 4548
4548 4616
4616 4684
4684 4752
4752 4889
4889 5026
5026 5095
5095 5164
5164 5233
5233 5302
5302 5370
5370 5439
5439 5509
5509 5578
5578 5647
5647 5715
5715 5784
5784 5922
5922 5991
5991 6059
6059 6128
6128 6197
6197 6266
6266 6403
6403 6472
6472 6540
6540 6609
6609 6815
6815 6883
6883 6952
6952 7157
7157 7225
7225 7294
7294 7362
7362 7431
7431 7500
7500 7568
7568 7637
7637 7706
7706 7912
7912 7980
7980 8115
8115 8182
8182 8250
8250 8318
8318 8386
8386 8454
8454 8521
8521 8589
8589 8657
8657 8793
8793 8861
8861 8929
8929 8997
8997 9084
9084 9221
9221 9289
9289 9357
9357 9425
9425 9561
9561 9630
9630 9698
9698 9766
9766 9835
9835 9903
9903 9972
9972 10084
10084 10170
10170 10237
10237 10305
10305 10373
10373 10440
10440 10508
10508 10575
10575 10643
10643 10714
10714 10778
10778 10846
10846 10913
10913 10981
10981 11052
11052 11120
11120 11187
11187 11259
11259 11323
11323 11389
11389 11456
11456 11524
11524 11591
11591 11658
11658 11726
11726 11793
11793 11860
11860 11928
11928 11995
11995 12162
12162 12231
12231 12299
12299 12368
12368 12436
12436 12505
12505 12573
12573 12642
12642 12710
12710 12778
12778 12846
12846 12915
12915 12984
12984 13052
13052 13121
13121 13191
13191 13260
13260 13329
13329 13398
13398 13467
13467 13536
13536 13605
13605 13673
13673 13742
13742 13810
13810 13878
13878 13946
13946 14014
14014 14089
14089 14157
14157 14225
14225 14293
14293 14361
14361 14430
14430 14499
14499 14567
14567 14636
14636 14704
14704 14772
14772 14841
14841 14909
14909 14977
14977 15093
15093 15161
15161 15228
15228 15296
15296 15364
16102 16169
16169 16236
16236 16303
16303 16370
16370 16437
16437 16504
16504 16571
