3904 4003
4046 4151
4151 4247
4247 4351
4351 4452
4452 4550
4550 4653
4653 4749
4749 4855
4855 4951
4951 5084
5084 5184
5184 5290
5290 5392
5392 5490
5490 5592
5592 5697
5697 5798
5798 5898
5898 6005
