1965 2085
2996 3079
4996 5077
5926 6003
6003 6040
6957 7069
7069 7146
7146 7223
7223 7299
7299 7377
7377 7454
7454 7531
7531 7609
7609 7686
7686 7763
7763 7841
7841 7919
7919 7996
7996 8074
8074 8151
8151 8228
8228 8305
8305 8383
8383 8461
8461 8539
8539 8616
8616 8693
8693 8770
8770 8848
8848 8926
8926 9003
9003 9087
9087 9164
9164 9240
9240 9317
9317 9394
9394 9471
9471 9548
9548 9625
9625 9702
9702 9779
9779 9856
9856 9932
9932 10009
10009 10086
10086 10163
10163 10240
10240 10316
10316 10393
10393 10469
10469 10546
10546 10623
10623 10700
10700 10777
10777 10854
10854 10931
10931 11007
11007 11085
11085 11162
11162 11239
11239 11316
11316 11393
11393 11470
11470 11547
11547 11624
11624 11702
11702 11779
11779 11855
