6 117
5689 5769
5769 5849
5849 5929
5929 6009
6009 6089
6089 6169
6169 6249
6249 6329
6329 6409
6409 6489
6489 6569
6569 6649
6649 6729
6729 6808
6808 6888
6888 6969
6969 7049
7049 7129
7129 7209
7209 7289
7289 7370
7370 7451
7451 7531
7531 7612
7612 7692
7692 7773
7773 7854
7854 7934
7934 8015
8015 8096
8096 8176
8176 8257
8257 8338
8338 8419
8419 8500
8500 8581
8581 8661
8661 8742
8742 8823
8823 8904
8904 8986
8986 9067
9067 9148
9148 9229
9229 9311
9311 9392
9392 9474
9474 9556
9556 9637
9637 9718
9718 9799
9799 9882
9882 9963
9963 10049
10049 10129
10129 10209
10209 10288
10288 10367
10367 10446
10446 10526
10526 10606
10606 10685
10685 10765
10765 10844
10844 10924
10924 11003
11003 11049
11049 11129
11129 11208
11208 11288
11288 11368
11368 11448
11448 11527
11527 11607
11607 11687
11687 11767
11767 11846
11846 11926
11926 12006
12006 12086
12086 12166
12166 12247
12247 12327
12327 12407
12407 12487
12487 12567
12567 12648
12648 12728
12728 12808
12808 12889
12889 12969
12969 13049
13049 13130
13130 13210
13210 13291
13291 13372
13372 13452
13452 13533
13533 13613
13613 13694
13694 13774
13774 13856
13856 13936
13936 14017
14017 14097
14097 14178
14178 14260
14260 14341
14341 14423
14423 14504
14504 14585
14585 14666
14666 14747
14747 14828
14828 14910
14910 14991
14991 15073
15073 15154
15154 15235
15235 15316
15316 15398
15398 15480
15480 15561
15561 15642
15642 15723
15723 15804
15804 15885
15885 15967
15967 16048
16048 16129
16129 16209
16209 16290
16290 16370
16370 16450
16450 16530
16530 16610
16610 16690
16690 16770
16770 16849
16849 16929
16929 17010
17010 17103
17103 17183
17183 17262
17262 17342
17342 17422
17422 17488
17488 17582
17582 17661
17661 17741
17741 17821
17821 17901
17901 17981
17981 18061
18061 18141
18141 18220
18220 18300
18300 18380
18380 18460
18460 18540
18540 18620
18620 18700
18700 18780
18780 18861
18861 18941
18941 19021
19021 19063
19063 19144
19144 19224
19224 19304
19304 19385
19385 19465
19465 19546
19546 19626
19626 19707
19707 19787
19787 19867
19867 19948
19948 20028
20028 20109
20109 20189
20189 20270
20270 20350
20350 20430
20430 20511
20511 20592
20592 20672
20672 20753
20753 20833
20833 20914
20914 20994
20994 21075
21075 21155
21155 21236
21236 21316
21316 21396
21396 21477
21477 21557
21557 21637
21637 21718
21718 21798
21798 21878
21878 21958
21958 22038
22038 22118
22118 22198
22198 22279
22279 22359
22359 22439
22439 22520
22520 22600
22600 22680
22680 22761
22761 22841
22841 22921
22921 23001
23001 23041
23041 23201
23201 23363
23363 23443
23443 23524
23524 23604
23604 23685
23685 23766
23766 23847
23847 23928
23928 24008
24008 24089
24089 24171
24171 24252
24252 24334
24334 24415
24415 24496
24496 24577
24577 24658
24658 24739
24739 24820
24820 24900
24900 24981
24981 25062
25062 25142
25142 25223
25223 25303
25303 25383
25383 25464
25464 25544
25544 25624
25624 25705
25705 25785
25785 25865
25865 25945
25945 26026
26026 26106
26106 26187
26187 26267
26267 26347
26347 26427
26427 26509
26509 26574
26574 26670
26670 26750
26750 26830
26830 26911
26911 26992
26992 27073
27073 27153
27153 27234
27234 27314
27314 27394
27394 27474
27474 27554
27554 27634
27634 27714
27714 27794
27794 27874
27874 27954
27954 28039
28039 28198
28198 28278
28278 28357
28357 28437
28437 28516
28516 28596
28596 28676
28676 28755
28755 28834
28834 28913
28913 28993
28993 29072
29072 29152
29152 29231
29231 29311
29311 29390
29390 29469
29469 29549
29549 29629
29629 29693
29693 29789
29789 29868
29868 29948
29948 30028
30028 30108
30108 30188
30188 30347
30347 30427
30427 30507
30507 30586
30586 30666
30666 30746
30746 30825
30825 30905
30905 30985
30985 31065
31065 31145
31145 31225
31225 31305
31305 31385
31385 31465
31465 31545
31545 31625
31625 31705
31705 31785
31785 31866
31866 31946
31946 32027
32027 32107
32107 32187
32187 32267
32267 32347
32347 32428
32428 32509
32509 32589
32589 32670
32670 32750
32750 32830
32830 32911
32911 32992
32992 33072
33072 33152
33152 33233
33233 33313
33313 33393
33393 33474
33474 33555
33555 33636
33636 33716
33716 33796
33796 33876
33876 33956
33956 34103
34103 34183
34183 34263
34263 34342
34342 34422
34422 34502
34502 34583
34583 34663
34663 34744
34744 34824
34824 34904
34904 34984
34984 35145
35145 35226
35226 35306
35306 35386
35386 35466
35466 35546
35546 35625
35625 35705
35705 35785
35785 35864
35864 35945
35945 36025
36025 36106
36106 36186
36186 36266
36266 36346
36346 36426
36426 36507
36507 36588
36588 36669
36669 36750
36750 36830
36830 36911
36911 36991
36991 37072
37072 37153
37153 37234
37234 37314
37314 37394
37394 37474
37474 37555
37555 37635
37635 37715
37715 37796
37796 37876
37876 37957
37957 38037
38037 38118
38118 38199
38199 38279
38279 38360
38360 38441
38441 38522
38522 38603
38603 38683
38683 38764
38764 38845
38845 38926
38926 39007
39007 39088
39088 39170
39170 39251
39251 39332
39332 39413
39413 39494
39494 39576
39576 39658
39658 39740
39740 39821
39821 39903
39903 39984
39984 40065
40065 40147
40147 40229
40229 40310
40310 40391
40391 40472
40472 40553
40553 40634
40634 40715
40715 40796
40796 40877
40877 40958
40958 41073
41073 41155
41155 41236
41236 41317
41317 41398
41398 41478
41478 41558
41558 41638
41638 41719
41719 41800
41800 41881
41881 41961
41961 42042
42042 42122
42122 42202
42202 42284
42284 42365
42365 42446
42446 42526
42526 42590
42590 42687
42687 42769
42769 42850
42850 42931
42931 43011
43011 43092
43092 43172
43172 43239
43239 43334
43334 43415
43415 43495
43495 43576
43576 43656
43656 43737
43737 43818
43818 43899
43899 43979
43979 44060
44060 44141
44141 44222
44222 44303
44303 44384
44384 44465
44465 44546
44546 44627
44627 44708
44708 44789
44789 44869
44869 44950
44950 45031
45031 45112
45112 45193
45193 45274
45274 45355
45355 45436
45436 45517
45517 45599
45599 45680
45680 45761
45761 45842
45842 45923
45923 46005
46005 46087
46087 46168
46168 46250
46250 46330
46330 46412
46412 46494
46494 46576
46576 46657
46657 46738
46738 46820
46820 46902
46902 46984
46984 47067
47067 47148
47148 47230
47230 47312
47312 47394
47394 47475
47475 47557
47557 47638
47638 47719
47719 47801
47801 47883
47883 47965
47965 48046
48046 48127
48127 48208
48208 48289
48289 48370
48370 48452
48452 48614
48614 48695
48695 48775
48775 48856
48856 48937
48937 49018
49018 49098
49098 49178
49178 49259
49259 49339
49339 49420
49420 49501
49501 49582
49582 49662
49662 49742
49742 49823
49823 49904
49904 49985
49985 50066
50066 50146
50146 50227
50227 50308
50308 50388
50388 50469
50469 50550
50550 50630
50630 50711
50711 50792
50792 50873
50873 50953
50953 51034
51034 51115
51115 51196
51196 51277
51277 51358
51358 51439
51439 51520
51520 51602
51602 51683
51683 51764
51764 51846
51846 51926
51926 52008
52008 52089
52089 52171
52171 52252
52252 52332
52332 52413
52413 52495
52495 52576
52576 52657
52657 52738
52738 52819
52819 52901
52901 52983
52983 53065
53065 53146
53146 53227
53227 53308
53308 53390
53390 53472
53472 53554
53554 53635
53635 53716
53716 53797
53797 53878
53878 53960
53960 54041
54041 54122
54122 54202
54202 54283
54283 54363
54363 54444
54444 54525
54525 54607
54607 54687
54687 54768
54768 54848
54848 54929
54929 55009
55009 55090
55090 55170
55170 55252
55252 55333
55333 55413
55413 55494
55494 55574
55574 55655
55655 55735
55735 55816
55816 55896
55896 55977
55977 56058
56058 56139
56139 56220
56220 56300
56300 56381
56381 56462
56462 56543
56543 56624
56624 56706
