274 354
354 434
1384 1464
1864 1943
1943 2023
2023 2102
2102 2182
2182 2261
2261 2341
2341 2420
2420 2500
2500 2579
2579 2660
2660 2741
2741 2820
2820 2900
2900 2979
2979 3058
3058 3137
3137 3218
3218 3298
3298 3378
3378 3457
3457 3536
3536 3615
3615 3695
3695 3775
3775 3856
3856 3936
3936 4051
4051 4131
4131 4211
