23 77
488 570
570 653
653 736
736 818
818 900
900 983
983 1102
1102 1186
1186 1270
1270 1354
1354 1438
1438 1521
1521 1606
1606 1689
1689 1773
1773 1856
1856 1940
1940 2023
2023 2107
2107 2191
2191 2276
2276 2360
2360 2443
2443 2527
2527 2611
2611 2696
2696 2779
2779 2865
2865 2949
2949 3045
3045 3129
3129 3213
3213 3297
3297 3382
3382 3465
3465 3550
3550 3635
3635 3719
3719 3803
3803 3888
3888 3972
3972 4094
4094 4177
4177 4260
4260 4344
4344 4426
4426 4509
4509 4591
4591 4674
4674 4757
4757 4841
4841 4923
4923 5006
5006 5088
5088 5170
5170 5254
5254 5336
5336 5419
5419 5501
5501 5585
5585 5667
5667 5750
5750 5832
5832 5916
5916 6000
6000 6085
6085 6169
6169 6252
6252 6336
6336 6420
6420 6504
6504 6588
6588 6671
6671 6755
6755 6838
6838 6924
6924 7001
7001 7092
7092 7178
7178 7264
7264 7349
7349 7434
7434 7519
7519 7606
7606 7690
7690 7775
7775 7861
7861 7946
7946 8031
8031 8117
8117 8202
8202 8287
8287 8372
8372 8459
8459 8544
8544 8629
8629 8713
8713 8799
8799 8884
8884 8969
8969 9054
9054 9139
9139 9224
9224 9310
9310 9395
9395 9481
9481 9566
9566 9652
9652 9737
9737 9823
9823 9909
9909 9995
9995 10081
10081 10166
10166 10252
10252 10338
10338 10424
