10 88
10936 11132
23996 24091
36931 37134
37134 37242
37242 37351
37351 37461
37461 37569
37569 37677
37677 37787
37787 37895
37895 38003
38003 38112
38112 38220
38220 38328
38328 38437
38437 38545
38545 38653
38653 38762
38762 38872
38872 38980
38980 39089
39089 39199
41935 42107
42107 42214
42214 42321
42321 42429
42429 42536
42536 42643
42643 42751
42751 42859
42859 42966
42966 43074
43074 43183
43183 43292
43292 43400
43400 43508
43508 43616
43616 43724
43724 43833
43833 43943
43943 44052
44052 44162
44162 44271
44271 44380
44380 44489
44489 44598
44598 44706
44706 44815
44815 44924
44924 45115
45115 45224
45224 45333
45333 45442
45442 45551
45551 45660
45660 45769
45769 45878
45878 45988
45988 46097
46097 46206
46206 46315
46315 46425
46425 46534
46534 46643
46643 46754
46754 46864
46864 46974
46974 47084
47084 47194
47194 47304
47304 47415
47415 47525
47525 47635
47635 47745
47745 47854
47854 47963
47963 48073
48073 48181
48181 48290
48290 48400
48400 48508
48508 48618
48618 48727
48727 48836
48836 48945
48945 49054
49054 49163
49163 49272
49272 49381
49381 49490
49490 49599
49599 49707
49707 49817
49817 49926
49926 50106
50106 50216
50216 50325
50325 50434
50434 50544
50544 50653
50653 50762
50762 50873
50873 50983
50983 51092
51092 51202
51202 51311
51311 51422
51422 51532
51532 51641
51641 51750
51750 51860
51860 51969
51969 52121
52121 52230
52230 52338
52338 52447
52447 52556
52556 52666
52666 52776
52776 52886
52886 52996
52996 53104
53104 53213
53213 53322
53322 53430
53430 53539
53539 53648
53648 53756
53756 53864
53864 53974
53974 54083
54083 54191
54191 54301
54301 54410
54410 54519
54519 54628
54628 54737
54737 54847
54847 54956
54956 55066
55066 55176
55176 55285
55285 55395
55395 55505
55505 55614
55614 55724
55724 55834
55834 55944
55944 56055
56055 56137
56137 56266
56266 56378
56378 56489
56489 56599
56599 56711
56711 56821
56821 56930
56930 57065
57065 57176
57176 57285
57285 57397
57397 57507
57507 57617
57617 57728
57728 57839
57839 57949
57949 58060
58060 58170
58170 58279
58279 58388
58388 58499
58499 58608
58608 58717
58717 58828
58828 58937
58937 59033
59033 59141
59141 59250
59250 59359
59359 59467
59467 59576
59576 59684
59684 59792
