2844 3063
3063 3156
3250 3343
3343 3435
4087 4180
4180 4272
4272 4393
4393 4458
4458 4642
4642 4733
8830 9017
9017 9092
9375 9562
9845 10128
10128 10247
10247 10597
10597 10690
10690 11068
11068 11160
11160 11254
11254 11349
11349 11442
11442 11537
11537 11631
11631 11724
11724 11818
11818 11911
11911 12004
12004 12089
12089 12181
12181 12272
12272 12364
12364 12455
12455 12546
12546 12636
12636 12728
12728 12819
12819 12911
12911 13003
13003 13094
13094 13186
13186 13277
13277 13369
13369 13462
13462 13553
13553 13644
13644 13737
13737 13828
13828 13921
13921 14013
14013 14103
14103 14195
14195 14285
14285 14377
14377 14468
14468 14559
14559 14651
14651 14741
14741 14832
14832 14922
14922 15080
15080 15168
15168 15258
15258 15344
15344 15434
15434 15523
15523 15609
15609 15697
15697 15784
15784 15871
15871 15960
15960 16060
16060 16231
16231 16318
16318 16405
16405 16490
16490 16577
16577 16664
16664 16747
16747 16834
16834 17005
17005 17091
17091 17178
17178 17263
17263 17351
17351 17437
17437 17524
17524 17610
17610 17698
17698 17782
17782 17868
17868 17954
17954 18074
18074 18159
18159 18246
18246 18333
18333 18419
18419 18505
18505 18591
18591 18677
18677 18765
18765 19122
19122 19209
19209 19295
19295 19382
19382 19469
19469 19556
19556 19644
19644 19819
19819 19906
19906 19993
19993 20067
20067 20157
20157 20246
20246 20336
20336 20425
20425 20515
20515 20605
20605 20694
20694 20784
20784 20874
20874 20963
20963 21054
21054 21162
21162 21416
21416 21507
21507 21615
21615 21779
21779 21870
21870 21961
21961 22053
22053 22143
22143 22235
22235 22327
22327 22417
22417 22509
22509 22601
22601 22691
22691 22783
22783 22875
22875 22965
22965 23058
23058 23149
23149 23239
23239 23331
23331 23422
23422 23512
23512 23604
23604 23695
23695 23786
23786 23879
23879 23971
23971 24062
24062 24154
24154 24247
24247 24338
24338 24430
24430 24523
24523 24614
24614 24706
24706 24797
24797 24889
24889 24979
24979 25070
25070 25161
25161 25251
25251 25342
25342 25434
25434 25524
25524 25616
25616 25709
25709 25800
25800 25892
25892 25984
25984 26075
26075 26167
26167 26259
26259 26352
26352 26443
26443 26535
26535 26628
26628 26718
26718 26811
26811 26904
26904 27087
27087 27179
27179 27271
27271 27363
27363 27453
27453 27549
27549 27636
27636 27728
27728 27819
27819 27910
27910 28001
28001 28092
28092 28184
28184 28276
28276 28368
28368 28461
28461 28554
28554 28646
28646 28740
28740 28834
28834 28927
28927 29023
29023 29117
29117 29211
29211 29306
29306 29400
29400 29494
29494 29589
29589 29683
29683 29777
29777 29871
29871 29964
29964 30058
30058 30154
30154 30247
30247 30343
30343 30438
30438 30531
30531 30626
30626 30721
30721 30813
