15 69
190 277
190 277
277 364
364 450
450 508
624 709
624 709
709 763
882 971
882 971
971 1025
1025 1062
1178 1264
1178 1264
1264 1356
1356 1412
1532 1622
1532 1622
1622 1676
1797 1883
1797 1883
1883 1969
1969 2025
2141 2229
2141 2229
2229 2287
2410 2493
2410 2493
2493 2549
2666 2754
2666 2754
2754 2811
2896 3015
3015 3102
3015 3102
3102 3156
3156 3275
3275 3336
3336 3428
3428 3517
3517 3604
3604 3655
3693 3776
3776 3860
3860 3954
3954 4003
4003 4125
4125 4179
4179 4302
4302 4354
4354 4477
4477 4565
4565 4648
4648 4738
4738 4825
4825 4912
4912 5000
5000 5081
5081 5171
5171 5256
5256 5344
5344 5400
5400 5520
5520 5609
5609 5698
5698 5783
