16 391
391 531
531 601
601 741
741 810
810 881
881 950
950 1020
1020 1090
1090 1230
1230 1300
1300 1369
1369 1440
1440 1510
1510 1579
1579 1650
1650 1789
1789 1860
1860 1930
1930 1999
1999 2070
2070 2140
2140 2280
2280 2350
2350 2419
2419 2490
2490 2560
2560 2630
2630 2699
2699 2839
2839 2910
2910 3108
3108 3247
3247 3387
3387 3457
3457 3527
3527 3597
3597 3737
3737 3948
3948 4108
4108 4248
4248 4318
4318 4458
4458 4598
4598 4668
4668 4738
4738 4878
4878 4949
4949 5228
5228 5929
5929 6347
6347 6418
6418 6557
6557 6628
6628 6836
6836 6906
6906 6975
6975 7098
7098 7519
7519 7730
7730 7941
7941 8011
8011 8064
8064 8276
8276 9102
9102 9312
9312 9382
9382 9523
9523 9734
9734 10648
10648 10859
10859 11281
11281 11774
11774 11844
11844 12099
12099 12381
12381 12803
12803 13014
13014 14409
14409 14550
14550 14762
14762 14974
14974 15103
15103 15385
15385 15597
15597 15738
15738 15879
15879 15950
15950 16091
16091 16232
16232 16444
16444 16585
16585 16656
16656 16798
16798 17008
17008 17359
17359 17500
17500 17711
17711 17922
17922 18063
18063 18275
18275 18486
18486 18698
18698 18768
18768 18839
18839 18911
18911 18980
18980 19192
19192 19403
19403 19544
19544 19755
19755 19967
19967 20531
20531 20670
20670 20741
20741 20881
20881 20951
20951 21022
21022 21092
21092 21233
21233 21304
21304 21445
21445 21656
21656 21797
21797 21869
21869 22010
22010 22139
22139 22210
22210 22351
22351 22422
22422 22493
22493 22563
22563 22704
22704 22916
22916 23055
23055 23126
23126 23408
23408 23549
23549 23973
23973 24468
24468 24822
24822 24963
24963 25033
25033 25174
25174 25385
25385 25456
25456 25597
25597 25809
25809 26019
26019 26937
26937 27219
27219 27430
27430 27641
27641 27782
27782 27993
27993 28275
28275 28628
28628 29824
29824 29894
29894 30069
30069 30139
30139 30280
30280 30349
30349 30419
30419 30490
30490 30560
30560 30629
30629 30699
30699 30839
30839 30910
30910 31050
31050 31119
31119 31259
31259 31469
31469 31889
31889 32170
32170 32659
32659 32799
32799 32870
32870 33009
33009 33079
33079 33149
33149 33219
33219 33289
33289 33359
33359 33429
33429 33499
33499 33569
33569 33639
33639 33709
33709 33779
33779 33849
33849 33920
33920 33989
33989 34059
34059 34129
34129 34199
34199 34269
34269 34338
34338 34409
34409 34479
34479 34549
34549 34618
34618 34689
34689 34759
34759 34828
34828 34898
34898 34969
34969 35039
35039 35108
35108 35178
35178 35249
35249 35318
35318 35389
35389 35459
35459 35529
35529 35598
35598 35738
35738 35808
35808 35878
35878 35949
35949 36018
36018 36088
36088 36228
36228 36298
36298 36368
36368 36439
36439 36508
36508 36578
36578 36648
36648 36718
36718 36788
36788 36857
36857 36927
36927 37068
37068 37138
37138 37209
37209 37278
37278 37417
37417 37487
37487 37557
37557 37767
37767 37837
37837 37907
37907 37977
37977 38047
38047 38116
38116 38186
38186 38257
38257 38326
38326 38396
38396 38466
38466 38536
38536 38606
38606 38745
38745 38815
38815 38884
38884 38955
38955 39024
39024 39094
39094 39234
39234 39374
39374 39444
39444 39514
39514 39583
39583 39724
39724 39794
39794 39863
39863 39933
39933 40002
40002 40071
40071 40211
40211 40281
40281 40351
40351 40421
40421 40491
40491 40561
40561 40631
40631 40701
40701 40770
40770 40840
40840 40911
40911 40980
40980 41050
41050 41190
41190 41328
41328 41398
41398 41468
41468 41538
41538 41678
41678 41818
41818 41887
41887 41956
41956 42026
42026 42097
42097 42166
42166 42236
42236 42306
42306 42376
42376 42446
42446 42515
42515 42586
42586 42656
42656 42726
42726 42795
42795 42866
42866 42936
42936 43005
43005 43075
43075 43146
43146 43215
43215 43285
43285 43355
43355 43425
43425 43495
43495 43565
43565 43634
43634 43705
43705 43775
43775 43844
43844 43914
43914 43985
43985 44054
44054 44124
44124 44264
44264 44334
44334 44403
44403 44473
44473 44543
44543 44613
44613 44683
44683 44823
44823 44892
44892 44962
44962 45032
45032 45102
45102 45172
45172 45241
45241 45312
45312 45521
45521 45591
45591 45661
45661 45731
45731 45800
45800 45870
45870 46010
46010 46080
46080 46150
46150 46220
46220 46289
46289 46429
46429 46499
46499 46638
46638 46778
46778 46918
46918 47127
47127 47267
47267 47406
47406 47546
47546 47616
47616 47755
47755 47894
47894 47965
47965 48035
48035 48104
48104 48244
48244 48314
48314 48383
48383 48454
48454 48523
48523 48733
48733 48802
48802 48872
48872 49011
49011 49220
49220 49360
49360 49430
49430 49639
49639 49709
49709 49849
49849 49918
49918 49989
49989 50058
50058 50128
50128 50336
50336 50405
50405 50545
50545 50614
50614 50684
50684 50754
50754 50824
50824 51033
51033 51102
51102 51172
51172 51242
51242 51381
51381 51451
51451 51869
51869 52009
52009 52218
52218 52357
52357 52427
52427 52497
52497 52567
52567 52637
52637 52706
52706 52777
52777 52846
52846 52915
52915 52985
52985 53055
53055 53124
53124 53334
53334 53403
53403 53473
53473 53543
53543 53612
53612 53682
53682 53751
53751 53821
53821 53961
53961 54239
54239 54449
54449 54588
54588 54727
54727 54797
54797 54936
54936 55007
55007 55076
55076 55216
55216 55284
55284 55354
55354 55423
55423 55562
55562 55702
55702 55771
55771 55841
55841 55911
55911 56050
56050 56119
56119 56189
56189 56259
56259 56328
56328 56398
56398 56467
56467 56538
56538 56607
56607 56676
56676 56815
56815 57094
57094 57164
57164 57302
57302 57372
57372 57442
57442 57511
57511 57580
57580 57650
57650 57720
57720 57790
57790 57929
57929 57999
57999 58068
58068 58138
58138 58207
58207 58275
58275 58345
58345 58485
58485 58554
58554 58623
58623 58763
58763 58832
58832 58972
58972 59111
59111 59320
59320 59459
59459 59580
59580 59737
59737 59877
