113 233
233 348
931 1087
1087 1205
1205 1313
1313 1419
1419 1528
1528 1638
1638 1753
1753 1864
1864 1971
1971 2017
2017 2088
3118 3229
3229 3322
4029 4145
4145 4257
4257 4379
4379 4431
4431 4494
4944 5031
5031 5083
6927 7068
7184 7295
7295 7407
8443 8559
8559 8675
8675 8791
