125 252
252 305
787 898
898 952
1031 1141
1141 1223
1223 1274
1274 1393
1393 1438
2080 2184
2184 2265
2265 2312
2391 2496
2496 2543
4295 4400
4400 4448
4992 5096
5096 5145
6011 6118
6118 6170
6886 6995
6995 7045
12901 13008
13008 13052
14959 15064
15064 15116
15116 15168
15721 15829
15829 15880
17151 17259
17259 17310
17392 17503
17503 17552
19331 19409
19462 19543
19543 19621
19621 19701
19701 19780
19780 19890
19890 19939
19939 20020
20020 20099
20099 20181
20181 20260
20260 20368
20368 20420
20420 20529
20529 20581
21396 21478
21478 21558
21558 21638
21638 21720
21961 22070
22070 22123
22070 22123
22123 22205
22205 22283
22445 22555
22555 22608
22555 22608
22608 22688
22688 22768
22851 22929
23012 23091
23091 23171
23171 23252
23252 23333
23333 23413
23413 23494
23494 23574
23574 23654
23736 23815
23898 23976
24087 24138
24087 24138
24138 24218
24218 24297
24297 24379
24379 24458
24458 24564
24564 24644
24644 24724
24724 24805
24805 24854
24854 24933
25093 25203
25093 25203
25203 25254
25333 25442
25442 25496
25442 25496
25608 25690
25608 25690
25690 25744
25857 25941
25857 25941
25941 25995
26077 26190
26190 26276
26190 26276
26276 26330
26441 26496
26441 26496
26913 27024
27024 27077
27024 27077
30037 30146
30146 30201
30146 30201
30366 30481
30481 30535
30481 30535
31283 31393
31393 31447
31393 31447
32105 32183
32345 32457
32457 32509
32457 32509
36081 36192
36192 36247
36192 36247
36411 36523
36523 36576
36523 36576
36826 36942
36942 36993
36942 36993
37414 37527
37527 37582
37527 37582
39764 39879
39879 39930
39879 39930
43604 43714
43714 43769
43714 43769
46695 46806
46806 46862
46806 46862
47949 48062
48062 48118
48062 48118
48874 48987
48987 49042
48987 49042
51069 51183
51183 51237
51183 51237
53706 53820
53820 53876
53820 53876
62027 62143
62143 62195
62143 62195
62704 62789
62789 62876
62876 62960
62960 63098
63098 63183
63183 63267
63267 63353
63353 63438
63438 63521
63521 63607
63607 63689
63689 63775
63775 63857
63857 63944
63944 64026
64026 64142
64142 64196
64196 64282
64282 64366
64366 64451
64451 64568
64568 64651
64651 64708
64708 64792
64792 64909
64909 64995
64995 65063
65063 65147
65147 65232
65232 65320
65320 65435
65435 65492
65492 65577
65577 65664
65664 65750
65750 65864
65864 65954
65954 66006
66006 66091
66091 66176
66176 66294
66294 66348
66348 66434
66434 66519
66519 66634
66634 66688
66688 66773
66773 66859
66859 66969
66969 67052
67052 67104
67104 67218
67218 67273
67273 67388
67388 67443
67443 67529
67529 67615
67615 67731
67731 67819
67819 67873
67873 67961
67961 68077
68077 68134
68134 68221
68221 68337
68337 68427
68427 68480
68480 68569
68569 68685
68685 68774
68774 68858
68858 68915
68915 69032
69032 69088
69088 69207
69207 69290
69290 69347
69347 69433
69433 69549
