48966 49067
49067 49150
49150 49229
49229 49312
49312 49395
49395 49476
49476 49555
49555 49640
49640 49720
49720 49804
49804 49890
49890 49971
49971 50057
50057 50141
50141 50221
50221 50302
50302 50386
50386 50473
50473 50557
50557 50643
50643 50709
50709 50790
50790 50879
50879 50966
50966 51057
51057 51148
51148 51236
51236 51326
51326 51409
51409 51495
51495 51574
51574 51656
51656 51740
51740 51819
51819 51903
51903 51957
51957 52039
52039 52119
52119 52201
52201 52283
52283 52365
52365 52447
52447 52533
52533 52616
52616 52695
52695 52780
52780 52862
52862 52947
52947 53033
53033 53115
53115 53203
53203 53289
53289 53373
53373 53461
53461 53541
53541 53629
53629 53715
53715 53798
53798 53886
53886 53971
53971 54057
54057 54145
54145 54226
54226 54310
54310 54395
54395 54477
54477 54560
54560 54644
54644 54729
54729 54814
54814 54898
54898 54980
54980 55062
55062 55150
55150 55231
55231 55316
55316 55402
55402 55488
55488 55571
55571 55658
55658 55741
55741 55827
55827 55913
55913 55997
55997 56084
56084 56167
56167 56254
56254 56339
56339 56427
56427 56511
56511 56598
56598 56687
56687 56772
56772 56861
56861 56945
56945 57032
57032 57118
57118 57206
57206 57292
57292 57378
57378 57462
57462 57548
57548 57637
57637 57720
57720 57806
57806 57892
57892 57979
57979 58064
58064 58148
58148 58235
58235 58321
58321 58408
58408 58490
58490 58575
58575 58661
58661 58748
58748 58831
58831 58914
58914 59002
59002 59084
59084 59171
59171 59258
59258 59342
59342 59426
59426 59511
59511 59599
59599 59685
59685 59772
59772 59858
59858 59946
59946 60031
60031 60115
60115 60200
60200 60287
60287 60369
60369 60456
60456 60540
60540 60621
60621 60704
60704 60789
60789 60873
60873 60960
60960 61042
61042 61126
61126 61212
61212 61300
61300 61382
61382 61469
61469 61556
61556 61643
61643 61726
61726 61813
61813 61901
61901 61982
61982 62069
62069 62155
62155 62237
62237 62321
62321 62388
62388 62477
62477 62563
62563 62645
62645 62732
62732 62819
62819 62904
62904 62990
62990 63078
63078 63164
63164 63248
63248 63335
63335 63423
63423 63509
63509 63594
63594 63680
63680 63768
63768 63850
63850 63938
63938 64023
64023 64113
64113 64197
64197 64286
64286 64372
64372 64458
64458 64547
64547 64633
64633 64723
64723 64810
64810 64911
64911 64993
64993 65080
