144 752
752 848
848 925
925 2559
2559 2977
2977 3375
3375 3451
3451 4022
4022 4132
4132 4218
4218 4383
4383 4472
4472 4874
4874 5884
5884 6076
6076 6410
6410 6932
6932 7582
7582 7671
7671 8027
8027 8352
8352 8937
8937 9438
9438 9527
9527 9798
9798 10043
10043 10218
10218 10303
10303 10389
10389 10479
10479 10648
10648 10726
10726 10914
10914 11413
11413 11489
11489 11539
11539 11759
11759 11851
11851 11925
11925 12468
12468 12543
12543 13077
13077 13159
13159 13498
13498 13586
13586 13680
