6 141
141 228
911 1005
1005 1056
1933 2024
2024 2067
2948 3030
3030 3066
3245 3335
3335 3426
4839 4927
4927 5016
5016 5141
5965 6080
6080 6166
6940 7026
7026 7146
7146 7236
7236 7317
7317 7404
7404 7490
7490 7575
7575 7669
7669 7748
7748 7839
