3817 3900
3900 3957
8908 8987
8987 9043
9043 9126
9126 9182
13616 13700
13700 13756
14925 15006
15285 15364
15364 15424
19887 19968
20780 20861
20861 20917
21565 21646
21646 21703
23089 23167
23167 23227
25024 25107
27648 27728
27728 27785
27785 27868
28772 28860
32437 32518
32518 32578
34480 34563
34727 34813
34813 34894
