12 60
377 453
535 614
614 695
695 770
845 926
926 1003
1003 1082
1082 1161
1161 1248
1248 1313
1313 1392
1392 1484
1484 1550
1550 1632
1632 1719
1719 1786
1786 1861
1861 1954
1954 2023
2023 2100
2100 2183
2183 2256
2256 2333
2333 2415
2415 2493
2493 2574
2574 2651
2651 2727
2727 2810
2810 2889
2889 2968
2968 3069
3069 3142
3142 3219
3219 3300
3300 3375
3375 3458
3458 3545
3545 3608
3608 3687
3687 3768
3768 3855
3855 3920
3920 3997
3997 4084
4084 4167
4167 4242
4242 4321
4321 4400
4400 4473
4473 4554
4554 4631
4631 4684
4684 4777
4777 4854
4854 4937
4937 5014
5014 5095
5095 5181
5181 5262
5262 5326
5326 5418
5418 5499
5499 5562
5562 5640
5640 5718
5718 5793
5793 5874
5874 5949
5949 6030
6030 6105
6105 6182
6182 6271
6271 6338
6338 6428
6428 6494
6494 6572
6572 6650
6650 6725
6725 6802
6802 6877
6877 6956
6956 7035
7035 7110
7110 7189
7189 7269
7269 7348
7348 7431
7431 7497
7497 7589
7589 7668
7668 7730
7730 7823
7823 7889
7889 7964
7964 8056
8056 8133
8133 8196
8196 8277
8277 8366
8366 8428
8428 8509
8509 8584
8584 8661
8661 8740
8740 8815
8815 8889
8889 8969
8969 9048
9048 9132
9132 9186
9186 9269
9269 9350
9350 9433
9433 9519
9519 9590
9590 9654
9654 9740
9740 9820
9820 9900
9900 9975
9975 10058
10058 10133
10133 10212
10212 10304
10304 10381
10381 10445
10445 10505
10505 10595
10595 10676
10676 10766
10766 10845
10845 10914
10914 10991
10991 11070
11070 11149
11149 11234
11234 11307
11307 11380
11380 11471
11471 11536
11536 11617
11617 11687
11687 11767
11767 11848
11848 11925
11925 12002
12002 12074
12074 12150
12150 12232
12232 12307
12307 12398
12398 12462
12462 12539
12539 12616
12616 12691
12691 12783
12783 12850
12850 12926
12926 13006
13006 13086
13086 13161
13161 13241
13241 13320
13320 13393
13393 13472
13472 13551
13551 13628
13628 13707
13707 13782
13782 13872
13872 13942
13942 14017
14017 14100
14100 14181
14181 14248
14248 14327
14327 14409
14409 14483
14483 14562
14562 14636
14636 14718
14718 14798
14798 14879
14879 14952
14952 15029
15029 15106
15106 15189
15189 15270
15270 15341
15341 15414
15414 15495
15495 15577
15577 15651
15651 15724
15724 15803
15803 15882
15882 15959
15959 16038
16038 16113
16113 16192
16192 16277
16277 16343
16343 16421
16421 16500
16500 16577
16577 16657
16657 16731
16731 16808
16808 16971
16971 17048
17048 17125
17125 17206
17206 17281
17281 17358
17358 17432
17432 17513
17513 17587
17587 17664
17664 17741
17741 17817
17817 17898
17898 17985
17985 18104
18104 18181
18181 18255
18255 18335
18335 18409
18409 18486
18486 18566
18566 18640
18640 18718
18718 18795
18795 18874
18874 18948
18948 19024
19024 19070
19070 19144
19144 19217
19217 19296
19296 19374
19374 19452
19452 19525
19525 19604
19604 19684
19684 19769
19769 19838
19838 19913
19913 19986
19986 20071
20071 20148
20148 20223
20223 20300
20300 20371
20371 20452
20452 20531
20531 20606
20606 20683
20683 20758
20758 20835
20835 20912
20912 20991
20991 21066
21066 21143
21143 21218
21218 21272
21272 21349
21349 21426
21426 21499
21499 21580
21580 21657
21657 21732
21732 21809
21809 21884
21884 21961
21961 22040
22040 22117
22117 22194
22194 22269
22269 22345
22345 22426
22426 22503
22503 22580
22580 22657
22657 22730
22730 22806
22806 22886
22886 22967
22967 23040
23040 23113
23113 23204
23204 23269
23269 23346
23346 23421
23421 23498
23498 23573
23573 23654
23654 23731
23731 23810
23810 23866
23866 23950
23950 24045
24045 24114
24114 24195
24195 24270
24270 24347
24347 24424
24424 24503
24503 24580
24580 24662
24662 24732
24732 24811
24811 24888
24888 24978
24978 25051
25051 25118
25118 25192
25192 25272
25272 25359
25359 25428
25428 25501
25501 25578
25578 25655
25655 25746
25746 25815
25815 25886
25886 25963
25963 26040
26040 26121
26121 26194
26194 26269
26269 26344
26344 26419
26419 26502
26502 26581
26581 26664
26664 26731
26731 26806
26806 26881
26881 26966
26966 27037
27037 27118
27118 27193
27193 27267
27267 27347
27347 27424
27424 27502
27502 27579
27579 27652
27652 27731
27731 27810
27810 27885
27885 27964
27964 28037
28037 28112
28112 28195
28195 28268
28268 28349
28349 28422
28422 28497
28497 28574
28574 28653
28653 28730
28730 28807
28807 28880
28880 28969
28969 29032
29032 29069
29069 29146
29146 29222
29222 29298
29298 29375
29375 29450
29450 29527
29527 29603
29603 29679
29679 29756
29756 29832
29832 29910
29910 29985
29985 30060
30060 30137
30137 30214
30214 30264
30264 30340
30340 30416
30416 30493
30493 30570
30570 30645
30645 30697
30697 30774
30774 30850
30850 30927
30927 31006
31006 31064
31064 31140
31140 31216
31216 31291
31291 31366
31366 31445
31445 31517
31517 31593
31593 31668
31668 31743
31743 31819
31819 31895
31895 31949
31949 31996
31996 32073
32073 32148
32148 32222
32222 32306
32306 32375
32375 32451
32451 32527
32527 32602
32602 32685
32685 32762
32762 32827
32827 32903
32903 32978
32978 33047
33047 33126
33126 33210
33210 33276
33276 33347
33347 33425
33425 33507
33507 33572
33572 33659
33659 33730
33730 33796
33796 33874
33874 33959
33959 34023
34023 34105
34105 34176
34176 34234
34234 34315
34315 34396
34396 34469
34469 34545
34545 34625
34625 34702
34702 34775
34775 34852
34852 34927
34927 34998
34998 35075
35075 35150
35150 35229
35229 35302
35302 35381
35381 35450
35450 35527
35527 35602
35602 35679
35679 35754
35754 35829
35829 35906
35906 35979
35979 36051
36051 36126
36126 36202
36202 36276
36276 36355
36355 36426
36426 36501
36501 36578
36578 36653
36653 36743
36743 36807
36807 36880
36880 36955
36955 37030
37030 37106
37106 37182
37182 37257
37257 37334
37334 37409
37409 37481
37481 37557
37557 37635
37635 37710
37710 37784
37784 37868
37868 37938
37938 38017
38017 38090
38090 38167
38167 38239
38239 38314
38314 38394
38394 38464
38464 38541
38541 38618
38618 38690
38690 38768
38768 38843
38843 38931
38931 38995
38995 39071
39071 39147
39147 39220
39220 39297
39297 39374
39374 39449
39449 39524
39524 39599
39599 39676
39676 39757
39757 39830
39830 39905
39905 39980
39980 40053
40053 40129
40129 40207
40207 40284
40284 40359
40359 40431
40431 40507
40507 40586
40586 40663
40663 40748
40748 40817
40817 40892
40892 40965
40965 41038
41038 41117
41117 41194
41194 41267
41267 41343
41343 41420
41420 41495
41495 41581
41581 41650
41650 41723
41723 41798
41798 41876
41876 41947
41947 42023
42023 42101
42101 42178
42178 42253
42253 42328
42328 42405
42405 42480
42480 42566
42566 42632
42632 42705
42705 42791
42791 42859
42859 42938
42938 43011
43011 43086
43086 43165
43165 43253
43253 43317
43317 43395
43395 43482
43482 43546
43546 43623
43623 43713
43713 43777
43777 43855
43855 43932
43932 44008
44008 44089
44089 44163
44163 44237
44237 44313
44313 44392
44392 44467
44467 44542
44542 44621
44621 44698
44698 44775
44775 44850
44850 44935
44935 45017
45017 45081
45081 45154
45154 45233
45233 45312
45312 45387
45387 45462
45462 45539
45539 45614
45614 45691
45691 45768
45768 45845
45845 45922
45922 45996
45996 46081
46081 46162
46162 46233
46233 46306
46306 46385
46385 46462
46462 46537
46537 46616
46616 46693
46693 46770
46770 46857
46857 46924
46924 46999
46999 47080
47080 47157
47157 47234
47234 47311
47311 47386
47386 47467
47467 47542
47542 47619
47619 47698
47698 47773
47773 47851
47851 47932
47932 48005
48005 48083
48083 48161
48161 48238
48238 48313
48313 48394
48394 48473
48473 48548
48548 48625
48625 48708
48708 48781
48781 48856
48856 48935
48935 49012
49012 49085
49085 49162
49162 49241
49241 49316
49316 49395
49395 49472
49472 49550
49550 49629
49629 49708
49708 49783
49783 49862
49862 49937
49937 50016
50016 50093
50093 50170
50170 50249
50249 50326
50326 50403
50403 50481
50481 50534
50534 50626
50626 50705
50705 50789
50789 50870
50870 50947
50947 51026
51026 51103
51103 51187
51187 51261
51261 51337
51337 51418
51418 51495
51495 51575
51575 51653
51653 51728
51728 51809
51809 51888
51888 51965
51965 52042
52042 52117
52117 52200
52200 52277
52277 52352
52352 52446
52446 52510
52510 52586
52586 52667
52667 52746
52746 52827
52827 52902
52902 52981
52981 53063
53063 53137
53137 53215
53215 53296
53296 53373
53373 53462
53462 53531
53531 53612
53612 53689
53689 53766
53766 53843
53843 53923
53923 53998
53998 54077
54077 54155
54155 54237
54237 54312
54312 54401
54401 54470
54470 54549
54549 54624
54624 54705
54705 54783
54783 54858
54858 54939
54939 55018
55018 55095
55095 55174
55174 55249
55249 55328
55328 55412
55412 55487
55487 55564
55564 55643
55643 55722
55722 55799
55799 55878
55878 55955
55955 56033
56033 56114
56114 56192
56192 56272
56272 56349
