196 247
247 358
358 568
568 701
701 942
942 1170
1170 1242
1242 1368
1368 1451
1451 1503
1503 1571
1571 1787
1787 1830
1830 2556
2556 2614
2614 2870
2870 2939
2939 3189
3189 3273
3273 3365
3365 3626
3626 3698
3698 3873
3873 4167
4167 4552
4552 4734
4734 4919
4919 4992
4992 5113
5113 5340
5340 6128
6128 6730
6730 7603
7603 7672
7672 9099
9099 10549
10549 12405
12405 12804
12804 13741
