19 65
1227 1317
1317 1406
1674 1763
1763 1851
1851 1940
1940 2097
2097 2186
2897 2986
2986 3057
3057 3144
3144 3232
3232 3319
3319 3407
3407 3495
3495 3583
3583 3671
3671 3759
3759 3890
3890 3978
3978 4038
4038 4128
4128 4217
4217 4307
4307 4397
4397 4486
4486 4576
4576 4666
4666 4756
4756 4846
4846 4910
4910 5000
5000 5089
5089 5179
5179 5268
5268 5358
5358 5447
5447 5536
5536 5625
5625 5715
5715 5804
5804 5893
5893 5983
5983 6072
6072 6136
6136 6226
6226 6315
6315 6404
6404 6493
6493 6583
6583 6672
6672 6760
6760 6849
6849 6939
6939 7027
7027 7091
7091 7179
7179 7267
7267 7355
7355 7443
7443 7530
7530 7618
7618 7706
7706 7794
7794 7882
7882 7970
7970 8071
8071 8160
8160 8248
8248 8337
8337 8426
8426 8515
8515 8604
8604 8694
8694 8783
8783 8872
8872 8962
8962 9025
9025 9114
9114 9203
9203 9292
9292 9381
9381 9470
9470 9559
9559 9648
9648 9737
9737 9826
9826 9915
9915 10004
10004 10041
10041 10130
10130 10208
10208 10308
10308 10397
10397 10485
10485 10574
10574 10662
10662 10737
10737 10839
10839 10929
10929 11018
11018 11107
11107 11196
11196 11285
11285 11374
11374 11463
11463 11552
11552 11640
11640 11729
11729 11817
11817 11906
11906 11994
11994 12091
12091 12154
12154 12242
12242 12330
12330 12419
12419 12507
12507 12595
12595 12684
12684 12772
12772 12860
12860 12948
12948 13038
13038 13125
13125 13213
13213 13300
13300 13387
13387 13475
13475 13562
13562 13650
13650 13737
13737 13824
13824 13887
13887 13975
13975 14063
14063 14150
14150 14238
14238 14325
14325 14413
14413 14501
14501 14588
14588 14676
14676 14763
14763 14850
14850 14938
14938 15047
15047 15134
15134 15222
15222 15310
15310 15398
15398 15487
15487 15575
15575 15663
15663 15752
15752 15840
15840 15929
15929 16017
16017 16080
16080 16170
16170 16260
16260 16349
16349 16439
16439 16528
16528 16618
16618 16707
16707 16796
16796 16885
16885 16974
16974 17063
17063 17152
17152 17240
17240 17329
17329 17418
17418 17506
17506 17594
17594 17681
17681 17769
17769 17856
17856 17944
17944 18032
18032 18120
18120 18207
18207 18295
18295 18383
18383 18470
18470 18559
18559 18646
18646 18734
18734 18822
18822 18910
18910 18998
18998 19068
19068 19157
19157 19246
19246 19334
19334 19423
19423 19512
19512 19576
19576 19664
19664 19753
19753 19842
19842 19931
19931 20020
20020 20109
20109 20197
20197 20286
20286 20375
20375 20464
20464 20553
20553 20641
20641 20730
20730 20818
20818 20907
20907 20995
20995 21084
21084 21172
21172 21261
21261 21349
21349 21438
21438 21526
21526 21615
21615 21703
21703 21792
21792 21881
21881 21969
21969 22058
22058 22146
22146 22234
22234 22322
22322 22411
22411 22499
22499 22587
22587 22675
22675 22763
22763 22820
22820 22908
22908 22995
22995 23076
23076 23165
23165 23254
23254 23342
23342 23431
23431 23519
23519 23608
23608 23696
23696 23784
23784 23873
23873 23912
23912 23961
23961 24091
24091 24179
24179 24267
24267 24356
24356 24444
24444 24533
24533 24621
24621 24710
24710 24800
24800 24888
24888 24977
24977 25066
25066 25155
25155 25244
25244 25333
25333 25422
25422 25511
25511 25600
25600 25689
25689 25778
25778 25866
25866 25955
25955 26044
26044 26132
26132 26221
26221 26310
26310 26398
26398 26487
26487 26576
26576 26665
26665 26754
26754 26843
26843 26932
26932 27021
27021 27085
27085 27173
27173 27262
27262 27350
27350 27439
27439 27528
27528 27617
27617 27706
27706 27795
27795 27884
27884 27973
27973 28062
28062 28214
28214 28302
28302 28391
28391 28479
28479 28568
28568 28631
28631 28719
28719 28807
28807 28895
28895 28984
28984 29087
29087 29176
29176 29264
