951 1078
1078 1168
1168 1257
1257 1346
1973 2072
2964 3031
6118 6207
6207 6297
6926 7044
7044 7134
7134 7225
7225 7316
7316 7406
7406 7496
7496 7586
7586 7677
7677 7767
7767 7857
7857 7948
7948 8037
8037 8127
8127 8217
8217 8306
8306 8395
8395 8485
8485 8574
8574 8663
8663 8753
8753 8843
8843 8933
8933 9022
9022 9081
9081 9171
9171 9261
9261 9352
9352 9442
9442 9532
9532 9622
9622 9710
9710 9802
9802 9892
9892 9984
9984 10074
10074 10164
10164 10254
10254 10343
10343 10432
10432 10522
10522 10611
10611 10700
10700 10789
10789 10878
10878 10968
10968 11042
11042 11132
11132 11222
11222 11311
11311 11401
11401 11491
11491 11581
11581 11671
11671 11761
11761 11851
11851 11942
11942 12041
12041 12131
12131 12221
12221 12312
12312 12401
12401 12491
12491 12581
12581 12671
12671 12761
12761 12851
12851 12941
12941 13030
13030 13120
13120 13210
13210 13300
13300 13390
13390 13480
13480 13570
13570 13659
13659 13750
13750 13839
13839 13930
13930 14020
14020 14068
14068 14159
14159 14249
14249 14339
14339 14429
14429 14520
14520 14611
14611 14701
14701 14791
14791 14882
14882 14973
14973 15063
15063 15154
15154 15245
15245 15336
15336 15426
15426 15516
15516 15607
15607 15697
15697 15787
15787 15877
15877 15967
15967 16056
16056 16145
16145 16234
16234 16324
16324 16413
16413 16502
16502 16591
16591 16681
16681 16770
16770 16860
16860 16950
16950 17040
17040 17130
17130 17220
17220 17310
17310 17401
17401 17491
17491 17581
17581 17672
17672 17761
17761 17851
17851 17941
17941 18031
18031 18121
18121 18210
18210 18300
18300 18389
18389 18479
18479 18568
18568 18658
18658 18748
18748 18838
18838 18928
18928 19018
19018 19084
19084 19174
19174 19262
19262 19351
19351 19439
19439 19528
19528 19616
19616 19704
19704 19792
19792 19881
19881 19968
19968 20057
20057 20145
20145 20232
20232 20320
20320 20409
20409 20497
20497 20585
20585 20673
20673 20761
20761 20850
20850 21001
21001 21060
21060 21148
21148 21236
21236 21324
21324 21412
21412 21500
21500 21589
21589 21677
21677 21766
21766 21855
21855 21946
21946 22035
22035 22125
22125 22215
22215 22305
22305 22395
22395 22486
22486 22575
22575 22665
22665 22755
22755 22845
22845 22934
22934 23024
23024 23114
23114 23204
23204 23294
23294 23384
23384 23474
23474 23564
23564 23653
23653 23744
23744 23833
23833 23923
23923 24013
24013 24103
24103 24194
24194 24284
24284 24374
24374 24464
24464 24554
24554 24644
24644 24734
24734 24824
24824 24915
24915 25004
25004 25062
25062 25152
25152 25242
25242 25331
25331 25421
25421 25510
25510 25574
25574 25663
25663 25752
25752 25842
25842 25931
25931 26020
26020 26110
26110 26200
26200 26290
26290 26380
26380 26470
26470 26561
26561 26651
26651 26741
26741 26831
26831 26922
26922 27012
27012 27070
27070 27160
27160 27250
27250 27315
