4537 4651
4651 4720
4720 4789
4789 4857
4857 4925
4925 4994
4994 5062
5062 5130
5130 5198
5198 5266
5266 5335
5335 5404
5404 5473
5473 5541
5541 5610
5610 5678
5678 5747
5747 5815
5815 5884
5884 5952
5952 6021
6021 6090
6090 6159
6159 6227
6227 6295
6295 6363
6363 6432
6432 6500
6500 6569
6569 6637
6637 6705
6705 6772
6772 6840
6840 6909
6909 6978
6978 7046
7046 7114
7114 7182
7182 7250
7250 7319
7319 7388
7388 7456
7456 7525
7525 7592
7592 7661
7661 7729
7729 7797
7797 7865
7865 7933
7933 8001
8001 8069
8069 8137
8137 8205
8205 8274
8274 8342
8342 8410
8410 8478
8478 8546
8546 8614
8614 8682
8682 8751
8751 8820
8820 8888
8888 8956
8956 9024
9024 9093
9093 9161
9161 9230
9230 9298
9298 9366
9366 9434
9434 9502
9502 9570
9570 9639
9639 9707
9707 9775
9775 9843
9843 9911
9911 9979
9979 10048
10048 10116
10116 10185
10185 10253
10253 10321
10321 10390
10390 10459
10459 10527
10527 10596
10596 10663
10663 10731
10731 10800
10800 10868
10868 10937
10937 11005
11005 11073
11073 11141
11141 11209
11209 11278
11278 11346
11346 11414
11414 11482
11482 11549
11549 11618
11618 11686
11686 11754
11754 11822
11822 11890
11890 11958
11958 12026
12026 12095
12095 12163
12163 12232
12232 12300
12300 12368
12368 12437
12437 12505
12505 12574
12574 12643
12643 12711
12711 12779
12779 12847
12847 12916
12916 12984
12984 13053
13053 13122
13122 13189
13189 13258
13258 13327
13327 13395
13395 13464
13464 13532
13532 13600
13600 13668
13668 13736
13736 13804
13804 13872
13872 13940
13940 14007
14007 14075
14075 14143
14143 14211
14211 14279
14279 14347
14347 14415
14415 14483
14483 14551
14551 14620
14620 14689
14689 14757
14757 14825
14825 14893
14893 14961
14961 15029
15029 15097
15097 15165
15165 15232
15232 15300
15300 15367
15367 15435
15435 15504
15504 15572
15572 15640
15640 15707
15707 15775
15775 15843
15843 15911
15911 15979
15979 16048
16048 16116
16116 16183
16183 16251
16251 16320
16320 16389
16389 16457
16457 16525
16525 16593
16593 16661
16661 16730
16730 16798
16798 16866
16866 16935
16935 17003
17003 17071
17071 17140
17140 17209
17209 17278
17278 17346
17346 17415
17415 17482
17482 17551
17551 17620
17620 17688
17688 17757
17757 17825
17825 17892
17892 17961
17961 18029
18029 18098
18098 18167
18167 18236
18236 18306
18306 18375
18375 18444
18444 18513
18513 18583
18583 18652
18652 18721
18721 18790
18790 18859
18859 18927
18927 18996
18996 19066
19066 19135
19135 19203
19203 19272
19272 19340
19340 19409
19409 19477
19477 19546
19546 19615
19615 19684
19684 19752
19752 19821
19821 19890
19890 19959
19959 20027
20027 20096
20096 20164
20164 20233
20233 20302
20302 20371
20371 20440
20440 20509
20509 20577
20577 20645
20645 20713
20713 20781
20781 20849
20849 20917
20917 20986
20986 21054
21054 21121
21121 21190
21190 21258
21258 21327
21327 21395
21395 21463
21463 21531
21531 21599
21599 21667
21667 21736
21736 21804
21804 21872
21872 21939
21939 22007
22007 22074
22074 22142
22142 22210
22210 22278
22278 22346
22346 22414
22414 22482
22482 22550
22550 22618
22618 22687
22687 22755
22755 22823
22823 22892
22892 22960
22960 23029
23029 23098
23098 23166
23166 23235
23235 23302
23302 23370
23370 23439
23439 23508
23508 23576
23576 23645
23645 23713
23713 23781
23781 23850
23850 23918
23918 23987
23987 24055
24055 24123
24123 24191
24191 24260
24260 24328
24328 24397
24397 24465
24465 24533
24533 24601
24601 24669
24669 24738
24738 24806
24806 24874
24874 24943
24943 25010
25010 25079
25079 25147
25147 25215
25215 25284
25284 25352
25352 25420
25420 25487
25487 25556
25556 25625
25625 25693
25693 25762
25762 25830
25830 25898
25898 25966
25966 26035
26035 26104
26104 26173
26173 26242
26242 26311
26311 26379
26379 26448
26448 26516
26516 26585
26585 26654
26654 26723
26723 26791
26791 26860
26860 26930
26930 26999
26999 27067
27067 27136
27136 27204
27204 27272
27272 27341
27341 27409
27409 27478
27478 27546
27546 27613
27613 27682
27682 27750
27750 27819
27819 27887
27887 27956
27956 28024
28024 28122
28122 28190
29071 29143
30646 30714
30714 30757
41227 41296
41296 41339
42095 42164
42164 42276
