759 878
996 1084
1084 1201
1787 1907
1907 2026
2026 2073
2073 2191
2191 2310
2310 2429
2429 2549
2549 2668
2668 2788
2788 2907
2907 3027
3027 3148
3148 3268
3268 3390
3390 3512
3512 3633
3633 3756
3756 3878
3878 4000
4000 4062
4062 4180
4180 4298
4298 4415
4415 4534
4534 4652
4652 4772
4772 4890
4890 5008
5008 5077
5077 5196
5196 5314
5314 5433
