437 525
1138 1220
1937 2010
2010 2049
2929 3017
3017 3119
3203 3272
3272 3337
3337 3402
3556 3621
3855 3958
3958 4024
4024 4065
4899 4964
4964 5055
5055 5122
5122 5213
5213 5282
5282 5389
5389 5464
5464 5564
5564 5640
5640 5723
5723 5820
5820 5912
5912 5985
5985 6038
6038 6128
6128 6203
6203 6308
6308 6374
6374 6464
6464 6573
