66058 66166
66166 66276
66276 66387
66387 66496
66496 66605
66605 66715
66715 66824
66824 66933
66933 67042
67042 67151
67151 67261
67261 67371
67371 67478
67478 67589
67589 67698
67698 67806
67806 67915
67915 68025
68025 68135
68135 68245
68245 68354
68354 68464
68464 68574
68574 68683
68683 68793
68793 68903
68903 69013
69013 69125
69125 69233
69233 69343
69343 69453
69453 69563
69563 69672
69672 69784
69784 69892
69892 70005
70005 70113
70113 70223
70223 70332
70332 70443
70443 70553
70553 70662
70662 70773
70773 70883
70883 70994
70994 71102
71102 71212
71212 71322
71322 71432
71432 71542
71542 71652
71652 71762
71762 71872
71872 71982
71982 72091
72091 72203
72203 72311
72311 72420
72420 72532
