124 175
175 229
229 280
280 334
334 389
389 447
447 525
525 585
585 633
633 686
686 742
742 804
804 863
863 927
927 986
986 1078
1078 1142
1142 1194
1194 1244
1244 1302
1302 1348
1348 1416
1416 1466
1466 1523
1523 1581
1581 1636
1636 1683
1683 1732
1732 1787
1787 1836
1836 1887
1887 1964
