230 300
300 345
5849 5919
5919 5989
5989 6060
6060 6130
6130 6198
6338 6408
6408 6479
6479 6549
6549 6619
6619 6687
6687 6757
6757 6827
6827 6898
6898 6968
6968 7039
7039 7109
7109 7178
7178 7247
7247 7316
7316 7386
7386 7457
7457 7527
7527 7597
7597 7643
7643 7712
7712 7780
7780 7849
7849 7919
7919 7989
7989 8060
8060 8130
8130 8200
8200 8268
8268 8337
8337 8406
8406 8476
8476 8545
8545 8613
8613 8681
8681 8749
8749 8818
8818 8886
8886 8935
8935 9003
9003 9059
9059 9126
9126 9194
9194 9262
9262 9331
9331 9398
9398 9466
9466 9534
9534 9602
9602 9671
9671 9740
9740 9809
9809 9877
9877 9944
9944 10013
10013 10082
10082 10151
10151 10220
10220 10289
10289 10359
10359 10429
10429 10497
10497 10566
10566 10636
10636 10705
10705 10775
10775 10845
10845 10915
10915 10984
10984 11052
11052 11122
11122 11192
11192 11262
11262 11332
11332 11402
11402 11472
11472 11541
11541 11610
11610 11679
11679 11748
11748 11818
11818 11888
11888 11959
11959 12029
12029 12098
12098 12167
12167 12237
12237 12307
12307 12378
12378 12448
12448 12519
12519 12589
12589 12657
12657 12727
12727 12796
12796 12866
12866 12937
12937 13007
13007 13077
13077 13146
13146 13216
13216 13286
13286 13356
13356 13426
13426 13496
13496 13566
13566 13635
13635 13703
13703 13773
13773 13843
13843 13912
13912 13982
13982 14053
14053 14122
14122 14190
14190 14260
14260 14330
14330 14400
14400 14470
14470 14541
14541 14610
14610 14678
14678 14748
14748 14817
14817 14887
14887 14957
14957 15028
15028 15099
15099 15168
15168 15237
15237 15307
15307 15377
15377 15447
15447 15517
15517 15588
15588 15657
15657 15725
15725 15795
15795 15865
15865 15935
15935 16005
16005 16076
16076 16146
16146 16214
16214 16284
16284 16354
16354 16424
16424 16495
16495 16565
16565 16636
16636 16705
16705 16775
16775 16845
16845 16915
16915 16985
16985 17054
17054 17124
17124 17193
17193 17261
17261 17330
17330 17399
17399 17468
17468 17537
17537 17607
17607 17676
17676 17743
17743 17806
17806 17881
17881 17952
17952 18022
18022 18093
18093 18163
18163 18231
18231 18301
18301 18372
18372 18442
18442 18512
18512 18583
18583 18653
18653 18722
18722 18792
18792 18862
18862 18932
18932 19002
19002 19071
19071 19142
19142 19211
19211 19279
19279 19349
19349 19418
19418 19488
19488 19558
19558 19628
19628 19698
19698 19768
19768 19836
19836 19906
19906 19976
19976 20046
20046 20117
20117 20187
20187 20258
20258 20328
20328 20396
20396 20466
20466 20536
20536 20605
20605 20675
20675 20746
20746 20815
20815 20883
20883 20953
20953 21023
21023 21093
21093 21163
21163 21233
21233 21304
21304 21374
21374 21442
21442 21487
21487 21557
21557 21627
21627 21697
21697 21766
21766 21834
21834 21903
21903 21972
21972 22041
22041 22111
22111 22222
22222 22291
22291 22360
22360 22429
22429 22499
22499 22569
22569 22638
22638 22705
22705 22775
22775 22845
22845 22915
22915 22985
22985 23055
23055 23126
23126 23196
23196 23265
23265 23335
23335 23405
23405 23476
23476 23547
23547 23617
23617 23688
23688 23758
23758 23826
23826 23896
23896 23966
23966 24036
24036 24106
24106 24177
24177 24247
24247 24316
24316 24386
24386 24455
24455 24525
24525 24595
24595 24666
24666 24737
24737 24806
24806 24875
24875 24945
24945 25015
25015 25086
25086 25156
25156 25227
25227 25299
25299 25368
25368 25437
25437 25507
25507 25577
25577 25648
25648 25718
25718 25789
25789 25860
25860 25931
25931 26000
26000 26070
26070 26140
26140 26210
26210 26280
26280 26350
26350 26419
26419 26487
26487 26556
26556 26625
26625 26695
26695 26765
26765 26835
26835 26904
26904 26973
26973 27043
27043 27113
27113 27184
27184 27254
27254 27325
27325 27395
27395 27464
27464 27509
27509 27580
27580 27650
27650 27721
27721 27791
27791 27862
27862 27932
27932 28000
28000 28070
28070 28140
28140 28211
28211 28281
28281 28352
28352 28422
28422 28491
28491 28561
28561 28631
28631 28701
28701 28772
28772 28842
28842 28913
28913 28982
28982 29050
29050 29120
29120 29190
29190 29260
29260 29330
29330 29400
29400 29471
29471 29541
29541 29609
29609 29679
29679 29749
29749 29820
29820 29890
29890 29961
29961 30030
30030 30121
30121 30188
30188 30256
30256 30324
30324 30392
30392 30460
30460 30529
30529 30596
30596 30665
30665 30733
30733 30802
30802 30871
30871 30941
30941 31009
31009 31077
31077 31146
31146 31215
31215 31284
31284 31354
31354 31424
31424 31493
31493 31561
31561 31630
31630 31700
31700 31769
31769 31839
31839 31910
31910 31981
31981 32050
32050 32118
32118 32163
32163 32233
32233 32303
32303 32373
32373 32444
32444 32513
32513 32581
32581 32651
32651 32721
32721 32791
32791 32861
32861 32931
32931 33000
33000 33069
33069 33138
33138 33208
33208 33278
33278 33347
33347 33417
33417 33486
33486 33554
33554 33624
33624 33693
33693 33763
33763 33833
33833 33904
33904 33973
33973 34042
34042 34112
34112 34182
34182 34252
34252 34323
34323 34393
34393 34438
34438 34507
34507 34552
34552 34622
34622 34691
34691 34762
34762 34832
34832 34903
34903 34972
34972 35040
35040 35110
35110 35180
35180 35250
35250 35321
35321 35391
35391 35461
35461 35530
35530 35600
35600 35670
35670 35740
35740 35810
35810 35879
35879 35946
35946 36015
36015 36084
36084 36153
36153 36222
36222 36290
36290 36358
36358 36426
36426 36494
36494 36563
36563 36632
36632 36701
36701 36770
36770 36839
36839 36907
36907 36976
36976 37046
37046 37115
37115 37186
37186 37256
37256 37326
37326 37394
37394 37464
37464 37534
37534 37604
37604 37675
37675 37746
37746 37816
37816 37885
37885 37955
37955 38025
38025 38096
38096 38167
38167 38238
38238 38309
38309 38380
38380 38450
38450 38520
38520 38590
38590 38660
38660 38729
38729 38799
38799 38844
38844 38913
38913 38981
38981 39050
39050 39119
39119 39188
39188 39258
39258 39328
39328 39398
39398 39466
39466 39536
39536 39606
39606 39675
39675 39745
39745 39815
39815 39885
39885 39954
39954 40022
40022 40091
40091 40161
40161 40231
40231 40301
40301 40371
40371 40441
40441 40510
40510 40579
40579 40649
40649 40693
40693 40763
40763 40833
40833 40903
40903 40972
40972 41040
41040 41109
41109 41178
41178 41247
41247 41317
41317 41386
41386 41456
41456 41501
41501 41569
41569 41637
41637 41706
41706 41776
41776 41845
41845 41916
41916 41986
41986 42055
42055 42124
42124 42193
42193 42263
42263 42333
42333 42404
42404 42475
42475 42544
42544 42614
42614 42684
42684 42755
42755 42825
42825 42896
42896 42967
42967 43037
43037 43080
43080 43150
43150 43220
43220 43291
43291 43379
43379 43433
43433 43505
43505 43575
43575 43645
43645 43715
43715 43785
43785 43855
43855 43926
43926 43996
43996 44065
44065 44134
44134 44204
44204 44274
44274 44345
44345 44416
44416 44487
44487 44557
44557 44626
44626 44697
44697 44767
44767 44838
44838 44910
44910 44981
44981 45052
45052 45121
45121 45191
45191 45263
45263 45334
45334 45406
45406 45478
45478 45549
45549 45620
45620 45690
45690 45761
45761 45832
45832 45903
45903 45975
45975 46046
46046 46116
46116 46185
46185 46255
46255 46325
46325 46395
46395 46465
46465 46535
46535 46605
46605 46674
46674 46743
46743 46813
46813 46883
46883 46952
46952 47022
47022 47092
47092 47160
47160 47229
47229 47299
47299 47369
47369 47439
47439 47511
47511 47581
47581 47651
47651 47721
47721 47791
47791 47863
47863 47934
47934 48006
48006 48078
48078 48148
48148 48218
48218 48288
48288 48359
48359 48430
48430 48501
48501 48573
48573 48643
48643 48711
48711 48782
48782 48852
48852 48922
48922 48992
48992 49063
49063 49132
49132 49201
49201 49270
49270 49340
49340 49410
49410 49480
49480 49550
49550 49620
49620 49690
49690 49758
49758 49827
49827 49897
49897 49966
49966 50036
50036 50106
50106 50218
50218 50287
50287 50357
50357 50427
50427 50497
50497 50567
50567 50636
50636 50704
50704 50773
50773 50843
50843 50912
50912 50982
50982 51052
51052 51121
51121 51189
51189 51259
51259 51329
51329 51399
51399 51469
51469 51539
51539 51652
51652 51721
51721 51790
51790 51860
51860 51929
51929 51998
51998 52059
52059 52126
52126 52194
52194 52262
52262 52331
52331 52399
52399 52469
52469 52538
52538 52605
52605 52674
52674 52743
52743 52813
52813 52882
52882 52953
52953 53023
53023 53092
53092 53161
53161 53231
53231 53301
53301 53372
53372 53443
53443 53514
53514 53584
53584 53653
53653 53724
53724 53795
53795 53866
53866 53937
53937 54009
54009 54081
54081 54126
54126 54196
54196 54267
54267 54338
54338 54410
54410 54482
54482 54554
54554 54626
54626 54697
54697 54767
54767 54838
54838 54910
54910 54981
54981 55053
55053 55125
55125 55197
55197 55267
55267 55338
55338 55409
55409 55481
55481 55552
55552 55624
55624 55696
55696 55767
55767 55837
55837 55907
55907 55979
55979 56050
56050 56121
56121 56192
56192 56262
56262 56331
56331 56401
56401 56471
56471 56541
56541 56611
56611 56681
56681 56727
56727 56796
56796 56865
56865 56935
56935 57005
57005 57075
57075 57145
57145 57216
57216 57287
57287 57357
57357 57425
57425 57470
57470 57540
57540 57610
57610 57680
57680 57750
57750 57820
57820 57890
57890 57960
57960 58029
58029 58099
58099 58169
58169 58239
58239 58310
58310 58380
58380 58449
58449 58518
58518 58588
58588 58658
58658 58728
58728 58798
58798 58868
58868 58913
58913 58981
58981 59051
59051 59120
59120 59191
59191 59262
59262 59332
59332 59402
59402 59471
59471 59541
59541 59612
59612 59683
59683 59754
59754 59825
59825 59872
59872 59941
59941 60011
60011 60082
60082 60153
60153 60224
60224 60295
60295 60366
60366 60437
60437 60508
60508 60577
60577 60647
60647 60718
60718 60788
60788 60858
60858 60929
60929 60998
60998 61067
61067 61137
61137 61207
61207 61278
61278 61349
61349 61421
61421 61492
61492 61561
61561 61632
61632 61703
61703 61774
61774 61845
61845 61917
61917 61988
61988 62059
62059 62128
62128 62199
62199 62270
62270 62341
62341 62412
62412 62484
62484 62556
62556 62626
62626 62695
62695 62766
62766 62837
62837 62908
62908 62979
62979 63050
63050 63121
63121 63190
63190 63261
63261 63331
63331 63402
63402 63473
63473 63544
63544 63615
63615 63686
63686 63754
63754 63800
63800 63871
63871 63942
63942 64013
64013 64084
64084 64155
64155 64224
64224 64293
64293 64344
64344 64429
64429 64504
64504 64577
64577 64649
64649 64720
64720 64790
64790 64859
64859 64929
64929 65000
65000 65070
65070 65140
65140 65211
65211 65280
65280 65348
65348 65418
65418 65489
65489 65559
65559 65630
65630 65701
65701 65772
65772 65841
65841 65911
65911 65981
65981 66051
66051 66122
66122 66193
66193 66264
66264 66334
66334 66403
66403 66474
66474 66545
66545 66616
66616 66687
66687 66759
66759 66830
66830 66899
66899 66970
66970 67041
67041 67112
67112 67182
67182 67253
67253 67324
67324 67394
67394 67463
67463 67533
67533 67603
67603 67673
67673 67743
67743 67813
67813 67882
67882 67951
67951 68047
