263 333
333 378
1651 1720
1720 1790
1790 1861
1861 1931
1931 2003
2003 2074
2074 2146
2146 2216
2356 2427
2427 2498
2498 2570
2570 2642
2642 2713
2713 2783
2783 2854
2854 2925
2925 2996
2996 3068
3068 3139
3139 3199
3199 3278
3278 3349
3349 3420
3420 3492
3492 3564
3564 3635
3635 3705
3705 3776
3776 3846
3846 3917
3917 3989
3989 4061
4061 4133
4133 4203
4203 4274
4274 4345
4345 4417
4417 4489
4489 4563
4563 4634
4634 4704
4704 4775
4775 4846
4846 4917
4917 4989
4989 5061
5061 5131
5131 5200
5200 5270
5270 5341
5341 5412
5412 5484
5484 5556
5556 5626
5626 5697
5697 5767
5767 5839
5839 5910
5910 5982
5982 6045
6045 6117
6117 6189
6189 6309
6309 6382
6382 6455
6455 6527
6527 6597
6597 6668
6668 6740
6740 6811
6811 6883
6883 6955
6955 7024
7024 7095
7095 7166
7166 7238
7238 7309
7309 7382
7382 7452
7452 7523
7523 7594
7594 7665
7665 7738
7738 7810
7810 7880
7880 7951
7951 8022
8022 8093
8093 8164
8164 8236
8236 8306
8306 8376
8376 8446
8446 8517
8517 8589
8589 8661
8661 8733
8733 8804
8804 8875
8875 8946
8946 9017
9017 9089
9089 9162
9162 9235
9235 9307
9307 9379
9379 9449
9449 9520
9520 9591
9591 9662
9662 9735
9735 9808
9808 9880
9880 9950
9950 10021
10021 10092
10092 10163
10163 10235
10235 10308
10308 10379
10379 10449
10449 10520
10520 10591
10591 10663
10663 10735
10735 10808
10808 10880
10880 10950
10950 10996
10996 11067
11067 11139
11139 11211
11211 11283
11283 11354
11354 11424
11424 11495
11495 11567
11567 11639
11639 11712
11712 11784
11784 11854
11854 11925
11925 11996
11996 12067
12067 12139
12139 12212
12212 12283
12283 12353
12353 12424
12424 12495
12495 12567
12567 12639
12639 12712
12712 12783
12783 12854
12854 12925
12925 12997
12997 13103
13103 13176
13176 13247
13247 13319
13319 13391
13391 13463
13463 13537
13537 13611
13611 13684
13684 13755
13755 13827
13827 13899
13899 13971
13971 14044
14044 14118
14118 14190
14190 14260
14260 14332
14332 14404
14404 14476
14476 14549
14549 14622
14622 14693
14693 14763
14763 14834
14834 14906
14906 14978
14978 15051
15051 15123
15123 15195
15195 15265
15265 15336
15336 15407
15407 15478
15478 15550
15550 15623
15623 15694
15694 15764
15764 15835
15835 15906
15906 15978
15978 16050
16050 16122
16122 16192
16192 16263
16263 16334
16334 16406
16406 16478
16478 16550
16550 16621
16621 16691
16691 16762
16762 16834
16834 16906
16906 16979
16979 17098
17098 17169
17169 17241
17241 17313
17313 17386
17386 17458
17458 17532
17532 17604
17604 17675
17675 17747
17747 17819
17819 17892
17892 17965
17965 18037
18037 18108
18108 18180
18180 18253
18253 18326
18326 18399
18399 18472
18472 18545
18545 18615
18615 18687
18687 18759
18759 18832
18832 18906
18906 18978
18978 19049
19049 19121
19121 19192
19192 19265
19265 19337
19337 19410
19410 19482
19482 19552
19552 19623
19623 19695
19695 19767
19767 19840
19840 19914
19914 19986
19986 20057
20057 20129
20129 20201
20201 20274
20274 20348
20348 20422
20422 20496
20496 20543
20543 20614
20614 20686
20686 20758
20758 20831
20831 20904
20904 20975
20975 21045
21045 21116
21116 21188
21188 21260
21260 21333
21333 21405
21405 21476
21476 21547
21547 21619
21619 21690
21690 21762
21762 21835
21835 21905
21905 21975
21975 22046
22046 22118
22118 22190
22190 22263
22263 22334
22334 22404
22404 22476
22476 22547
22547 22620
22620 22693
22693 22766
22766 22839
22839 22910
22910 22981
22981 23054
23054 23127
23127 23202
23202 23276
23276 23351
23351 23424
23424 23495
23495 23567
23567 23640
23640 23714
23714 23789
23789 23863
23863 23936
23936 24008
24008 24080
24080 24153
24153 24226
24226 24300
24300 24374
24374 24448
24448 24495
24495 24567
24567 24639
24639 24713
24713 24786
24786 24860
24860 24933
24933 25005
25005 25078
25078 25152
25152 25227
25227 25302
25302 25377
25377 25452
25452 25524
25524 25597
25597 25669
25669 25743
25743 25816
25816 25891
25891 25964
25964 26036
26036 26108
26108 26180
26180 26253
26253 26327
26327 26402
26402 26475
26475 26522
26522 26594
26594 26666
26666 26740
26740 26814
26814 26888
26888 26961
26961 27033
27033 27105
27105 27177
27177 27250
27250 27324
27324 27398
27398 27471
27471 27543
27543 27615
27615 27687
27687 27761
27761 27835
27835 27909
27909 27981
27981 28053
28053 28126
28126 28198
28198 28271
28271 28344
28344 28416
28416 28487
28487 28558
28558 28629
28629 28702
28702 28775
28775 28848
28848 28921
28921 28992
28992 29063
29063 29135
29135 29207
29207 29280
29280 29353
29353 29424
29424 29495
29495 29566
29566 29638
29638 29711
29711 29784
29784 29856
29856 29927
29927 29998
29998 30070
30070 30142
30142 30215
30215 30287
30287 30357
30357 30429
30429 30501
30501 30574
30574 30646
30646 30719
30719 30791
30791 30861
30861 30933
30933 31005
31005 31077
31077 31150
31150 31223
31223 31294
31294 31365
31365 31437
31437 31510
31510 31584
31584 31658
31658 31731
31731 31803
31803 31875
31875 31947
31947 32054
32054 32130
32130 32204
32204 32275
32275 32348
32348 32421
32421 32494
32494 32568
32568 32641
32641 32712
32712 32784
32784 32856
32856 32930
32930 33003
33003 33077
33077 33149
33149 33220
33220 33292
33292 33364
33364 33436
33436 33509
33509 33583
33583 33655
33655 33726
33726 33797
33797 33868
33868 33941
33941 34014
34014 34087
34087 34159
34159 34229
34229 34301
34301 34373
34373 34446
34446 34519
34519 34593
34593 34666
34666 34738
34738 34810
34810 34883
34883 34956
34956 35030
35030 35134
35134 35207
35207 35280
35280 35355
35355 35429
35429 35504
35504 35577
35577 35649
35649 35722
35722 35795
35795 35869
35869 35943
35943 36018
36018 36098
36098 36170
36170 36244
36244 36318
36318 36392
36392 36463
36463 36534
36534 36581
36581 36654
36654 36726
36726 36799
36799 36872
36872 36944
36944 37032
37032 37103
37103 37172
37172 37242
37242 37312
37312 37383
37383 37455
37455 37526
37526 37596
37596 37667
37667 37738
37738 37811
37811 37883
37883 37957
37957 38029
38029 38065
38065 38138
38138 38211
38211 38284
38284 38357
38357 38427
38427 38499
38499 38571
38571 38645
38645 38718
38718 38793
38793 38865
38865 38936
38936 39008
39008 39100
39100 39173
39173 39247
39247 39321
39321 39395
39395 39468
39468 39540
39540 39612
39612 39685
39685 39759
39759 39834
39834 39909
39909 39982
39982 40056
40056 40128
40128 40201
40201 40274
40274 40347
40347 40420
40420 40494
40494 40566
40566 40637
40637 40709
40709 40781
40781 40855
40855 40928
40928 41002
