11 59
59 132
132 206
206 280
280 355
355 430
430 503
503 576
576 650
650 725
725 799
799 875
875 951
951 1026
1026 1100
1100 1173
1173 1247
1247 1320
1320 1394
1394 1467
1467 1541
1541 1615
1760 1833
1833 1906
1906 1980
1980 2075
2075 2149
2149 2223
2223 2298
2298 2372
2372 2447
2447 2522
2522 2582
2582 2667
2667 2742
2742 2817
2817 2892
2892 2968
2968 3049
3049 3124
3124 3199
3199 3272
3272 3345
3345 3418
3418 3491
3491 3565
3565 3640
3640 3715
3715 3790
3790 3864
3864 3937
3937 4010
4010 4084
4084 4159
4159 4234
4234 4310
4310 4386
4386 4461
4461 4536
4536 4610
4610 4684
4684 4758
4758 4833
4833 4908
4908 4983
4983 5057
5057 5131
5131 5204
5204 5278
5278 5354
5354 5429
5429 5505
5505 5581
5581 5655
5655 5729
5729 5803
5803 5876
5876 5951
5951 6025
6025 6100
6100 6150
6150 6225
6225 6299
6299 6372
6372 6445
6445 6519
6519 6592
6592 6667
6667 6741
6741 6816
6816 6890
6890 6963
6963 7036
7036 7110
7110 7183
7183 7258
7258 7332
7332 7406
7406 7479
7479 7552
7552 7625
7625 7699
7699 7773
7773 7848
7848 7922
7922 7997
7997 8070
8070 8144
8144 8218
8218 8292
8292 8368
8368 8444
8444 8520
8520 8596
8596 8672
8672 8746
8746 8820
8820 8895
8895 8970
8970 9045
9045 9120
9120 9196
9196 9270
9270 9343
9343 9417
9417 9490
9490 9564
9564 9638
9638 9760
9760 9833
9833 9906
9906 9979
9979 10053
10053 10127
10127 10201
10201 10276
10276 10350
10350 10423
10423 10496
10496 10570
10570 10646
10646 10721
10721 10797
10797 10873
10873 10947
10947 11051
11051 11124
11124 11197
11197 11272
11272 11346
11346 11421
11421 11497
11497 11572
11572 11647
11647 11721
11721 11770
11770 11845
11845 11921
11921 11996
11996 12072
12072 12148
12148 12223
12223 12296
12296 12370
12370 12445
12445 12519
12519 12594
12594 12669
12669 12744
12744 12818
12818 12891
12891 12964
12964 13037
13037 13110
13110 13183
13183 13256
13256 13329
13329 13401
13401 13474
13474 13546
13546 13618
13618 13691
13691 13764
13764 13838
13838 13911
13911 13983
13983 14055
14055 14128
14128 14202
14202 14277
14277 14352
14352 14425
14425 14498
14498 14572
14572 14646
14646 14720
14720 14794
14794 14869
14869 14942
14942 15015
15015 15088
15088 15161
15161 15235
15235 15309
15309 15383
15383 15458
15458 15532
15532 15605
15605 15679
15679 15752
15752 15826
15826 15900
15900 15975
15975 16050
16050 16124
16124 16198
16198 16271
16271 16345
16345 16420
16420 16495
16495 16569
16569 16644
16644 16717
16717 16789
16789 16862
16862 16936
16936 17010
17010 17119
17119 17193
17193 17267
17267 17340
17340 17414
17414 17487
17487 17561
17561 17636
17636 17711
17711 17786
17786 17861
17861 17934
17934 18007
18007 18081
18081 18155
18155 18229
18229 18303
18303 18378
18378 18451
18451 18523
18523 18596
18596 18669
18669 18743
18743 18817
18817 18890
18890 18964
18964 19037
19037 19110
19110 19182
19182 19256
19256 19330
19330 19405
19405 19481
19481 19555
19555 19629
19629 19702
19702 19776
19776 19851
19851 19927
19927 20002
20002 20077
20077 20152
20152 20225
20225 20299
20299 20373
20373 20448
20448 20522
20522 20596
20596 20670
20670 20743
20743 20816
20816 20889
20889 20963
20963 21038
21038 21113
21113 21187
21187 21261
21261 21335
21335 21409
21409 21483
21483 21557
21557 21632
21632 21706
21706 21780
21780 21853
21853 21925
21925 21997
21997 22070
22070 22144
22144 22218
22218 22292
22292 22366
22366 22440
22440 22515
22515 22588
22588 22660
22660 22733
22733 22806
22806 22879
22879 22953
22953 23026
23026 23099
23099 23172
23172 23245
23245 23319
23319 23393
23393 23468
23468 23543
23543 23618
23618 23692
23692 23766
23766 23840
23840 23914
23914 23988
23988 24063
24063 24138
24138 24213
24213 24286
24286 24360
24360 24434
24434 24508
24508 24583
24583 24658
24658 24733
24733 24806
24806 24880
24880 24953
24953 25028
25028 25103
25103 25178
25178 25253
25253 25326
25326 25399
25399 25473
25473 25547
25547 25621
25621 25695
25695 25769
25769 25843
25843 25916
25916 25988
25988 26061
26061 26135
26135 26210
26210 26285
26285 26359
26359 26432
26432 26505
26505 26578
26578 26652
26652 26726
26726 26800
26800 26875
26875 26948
26948 27021
27021 27129
27129 27202
27202 27274
27274 27348
27348 27422
27422 27497
27497 27571
27571 27645
27645 27718
27718 27791
27791 27864
27864 27939
27939 28013
28013 28088
28088 28137
28137 28210
28210 28284
28284 28358
28358 28433
28433 28508
28508 28583
28583 28658
28658 28732
28732 28805
28805 28878
28878 28952
28952 29026
29026 29101
29101 29175
29175 29249
29249 29323
29323 29396
29396 29468
29468 29542
29542 29616
29616 29691
29691 29765
29765 29839
29839 29912
29912 29985
29985 30058
30058 30132
30132 30207
30207 30281
30281 30354
30354 30415
30415 30499
30499 30574
30574 30649
30649 30724
30724 30799
30799 30875
30875 30949
30949 31022
31022 31076
31076 31150
31150 31224
31224 31298
31298 31372
31372 31444
31444 31517
31517 31591
31591 31665
31665 31741
31741 31817
31817 31891
31891 31965
31965 32038
32038 32112
32112 32187
32187 32261
32261 32335
32335 32410
32410 32484
32484 32557
32557 32630
32630 32704
32704 32779
32779 32854
32854 32929
32929 33003
33003 33091
33091 33166
33166 33239
33239 33313
33313 33388
33388 33463
33463 33538
33538 33613
33613 33687
33687 33761
33761 33834
33834 33908
33908 33982
33982 34057
34057 34132
34132 34207
34207 34282
34282 34342
34342 34427
34427 34501
34501 34576
34576 34650
34650 34725
34725 34800
34800 34874
34874 34936
34936 35019
35019 35062
35062 35135
35135 35209
35209 35284
35284 35358
35358 35432
35432 35506
35506 35578
35578 35651
35651 35724
35724 35798
35798 35872
35872 35945
35945 36019
36019 36092
36092 36165
36165 36237
36237 36310
36310 36383
36383 36458
36458 36532
36532 36607
36607 36680
36680 36753
36753 36826
36826 36899
36899 36972
36972 37046
37046 37118
37118 37190
37190 37263
37263 37335
37335 37408
37408 37482
37482 37556
37556 37629
37629 37701
37701 37773
37773 37846
37846 37920
37920 37994
37994 38069
38069 38145
38145 38219
38219 38293
38293 38366
38366 38440
38440 38514
38514 38589
38589 38664
38664 38739
38739 38812
38812 38885
38885 38959
38959 39032
39032 39107
39107 39182
39182 39258
39258 39332
39332 39405
39405 39479
39479 39552
39552 39626
39626 39701
39701 39775
39775 39850
39850 39923
39923 39996
39996 40095
40095 40167
40167 40240
40240 40313
40313 40387
40387 40461
40461 40536
40536 40610
40610 40684
40684 40757
40757 40831
40831 40905
40905 40980
40980 41055
41055 41131
41131 41205
41205 41279
41279 41352
41352 41425
41425 41500
41500 41575
41575 41650
41650 41725
41725 41799
41799 41872
41872 41945
41945 42019
42019 42093
42093 42167
42167 42242
42242 42316
42316 42389
42389 42461
42461 42534
42534 42608
42608 42682
42682 42757
42757 42830
42830 42902
42902 42975
42975 43055
43055 43130
43130 43204
43204 43279
43279 43352
43352 43425
43425 43497
43497 43570
43570 43644
43644 43718
43718 43792
43792 43867
43867 43941
43941 44013
44013 44085
44085 44158
44158 44232
44232 44306
44306 44381
44381 44455
44455 44529
44529 44601
44601 44674
44674 44747
44747 44820
44820 44893
44893 44967
44967 45078
45078 45150
45150 45223
45223 45296
45296 45369
45369 45442
45442 45513
45513 45585
45585 45657
45657 45730
45730 45803
45803 45877
45877 45950
45950 46023
46023 46096
46096 46169
46169 46244
46244 46318
46318 46393
46393 46468
46468 46542
46542 46615
46615 46689
46689 46763
46763 46838
46838 46912
46912 46986
46986 47059
47059 47131
47131 47204
47204 47277
47277 47351
47351 47425
47425 47498
47498 47570
47570 47642
47642 47714
47714 47789
47789 47862
47862 47935
47935 48007
48007 48066
48066 48137
48137 48208
48208 48280
48280 48351
48351 48421
48421 48492
48492 48563
48563 48634
48634 48705
48705 48776
48776 48846
48846 48916
48916 48986
48986 49057
