1 56
2975 3098
3868 3954
3954 4039
4039 4097
8090 8169
9429 9508
9508 9588
9588 9667
9667 9746
9746 9824
9824 9902
9902 9984
9984 10105
10105 10192
10192 10277
10277 10362
10362 10445
10445 10526
10526 10608
10608 10691
10691 10773
10773 10853
10853 10932
10932 11012
11012 11092
11092 11157
11157 11238
11238 11320
11320 11399
11399 11478
11478 11556
11556 11633
11633 11711
11711 11787
11787 11844
11844 11930
11930 12006
12006 12080
12080 12153
12153 12225
12225 12298
12298 12369
12369 12440
12440 12511
12511 12582
12582 12653
12653 12724
12724 12795
12795 12866
12866 12937
12937 13009
13009 13101
13101 13176
13176 13251
13251 13327
13327 13401
13401 13475
13475 13549
13549 13624
13624 13699
13699 13774
13774 13850
13850 13927
13927 14006
14006 14066
14066 14149
14149 14231
14231 14311
14311 14391
14391 14471
14471 14549
14549 14628
14628 14705
14705 14781
14781 14856
14856 14931
14931 15006
15006 15064
15064 15154
15154 15234
15234 15313
15313 15392
15392 15472
15472 15553
15553 15636
15636 15720
15720 15803
15803 15887
15887 15973
15973 16077
16077 16155
16155 16233
16233 16311
16311 16389
16389 16469
16469 16549
16549 16631
16631 16715
16715 16800
16800 16885
16885 16973
16973 17034
17034 17108
17108 17182
17182 17257
17257 17332
17332 17407
17407 17481
17481 17555
17555 17629
17629 17703
17703 17779
17779 17854
17854 17913
17913 18001
18001 18080
18080 18159
18159 18237
18237 18316
18316 18395
18395 18471
18471 18546
18546 18622
18622 18697
18697 18774
18774 18851
18851 18928
18928 19005
19005 19095
19095 19176
19176 19258
19258 19338
19338 19417
19417 19563
19563 19642
19642 19720
19720 19797
19797 19926
19926 20004
