291 604
604 811
811 1064
1064 1169
1169 1272
1272 1377
1377 1480
1480 1585
1585 1889
1889 1993
1993 2200
2200 2412
2412 2519
2519 2625
2625 2731
2731 2837
2837 3011
3011 3213
3213 3317
3317 3423
3423 3529
3529 3634
3634 3951
3951 4163
4163 4269
4269 4376
4376 4696
4696 5655
5655 5864
5864 6714
6714 7865
7865 8392
8392 9335
9335 9440
9440 9545
9545 9650
9650 10069
10069 10491
10491 11549
11549 12509
12509 13002
13002 13425
13425 13532
13532 15572
15572 16001
16001 16596
16596 17562
17562 18212
18212 21973
21973 25995
25995 27170
27170 39804
39804 40238
40238 40343
40343 40453
40453 40561
40561 40991
40991 41312
41312 42057
42057 42483
42483 42590
42590 42696
42696 42802
42802 42909
42909 43015
43015 43123
43123 43228
43228 43335
43335 43441
43441 43548
43548 43654
43654 43760
43760 44398
44398 44611
44611 44718
44718 44825
44825 47948
47948 49348
49348 49953
49953 50283
50283 50389
50389 52011
52011 52093
52093 54473
54473 55236
55236 55672
55672 55890
