16524 16626
16626 16727
18928 19126
19126 19229
19506 19585
20824 20883
20996 21040
20996 21040
23815 23916
23916 24016
24016 24056
25378 25475
25475 25520
25520 25579
25579 25682
25682 25777
25777 25871
25871 25966
25966 26080
26080 26148
26148 26243
26243 26309
26309 26397
26397 26483
26483 26567
26567 26651
26651 26736
26736 26820
26820 26904
26904 26989
26989 27075
27075 27160
27160 27247
27247 27335
27335 27422
27422 27508
27508 27593
27593 27676
27676 27758
27758 27839
27839 27921
27921 28001
28001 28082
28082 28163
28163 28246
28246 28330
28330 28413
28413 28497
28497 28583
28583 28644
28644 28729
28729 28815
28815 28902
28902 28987
28987 29074
29074 29163
29163 29250
29250 29311
29311 29397
29397 29487
29487 29578
29578 29669
29669 29760
29760 29847
29847 29931
29931 30013
30013 30095
30095 30175
30175 30254
30254 30317
30317 30388
30388 30471
30471 30553
30553 30636
30636 30720
30720 30808
30808 30896
30896 30985
30985 31059
31059 31162
31162 31269
31269 31372
31372 31430
31430 31537
31537 31635
31635 31735
31735 31833
31833 31926
31926 32021
32021 32084
32084 32173
32173 32264
32264 32358
32358 32449
32449 32541
32541 32634
32634 32727
32727 32820
32820 32913
32913 33010
33010 33059
33059 33163
33163 33263
33263 33366
33366 33472
33472 33577
33577 33678
33678 33778
33778 33880
33880 33983
33983 34032
34032 34118
34118 34214
34214 34312
34312 34411
34411 34508
34508 34604
34604 34703
34703 34804
34804 34904
34904 35004
35004 35050
35050 35149
35149 35245
35245 35345
35345 35445
35445 35546
35546 35645
35645 35742
35742 35810
35810 35924
