3970 4090
8921 9034
12928 13011
13011 13050
13979 14101
14965 15078
15926 16002
16465 16542
16542 16618
16618 16694
16694 16770
16770 16848
16848 16925
16925 17002
17002 17087
17087 17165
17165 17243
17243 17321
17321 17399
17399 17477
17477 17553
17553 17631
17631 17707
17707 17782
17782 17858
17858 17933
17933 18010
18010 18059
18059 18136
18136 18214
18214 18293
18293 18373
18373 18453
18453 18534
18534 18614
18614 18694
18694 18774
18774 18854
18854 18933
18933 19012
19012 19090
19090 19169
19169 19247
19247 19324
19324 19400
19400 19477
19477 19555
19555 19633
19633 19710
19710 19788
19788 19867
19867 19946
19946 20024
20024 20103
20103 20182
20182 20260
20260 20338
20338 20417
20417 20494
20494 20572
20572 20648
20648 20724
20724 20800
20800 20876
20876 20953
20953 21030
21030 21109
21109 21189
21189 21268
21268 21348
21348 21429
21429 21510
21510 21591
21591 21673
21673 21754
21754 21835
21835 21915
21915 21995
21995 22075
22075 22154
22154 22234
22234 22315
22315 22395
22395 22475
22475 22556
22556 22637
22637 22716
22716 22795
22795 22874
22874 22951
22951 23029
23029 23107
23107 23185
23185 23263
23263 23342
23342 23421
23421 23502
23502 23582
23582 23663
23663 23745
23745 23826
23826 23891
23891 23984
23984 24055
24055 24137
24137 24217
24217 24297
24297 24377
24377 24457
24457 24522
24522 24615
24615 24686
24686 24766
24766 24847
24847 24928
24928 25009
25009 25083
25083 25168
25168 25252
25252 25335
25335 25417
25417 25497
25497 25576
25576 25654
25654 25732
25732 25809
25809 25886
25886 25964
25964 26048
26048 26130
26130 26213
26213 26297
26297 26380
26380 26463
26463 26547
26547 26640
26640 26713
26713 26795
26795 26879
26879 26961
26961 27037
27037 27130
27130 27200
27200 27280
27280 27362
27362 27445
27445 27527
27527 27610
27610 27697
27697 27784
27784 27870
27870 27958
27958 28038
28038 28121
28121 28203
28203 28285
28285 28368
28368 28451
28451 28534
28534 28616
28616 28698
28698 28781
28781 28862
28862 28928
28928 29043
29043 29130
29130 29218
29218 29306
29306 29394
29394 29480
29480 29567
29567 29655
29655 29741
29741 29827
29827 29914
29914 30004
30004 30064
30064 30148
30148 30231
30231 30326
30326 30400
30400 30486
30486 30572
30572 30672
30672 30747
30747 30834
30834 30920
30920 31008
31008 31096
31096 31181
31181 31266
31266 31351
31351 31435
31435 31520
31520 31606
31606 31692
31692 31777
31777 31860
31860 31943
31943 32026
32026 32107
32107 32187
32187 32268
32268 32350
32350 32433
32433 32516
32516 32600
32600 32685
32685 32768
32768 32849
32849 32930
32930 33011
33011 33091
33091 33171
33171 33250
33250 33331
33331 33412
33412 33493
33493 33573
33573 33654
33654 33736
33736 33817
33817 33899
33899 33983
33983 34081
34081 34168
34168 34256
34256 34347
34347 34435
34435 34522
34522 34608
34608 34694
34694 34779
34779 34863
34863 34948
34948 35069
35069 35155
35155 35241
35241 35326
35326 35412
35412 35497
35497 35584
35584 35671
35671 35759
