5 42
233 309
309 393
393 453
702 785
867 949
949 1040
1040 1116
1116 1202
1202 1289
1289 1374
1374 1466
1662 1744
2121 2198
2198 2296
2296 2345
2837 2915
3103 3179
3179 3254
3254 3329
3329 3405
3405 3479
3479 3553
3553 3625
3625 3698
3698 3770
3770 3843
3843 3916
3916 3989
3989 4064
4064 4139
4139 4215
4215 4292
4292 4370
4370 4449
4449 4529
4529 4609
4609 4690
4690 4771
4771 4851
4851 4929
4929 5008
5008 5085
5085 5161
5161 5238
5238 5314
5314 5391
5391 5467
5467 5543
5543 5620
5620 5696
5696 5771
5771 5847
5847 5922
5922 5996
5996 6062
6062 6134
6134 6206
6206 6277
6277 6340
6340 6420
6420 6491
6491 6563
6563 6635
6635 6707
6707 6779
6779 6826
6826 6922
6922 6994
6994 7062
7062 7130
7130 7199
7199 7268
7268 7337
7337 7408
7408 7479
7479 7551
7551 7624
7624 7697
7697 7772
7772 7846
7846 7919
7919 7993
7993 8066
8066 8140
8140 8212
8212 8286
8286 8360
8360 8433
8433 8506
8506 8579
8579 8653
8653 8727
