344 432
432 520
520 607
607 697
697 788
788 879
879 982
982 1055
1055 1155
1155 1242
1242 1340
1340 1441
1441 1544
1544 1647
1647 1746
1746 1845
1845 1957
1957 2044
2044 2141
2141 2238
2238 2337
2337 2434
2434 2529
2529 2623
2623 2720
2720 2818
2818 2914
2914 3070
3070 3154
3154 3238
3238 3322
3322 3405
3405 3488
3488 3571
3571 3654
3654 3735
3735 3816
3816 3897
3897 3972
3972 4056
4056 4138
4138 4230
4230 4302
4302 4384
4384 4467
4467 4560
4560 4633
4633 4715
4715 4799
4799 4882
4882 4977
4977 5049
5049 5134
5134 5218
5218 5302
5302 5398
5398 5495
5495 5535
5535 5576
5576 5660
5660 5745
5745 5829
5829 5912
5912 5982
5982 6096
6096 6179
6179 6264
6264 6348
6348 6431
6431 6515
6515 6599
6599 6681
6681 6762
6762 6844
6844 6927
6927 7008
7008 7068
7068 7153
7153 7238
7238 7324
7324 7409
7409 7495
7495 7582
7582 7671
7671 7760
7760 7849
7849 7941
7941 8036
8036 8132
8132 8226
8226 8319
8319 8414
8414 8509
8509 8602
8602 8695
8695 8793
8793 8895
8895 8997
8997 9097
9097 9199
9199 9315
9315 9407
9407 9507
9507 9609
9609 9713
9713 9816
9816 9915
9915 10045
10045 10149
10149 10251
10251 10354
10354 10472
10472 10565
10565 10666
10666 10780
10780 10874
10874 10978
10978 11090
11090 11191
11191 11269
11269 11359
11359 11449
11449 11539
11539 11632
11632 11723
11723 11815
11815 11910
11910 12006
12006 12092
12092 12191
12191 12293
12293 12399
12399 12507
12507 12611
12611 12713
12713 12819
12819 12927
12927 13035
13035 13139
13139 13241
13241 13346
13346 13453
13453 13558
13558 13660
13660 13764
13764 13868
13868 13968
13968 14077
14077 14300
14300 14396
14396 14501
14501 14709
14709 14817
14817 14923
14923 15076
15076 15165
15165 15265
15265 15347
15347 15440
15440 15533
15533 15641
15641 15731
15731 15832
15832 15946
15946 16036
16036 16137
16137 16237
16237 16337
16337 16435
16435 16531
16531 16639
16639 16725
16725 16819
16819 16914
16914 17007
17007 17101
17101 17193
17193 17285
17285 17379
17379 17476
17476 17571
17571 17667
17667 17765
17765 17868
17868 17969
17969 18070
18070 18174
18174 18279
18279 18380
18380 18483
18483 18589
18589 18696
18696 18804
18804 18908
18908 19012
19012 19131
19131 19229
19229 19336
19336 19441
19441 19660
19660 19769
19769 19875
19875 19997
19997 20078
20078 20151
20151 20225
20225 20300
20300 20377
