2 55
1733 1807
1807 1892
1892 2008
2008 2048
2048 2137
2137 2227
2227 2316
2316 2403
2403 2491
2491 2579
2579 2668
2668 2758
2758 2820
2820 2869
2869 2959
2959 3048
3048 3137
3137 3227
3227 3328
3328 3406
3406 3495
3495 3584
3584 3673
3673 3760
3760 3847
3847 3933
3933 4019
4019 4061
4061 4140
4140 4221
4221 4302
4302 4384
4384 4450
4450 4532
4532 4591
4591 4673
4673 4755
4755 4838
4838 4922
4922 5007
5007 5094
5094 5183
5183 5284
5284 5365
5365 5457
5457 5548
5548 5637
5637 5726
5726 5814
5814 5901
5901 5989
5989 6114
6114 6225
6225 6308
6308 6402
6402 6497
6497 6604
6604 6686
6686 6781
6781 6877
6877 6972
6972 7064
7064 7157
7157 7252
7252 7354
7354 7435
7435 7529
7529 7623
7623 7716
7716 7812
7812 7907
7907 8001
8001 8093
8093 8183
8183 8273
8273 8360
8360 8448
8448 8535
8535 8622
8622 8710
8710 8799
8799 8889
8889 8979
8979 9070
9070 9164
9164 9257
9257 9350
9350 9456
9456 9535
9535 9600
9600 9703
9703 9782
9782 9872
9872 9965
9965 10060
10060 10148
10148 10246
10246 10342
10342 10449
10449 10530
10530 10625
10625 10731
10731 10814
10814 10910
10910 11004
11004 11056
11056 11125
11125 11207
11207 11290
11290 11372
11372 11454
11454 11536
11536 11619
11619 11702
11702 11787
11787 11898
11898 11988
11988 12115
12115 12207
12207 12301
12301 12394
12394 12486
12486 12577
12577 12669
12669 12761
12761 12852
12852 12945
12945 13035
13035 13123
13123 13210
13210 13295
13295 13379
13379 13463
13463 13547
13547 13630
13630 13714
13714 13801
13801 13890
13890 13979
13979 14068
14068 14158
14158 14248
14248 14337
14337 14427
14427 14516
14516 14606
14606 14697
14697 14787
14787 14875
14875 14962
14962 15048
15048 15146
15146 15217
15217 15300
15300 15382
15382 15464
15464 15546
15546 15628
15628 15710
15710 15793
15793 15876
15876 15960
15960 16044
16044 16128
16128 16213
16213 16299
16299 16384
16384 16470
16470 16555
16555 16640
16640 16724
16724 16809
16809 16893
16893 16978
16978 17065
17065 17153
17153 17242
17242 17333
17333 17425
17425 17517
17517 17607
17607 17697
17697 17786
17786 17873
17873 17959
17959 18021
