75 162
867 1041
1041 1150
1150 1196
1196 1307
1395 1504
1504 1553
1504 1553
1553 1594
1660 1747
1747 1873
1939 1982
1982 2085
2085 2193
2193 2238
2238 2305
2305 2350
2350 2436
2436 2502
2502 2587
2587 2652
2652 2720
2720 2785
2785 2873
2873 2983
2983 3057
3057 3132
3132 3225
3225 3310
3310 3375
3375 3451
