4 56
141 219
219 292
292 365
365 442
666 739
739 815
815 887
887 964
964 1038
1038 1117
1117 1196
1196 1271
1271 1352
1352 1494
1494 1580
1580 1646
1646 1722
1722 1809
1809 1887
1887 1967
1967 2055
2055 2100
2100 2212
2212 2296
2296 2373
2373 2441
2441 2520
2520 2610
2610 2691
2691 2770
2770 2851
2851 2927
2927 2995
2995 3067
3067 3147
3147 3227
3227 3304
3304 3384
3384 3463
3463 3525
3525 3608
3608 3698
3698 3777
3777 3858
3858 3933
3933 4012
4012 4090
4090 4157
4157 4247
4247 4325
4325 4404
4404 4485
4485 4568
4568 4728
4728 4809
4809 5115
5115 5196
5196 5282
5282 5364
5364 5531
5531 5616
5616 5701
5701 5780
5780 5867
5867 5953
5953 6024
6024 6097
6097 6190
6190 6272
6272 6355
6355 6433
6433 6596
6596 6675
6675 6757
6757 6841
6841 6921
6921 7007
7007 7053
7053 7147
7147 7229
7229 7311
7311 7394
7394 7461
7461 7553
7553 7640
7640 7721
7721 7804
7804 7890
7890 7972
7972 8043
8043 8133
8133 8218
8218 8302
8302 8391
8391 8476
8476 8568
8568 8653
