165 367
666 867
867 966
966 1120
1120 1347
1347 1471
1471 1596
1596 1717
1717 1838
1838 1959
1959 2155
2155 2257
2257 2352
2352 2452
2452 2553
2553 2652
2652 2753
2753 2854
2854 2952
2952 3006
3006 3095
3095 3162
3162 3253
3253 3337
3337 3400
3400 3495
3495 3569
3569 3651
3651 3715
3715 3794
3794 3882
3882 3922
3922 3963
3963 4027
4027 4143
4143 4222
4222 4290
4290 4370
4370 4462
8961 9133
9133 9231
9231 9424
9424 9523
10055 10150
10150 10243
14884 14984
14984 15066
