5420 5467
5664 5861
5861 5966
8343 8447
9420 9534
9534 9613
9936 10098
10098 10202
12232 12272
13995 14053
14053 14169
14169 14281
14281 14329
14329 14387
14387 14496
14496 14606
14606 14712
14712 14816
14816 14920
14920 15028
15028 15081
15081 15136
15136 15245
15245 15355
15355 15467
15467 15519
15519 15579
15579 15688
15688 15799
15799 15913
15913 16026
16026 16134
16134 16243
16243 16355
16355 16415
16415 16460
16460 16568
16568 16678
16678 16791
16791 16902
16902 17013
17013 17121
17121 17225
17225 17330
17330 17434
17434 17540
17540 17638
17638 17746
17746 17852
17852 17961
17961 18140
18140 18251
18251 18358
18358 18466
18466 18576
18576 18637
18637 18685
18685 18793
18793 18904
18904 19017
19017 19064
19064 19162
19162 19256
