680 787
1090 1194
1194 1297
1297 1399
1399 1505
1505 1563
1563 1610
1610 1715
1715 1820
1820 1930
1930 2060
2060 2133
2133 2207
2207 2284
2284 2361
2361 2439
2439 2516
2516 2585
2585 2677
2677 2756
2756 2835
2835 2905
2905 2996
2996 3057
3057 3141
3141 3227
3227 3311
3311 3394
3394 3480
3480 3568
3568 3655
3655 3747
3747 3840
3840 3933
3933 4026
4026 4117
4117 4213
4213 4313
4313 4412
4412 4513
4513 4616
4616 4707
4707 4815
4815 4917
4917 5039
5039 5136
5136 5232
5232 5330
5330 5426
5426 5523
5523 5622
5622 5717
5717 5817
5817 5918
5918 6016
6016 6115
6115 6220
6220 6270
6270 6320
6320 6423
6423 6527
6527 6629
6629 6725
6725 6829
6829 6880
6880 6924
6924 7021
7021 7117
7117 7211
7211 7308
7308 7409
7409 7506
7506 7610
7610 7713
7713 7817
7817 7920
7920 8024
8024 8122
8122 8225
8225 8325
8325 8399
8399 8513
8513 8611
8611 8706
8706 8805
8805 8906
8906 9008
9008 9117
