5 80
181 279
279 340
340 580
580 647
580 647
647 838
978 1076
1076 1163
1163 1266
1266 1417
1417 1533
1533 1650
1650 1768
1768 1884
1884 2001
2001 2156
2156 2271
2271 2389
2389 2505
2505 2622
2622 2736
2736 2853
2853 2968
2968 3084
3084 3188
3188 3284
3284 3399
3399 3511
3511 3623
3623 3735
3735 3845
3845 3931
3931 4104
4104 4187
4187 4302
4302 4407
4407 4513
4513 4618
4618 4725
4725 4830
4830 4936
4936 5046
5046 5152
5152 5248
5248 5360
5360 5443
5443 5548
5548 5654
5654 5760
5760 5866
5866 5972
5972 6076
6076 6182
6182 6290
6290 6396
6396 6452
6452 6545
6545 6641
6641 6736
6736 6840
6840 6942
6942 7046
7046 7145
7145 7255
7255 7336
7336 7449
7449 7564
7564 7661
7661 7763
7763 7861
7861 7962
7962 8061
8061 8137
8137 8263
8263 8369
8369 8452
8452 8548
8548 8662
8662 8763
8763 8878
8878 8977
8977 9092
9092 9188
9188 9283
9283 9383
9383 9480
9480 9581
9581 9692
9692 9793
9793 9882
9882 10114
10114 10227
10227 10340
10340 10453
10453 10568
10568 10673
10673 10760
10760 10831
10831 10931
10931 11010
11010 11129
11129 11230
11230 11327
11327 11426
11426 11556
11556 11653
11653 11752
11752 11848
11848 11970
11970 12090
12090 12210
12210 12330
12330 12450
12450 12569
12569 12688
12688 12808
12808 12931
12931 13053
13053 13151
13151 13272
13272 13394
13394 13515
13515 13635
13635 13755
13755 13876
13876 13996
13996 14086
14086 14202
14202 14320
14320 14413
14413 14530
14530 14648
14648 14765
