506 616
616 692
1260 1372
1372 1452
1812 1899
1899 1998
1998 2038
2818 2930
2930 3028
3028 3136
5058 5166
5166 5268
6956 7129
7129 7217
8603 8721
8721 8791
9873 9982
10544 10643
12242 12356
12356 12433
13907 14007
14007 14078
14892 15007
15007 15047
15047 15159
15231 15309
15309 15411
15411 15513
15513 15610
15610 15714
15714 15818
15818 15905
15905 15988
15988 16098
16098 16180
16180 16248
16248 16354
16354 16454
16454 16532
16532 16642
16642 16701
16701 16842
16842 16908
16908 17006
17006 17083
17083 17191
17191 17284
17284 17381
17381 17481
17481 17542
17542 17629
17629 17725
17725 17834
17834 17881
17881 17955
17955 18025
18025 18088
18088 18190
18190 18274
18274 18379
18379 18499
18499 18598
18598 18670
18670 18767
18767 18852
18852 18971
18971 19066
19066 19180
19180 19255
19255 19368
19368 19460
19460 19577
19577 19676
19676 19784
19784 19881
19881 19974
19974 20041
20041 20123
