1929 2020
2020 2067
3940 4084
8311 8404
9900 9993
12932 13020
14930 15016
17870 17959
17959 18049
23004 23116
26845 26934
32764 32852
36870 36960
40859 40948
40948 41076
41969 42088
43927 44045
44828 44913
49942 50029
