65 131
131 197
197 263
263 330
330 396
396 462
462 528
528 594
594 660
660 726
726 792
792 858
858 924
924 990
990 1074
1074 1140
1140 1205
1205 1270
1270 1336
1336 1401
1401 1466
1466 1531
1531 1597
1597 1662
1662 1727
1727 1792
1792 1858
1858 1923
1923 1988
1988 2053
2053 2119
2119 2184
2184 2249
2249 2314
2314 2379
2379 2444
2444 2509
2509 2574
2574 2640
2640 2704
2704 2770
2770 2835
2835 2900
2900 2965
2965 3030
3030 3095
3095 3160
3160 3225
3225 3290
3290 3355
3355 3420
3420 3484
3484 3549
3549 3614
3614 3679
3679 3744
3744 3809
3809 3874
3874 3939
3939 4004
4004 4069
4069 4134
4134 4199
4199 4264
4264 4329
4329 4394
4394 4460
4460 4525
4525 4590
4590 4656
4656 4721
4721 4787
4787 4852
4852 4918
4918 4983
4983 5048
5048 5114
5114 5179
5179 5245
5245 5310
5310 5376
5376 5441
5441 5507
5507 5572
5572 5638
5638 5703
5703 5769
5769 5834
5834 5900
5900 5966
5966 6032
6032 6097
6097 6163
6163 6228
6228 6294
6294 6360
6360 6426
6426 6491
6491 6557
6557 6623
6623 6689
6689 6755
6755 6821
6821 6887
6887 6953
6953 7019
7019 7085
7085 7151
7151 7217
7217 7282
7282 7348
7348 7415
