26 70
886 943
1107 1164
1245 1302
2034 2091
2091 2147
2394 2451
2916 2973
7040 7096
7668 7726
7726 7783
7864 7922
9320 9378
9461 9518
9599 9657
10781 10838
11466 11523
11932 12013
12013 12051
16311 16368
17179 17259
17259 17316
19686 19743
20723 20780
21107 21164
25523 25581
26232 26288
26288 26368
26368 26425
26750 26830
26830 26887
28103 28159
28727 28784
29591 29648
29809 29864
30269 30324
30404 30461
30865 30922
31003 31060
31140 31197
31277 31334
31415 31472
31552 31609
32909 32965
35777 35833
36159 36239
36239 36297
37272 37329
37897 37954
38034 38092
39469 39527
41239 41295
42433 42490
42897 42954
43454 43512
46337 46450
