2338 2410
2410 2457
14858 14931
14931 14979
19279 19352
19352 19400
22234 22307
22307 22355
29717 29790
29790 29863
29863 29936
29936 30008
30008 30081
30081 30154
30154 30226
30226 30299
30299 30371
30371 30444
30444 30517
30517 30589
30589 30662
30662 30734
30734 30807
30807 30879
30879 30951
30951 31023
31023 31095
31095 31167
31167 31240
31240 31312
31312 31384
31384 31456
31456 31528
31528 31600
31600 31672
31672 31745
31745 31817
31817 31889
31889 31961
31961 32034
32034 32106
32106 32178
32178 32251
32251 32323
32323 32396
32396 32468
32468 32541
32541 32613
32613 32686
32686 32758
32758 32879
53128 53201
53201 53249
67948 68021
68021 68141
71142 71264
71264 71337
71337 71411
71411 71484
71484 71558
71558 71631
71631 71704
71704 71778
71778 71851
71851 71924
71924 71997
71997 72070
72070 72143
72143 72216
72216 72289
72289 72362
72362 72435
72435 72508
72508 72581
72581 72654
72654 72727
72727 72800
72800 72873
