16613 16768
16768 16840
16840 16912
16912 16984
16984 17056
17056 17128
17128 17200
17200 17272
17272 17344
17344 17415
17415 17487
17487 17591
17591 17663
17663 17736
17736 17808
17808 17879
17879 17952
17952 18034
18034 18095
18095 18167
18167 18239
18239 18310
18310 18382
18382 18454
18454 18526
18526 18598
18598 18669
18669 18741
18741 18813
18813 18884
18884 18956
18956 19027
19027 19098
19098 19170
19170 19241
19241 19312
19312 19383
19383 19454
19454 19525
19525 19597
19597 19668
19668 19739
19739 19810
19810 19881
19881 19952
19952 20024
20024 20095
20095 20166
20166 20238
20238 20309
20309 20381
20381 20452
20452 20523
20523 20595
20595 20666
20666 20738
20738 20809
20809 20880
20880 20952
20952 21023
21023 21094
21094 21166
21166 21237
21237 21308
21308 21379
21379 21450
21450 21521
21521 21592
21592 21663
21663 21735
21735 21806
21806 21877
21877 21948
21948 22020
22020 22091
22091 22162
22162 22233
22233 22304
22304 22375
22375 22446
22446 22518
22518 22589
22589 22660
22660 22732
22732 22803
22803 22875
22875 22946
22946 23018
23018 23090
23090 23161
23161 23233
23233 23305
23305 23377
23377 23448
23448 23520
23520 23592
23592 23663
23663 23735
23735 23807
23807 23970
23970 24041
24041 24113
24113 24184
24184 24256
24256 24327
24327 24399
24399 24470
24470 24542
24542 24618
24618 24685
24685 24741
24741 24828
24828 24900
24900 24971
24971 25042
25042 25113
25113 25185
25185 25256
25256 25328
25328 25399
25399 25471
25471 25543
25543 25614
25614 25686
25686 25757
25757 25829
25829 25900
25900 25972
25972 26042
26042 26113
26113 26185
26185 26257
26257 26328
26328 26399
26399 26471
26471 26543
26543 26614
26614 26686
26686 26758
26758 26830
26830 26901
26901 26973
26973 27045
27045 27117
27117 27188
27188 27260
27260 27332
27332 27403
27403 27475
27475 27546
27546 27618
27618 27689
27689 27760
27760 27832
27832 27903
27903 27950
27950 28021
28021 28093
28093 28164
28164 28235
28235 28307
28307 28379
28379 28450
28450 28521
28521 28593
28593 28665
28665 28736
28736 28807
28807 28879
28879 28951
28951 29022
29022 29094
29094 29165
29165 29237
29237 29308
29308 29380
29380 29452
29452 29524
29524 29595
29595 29667
29667 29739
29739 29811
29811 29882
29882 29954
29954 30026
30026 30098
30098 30169
30169 30241
30241 30313
30313 30384
30384 30456
30456 30528
30528 30599
30599 30671
30671 30743
30743 30815
30815 30886
30886 30958
30958 31030
31030 31102
31102 31174
31174 31245
31245 31317
31317 31389
31389 31461
31461 31533
31533 31604
31604 31676
31676 31748
31748 31820
31820 31891
31891 31963
31963 32034
32034 32106
32106 32178
32178 32249
32249 32321
32321 32393
32393 32464
32464 32536
32536 32608
32608 32679
32679 32751
32751 32822
32822 32894
32894 32966
32966 33096
33096 33168
33168 33240
33240 33312
33312 33383
33383 33455
33455 33527
33527 33599
33599 33670
33670 33742
33742 33814
33814 33885
33885 33957
33957 34028
34028 34100
34100 34171
34171 34243
34243 34315
34315 34387
34387 34458
34458 34530
34530 34602
34602 34674
34674 34745
34745 34817
34817 34889
34889 34961
34961 35038
35038 35110
35110 35182
35182 35253
35253 35325
35325 35397
35397 35469
35469 35541
35541 35613
35613 35685
35685 35756
35756 35828
35828 35900
35900 35972
35972 36043
36043 36115
36115 36187
36187 36258
36258 36330
36330 36402
36402 36473
36473 36545
36545 36617
36617 36688
36688 36760
36760 36831
36831 36903
36903 36975
36975 37081
37081 37153
37153 37225
37225 37297
37297 37369
37369 37441
37441 37513
37513 37585
37585 37657
37657 37729
37729 37801
37801 37873
37873 37944
37944 38016
38016 38088
38088 38160
38160 38232
38232 38304
38304 38376
38376 38447
38447 38519
38519 38591
38591 38663
38663 38735
38735 38806
38806 38878
38878 38950
38950 39022
39022 39093
39093 39165
39165 39237
39237 39309
39309 39381
39381 39453
39453 39524
39524 39596
39596 39668
39668 39740
39740 39812
39812 39884
39884 39956
39956 40043
40043 40115
40115 40187
40187 40259
40259 40330
40330 40402
40402 40474
40474 40546
40546 40618
40618 40690
40690 40762
40762 40833
40833 40905
40905 40977
40977 41049
41049 41120
41120 41192
41192 41264
41264 41335
41335 41407
41407 41478
41478 41550
41550 41621
41621 41693
41693 41764
41764 41836
41836 41907
41907 41979
41979 42051
42051 42122
42122 42194
42194 42266
42266 42337
42337 42409
42409 42481
42481 42553
42553 42624
42624 42696
42696 42767
42767 42839
42839 42911
42911 42982
42982 43054
43054 43125
43125 43197
43197 43268
43268 43340
43340 43411
43411 43483
43483 43554
43554 43626
43626 43697
43697 43769
43769 43840
43840 43912
43912 43983
43983 44055
44055 44126
44126 44198
44198 44269
44269 44341
44341 44412
44412 44484
44484 44555
44555 44627
44627 44699
44699 44770
44770 44842
44842 44913
44913 44985
44985 45056
45056 45127
45127 45198
45198 45270
45270 45341
45341 45412
45412 45483
45483 45555
45555 45626
45626 45697
45697 45769
45769 45840
45840 45912
45912 45983
45983 46055
46055 46127
46127 46198
46198 46269
46269 46341
46341 46412
46412 46484
46484 46556
46556 46627
46627 46699
46699 46770
46770 46842
46842 46914
46914 46986
46986 47058
47058 47130
47130 47202
47202 47273
47273 47345
47345 47417
47417 47489
47489 47561
47561 47633
47633 47705
47705 47777
47777 47848
47848 47920
47920 47992
47992 48064
48064 48136
48136 48208
48208 48280
48280 48352
48352 48424
48424 48496
48496 48568
48568 48639
48639 48710
48710 48782
48782 48853
48853 48924
48924 48996
48996 49067
49067 49138
49138 49210
49210 49281
49281 49353
49353 49424
49424 49496
49496 49567
49567 49639
49639 49710
49710 49781
49781 49852
49852 49924
49924 49995
49995 50066
50066 50137
50137 50208
50208 50280
50280 50351
50351 50422
50422 50493
50493 50565
50565 50636
50636 50707
50707 50779
50779 50850
50850 50922
50922 50993
50993 51065
51065 51136
51136 51207
51207 51279
51279 51350
51350 51421
51421 51492
51492 51564
51564 51635
51635 51706
51706 51777
51777 51848
51848 51919
51919 51991
51991 52062
52062 52132
52132 52204
52204 52275
52275 52346
52346 52417
52417 52487
52487 52558
52558 52629
52629 52699
52699 52770
52770 52841
52841 52911
