1 48
48 115
115 183
183 251
251 319
319 386
386 454
454 522
522 589
589 657
657 724
724 792
792 860
860 927
927 995
995 1063
1063 1131
1131 1198
1198 1266
1266 1334
1334 1402
1402 1469
1469 1537
1537 1605
1605 1673
1673 1740
1740 1808
2035 2102
2102 2170
2170 2237
2237 2305
2305 2372
2372 2439
2439 2507
2507 2574
2574 2642
2642 2709
2709 2776
2776 2844
2844 2911
2911 2979
2979 3046
3046 3114
3114 3181
3181 3249
3249 3317
3317 3384
3384 3452
3452 3519
3519 3587
3587 3654
3654 3722
3722 3789
3789 3857
3857 3925
3925 3992
3992 4062
4062 4129
4129 4196
4196 4263
4263 4330
4330 4397
4397 4464
4464 4530
4530 4597
4597 4664
4664 4731
4731 4798
4798 4865
4865 4932
4932 4999
4999 5066
5066 5133
5133 5200
5200 5267
5267 5334
5334 5401
5401 5468
5468 5534
5534 5601
5601 5668
5668 5734
5734 5801
