13 84
84 144
144 204
204 263
263 323
323 382
382 442
561 621
621 681
681 740
740 800
800 860
860 920
920 979
979 1039
1039 1099
1099 1159
1159 1219
1219 1279
1279 1339
1339 1399
1399 1459
1459 1519
1519 1579
1579 1639
1639 1734
1734 1795
1795 1855
1855 1915
1915 1975
1975 2035
2035 2095
2095 2155
2155 2216
2216 2276
2276 2337
2337 2396
2396 2456
2456 2517
2517 2577
2577 2637
2637 2697
2697 2758
2758 2818
2818 2879
2879 2939
2939 3000
3000 3060
3060 3121
3121 3181
3181 3242
3242 3302
3302 3363
3363 3423
3423 3483
3483 3544
3544 3604
3604 3665
3665 3725
3725 3785
3785 3846
3846 3907
3907 3967
3967 4028
4028 4089
4089 4150
4150 4210
4210 4271
4271 4332
4332 4393
4393 4454
4454 4515
4515 4576
4576 4637
4637 4698
4698 4759
4759 4820
4820 4882
4882 4943
4943 5004
5004 5065
5065 5127
5127 5188
5188 5249
5249 5310
5310 5371
5371 5433
5433 5494
5494 5555
5555 5616
5616 5677
5677 5738
5738 5799
5799 5860
5860 5921
5921 5982
5982 6043
6043 6104
6104 6165
6165 6227
6227 6288
6288 6349
6349 6410
6410 6471
6471 6568
6568 6629
6629 6690
6690 6752
6752 6812
6812 6873
6873 6934
6934 6996
6996 7057
7057 7117
7117 7178
7178 7239
7239 7300
7300 7361
7361 7421
7421 7482
7482 7543
7543 7604
7604 7665
7665 7726
7726 7786
7786 7848
7848 7909
7909 7969
7969 8030
8030 8081
8081 8141
8141 8201
8201 8262
8262 8322
8322 8382
8382 8443
8443 8503
8503 8564
8564 8624
8624 8684
8684 8745
8745 8805
8805 8866
8866 8926
8926 8986
8986 9047
9047 9107
9107 9167
9167 9228
9228 9288
9288 9349
9349 9409
9409 9470
9470 9530
9530 9591
9591 9652
9652 9712
9712 9772
9772 9833
9833 9893
9893 9954
9954 10015
10015 10075
10075 10136
10136 10197
10197 10258
10258 10318
10318 10379
10379 10440
10440 10501
10501 10563
10563 10623
10623 10684
10684 10745
10745 10807
10807 10868
10868 10929
10929 10990
10990 11051
11051 11112
11112 11174
11174 11235
11235 11296
11296 11357
11357 11419
11419 11481
11481 11542
11542 11603
11603 11665
11665 11727
11727 11789
11789 11850
11850 11912
11912 11974
11974 12036
12036 12097
12097 12158
12158 12220
12220 12282
12282 12344
12344 12405
12405 12467
12467 12528
12528 12590
12590 12652
12652 12713
12713 12774
12774 12836
12836 12897
12897 12959
12959 13020
13020 13082
13082 13144
13144 13206
13206 13267
13267 13328
13328 13390
13390 13452
13452 13514
13514 13575
13575 13637
13637 13699
13699 13760
13760 13822
13822 13884
13884 13945
13945 14007
14007 14068
14068 14130
14130 14191
14191 14252
14252 14314
14314 14375
14375 14437
14437 14498
14498 14558
14558 14619
14619 14680
14680 14741
14741 14802
14802 14863
14863 14923
14923 14984
14984 15045
15045 15105
15105 15166
15166 15227
15227 15323
15323 15384
15384 15445
15445 15506
15506 15567
15567 15628
15628 15688
15688 15749
15749 15811
15811 15872
15872 15932
15932 15993
15993 16054
16054 16115
16115 16176
16176 16237
16237 16298
16298 16359
16359 16420
16420 16481
16481 16541
16541 16602
16602 16663
16663 16725
16725 16786
16786 16847
16847 16908
16908 16969
16969 17030
17030 17091
17091 17152
17152 17213
17213 17274
17274 17335
17335 17396
17396 17456
17456 17517
17517 17578
17578 17639
17639 17700
17700 17761
17761 17822
17822 17883
17883 17944
17944 18005
18005 18066
18066 18127
18127 18188
18188 18250
18250 18311
18311 18372
18372 18433
18433 18494
18494 18555
18555 18616
18616 18677
18677 18738
18738 18800
18800 18861
18861 18922
18922 18983
18983 19044
19044 19105
19105 19166
19166 19227
19227 19288
19288 19348
19348 19409
19409 19470
19470 19531
19531 19592
19592 19653
19653 19714
19714 19775
19775 19836
19836 19897
19897 19958
19958 20019
20019 20080
20080 20142
20142 20202
20202 20263
20263 20324
20324 20386
20386 20447
20447 20508
20508 20569
20569 20630
20630 20691
20691 20752
20752 20813
20813 20874
20874 20935
20935 20996
20996 21057
21057 21118
21118 21179
21179 21240
21240 21301
21301 21362
21362 21422
21422 21483
21483 21544
21544 21605
21605 21666
21666 21727
21727 21788
21788 21849
21849 21910
21910 21971
21971 22032
22032 22093
22093 22154
22154 22216
22216 22277
22277 22338
22338 22400
22400 22461
22461 22523
22523 22584
22584 22645
22645 22707
22707 22769
22769 22830
22830 22892
22892 22954
22954 23048
23048 23109
23109 23170
23170 23231
23231 23292
23292 23353
23353 23414
23414 23474
23474 23534
23534 23594
23594 23655
23655 23716
23716 23776
23776 23837
23837 23933
23933 24029
24029 24090
24090 24150
24150 24211
24211 24272
24272 24333
24333 24394
24394 24454
24454 24515
24515 24577
24577 24637
24637 24699
24699 24760
24760 24821
24821 24882
24882 24943
24943 25004
25004 25065
25065 25127
25127 25188
25188 25249
25249 25310
25310 25372
25372 25433
25433 25494
25494 25556
25556 25617
25617 25678
25678 25740
25740 25801
25801 25863
25863 25924
25924 25985
25985 26047
26047 26108
26108 26170
26170 26231
26231 26293
26293 26354
26354 26415
26415 26476
26476 26537
26537 26599
26599 26660
26660 26721
26721 26781
26781 26842
26842 26903
26903 26964
26964 27025
27025 27085
27085 27146
27146 27207
27207 27268
27268 27329
27329 27390
27390 27451
27451 27512
27512 27573
27573 27633
27633 27694
27694 27756
27756 27817
27817 27878
27878 27939
27939 28001
28001 28062
28062 28124
28124 28185
28185 28246
28246 28307
28307 28368
28368 28430
28430 28491
28491 28552
28552 28613
28613 28674
28674 28736
28736 28797
28797 28858
28858 28919
28919 28981
28981 29042
29042 29103
29103 29165
29165 29226
29226 29288
29288 29349
29349 29410
29410 29472
29472 29533
29533 29595
29595 29656
29656 29717
29717 29778
29778 29839
29839 29901
29901 29962
29962 30023
30023 30084
30084 30145
30145 30206
30206 30267
30267 30328
30328 30365
30365 30426
30426 30487
30487 30548
30548 30609
30609 30670
30670 30732
30732 30793
30793 30854
30854 30915
30915 30976
30976 31037
31037 31099
31099 31159
31159 31220
31220 31281
31281 31343
31343 31379
31379 31440
31440 31500
31500 31561
31561 31622
31622 31683
31683 31744
31744 31805
31805 31865
31865 31926
31926 31987
31987 32047
32047 32108
32108 32169
32169 32230
32230 32290
32290 32351
32351 32411
32411 32472
32472 32533
32533 32594
32594 32654
32654 32715
32715 32776
32776 32838
32838 32898
32898 32959
32959 33020
33020 33081
33081 33143
33143 33204
33204 33265
33265 33326
33326 33387
33387 33449
33449 33510
33510 33571
33571 33632
33632 33693
33693 33754
33754 33815
33815 33875
33875 33936
33936 33997
33997 34058
34058 34119
34119 34180
34180 34241
34241 34302
34302 34363
34363 34424
34424 34485
34485 34545
34545 34606
34606 34667
34667 34728
34728 34789
34789 34850
34850 34910
34910 34971
34971 35032
35032 35093
35093 35153
35153 35214
35214 35274
35274 35335
35335 35396
35396 35456
35456 35517
35517 35578
35578 35639
35639 35699
35699 35759
35759 35820
35820 35881
35881 35942
35942 36002
36002 36063
36063 36124
36124 36185
36185 36246
36246 36306
36306 36367
36367 36428
36428 36489
36489 36550
36550 36610
36610 36646
