1001 1053
1053 1116
1116 1179
1179 1242
1242 1305
1305 1366
1366 1429
1429 1491
1491 1552
1552 1614
1614 1676
1676 1737
1737 1799
1799 1861
1861 1923
1923 1983
1983 2045
2045 2107
2107 2168
2168 2230
2230 2291
