423 482
482 541
541 600
600 658
658 717
717 776
776 835
835 894
894 953
953 1012
1012 1070
1070 1129
1129 1188
1188 1247
1247 1305
1305 1364
1364 1422
1422 1481
1481 1539
1539 1598
1598 1656
1656 1715
1715 1774
1774 1832
1832 1891
1891 1983
2042 2101
2101 2159
2159 2218
2218 2277
2277 2336
2336 2395
2395 2454
2454 2513
2513 2572
2572 2630
2630 2689
2689 2748
2748 2807
2807 2866
2985 3051
3051 3129
3129 3184
3184 3239
3239 3294
3294 3348
3348 3403
3403 3458
3458 3513
3513 3567
3567 3623
3623 3678
3678 3732
3732 3788
3788 3843
3843 3898
3898 3953
3953 4009
4009 4071
4071 4125
4125 4179
4179 4233
4233 4287
4287 4340
4340 4395
4395 4449
4449 4503
4503 4557
4557 4612
4612 4666
4666 4720
4720 4775
4775 4829
4829 4884
4884 4939
4939 4994
4994 5049
5049 5104
5104 5159
5159 5214
5214 5268
5268 5324
5324 5379
5379 5435
5435 5490
5490 5545
5545 5600
5600 5656
5656 5711
5711 5767
5767 5822
5822 5878
5878 5933
5933 5989
5989 6045
6045 6100
6100 6155
