84 137
137 190
190 244
244 297
297 351
351 404
404 458
458 512
512 565
565 619
619 673
673 727
727 781
781 835
835 889
889 943
943 997
997 1085
1085 1140
1140 1194
1194 1249
1249 1303
1303 1357
1357 1412
1412 1466
1466 1521
1521 1575
1575 1630
1630 1684
1684 1739
1739 1794
1794 1848
1848 1902
1902 1957
1957 2011
2011 2066
2066 2121
2121 2175
2175 2259
2259 2314
2314 2368
2368 2423
2423 2477
2477 2532
2532 2586
2586 2641
2641 2695
2695 2750
2750 2804
2804 2859
2859 2913
2913 2968
2968 3031
3031 3083
3083 3136
3136 3188
3188 3241
3241 3294
3294 3347
3347 3400
3400 3452
3452 3506
3506 3559
3559 3611
3611 3665
3665 3718
3718 3771
3771 3825
3825 3878
3878 3931
3931 3985
3985 4075
4075 4129
4129 4182
4182 4236
4236 4289
4289 4343
4343 4397
4397 4451
4451 4505
4505 4558
4558 4612
4612 4666
4666 4720
4720 4774
4774 4829
4829 4882
4882 4937
4937 4991
4991 5045
5045 5099
5099 5154
5154 5208
5208 5262
5262 5317
5317 5371
5371 5425
5425 5479
5479 5534
5534 5588
5588 5643
5643 5697
5697 5752
5752 5806
5806 5861
5861 5916
5916 5970
5970 6025
6025 6080
6080 6134
6134 6189
6189 6244
6244 6298
6298 6342
6342 6463
6463 6517
6517 6572
6572 6626
6626 6681
6681 6736
6736 6790
6790 6845
6845 6900
6900 6955
6955 7009
7009 7064
7064 7119
7119 7174
7174 7229
7229 7284
7284 7338
7338 7393
7393 7448
7448 7503
7503 7558
7558 7613
7613 7668
7668 7723
7723 7778
7778 7833
7833 7888
7888 7943
7943 7998
7998 8041
8041 8094
8094 8148
8148 8201
8201 8255
8255 8308
8308 8362
8362 8415
8415 8469
8469 8522
8522 8576
8576 8630
8630 8684
8684 8738
8738 8792
8792 8847
8847 8901
8901 8955
8955 9009
9009 9063
9063 9118
9118 9172
9172 9227
9227 9281
9281 9336
9336 9390
9390 9444
9444 9499
9499 9553
9553 9608
9608 9663
9663 9717
9717 9772
9772 9827
9827 9881
9881 9936
9936 9991
9991 10046
10046 10100
10100 10185
10185 10240
10240 10294
10294 10349
10349 10404
10404 10459
10459 10513
10513 10568
10568 10623
10623 10678
10678 10733
10733 10787
10787 10843
10843 10898
10898 10952
10952 11007
11007 11062
11062 11117
11117 11172
11172 11227
11227 11282
11282 11337
11337 11392
11392 11447
11447 11502
11502 11557
11557 11612
11612 11667
11667 11722
11722 11777
11777 11831
11831 11886
11886 11941
11941 11996
11996 12035
12035 12089
12089 12142
12142 12196
12196 12250
12250 12303
12303 12357
12357 12410
12410 12464
12464 12518
12518 12572
12572 12626
12626 12679
12679 12733
12733 12787
12787 12841
12841 12895
12895 12950
12950 13003
13003 13057
13057 13112
13112 13219
13219 13274
13274 13328
13328 13382
13382 13436
13436 13489
13489 13542
13542 13597
13597 13788
13788 13897
13897 13951
13951 14005
14005 14059
14059 14114
14114 14167
14167 14222
14222 14277
14277 14330
14330 14385
14385 14440
14440 14494
14494 14549
14549 14604
14604 14658
14658 14713
14713 14767
14767 14822
14822 14877
14877 14931
14931 14986
14986 15041
15041 15096
15096 15149
15149 15247
15247 15315
15315 15370
15370 15424
15424 15479
15479 15533
15533 15587
15587 15642
15642 15697
15697 15751
15751 15805
15805 15860
15860 15914
15914 15969
15969 16023
16023 16064
16064 16116
16116 16169
16169 16222
16222 16276
16276 16328
16328 16382
16382 16435
16435 16488
16488 16542
16542 16595
16595 16648
16648 16702
16702 16756
16756 16809
16809 16863
16863 16917
16917 16970
16970 17024
17024 17078
17078 17132
17132 17186
17186 17240
17240 17293
17293 17348
17348 17402
17402 17456
17456 17540
17540 17594
17594 17648
17648 17702
17702 17756
17756 17810
17810 17864
17864 17918
17918 17973
17973 18027
18027 18075
18075 18127
18127 18180
18180 18232
18232 18285
18285 18338
18338 18390
18390 18443
18443 18496
18496 18549
18549 18602
18602 18655
18655 18707
18707 18760
18760 18813
18813 18866
18866 18919
18919 18972
18972 19025
19025 19078
19078 19131
19131 19184
19184 19237
19237 19290
19290 19343
19343 19397
19397 19450
19450 19503
19503 19557
19557 19610
19610 19663
19663 19717
19717 19770
19770 19824
19824 19878
19878 19931
19931 19985
19985 20039
20039 20092
20092 20146
20146 20200
20200 20253
20253 20307
20307 20361
20361 20415
20415 20468
20468 20522
20522 20576
20576 20630
20630 20684
20684 20738
20738 20792
20792 20846
20846 20900
20900 20954
20954 21007
21007 21062
21062 21115
21115 21169
21169 21223
21223 21277
21277 21331
21331 21385
21385 21439
21439 21493
21493 21547
21547 21601
21601 21655
21655 21709
21709 21763
21763 21817
21817 21871
21871 21925
21925 21979
21979 22033
22033 22087
22087 22141
22141 22195
22195 22249
22249 22303
22303 22358
22358 22412
22412 22466
22466 22520
22520 22575
22575 22629
22629 22683
22683 22738
22738 22792
22792 22846
22846 22901
22901 22956
22956 23010
23010 23065
23065 23119
23119 23174
23174 23228
23228 23283
23283 23338
23338 23393
23393 23448
23448 23503
23503 23557
23557 23612
23612 23667
23667 23722
23722 23776
23776 23832
23832 23887
23887 23942
23942 23997
23997 24052
24052 24107
24107 24161
24161 24216
24216 24272
24272 24327
24327 24382
24382 24437
24437 24492
24492 24547
24547 24602
24602 24658
24658 24712
24712 24768
24768 24823
24823 24878
24878 24933
24933 24989
24989 25040
25040 25093
25093 25170
25170 25229
25229 25281
25281 25335
25335 25388
25388 25441
25441 25495
25495 25548
25548 25601
25601 25655
25655 25708
25708 25761
25761 25814
25814 25868
25868 25921
25921 25975
25975 26028
26028 26082
26082 26135
26135 26189
26189 26243
26243 26296
26296 26350
26350 26403
