1126 1197
6062 6132
6132 6203
6203 6273
6273 6344
6344 6415
6415 6485
6485 6555
6555 6626
6626 6695
6695 6766
6766 6835
6835 6905
6905 6975
6975 7045
7045 7115
7115 7185
7185 7256
7256 7326
7326 7397
7397 7468
7468 7539
7539 7610
7610 7681
7681 7752
7752 7823
7823 7895
7895 7966
7966 8038
8038 8109
8109 8181
8181 8252
8252 8324
8324 8396
8396 8468
8468 8541
8541 8613
8613 8685
8685 8757
