5968 6058
20202 20274
26975 27050
27050 27099
29605 29677
29677 29749
29749 29820
29820 29892
29892 29964
29964 30036
30036 30107
30107 30179
30179 30251
30251 30323
30323 30396
30396 30468
30468 30540
30540 30614
30614 30687
30687 30759
30759 30833
30833 30906
30906 30979
30979 31053
31053 31127
31127 31200
31200 31274
31274 31349
31349 31423
31423 31497
31497 31571
31571 31646
31646 31719
31719 31794
31794 31869
31869 31943
31943 32018
32018 32093
32093 32168
32168 32243
32243 32318
32318 32393
32393 32468
32468 32543
32543 32619
32619 32695
32695 32769
32769 32845
32845 32920
32920 32995
32995 33069
33069 33144
33144 33218
33218 33293
33293 33367
33367 33441
33441 33515
33515 33590
33590 33663
33663 33738
33738 33812
33812 33887
33887 33960
33960 34034
34034 34108
34108 34182
34182 34255
34255 34328
34328 34401
34401 34474
34474 34547
34547 34620
34620 34693
34693 34766
34766 34839
34839 34912
34912 34985
34985 35058
35058 35131
35131 35203
35203 35275
35275 35348
35348 35421
35421 35493
35493 35566
35566 35639
35639 35711
35711 35785
35785 35858
35858 35932
35932 36005
36005 36079
36079 36153
36153 36226
36226 36301
36301 36375
36375 36450
36450 36524
36524 36598
36598 36673
36673 36748
36748 36822
36822 36897
36897 36973
36973 37047
37047 37123
37123 37198
37198 37273
37880 37956
37956 38032
38032 38083
38613 38690
38690 38766
38766 38816
40494 40568
40568 40643
40643 40717
40717 40792
40792 40866
41104 41179
41179 41253
41253 41328
41328 41402
41402 41477
41477 41552
41552 41626
41626 41699
41699 41773
41773 41847
41847 41920
41920 41994
41994 42068
42068 42141
42141 42215
42215 42289
42289 42363
42363 42436
42436 42510
42510 42584
42584 42657
42657 42731
42731 42804
42804 42878
42878 42950
42950 43023
43023 43096
43096 43169
43169 43241
43241 43313
43313 43385
43385 43457
43457 43529
43529 43600
43600 43671
43671 43743
43743 43815
43815 43886
43886 43958
43958 44030
44173 44245
44245 44318
44318 44390
44390 44462
44462 44535
44535 44608
44608 44681
44681 44754
44754 44828
44828 44901
44901 44974
44974 45047
45047 45121
45121 45195
45195 45268
45268 45342
45342 45416
45416 45489
45489 45563
45563 45636
45636 45709
45709 45781
45781 45853
45853 45925
45925 45996
45996 46067
46067 46139
46139 46255
46255 46326
46255 46326
46326 46397
46397 46468
46468 46539
46539 46610
46610 46681
46681 46752
46752 46824
46824 46896
46896 46968
46968 47040
47040 47113
47113 47186
47186 47258
47258 47331
47331 47404
47404 47477
47477 47550
47550 47625
47625 47698
47698 47772
47772 47847
47847 47921
47921 47995
47995 48069
48069 48143
48143 48217
48217 48290
48290 48364
48364 48437
48437 48510
48510 48582
48582 48655
48655 48727
48727 48799
48799 48871
48871 48942
48942 49013
49013 49085
49085 49155
49155 49227
49227 49298
49298 49369
49369 49439
49439 49511
49511 49582
49582 49653
49653 49724
49724 49796
49796 49867
49867 49939
49939 50010
50010 50082
50082 50153
50153 50225
50225 50296
50296 50367
50367 50439
50439 50511
50511 50582
50582 50654
50654 50725
50725 50797
50797 50868
50868 50940
50940 51012
51012 51068
51068 51141
51141 51214
51214 51286
51286 51359
51359 51431
51431 51504
51504 51577
51577 51650
51650 51723
51723 51796
51796 51869
51869 51943
51943 52016
52016 52089
52089 52162
52162 52236
52236 52310
52310 52383
52383 52456
52456 52530
52530 52652
60381 60456
60456 60506
62916 62992
62992 63036
65782 65906
