597 666
666 736
736 805
805 874
874 944
944 1012
1012 1082
1082 1152
1152 1220
1220 1290
1290 1360
1360 1428
1428 1498
1498 1567
1567 1636
1636 1705
1705 1775
1775 1843
1843 1912
1912 1981
1981 2053
2053 2122
2122 2189
2189 2257
2257 2326
2326 2393
2393 2461
2461 2528
2528 2595
2595 2662
2662 2729
2861 2966
2966 3031
3031 3096
3096 3161
3161 3224
3224 3289
3289 3353
3353 3418
3418 3481
3481 3546
3546 3611
3611 3675
3675 3740
3740 3805
3805 3870
4102 4170
4170 4238
4238 4306
4306 4374
4374 4441
4441 4509
4509 4577
4577 4644
4644 4713
4713 4782
4782 4850
4850 4918
4918 4987
4987 5035
5035 5105
5105 5175
5175 5244
5244 5314
5314 5384
5384 5454
5454 5522
5522 5593
5593 5662
5662 5732
5732 5801
5801 5871
5871 5941
5941 6010
6010 6080
6080 6150
6150 6220
6220 6289
6289 6360
6360 6430
6430 6499
6499 6569
6569 6639
6639 6709
6709 6778
6778 6849
6849 6919
6919 6988
6988 7058
7058 7128
7128 7197
7197 7266
7266 7335
7335 7405
7405 7474
7474 7543
7543 7612
7612 7681
7681 7750
7750 7819
7819 7888
7888 7956
7956 8025
8025 8094
8094 8162
8162 8231
8231 8300
8300 8368
8368 8437
8437 8506
8506 8574
8574 8641
8641 8710
8710 8778
8778 8845
8845 8914
8914 8982
8982 9050
9050 9118
9118 9186
9186 9254
9254 9321
9321 9389
9389 9457
9457 9525
9525 9593
9593 9661
9661 9729
9729 9797
9797 9864
9864 9932
9932 9999
9999 10066
10066 10135
10135 10204
10204 10274
10274 10343
10343 10412
10412 10482
10482 10552
10552 10621
10621 10692
10692 10762
10762 10831
10831 10902
10902 10972
10972 11044
11044 11110
11110 11175
11175 11240
11240 11305
11305 11370
11370 11435
11435 11499
11499 11564
11564 11630
11630 11695
11695 11759
11759 11824
11824 11889
11889 11955
11955 12020
12020 12085
12085 12151
12151 12216
12216 12282
12282 12347
12347 12413
12413 12479
12479 12545
12545 12610
12610 12677
12677 12743
12743 12808
12808 12874
12874 12941
12941 13007
13007 13075
13075 13143
13143 13211
13211 13279
13279 13348
13348 13416
13416 13484
13484 13553
13553 13621
13621 13689
13689 13759
13759 13828
13828 13897
13897 13967
13967 14036
14036 14105
14105 14175
14175 14245
14245 14314
14454 14523
14523 14593
14593 14663
14663 14731
14731 14801
14801 14871
14871 14940
14940 15008
15008 15074
15074 15143
15143 15211
15211 15280
15280 15349
15349 15417
15417 15486
15486 15555
15555 15624
15624 15691
15691 15760
15760 15828
15828 15896
15896 15965
15965 16087
16087 16156
16223 16291
16291 16359
16359 16426
16426 16494
16494 16562
16562 16630
16630 16697
16697 16765
16765 16832
16832 16899
16899 16967
16967 17034
17034 17101
17101 17168
17168 17235
17235 17302
17302 17369
17369 17437
17437 17503
17503 17571
17571 17638
17638 17705
17705 17773
17773 17841
17841 17909
17909 17976
17976 18044
18044 18113
18113 18181
18181 18249
18249 18317
18317 18385
18385 18453
18453 18521
18521 18590
18590 18658
18658 18727
18727 18796
18796 18865
18865 18933
18933 19002
19002 19091
19091 19160
19160 19228
19228 19296
19296 19365
19365 19433
19433 19500
19500 19569
19569 19638
19638 19706
19706 19774
19774 19842
19842 19911
19911 19979
19979 20054
20054 20124
20124 20194
20194 20263
20263 20332
20332 20402
20402 20471
20471 20542
20542 20612
20612 20681
20681 20751
20751 20821
20821 20891
20891 20961
20961 21031
21031 21101
21101 21171
21171 21241
21241 21311
21311 21380
21380 21450
21450 21520
21520 21589
21589 21659
21659 21729
21729 21798
21798 21868
21868 21938
21938 22007
22007 22077
22077 22146
22146 22216
22216 22285
22285 22354
22354 22423
22423 22491
22491 22561
22561 22630
22630 22699
22699 22768
22768 22837
22837 22906
22906 22975
22975 23044
23044 23113
23113 23182
23182 23252
23252 23320
23320 23389
23389 23458
23458 23527
23527 23596
23596 23664
23664 23733
23733 23802
23802 23870
23870 23939
23939 24008
24008 24077
24077 24145
24145 24214
24214 24283
24283 24352
24352 24421
24421 24490
24490 24559
24559 24628
24628 24697
24697 24765
24765 24833
24833 24902
24902 24971
24971 25083
25083 25152
25152 25220
25220 25289
25289 25358
25358 25427
25427 25495
25495 25565
25565 25633
25633 25702
25702 25771
25771 25840
25840 25908
25908 25977
25977 26045
26045 26114
26114 26181
26181 26250
26250 26318
26318 26386
26386 26455
26455 26523
26523 26592
26592 26660
26660 26729
26729 26797
26797 26865
26865 26934
26934 27002
27002 27069
27069 27138
27138 27206
27206 27274
27274 27341
27341 27408
27408 27476
27476 27542
27542 27610
27610 27677
27677 27744
27744 27812
27812 27879
27879 27946
27946 28014
28014 28082
28082 28149
28149 28217
28217 28286
28286 28353
28353 28421
28421 28489
28489 28558
28558 28625
28625 28693
28693 28761
28761 28829
28829 28897
28897 28965
28965 29033
29033 29100
29100 29167
29167 29236
29236 29303
29303 29371
29371 29439
29439 29507
29507 29575
29575 29642
29642 29710
29710 29778
29778 29845
29845 29913
29913 29981
29981 30048
30048 30115
30115 30182
30182 30250
30250 30317
30317 30384
30384 30451
30451 30519
30519 30586
30586 30654
30654 30720
30720 30788
30788 30856
30856 30924
30924 30991
30991 31059
31059 31127
31127 31195
31195 31263
31263 31331
31331 31399
31399 31467
31467 31535
31535 31602
31602 31670
31670 31738
31738 31806
31806 31873
31873 31941
31941 32009
32009 32090
32090 32158
32158 32226
32226 32293
32293 32361
32361 32429
32429 32497
32497 32564
32564 32632
32632 32700
32700 32768
32768 32835
32835 32903
32903 32971
32971 33039
33039 33107
33107 33175
33175 33243
33243 33311
33311 33380
33380 33448
33448 33517
33517 33585
33585 33654
33654 33722
33722 33790
33790 33859
33859 33927
33927 33995
33995 34064
34064 34132
34132 34200
34200 34268
34268 34337
34337 34404
34404 34473
34473 34541
34541 34609
34609 34678
34678 34746
34746 34814
34814 34883
34883 34952
34952 35020
35020 35089
35089 35158
35158 35227
35227 35296
35296 35366
35366 35435
35435 35504
35504 35573
35573 35643
35643 35712
35712 35781
35781 35850
35850 35919
35919 35988
35988 36056
36056 36124
36124 36193
36193 36261
36261 36329
36329 36396
36396 36465
36465 36531
36531 36599
36599 36667
36667 36735
36735 36802
36802 36870
36870 36938
36938 37004
37004 37072
37072 37140
37140 37208
37208 37275
37275 37343
37343 37411
37411 37478
37478 37547
37547 37615
37615 37683
37683 37752
37752 37821
37821 37890
37890 37958
37958 38027
38027 38096
38096 38165
38165 38233
38233 38303
38303 38371
38371 38440
38440 38509
38509 38577
38577 38646
38646 38715
38715 38783
38783 38852
38852 38921
38921 38990
38990 39058
39058 39127
39127 39195
39195 39263
39263 39331
39331 39399
39399 39467
39467 39535
39535 39603
39603 39671
39671 39740
39740 39807
39807 39875
39875 39943
39943 40012
40012 40080
40080 40149
40149 40217
40217 40284
40284 40353
40353 40422
40422 40490
40490 40558
40558 40626
40626 40695
40695 40763
40763 40830
40830 40899
40899 40967
40967 41035
41035 41104
41104 41172
41172 41240
41240 41308
41308 41377
41377 41445
