6358 6428
6428 6499
6499 6570
6570 6640
6640 6711
6711 6782
6782 6853
6853 6923
6923 6995
6995 7066
7066 7137
7137 7208
7208 7280
7280 7351
7351 7423
7423 7495
7495 7567
7567 7638
7638 7711
7711 7783
7783 7854
7854 7926
7926 7999
7999 8070
8070 8143
8143 8216
8216 8288
8288 8360
8360 8432
8432 8505
8505 8577
8577 8648
8648 8720
8720 8791
8791 8862
8862 8933
9073 9144
9144 9214
9214 9284
9284 9354
9354 9424
9424 9494
9494 9564
9564 9634
9634 9705
9705 9774
9774 9844
9844 9915
9915 9985
9985 10056
10056 10127
10127 10197
10197 10267
10267 10338
10338 10408
10408 10478
10478 10549
10549 10620
10620 10691
10691 10761
10761 10832
10832 10902
10902 10973
10973 11043
11043 11113
11113 11183
11183 11254
11254 11324
11324 11394
11394 11465
11465 11535
11535 11605
11605 11675
11675 11745
11745 11815
11815 11885
11885 11955
11955 12024
12024 12094
12094 12164
12164 12234
12234 12304
12304 12374
12374 12444
12444 12515
12515 12585
12585 12655
12655 12725
12725 12796
12796 12867
12867 12937
12937 13007
13007 13077
13077 13148
13148 13217
13217 13287
13287 13358
13358 13428
13428 13498
13498 13568
13568 13639
13639 13709
13709 13779
13779 13849
13849 13920
13920 13990
13990 14040
14040 14111
14111 14182
14182 14252
14252 14323
14323 14395
14395 14466
14466 14537
14537 14609
14609 14681
14681 14753
14753 14825
14825 14897
14897 14969
14969 15041
15041 15113
15113 15185
15185 15258
15258 15330
15330 15401
15401 15474
15474 15547
15547 15619
15619 15692
15692 15764
15764 15835
15835 15908
15908 15980
15980 16052
16052 16123
16123 16195
16195 16266
16266 16337
16337 16408
16408 16479
16479 16550
16550 16620
16620 16692
16692 16761
16761 16833
16833 16904
16904 16975
16975 17045
17045 17116
17116 17187
17187 17258
17258 17330
17330 17402
17402 17473
17473 17519
17519 17590
17590 17662
17662 17734
17734 17805
17805 17877
17877 17949
17949 18020
18020 18091
18091 18162
18162 18234
18234 18305
18305 18376
18376 18446
18446 18517
18517 18588
18588 18658
18658 18729
18729 18800
18800 18871
18871 18942
18942 19013
19013 19084
19084 19154
19154 19226
19226 19298
19298 19369
19369 19440
19440 19512
19512 19584
19584 19654
19654 19726
19726 19798
19798 19870
19870 19942
19942 20014
20014 20086
20086 20157
20157 20229
20229 20301
20301 20372
20372 20444
20444 20515
20515 20586
20586 20657
20657 20728
20728 20799
20799 20869
20869 20939
20939 21008
21008 21078
21078 21148
21148 21217
21217 21286
21286 21356
21356 21425
21425 21494
21494 21563
21563 21633
21633 21702
21702 21772
21772 21842
21842 21911
21911 21980
21980 22050
22050 22119
22119 22188
22188 22257
22257 22326
22326 22395
22395 22464
22464 22533
22533 22603
22603 22672
22672 22742
22742 22812
22812 22882
22882 22953
22953 23023
23023 23093
23093 23139
23139 23210
23210 23281
23281 23352
23352 23423
23423 23494
23494 23565
23565 23636
23636 23707
23707 23779
23779 23850
23850 23921
23921 23992
23992 24063
24063 24134
24134 24206
24206 24276
24276 24347
24347 24417
24417 24488
24488 24558
24558 24628
24628 24699
24699 24769
24769 24839
24839 24909
24909 24979
24979 25049
25049 25119
25119 25189
25189 25259
25259 25329
25329 25400
25400 25470
25470 25540
25540 25611
25611 25682
25682 25752
25752 25823
25823 25894
25894 25964
25964 26068
26068 26139
26139 26210
26210 26280
26280 26351
26351 26422
26422 26493
26493 26564
26564 26635
26635 26706
26706 26776
26776 26848
26848 26919
26919 26989
26989 27060
27060 27131
27131 27202
27202 27272
27272 27343
27343 27413
27413 27484
27484 27555
27555 27626
27626 27696
27696 27767
27767 27838
27838 27908
27908 27980
27980 28099
28099 28169
28169 28240
28240 28311
28311 28381
28381 28451
28451 28522
28522 28592
28592 28661
28661 28731
28731 28801
28801 28871
28871 28940
28940 29010
29010 29080
29080 29150
29150 29219
29219 29290
29290 29360
29360 29430
29430 29501
29501 29571
29571 29641
29641 29712
29712 29783
29783 29853
29853 29925
29925 29996
29996 30067
30067 30137
30137 30208
30208 30280
30280 30350
30350 30420
30420 30491
30491 30561
30561 30631
30631 30701
30701 30771
30771 30841
30841 30911
30911 30981
30981 31084
31084 31153
31153 31224
31224 31294
31294 31364
31364 31435
31435 31506
31506 31576
31576 31646
31646 31717
31717 31788
31788 31858
31858 31929
31929 32000
32000 32069
32069 32140
32140 32212
32212 32282
32282 32353
32353 32424
32424 32495
32495 32566
32566 32638
32638 32709
32709 32779
32779 32851
32851 32922
32922 32992
32992 33063
33063 33135
33135 33206
33206 33277
33277 33349
33349 33421
33421 33492
33492 33565
33565 33636
33636 33708
33708 33780
33780 33852
33852 33923
33923 33995
33995 34097
34097 34166
34166 34235
34235 34304
34304 34373
34373 34442
34442 34511
34511 34580
34580 34649
34649 34717
34717 34786
34786 34855
34855 34924
34924 34992
34992 35062
35062 35131
35131 35200
35200 35268
35268 35338
35338 35407
35407 35477
35477 35546
35546 35616
35616 35686
35686 35755
35755 35825
35825 35894
35894 35964
35964 36033
36033 36101
36101 36171
36171 36239
36239 36308
36308 36376
36376 36445
36445 36514
36514 36583
36583 36651
36651 36720
36720 36788
36788 36857
36857 36925
36925 36993
36993 37049
37049 37164
37164 37235
37235 37304
37304 37375
37375 37444
37444 37515
37515 37584
37584 37654
37654 37723
37723 37792
37792 37861
37861 37930
37930 37999
37999 38039
38039 38109
38109 38180
38180 38251
38251 38321
38321 38392
38392 38462
38462 38533
38533 38602
38602 38673
38673 38743
38743 38813
38813 38883
38883 38953
38953 39023
39023 39093
39093 39162
39162 39233
39233 39303
39303 39373
39373 39443
39443 39514
39514 39585
39585 39655
39655 39726
39726 39797
39797 39868
39868 39939
39939 40010
40010 40080
40080 40151
40151 40222
40222 40293
40293 40364
40364 40435
40435 40506
40506 40576
40576 40647
40647 40718
40718 40788
40788 40859
40859 40929
40929 40999
40999 41070
41070 41140
41140 41209
41209 41280
41280 41350
41350 41420
41420 41490
41490 41561
41561 41631
41631 41701
41701 41772
41772 41843
41843 41913
41913 41984
41984 42093
42093 42164
42164 42235
42235 42306
42306 42376
42376 42446
42446 42517
42517 42588
42588 42658
42658 42729
42729 42800
42800 42871
42871 42941
42941 43013
43013 43083
43083 43154
43154 43225
43225 43296
43296 43367
43367 43437
43437 43507
43507 43578
43578 43647
43647 43718
43718 43787
43787 43857
43857 43927
43927 43996
43996 44065
44065 44135
44135 44204
44204 44273
44273 44342
44342 44411
44411 44481
44481 44550
44550 44619
44619 44689
44689 44759
44759 44829
44829 44899
44899 44969
44969 45039
45039 45108
45108 45179
45179 45249
45249 45319
45319 45388
45388 45458
45458 45528
45528 45598
45598 45667
45667 45736
45736 45806
45806 45875
45875 45945
45945 46048
46048 46116
46116 46185
46185 46253
46253 46322
46322 46391
46391 46459
46459 46528
46528 46596
46596 46665
46665 46734
46734 46802
46802 46870
46870 46938
46938 47006
47006 47074
47074 47142
47142 47210
47210 47278
47278 47346
47346 47414
47414 47482
47482 47550
47550 47618
47618 47686
47686 47754
47754 47822
47822 47890
47890 47958
47958 48026
48026 48094
48094 48162
48162 48230
48230 48297
48297 48365
48365 48433
48433 48501
48501 48570
48570 48638
48638 48706
48706 48774
48774 48843
48843 48912
48912 48981
48981 49079
49079 49150
49150 49222
49222 49293
49293 49364
49364 49435
49435 49506
49506 49577
49577 49647
49647 49718
49718 49789
49789 49859
49859 49929
49929 49999
49999 50069
50069 50138
50138 50208
50208 50276
50276 50345
50345 50415
50415 50483
50483 50551
50551 50619
50619 50688
50688 50755
50755 50823
50823 50890
50890 50958
50958 51026
51026 51093
51093 51160
51160 51228
51228 51296
51296 51364
51364 51432
51432 51500
51500 51567
51567 51636
51636 51705
51705 51773
51773 51842
51842 51911
51911 51980
51980 52048
52048 52117
52117 52187
52187 52257
52257 52326
52326 52397
52397 52467
52467 52536
52536 52607
52607 52678
52678 52749
52749 52819
52819 52891
52891 52962
52962 53032
53032 53103
53103 53175
53175 53245
53245 53317
53317 53388
53388 53460
53460 53531
53531 53602
53602 53673
53673 53744
53744 53814
53814 53884
53884 53954
53954 54024
54024 54093
54093 54162
54162 54230
54230 54299
54299 54367
54367 54435
54435 54502
54502 54569
54569 54637
54637 54704
54704 54771
54771 54839
54839 54906
54906 54973
54973 55040
55040 55108
55108 55177
55177 55245
55245 55313
55313 55382
55382 55450
55450 55518
55518 55587
55587 55655
55655 55724
55724 55793
55793 55860
55860 55929
55929 55998
55998 56072
56072 56140
56140 56209
56209 56277
56277 56345
56345 56414
56414 56482
56482 56550
56550 56618
56618 56686
56686 56755
56755 56822
56822 56890
56890 56958
56958 57001
57001 57095
57095 57164
57164 57233
57233 57303
57303 57371
57371 57441
57441 57510
57510 57579
57579 57649
57649 57719
57719 57788
