4184 4259
4259 4333
4333 4407
4407 4481
4481 4555
4555 4630
4630 4704
4704 4779
4779 4854
4854 4929
4929 5004
5004 5078
5078 5154
5154 5229
5229 5304
5304 5379
5379 5455
5455 5530
5530 5605
5605 5680
5680 5756
5756 5831
5831 5906
5906 5982
5982 6060
6060 6137
6137 6215
6215 6293
6293 6371
6371 6448
6448 6526
6526 6603
6603 6681
6681 6759
6759 6836
6836 6914
6914 6992
6992 7068
7068 7147
7147 7224
7224 7302
7302 7379
7379 7457
7457 7535
7535 7612
7612 7690
7690 7767
7767 7845
7845 7922
7922 8001
8001 8079
8079 8157
8157 8234
8234 8312
8312 8390
8390 8468
8468 8545
8545 8623
8623 8700
8700 8778
8778 8855
8855 8932
8932 9009
9009 9107
9107 9185
9185 9262
9262 9340
9340 9418
9418 9495
9495 9573
9573 9652
9652 9729
9729 9807
9807 9885
9885 9963
9963 10041
10041 10119
10119 10197
10197 10274
10274 10352
10352 10430
10430 10507
10507 10586
10586 10664
10664 10742
10742 10820
10820 10898
10898 10977
10977 11054
11054 11133
11133 11211
11211 11289
11289 11368
11368 11446
11446 11525
11525 11603
11603 11682
11682 11761
11761 11839
11839 11918
11918 11997
11997 12076
12076 12155
12155 12233
12233 12312
12312 12392
12392 12470
12470 12549
12549 12629
12629 12708
12708 12786
12786 12865
12865 12944
12944 13022
13022 13103
13103 13180
13180 13257
13257 13334
13334 13411
13411 13488
13488 13564
13564 13640
13640 13716
13716 13792
13792 13868
13868 13942
13942 14018
14018 14113
14113 14187
14187 14262
14262 14336
14336 14412
14412 14486
14486 14561
14561 14636
14636 14711
14711 14785
14785 14859
14859 14933
14933 15007
15007 15080
15080 15153
15153 15227
15227 15300
15300 15374
15374 15448
15448 15522
15522 15596
15596 15670
15670 15745
15745 15820
15820 15894
15894 15969
15969 16074
16074 16127
16127 16205
16205 16283
16283 16361
16361 16438
16438 16516
16516 16594
16594 16672
16672 16750
16750 16827
16827 16905
16905 16983
16983 17061
17061 17139
17139 17217
17217 17295
17295 17374
17374 17452
17452 17531
17531 17609
17609 17687
17687 17765
17765 17843
17843 17921
17921 17998
17998 18075
18075 18153
18153 18230
18230 18308
18308 18385
18385 18463
18463 18540
18540 18617
18617 18695
18695 18772
18772 18849
18849 18927
18927 19004
19004 19081
19081 19159
19159 19237
19237 19315
19315 19392
19392 19470
19470 19548
19548 19625
19625 19703
19703 19781
19781 19859
19859 19935
19935 20036
20036 20113
20113 20192
20192 20270
20270 20347
20347 20426
20426 20504
20504 20582
20582 20661
20661 20739
20739 20818
20818 20896
20896 20975
20975 21050
21050 21130
21130 21210
21210 21289
21289 21368
21368 21447
21447 21527
21527 21606
21606 21661
21661 21740
21740 21819
21819 21899
21899 21978
21978 22058
22058 22136
22136 22216
22216 22296
22296 22375
22375 22454
22454 22534
22534 22613
22613 22692
22692 22771
22771 22851
22851 22930
22930 23010
23010 23089
23089 23168
23168 23248
23248 23327
23327 23406
23406 23486
23486 23566
23566 23645
23645 23726
23726 23806
23806 23886
23886 23966
23966 24047
24047 24127
24127 24208
24208 24287
24287 24368
24368 24449
24449 24528
24528 24609
24609 24689
24689 24768
24768 24849
24849 24929
24929 25009
25009 25089
25089 25169
25169 25249
25249 25329
25329 25409
25409 25489
25489 25569
25569 25647
25647 25728
25728 25807
25807 25885
25885 25965
25965 26044
26044 26122
26122 26200
26200 26279
26279 26357
26357 26436
26436 26515
26515 26593
26593 26670
26670 26749
26749 26828
26828 26905
26905 26984
26984 27062
27062 27139
27139 27217
27217 27295
27295 27373
27373 27451
27451 27529
27529 27607
27607 27685
27685 27763
27763 27841
27841 27919
27919 27997
27997 28050
28050 28128
28128 28207
28207 28285
28285 28363
28363 28441
28441 28519
28519 28597
28597 28675
28675 28753
28753 28832
28832 28910
28910 28988
28988 29067
29067 29145
29145 29223
29223 29302
29302 29381
29381 29458
29458 29537
29537 29616
29616 29693
29693 29772
29772 29850
29850 29928
29928 30006
30006 30085
30085 30163
30163 30241
30241 30319
30319 30397
30397 30474
30474 30551
30551 30628
30628 30703
30703 30778
30778 30852
30852 30926
30926 30999
30999 31073
31073 31146
31146 31218
31218 31291
31291 31363
31363 31435
31435 31506
31506 31577
31577 31648
31648 31719
31719 31790
31790 31862
31862 31933
31933 32004
32004 32077
32077 32149
32149 32221
32221 32294
32294 32367
32367 32440
32440 32514
32514 32588
32588 32662
32662 32736
32736 32811
32811 32885
32885 32960
32960 33035
33035 33110
33110 33186
33186 33262
33262 33337
33337 33413
33413 33489
33489 33564
33564 33640
33640 33716
33716 33793
33793 33869
33869 33946
33946 34022
34022 34086
34086 34164
34164 34243
34243 34321
34321 34400
34400 34479
34479 34558
34558 34637
34637 34716
34716 34795
34795 34874
34874 34953
34953 35031
35031 35110
35110 35189
35189 35267
35267 35345
35345 35423
35423 35501
35501 35578
35578 35657
35657 35735
35735 35812
35812 35890
35890 35968
35968 36045
36045 36122
36122 36199
36199 36276
36276 36353
36353 36431
36431 36508
36508 36586
36586 36663
36663 36740
36740 36817
36817 36895
36895 36972
36972 37031
37031 37108
37108 37186
37186 37263
37263 37341
37341 37418
37418 37495
37495 37573
37573 37650
37650 37727
37727 37805
37805 37883
37883 37961
37961 38038
38038 38116
38116 38195
38195 38273
38273 38351
38351 38429
38429 38507
38507 38586
38586 38664
38664 38742
38742 38821
38821 38899
38899 38977
38977 39055
39055 39134
39134 39213
39213 39291
39291 39370
39370 39449
39449 39527
39527 39606
39606 39685
39685 39763
39763 39842
39842 39921
39921 40000
40000 40079
40079 40157
40157 40237
40237 40316
40316 40394
40394 40474
40474 40553
40553 40632
40632 40711
40711 40790
40790 40870
40870 40948
40948 41028
41028 41107
41107 41186
41186 41266
41266 41346
41346 41424
41424 41504
41504 41584
41584 41662
41662 41742
41742 41822
41822 41900
41900 41981
41981 42060
42060 42139
42139 42218
42218 42297
42297 42376
42376 42455
42455 42534
42534 42613
42613 42691
42691 42770
42770 42849
42849 42928
42928 43007
43007 43087
43087 43165
43165 43245
43245 43325
43325 43404
43404 43484
43484 43564
43564 43643
43643 43723
43723 43803
43803 43883
43883 43963
43963 44044
44044 44124
44124 44204
44204 44284
44284 44364
44364 44445
44445 44524
44524 44604
44604 44684
44684 44764
44764 44844
44844 44924
44924 45004
45004 45083
45083 45164
45164 45244
45244 45324
45324 45403
45403 45484
45484 45564
45564 45644
45644 45725
45725 45806
45806 45886
45886 45965
45965 46046
46046 46126
46126 46206
46206 46285
46285 46366
46366 46445
46445 46524
46524 46605
46605 46685
46685 46765
46765 46844
46844 46924
46924 47004
47004 47082
47082 47163
47163 47244
47244 47323
47323 47404
47404 47484
47484 47564
47564 47644
47644 47725
47725 47805
47805 47885
47885 47966
47966 48046
48046 48126
48126 48207
48207 48288
48288 48368
48368 48448
48448 48529
48529 48609
48609 48689
48689 48771
48771 48852
48852 48932
48932 48987
48987 49068
49068 49148
49148 49227
49227 49309
49309 49389
49389 49468
49468 49549
49549 49629
49629 49708
49708 49788
49788 49868
49868 49947
49947 50027
50027 50107
50107 50186
50186 50266
50266 50346
50346 50426
50426 50505
50505 50585
50585 50665
50665 50744
50744 50824
50824 50904
50904 50983
50983 51064
51064 51144
51144 51224
51224 51305
51305 51385
51385 51465
51465 51546
51546 51627
51627 51707
51707 51786
51786 51867
51867 51947
51947 52026
52026 52108
52108 52188
52188 52268
52268 52348
52348 52428
52428 52508
52508 52587
52587 52667
52667 52747
52747 52827
52827 52906
52906 52986
52986 53065
53065 53144
53144 53223
53223 53303
53303 53382
53382 53461
53461 53540
53540 53620
53620 53698
53698 53778
53778 53858
53858 53936
53936 54015
54015 54094
54094 54174
