1980 2099
2099 2218
2218 2314
3808 3921
4127 4244
4244 4362
4362 4454
6421 6535
6535 6649
6764 6880
6880 6996
14200 14314
14314 14426
14426 14515
16216 16331
16331 16444
16444 16537
20247 20363
20363 20479
20479 20569
23994 24135
24135 24247
24247 24360
25273 25387
25387 25502
25502 25593
26164 26279
26279 26390
26390 26479
28946 29085
30732 30843
33501 33611
34891 34998
42001 42109
