2976 3072
5309 5379
5522 5594
5594 5665
5665 5738
5738 5809
5809 5881
5881 5953
5953 6026
6026 6099
6099 6171
6171 6244
6244 6316
6316 6365
6365 6439
6439 6513
6513 6587
6587 6661
6661 6735
6735 6808
6808 6882
6882 6956
6956 7030
7030 7103
7103 7177
7177 7250
7250 7324
7324 7396
7396 7469
7469 7542
7542 7615
7615 7687
7687 7760
7760 7833
7833 7904
7904 7977
7977 8050
8050 8122
8122 8194
8194 8267
8267 8339
8339 8411
8411 8483
8483 8555
8555 8627
8627 8698
8698 8770
8770 8842
8842 8912
8912 8984
8984 9055
9055 9127
9127 9198
9198 9270
9270 9341
9341 9413
9413 9484
9484 9556
9556 9628
9628 9700
9700 9772
9772 9844
9844 9916
9916 9987
9987 10060
10060 10131
10131 10177
10177 10249
10249 10321
10321 10393
10393 10463
10463 10534
10534 10607
10607 10678
10678 10749
10749 10821
10821 10893
10893 10963
10963 11034
11034 11107
11107 11178
11178 11249
11249 11322
11322 11393
11393 11463
11463 11535
11535 11607
11607 11678
11678 11749
11749 11821
11821 11892
11892 11962
11962 12034
12034 12106
12106 12178
12178 12250
12250 12323
12323 12394
12394 12466
12466 12538
12538 12609
12609 12682
12682 12753
12753 12826
12826 12898
12898 12971
12971 13045
13045 13118
13118 13192
13192 13264
13264 13338
13338 13412
13412 13486
13486 13559
13559 13634
13634 13708
13708 13783
13783 13857
13857 13931
13931 14006
14006 14080
14080 14155
14155 14230
14230 14304
14304 14377
14377 14451
14451 14526
14526 14600
14600 14674
14674 14748
14748 14823
14823 14897
14897 14971
14971 15045
15045 15119
15119 15192
15192 15265
15265 15338
15338 15412
15412 15484
15484 15557
15557 15629
15629 15701
15701 15774
15774 15845
15845 15918
15918 15989
15989 16065
16065 16138
16138 16212
16212 16285
16285 16360
16360 16433
16433 16507
16507 16581
16581 16654
16654 16729
16729 16802
16802 16876
16876 16951
16951 17026
17026 17101
17101 17176
17176 17255
17255 17334
17334 17411
17411 17489
17489 17564
17564 17640
17640 17715
17715 17791
17791 17864
17864 17939
17939 18011
18011 18086
18086 18158
18158 18232
18232 18304
18304 18378
18378 18451
18451 18524
18524 18596
18596 18669
18669 18743
18743 18815
18815 18889
18889 18961
18961 19035
19035 19109
19109 19183
19183 19256
19256 19329
19329 19403
19403 19476
19476 19550
19550 19624
19624 19698
19698 19773
19773 19847
19847 19923
19923 19998
19998 20074
20074 20151
20151 20229
20229 20305
20305 20384
20384 20460
20460 20536
20536 20613
20613 20689
20689 20767
20767 20842
20842 20894
20894 20970
20970 21044
21044 21121
21121 21195
21195 21271
21271 21345
21345 21420
21420 21495
21495 21569
21569 21643
21643 21717
21717 21792
21792 21866
21866 21941
21941 22014
22014 22112
22112 22185
22185 22258
22258 22330
22330 22404
22404 22477
22477 22549
22549 22621
22621 22694
22694 22765
22765 22838
22838 22908
22908 22980
22980 23051
23051 23123
23123 23193
23193 23265
23265 23337
23337 23408
23408 23478
23478 23550
23550 23621
23621 23693
23693 23763
23763 23834
23834 23905
23905 23977
23977 24047
24047 24119
24119 24189
24189 24260
24260 24330
24330 24402
24402 24473
24473 24545
24545 24616
24616 24688
24688 24761
24761 24832
24832 24904
24904 24977
24977 25049
25049 25121
25121 25194
25194 25266
25266 25339
25339 25411
25411 25485
25485 25558
25558 25632
25632 25705
25705 25780
25780 25853
25853 25928
25928 26002
26002 26077
26077 26150
26150 26225
26225 26298
26298 26372
26372 26446
26446 26519
26519 26592
26592 26667
26667 26740
26740 26815
26815 26887
26887 26961
26961 27034
27034 27107
27107 27179
27179 27252
27252 27325
27325 27397
27397 27471
27471 27543
27543 27615
27615 27688
27688 27761
27761 27833
27833 27906
27906 27977
27977 28050
28050 28123
28123 28194
28194 28268
28268 28340
28340 28415
28415 28488
28488 28562
28562 28637
28637 28714
28714 28789
28789 28867
28867 28919
28919 28996
28996 29075
29075 29153
29153 29232
29232 29311
29311 29390
29390 29469
29469 29547
29547 29626
29626 29703
29703 29781
29781 29858
29858 29936
29936 30013
30013 30090
30090 30166
30166 30240
30240 30317
30317 30392
30392 30466
30466 30542
30542 30616
30616 30692
30692 30766
30766 30843
30843 30917
30917 30993
30993 31067
31067 31143
31143 31218
31218 31293
31293 31367
31367 31443
31443 31517
31517 31592
31592 31665
31665 31741
31741 31814
31814 31888
31888 31961
31961 32036
32036 32109
32109 32183
32183 32256
32256 32329
32329 32403
32403 32475
32475 32549
32549 32621
32621 32695
32695 32767
32767 32840
32840 32912
32912 32986
32986 33060
33060 33133
33133 33207
33207 33281
33281 33355
33355 33429
33429 33505
33505 33579
33579 33654
33654 33729
33729 33804
33804 33878
33878 33952
33952 34027
34027 34101
34101 34175
34175 34248
34248 34323
34323 34396
34396 34470
34470 34543
34543 34616
34616 34690
34690 34762
34762 34836
34836 34908
34908 34982
34982 35056
35056 35130
35130 35202
35202 35277
35277 35350
35350 35425
35425 35497
35497 35546
35546 35621
35621 35695
35695 35768
35768 35843
35843 35916
35916 35991
35991 36064
36064 36140
36140 36213
36213 36287
36287 36360
36360 36435
36435 36508
36508 36582
36582 36654
36654 36727
36727 36801
36801 36873
36873 36946
36946 37018
37018 37092
37092 37164
37164 37238
37238 37309
37309 37382
37382 37455
37455 37527
37527 37598
37598 37671
37671 37742
37742 37814
37814 37885
37885 37958
37958 38029
38029 38101
38101 38172
38172 38245
38245 38316
38316 38388
38388 38459
38459 38529
38529 38601
38601 38672
38672 38742
38742 38812
38812 38883
38883 38954
38954 39024
39024 39095
39095 39164
39164 39235
39235 39306
39306 39377
39377 39447
39447 39518
39518 39588
39588 39658
39658 39726
39726 39797
39797 39866
39866 39936
39936 40004
40004 40073
40073 40143
40143 40212
40212 40280
40280 40350
40350 40419
40419 40489
40489 40558
40558 40628
40628 40697
40697 40767
40767 40836
40836 40906
40906 40975
40975 41044
41044 41113
41113 41183
41183 41251
41251 41321
41321 41389
41389 41459
41459 41528
41528 41598
41598 41666
41666 41737
41737 41807
41807 41877
41877 41946
41946 42017
42017 42086
42086 42156
42156 42226
42226 42297
42297 42366
42366 42438
42438 42508
42508 42579
42579 42650
42650 42722
42722 42794
42794 42866
42866 42938
42938 43010
43010 43082
43082 43153
43153 43225
43225 43297
43297 43370
43370 43441
43441 43513
43513 43585
43585 43656
43656 43727
43727 43799
43799 43870
43870 43943
43943 44013
44013 44085
44085 44157
44157 44227
44227 44300
44300 44372
44372 44446
44446 44518
44518 44591
44591 44663
44663 44736
44736 44809
44809 44882
44882 44955
44955 45028
45028 45102
45102 45174
45174 45246
45246 45319
45319 45391
45391 45465
45465 45538
45538 45610
45610 45683
45683 45756
45756 45830
45830 45903
45903 45977
45977 46050
46050 46124
46124 46198
46198 46270
46270 46344
46344 46417
46417 46491
46491 46564
46564 46637
46637 46710
46710 46783
46783 46856
46856 46928
46928 47001
47001 47073
47073 47147
47147 47220
47220 47292
47292 47366
47366 47439
47439 47514
47514 47587
47587 47660
47660 47733
47733 47808
47808 47880
47880 47955
47955 48028
48028 48103
48103 48177
48177 48253
48253 48329
48329 48405
48405 48482
48482 48559
48559 48637
48637 48715
48715 48792
48792 48869
48869 48944
48944 49021
49021 49097
49097 49173
49173 49247
49247 49323
49323 49397
49397 49473
49473 49547
49547 49623
49623 49696
49696 49772
49772 49845
49845 49920
49920 49994
49994 50068
50068 50141
50141 50214
50214 50287
50287 50359
50359 50432
50432 50503
50503 50577
50577 50649
50649 50721
50721 50794
50794 50866
50866 50939
50939 51011
51011 51083
51083 51155
51155 51229
51229 51302
51302 51375
51375 51448
51448 51522
51522 51594
51594 51667
51667 51741
51741 51812
51812 51885
51885 51958
51958 52029
52029 52102
52102 52174
52174 52246
52246 52319
52319 52392
52392 52465
52465 52540
52540 52614
52614 52689
52689 52764
52764 52838
52838 52914
52914 52987
52987 53063
53063 53137
53137 53211
53211 53284
53284 53357
53357 53430
53430 53503
53503 53575
53575 53647
53647 53718
53718 53791
53791 53862
53862 53933
53933 54003
54003 54075
54075 54146
54146 54217
54217 54287
54287 54360
54360 54431
54431 54502
54502 54573
54573 54645
54645 54717
54717 54788
54788 54859
54859 54930
54930 55002
55002 55073
55073 55144
55144 55214
55214 55285
55285 55355
55355 55425
55425 55494
55494 55565
55565 55633
55633 55703
55703 55772
55772 55841
55841 55911
55911 55982
55982 56051
56051 56122
56122 56192
56192 56262
56262 56333
56333 56402
56402 56474
56474 56544
56544 56614
56614 56682
56682 56753
56753 56822
56822 56892
56892 56960
56960 57030
57030 57098
57098 57168
57168 57236
57236 57305
57305 57374
57374 57444
57444 57513
57513 57584
57584 57654
57654 57724
57724 57794
57794 57865
57865 57936
57936 58006
58006 58076
58076 58148
58148 58218
58218 58289
58289 58358
58358 58429
58429 58498
58498 58568
58568 58638
58638 58707
58707 58777
58777 58846
58846 58916
58916 58985
58985 59056
59056 59127
59127 59199
59199 59270
59270 59342
59342 59413
59413 59485
59485 59555
59555 59627
59627 59698
59698 59768
59768 59836
59836 59906
59906 59976
59976 60045
60045 60116
60116 60185
60185 60255
60255 60326
60326 60396
60396 60467
60467 60538
60538 60610
60610 60682
60682 60754
60754 60825
60825 60898
60898 60971
60971 61043
61043 61114
61114 61187
61187 61259
61259 61330
61330 61401
61401 61472
61472 61543
61543 61615
61615 61687
61687 61759
61759 61830
61830 61903
61903 61976
61976 62048
62048 62121
62121 62194
62194 62268
62268 62341
62341 62413
62413 62488
62488 62561
62561 62634
62634 62706
62706 62780
62780 62853
62853 62927
62927 62999
62999 63073
63073 63147
63147 63221
63221 63293
63293 63366
63366 63439
63439 63512
