781 849
849 918
918 986
986 1055
1055 1098
1098 1167
1167 1235
1235 1304
1304 1372
1372 1441
1441 1509
1509 1578
1578 1646
1646 1714
1714 1783
1783 1851
1851 1920
1920 1988
1988 2057
2057 2125
2125 2194
2194 2262
2262 2331
2331 2399
2399 2468
2468 2536
2536 2605
2605 2673
2673 2742
2742 2810
2810 2879
2879 2947
2947 3016
3016 3084
3084 3153
3153 3221
3221 3290
3290 3359
3359 3427
3427 3496
3496 3565
3565 3633
3633 3702
3702 3771
3771 3839
3839 3908
3908 3977
3977 4045
4045 4114
4114 4182
4182 4251
4251 4320
4320 4388
4388 4457
4457 4525
4525 4594
4594 4662
4662 4731
4731 4797
4797 4867
4867 4936
4936 5004
5004 5073
5073 5142
5142 5210
5210 5278
5278 5347
5347 5415
5415 5484
5484 5552
5552 5621
5621 5689
5689 5757
5757 5826
5826 5895
5895 5963
5963 6032
6032 6100
6100 6169
6169 6237
6237 6306
6306 6375
6375 6443
6443 6512
6512 6581
6581 6649
6649 6718
6718 6787
6787 6855
6855 6924
6924 6993
6993 7061
7061 7130
7130 7198
7198 7267
7267 7335
7335 7404
7404 7473
7473 7541
7541 7610
7610 7678
7678 7747
7747 7816
7816 7884
7884 7953
7953 8021
8021 8090
8090 8159
8159 8228
8228 8296
8296 8365
8365 8434
8434 8503
8503 8572
8572 8640
8640 8709
8709 8778
8778 8847
8847 8915
8915 8984
8984 9053
9053 9122
9122 9190
9190 9259
9259 9328
9328 9397
9397 9465
9465 9534
9534 9603
9603 9671
9671 9740
9740 9809
9809 9877
9877 9946
9946 10015
10015 10084
10084 10153
10153 10221
10221 10290
10290 10359
10359 10428
10428 10496
10496 10565
10565 10634
10634 10703
10703 10771
10771 10840
10840 10909
10909 10977
10977 11046
11046 11115
11115 11183
11183 11252
11252 11321
11321 11389
11389 11458
11458 11526
11526 11595
11595 11664
11664 11732
11732 11801
11801 11869
11869 11938
11938 12006
12006 12075
12075 12144
12144 12212
12212 12281
12281 12350
12350 12418
12418 12487
12487 12556
12556 12625
12625 12693
12693 12762
12762 12831
12831 12899
12899 12968
12968 13037
13037 13105
13105 13174
13174 13243
13243 13312
13312 13381
13381 13449
13449 13518
13518 13587
13587 13656
13656 13724
13724 13793
13793 13862
13862 13931
13931 13999
13999 14068
14068 14137
14137 14205
14205 14274
14274 14342
14342 14411
14411 14479
14479 14548
14548 14616
14616 14685
14685 14754
14754 14822
14822 14891
14891 14959
14959 15028
15028 15097
15097 15165
15165 15234
15234 15303
15303 15371
15371 15440
15440 15509
15509 15578
15578 15647
15647 15716
15716 15785
15785 15854
15854 15922
15922 15991
15991 16060
16060 16129
16129 16198
16198 16267
16267 16336
16336 16405
16405 16474
16474 16543
16543 16612
16612 16680
16680 16749
16749 16887
16887 16956
16956 17025
17025 17094
17094 17163
17163 17207
17207 17276
17276 17345
17345 17414
17414 17483
17483 17552
17552 17620
17620 17689
17689 17758
17758 17827
17827 17896
17896 17965
17965 18034
18034 18103
18103 18172
18172 18241
18241 18310
18310 18379
18379 18448
18448 18517
18517 18586
18586 18655
18655 18724
18724 18793
18793 18861
18861 18930
18930 18999
18999 19068
19068 19137
19137 19206
19206 19274
19274 19343
19343 19412
19412 19481
19481 19550
19550 19618
19618 19687
19687 19756
19756 19824
19824 19893
19893 19962
19962 20030
20030 20099
20099 20167
20167 20236
20236 20304
20304 20373
20373 20442
20442 20510
20510 20579
20579 20648
20648 20716
20716 20785
20785 20854
20854 20922
20922 20991
20991 21059
21059 21128
21128 21197
21197 21265
21265 21334
21334 21403
21403 21472
21472 21540
21540 21609
21609 21678
21678 21747
21747 21816
21816 21885
21885 21954
21954 22023
22023 22092
22092 22161
22161 22230
22230 22298
22298 22368
22368 22436
22436 22505
22505 22574
22574 22643
22643 22712
22712 22781
22781 22850
22850 22919
22919 22988
22988 23056
23056 23125
23125 23194
23194 23263
23263 23331
23331 23400
23400 23469
23469 23538
23538 23606
23606 23675
23675 23744
23744 23813
23813 23881
23881 23950
23950 24019
24019 24088
24088 24157
24157 24226
24226 24295
24295 24363
24363 24501
24501 24570
24570 24639
24639 24707
24707 24776
24776 24845
24845 24914
24914 24983
24983 25052
25052 25120
25120 25189
25189 25258
25258 25326
25326 25395
25395 25464
25464 25533
25533 25601
25601 25670
25670 25739
25739 25808
25808 25876
25876 25945
25945 26013
26013 26088
26088 26157
26157 26226
26226 26294
26294 26363
26363 26432
26432 26501
26501 26570
26570 26639
26639 26708
26708 26777
26777 26845
26845 26914
26914 26983
26983 27052
27052 27121
27121 27190
27190 27258
27258 27327
27327 27396
27396 27465
27465 27534
27534 27603
27603 27672
27672 27740
27740 27809
27809 27878
27878 27947
27947 28016
28016 28085
28085 28154
28154 28223
28223 28291
28291 28360
28360 28429
28429 28498
28498 28567
28567 28636
28636 28704
28704 28773
28773 28842
28842 28911
28911 28980
28980 29049
29049 29118
29118 29186
29186 29255
29255 29324
29324 29393
29393 29462
29462 29530
29530 29599
29599 29668
29668 29737
29737 29805
29805 29943
29943 30011
30011 30080
30080 30149
30149 30218
30218 30287
30287 30356
30356 30425
30425 30469
30469 30538
30538 30607
30607 30676
30676 30745
30745 30814
30814 30883
30883 30952
30952 31021
31021 31090
31090 31159
31159 31228
31228 31297
31297 31366
31366 31435
31435 31504
31504 31574
31574 31643
31643 31712
31712 31781
31781 31850
31850 31919
31919 31987
31987 32056
32056 32125
32125 32194
32194 32263
32263 32332
32332 32401
32401 32470
32470 32539
32539 32608
32608 32677
32677 32745
32745 32814
32814 32883
32883 32952
32952 33020
33020 33089
33089 33158
33158 33227
33227 33296
33296 33364
33364 33433
33433 33502
33502 33571
33571 33640
33640 33708
33708 33777
33777 33846
33846 33915
33915 33984
33984 34053
34053 34122
34122 34191
34191 34260
34260 34329
34329 34398
34398 34466
34466 34535
34535 34604
34604 34673
34673 34742
34742 34811
34811 34880
34880 34949
34949 35018
35018 35086
35086 35155
35155 35224
35224 35293
35293 35362
35362 35431
35431 35500
35500 35569
35569 35638
35638 35707
35707 35776
35776 35844
35844 35913
35913 35982
35982 36051
36051 36120
36120 36189
36189 36258
36258 36327
36327 36396
36396 36465
36465 36534
36534 36602
36602 36672
36672 36741
36741 36810
36810 36879
36879 36948
36948 37017
37017 37086
37086 37155
37155 37224
37224 37293
37293 37363
37363 37432
37432 37501
37501 37570
37570 37640
37640 37709
37709 37778
37778 37847
37847 37916
37916 37985
37985 38054
38054 38123
38123 38193
38193 38262
38262 38331
38331 38400
38400 38468
38468 38537
38537 38606
38606 38675
38675 38744
38744 38813
38813 38882
38882 38951
38951 39020
39020 39089
39089 39158
39158 39226
39226 39296
39296 39365
39365 39433
39433 39502
39502 39571
39571 39640
39640 39709
39709 39778
39778 39847
39847 39916
39916 39985
39985 40055
40055 40124
40124 40193
40193 40262
40262 40330
40330 40400
40400 40469
40469 40538
40538 40607
40607 40676
40676 40745
40745 40814
40814 40883
40883 40952
40952 41021
41021 41090
41090 41159
41159 41227
41227 41296
41296 41365
41365 41434
41434 41503
41503 41572
41572 41641
41641 41710
41710 41779
41779 41847
41847 41916
41916 41985
41985 42054
42054 42123
42123 42191
42191 42260
42260 42329
42329 42398
42398 42467
42467 42536
42536 42604
42604 42673
42673 42742
42742 42811
42811 42880
42880 42949
42949 43018
43018 43086
43086 43155
43155 43224
43224 43293
43293 43362
43362 43431
43431 43500
43500 43569
43569 43638
43638 43707
43707 43775
43775 43844
43844 43913
43913 43962
43962 44060
44060 44129
44129 44198
44198 44267
44267 44336
44336 44405
44405 44474
44474 44543
44543 44612
44612 44681
44681 44750
44750 44819
44819 44888
44888 44957
44957 45026
45026 45095
45095 45164
45164 45233
45233 45302
45302 45371
45371 45441
45441 45509
45509 45579
45579 45648
45648 45717
45717 45786
45786 45855
45855 45924
45924 45993
45993 46062
46062 46131
46131 46200
46200 46269
46269 46338
46338 46406
46406 46475
46475 46544
46544 46613
46613 46682
46682 46751
46751 46820
46820 46890
46890 46958
46958 47027
47027 47096
47096 47165
47165 47234
47234 47303
47303 47372
47372 47441
47441 47510
47510 47579
47579 47648
47648 47718
47718 47787
47787 47856
47856 47925
47925 47994
47994 48063
48063 48132
48132 48201
48201 48270
48270 48340
48340 48409
48409 48478
48478 48548
48548 48617
48617 48686
48686 48755
48755 48825
48825 48894
48894 48963
48963 49033
49033 49102
49102 49171
49171 49240
49240 49310
49310 49379
49379 49448
49448 49518
49518 49587
49587 49656
49656 49725
49725 49795
49795 49864
49864 49933
49933 50002
50002 50072
50072 50141
50141 50210
50210 50279
50279 50348
50348 50418
50418 50487
50487 50556
50556 50625
50625 50694
50694 50763
50763 50832
50832 50902
50902 50971
50971 51040
51040 51109
51109 51179
51179 51248
51248 51317
51317 51386
51386 51455
51455 51525
51525 51594
51594 51663
51663 51732
51732 51801
51801 51870
51870 51940
51940 52009
52009 52078
52078 52147
52147 52216
52216 52285
52285 52354
52354 52423
52423 52492
52492 52561
52561 52630
52630 52699
52699 52768
52768 52837
52837 52907
52907 52976
52976 53045
53045 53183
53183 53252
53252 53322
53322 53391
53391 53460
53460 53529
53529 53598
53598 53667
53667 53736
53736 53806
53806 53875
53875 53944
53944 54013
54013 54082
54082 54151
54151 54220
54220 54290
54290 54359
54359 54428
54428 54497
54497 54566
54566 54636
54636 54705
54705 54774
54774 54843
54843 54913
54913 54982
54982 55051
55051 55121
55121 55190
55190 55259
55259 55329
55329 55398
55398 55467
55467 55537
55537 55606
55606 55675
55675 55745
55745 55814
55814 55883
55883 55953
55953 56022
56022 56091
56091 56160
56160 56229
56229 56299
56299 56368
56368 56437
56437 56506
56506 56575
56575 56644
56644 56713
56713 56782
56782 56851
56851 56920
56920 56989
56989 57059
57059 57128
57128 57197
57197 57266
57266 57335
57335 57404
57404 57473
57473 57543
57543 57612
57612 57681
57681 57750
57750 57819
57819 57888
57888 57957
57957 58027
58027 58096
58096 58165
58165 58234
58234 58303
58303 58372
58372 58441
58441 58511
58511 58580
58580 58649
58649 58718
58718 58787
58787 58856
58856 58925
58925 58994
58994 59032
59032 59102
59102 59171
59171 59240
59240 59310
59310 59379
59379 59448
59448 59517
59517 59587
59587 59656
59656 59725
59725 59794
59794 59864
59864 59933
59933 60002
60002 60071
60071 60140
60140 60209
60209 60278
60278 60348
60348 60417
60417 60486
60486 60555
60555 60624
60624 60693
60693 60762
60762 60831
60831 60900
60900 60969
60969 61038
61038 61107
61107 61176
61176 61246
61246 61315
61315 61384
61384 61453
61453 61522
61522 61591
61591 61660
61660 61730
61730 61799
61799 61868
61868 61937
61937 62006
62006 62075
62075 62144
62144 62213
62213 62282
62282 62351
62351 62420
62420 62489
62489 62558
62558 62627
62627 62696
62696 62765
62765 62834
62834 62903
62903 62972
62972 63041
63041 63110
63110 63179
63179 63249
63249 63318
63318 63387
63387 63456
63456 63525
63525 63594
63594 63663
63663 63732
63732 63801
63801 63871
63871 63940
63940 64009
64009 64078
64078 64147
64147 64216
64216 64285
64285 64354
64354 64423
64423 64493
64493 64561
64561 64631
64631 64700
64700 64769
64769 64838
64838 64907
64907 64976
64976 65045
65045 65114
65114 65183
65183 65252
65252 65321
65321 65390
65390 65459
65459 65528
65528 65597
65597 65665
65665 65734
65734 65803
65803 65872
65872 65941
65941 66010
66010 66079
66079 66148
66148 66217
66217 66286
66286 66355
66355 66423
66423 66492
66492 66561
66561 66630
66630 66699
66699 66768
66768 66837
66837 66906
66906 66975
66975 67044
67044 67113
67113 67181
67181 67251
67251 67320
67320 67389
67389 67458
67458 67527
67527 67596
67596 67665
67665 67734
67734 67803
67803 67872
67872 67941
67941 68010
68010 68079
68079 68148
68148 68217
68217 68286
68286 68356
68356 68425
68425 68494
68494 68563
68563 68632
68632 68701
68701 68771
68771 68840
68840 68909
68909 68978
