1239 1308
1377 1446
1446 1516
1516 1585
1585 1654
1654 1723
1723 1793
1793 1862
1862 1931
1931 2001
2001 2070
2070 2139
2139 2208
2208 2278
2278 2347
2347 2417
2417 2486
2486 2555
2555 2624
2624 2693
2693 2762
2762 2831
2831 2901
2901 2970
2970 3039
3039 3108
3108 3177
3177 3246
3246 3315
3315 3384
3384 3454
3454 3523
3523 3592
3592 3662
3662 3731
3731 3800
3800 3869
3869 3938
3938 4008
4008 4077
4077 4146
4146 4215
4215 4285
4285 4354
4354 4423
4423 4492
4492 4561
4561 4631
4631 4700
4700 4769
4769 4838
4838 4907
4907 4976
4976 5045
5045 5114
5114 5183
5183 5253
5253 5322
5322 5391
5391 5460
5460 5529
5529 5599
5599 5668
5668 5737
5737 5806
5806 5876
5876 5945
5945 6014
6014 6083
6083 6153
6153 6222
6222 6291
6291 6360
6360 6429
6429 6498
6498 6567
6567 6636
6636 6705
6705 6774
6774 6844
6844 6913
6913 6982
6982 7051
7051 7120
7120 7189
7189 7259
7259 7328
7328 7397
7397 7466
7466 7535
7535 7605
7605 7674
7674 7743
7743 7812
7812 7893
7893 7951
7951 8020
8020 8058
8058 8127
8127 8196
8196 8265
8265 8334
8334 8404
8404 8473
8473 8542
8542 8611
8611 8681
8681 8750
8750 8888
8888 8958
8958 9027
9027 9096
9096 9165
9165 9234
9234 9304
9304 9373
9373 9442
9442 9512
9512 9581
9581 9651
9651 9720
9720 9790
9790 9859
9859 9929
9929 9998
9998 10068
10068 10137
10137 10206
10206 10276
10276 10345
10345 10415
10415 10484
10484 10553
10553 10623
10623 10692
10692 10762
10762 10831
10831 10900
10900 10970
10970 11082
11082 11151
11151 11221
11221 11290
11290 11360
11360 11429
11429 11498
11498 11568
11568 11637
11637 11707
11707 11776
11776 11845
11845 11914
11914 11983
11983 12053
12053 12122
12122 12191
12191 12260
12260 12330
12330 12399
12399 12469
12469 12538
12538 12607
12607 12676
12676 12746
12746 12815
12815 12885
12885 12954
12954 13023
13023 13093
13093 13163
13163 13232
13232 13301
13301 13370
13370 13439
13439 13509
13509 13578
13578 13647
13647 13716
13716 13785
13785 13855
13855 13924
13924 13993
13993 14062
14062 14131
14131 14200
14200 14270
14270 14339
14339 14408
14408 14477
14477 14546
14546 14616
14616 14685
14685 14755
14755 14824
14824 14893
14893 14963
14963 15030
15030 15091
15091 15160
15160 15229
15229 15298
15298 15367
15367 15436
15436 15505
15505 15574
15574 15643
15643 15712
15712 15781
15781 15850
15850 15919
15919 15988
15988 16057
16057 16126
16126 16195
16195 16264
16264 16333
16333 16402
16402 16471
16471 16540
16540 16609
16609 16678
16678 16747
16747 16816
16816 16885
16885 16954
16954 17023
17023 17093
17093 17162
17162 17231
17231 17300
17300 17369
17369 17438
17438 17508
17508 17577
17577 17646
17646 17715
17715 17784
17784 17853
17853 17922
17922 17991
17991 18031
18031 18100
18100 18170
18170 18239
18239 18308
18308 18377
18377 18447
18447 18516
18516 18596
18596 18654
18654 18723
18723 18793
18793 18862
18862 18931
18931 19000
19000 19069
19069 19139
19139 19208
19208 19277
19277 19346
19346 19416
19416 19485
19485 19554
19554 19623
19623 19692
19692 19762
19762 19831
19831 19901
19901 19970
19970 20039
20039 20108
20108 20178
20178 20247
20247 20316
20316 20386
20386 20455
20455 20524
20524 20593
20593 20663
20663 20732
20732 20801
20801 20870
20870 20939
20939 21009
21009 21092
21092 21161
21161 21230
21230 21299
21299 21368
21368 21438
21438 21507
21507 21576
21576 21645
21645 21714
21714 21784
21784 21853
21853 21922
21922 21991
21991 22060
22060 22130
22130 22199
22199 22268
22268 22337
22337 22407
22407 22476
22476 22545
22545 22614
22614 22683
22683 22752
22752 22821
22821 22890
22890 22960
22960 23029
23029 23071
23071 23140
23140 23209
23209 23278
23278 23348
23348 23417
23417 23486
23486 23555
23555 23624
23624 23694
23694 23763
23763 23832
23832 23901
23901 23971
23971 24040
24040 24109
24109 24179
24179 24248
24248 24317
24317 24386
24386 24456
24456 24525
24525 24594
24594 24663
24663 24732
24732 24801
24801 24871
24871 24940
24940 25009
25009 25078
25078 25147
25147 25216
25216 25285
25285 25354
25354 25422
25422 25491
25491 25560
25560 25629
25629 25698
25698 25767
25767 25836
25836 25904
25904 25974
25974 26042
26042 26111
26111 26180
26180 26248
26248 26317
26317 26386
26386 26455
26455 26523
26523 26592
26592 26661
26661 26730
26730 26798
26798 26867
26867 26936
26936 27005
27005 27074
27074 27142
27142 27211
27211 27280
27280 27349
27349 27418
27418 27487
27487 27556
27556 27625
27625 27694
27694 27762
27762 27832
27832 27900
27900 27969
27969 28038
28038 28107
28107 28176
28176 28245
28245 28314
28314 28383
28383 28452
28452 28521
28521 28591
28591 28660
28660 28729
28729 28798
28798 28867
28867 28937
28937 29006
29006 29075
29075 29144
29144 29213
29213 29283
29283 29352
29352 29421
29421 29490
29490 29559
29559 29629
29629 29698
29698 29767
29767 29836
29836 29906
29906 29975
29975 30044
30044 30113
30113 30182
30182 30252
30252 30321
30321 30390
30390 30459
30459 30528
30528 30597
30597 30667
30667 30736
30736 30805
30805 30874
30874 30943
30943 31012
31012 31081
31081 31150
31150 31219
31219 31288
31288 31357
31357 31426
31426 31495
31495 31565
31565 31634
31634 31703
31703 31772
31772 31841
31841 31910
31910 31979
31979 32048
32048 32117
32117 32186
32186 32255
32255 32325
32325 32394
32394 32463
32463 32532
32532 32601
32601 32671
32671 32740
32740 32809
32809 32879
32879 32948
32948 33017
33017 33057
33057 33126
33126 33196
33196 33265
33265 33334
33334 33403
33403 33471
33471 33541
33541 33610
33610 33678
33678 33747
33747 33816
33816 33885
33885 33954
33954 34023
34023 34092
34092 34161
34161 34230
34230 34299
34299 34368
34368 34437
34437 34505
34505 34574
34574 34643
34643 34713
34713 34782
34782 34851
34851 34919
34919 34988
34988 35058
35058 35127
35127 35196
35196 35265
35265 35334
35334 35403
35403 35472
35472 35542
35542 35611
35611 35680
35680 35749
35749 35818
35818 35888
35888 35957
35957 36026
36026 36095
36095 36164
36164 36234
36234 36303
36303 36372
36372 36441
36441 36510
36510 36580
36580 36649
36649 36717
36717 36786
36786 36855
36855 36924
36924 37011
37011 37098
37098 37167
37167 37236
37236 37305
37305 37374
37374 37443
37443 37512
37512 37581
37581 37650
37650 37719
37719 37788
37788 37857
37857 37926
37926 37995
37995 38064
38064 38133
38133 38202
38202 38271
38271 38340
38340 38409
38409 38477
38477 38547
38547 38615
38615 38684
38684 38753
38753 38822
38822 38891
38891 38960
38960 39029
39029 39097
39097 39166
39166 39235
39235 39304
39304 39372
39372 39441
39441 39510
39510 39579
39579 39647
39647 39716
39716 39785
39785 39854
39854 39923
39923 39991
39991 40045
40045 40114
40114 40183
40183 40252
40252 40322
40322 40391
40391 40460
40460 40529
40529 40598
40598 40667
40667 40736
40736 40805
40805 40874
40874 40943
40943 41013
41013 41082
41082 41151
41151 41220
41220 41289
41289 41358
41358 41427
41427 41496
41496 41565
41565 41634
41634 41703
41703 41772
41772 41842
41842 41911
41911 41980
41980 42049
42049 42118
42118 42188
42188 42257
42257 42326
42326 42395
42395 42464
42464 42534
42534 42603
42603 42672
42672 42741
42741 42811
42811 42880
42880 42949
42949 43019
43019 43088
43088 43157
43157 43226
43226 43295
43295 43365
43365 43434
43434 43503
43503 43572
43572 43641
43641 43711
43711 43780
43780 43849
43849 43918
43918 43987
43987 44057
44057 44126
44126 44195
44195 44265
44265 44334
44334 44403
44403 44472
44472 44541
44541 44610
44610 44680
44680 44749
44749 44818
44818 44887
44887 44956
44956 45025
45025 45094
45094 45163
45163 45232
45232 45301
45301 45370
45370 45439
45439 45508
45508 45578
45578 45647
45647 45716
45716 45785
45785 45854
45854 45923
45923 45992
45992 46061
46061 46130
46130 46199
46199 46268
46268 46337
46337 46406
46406 46475
46475 46544
46544 46613
46613 46683
46683 46752
46752 46821
46821 46889
46889 46958
46958 47027
47027 47096
47096 47161
47161 47233
47233 47302
47302 47371
47371 47440
47440 47509
47509 47578
47578 47647
47647 47716
47716 47785
47785 47854
47854 47923
47923 47992
47992 48061
48061 48130
48130 48199
48199 48268
48268 48337
48337 48406
48406 48475
48475 48544
48544 48613
48613 48681
48681 48750
48750 48819
48819 48888
48888 48958
48958 49027
49027 49096
49096 49165
49165 49234
49234 49303
49303 49372
49372 49441
49441 49511
49511 49580
49580 49649
49649 49718
49718 49787
49787 49856
49856 49925
49925 49995
49995 50064
50064 50133
50133 50202
50202 50271
50271 50340
50340 50410
50410 50479
50479 50548
50548 50617
50617 50686
50686 50755
50755 50825
50825 50894
50894 50963
50963 51032
51032 51101
51101 51171
51171 51240
51240 51309
51309 51378
51378 51447
51447 51516
51516 51586
51586 51655
51655 51724
51724 51793
51793 51863
51863 51932
51932 52001
52001 52071
52071 52140
52140 52206
52206 52278
52278 52348
52348 52417
52417 52486
52486 52555
52555 52625
52625 52694
52694 52763
52763 52832
52832 52901
52901 52971
52971 53040
53040 53109
53109 53178
53178 53247
53247 53317
53317 53386
53386 53455
53455 53524
53524 53594
53594 53663
53663 53732
53732 53801
53801 53870
53870 53939
53939 54008
54008 54075
54075 54122
54122 54191
54191 54260
54260 54329
54329 54398
54398 54468
54468 54537
54537 54606
54606 54675
54675 54744
54744 54814
54814 54883
54883 54952
54952 55036
55036 55105
55105 55175
55175 55244
55244 55313
55313 55382
55382 55451
55451 55520
55520 55589
55589 55658
55658 55728
55728 55797
55797 55866
55866 55934
55934 55976
55976 56044
56044 56113
56113 56182
56182 56251
56251 56321
56321 56390
56390 56459
56459 56528
56528 56597
56597 56666
56666 56736
56736 56805
56805 56874
56874 56943
56943 57013
57013 57082
57082 57151
57151 57221
57221 57290
57290 57359
57359 57429
57429 57498
57498 57567
57567 57636
57636 57706
57706 57775
57775 57844
57844 57913
