3343 3452
3452 3560
3560 3669
3669 3777
4326 4439
4439 4554
4554 4672
4672 4787
4787 4900
7182 7290
7290 7398
7728 7836
7836 7946
7946 8039
9360 9467
9467 9548
12342 12452
13324 13434
13848 13961
13961 14073
16722 16834
16834 16945
16945 17054
24800 24908
25781 25894
28277 28387
32858 32972
32972 33086
33086 33198
33198 33311
34411 34516
34516 34596
35444 35552
35552 35662
35662 35767
39677 39788
41389 41486
41486 41564
41564 41663
41663 41761
41761 41859
41859 41958
41958 42088
42088 42195
42195 42302
42302 42409
42409 42517
42517 42626
42626 42732
42732 42841
42841 42951
42951 43058
43058 43169
43169 43279
43279 43389
43389 43500
43500 43615
43615 43725
43725 43839
43839 43947
43947 44058
44058 44168
44168 44284
44284 44396
44396 44510
44510 44620
44620 44730
44730 44841
44841 44949
44949 45057
45057 45164
45164 45273
45273 45381
45381 45490
45490 45597
45597 45704
45704 45809
45809 45921
45921 46024
46024 46135
46135 46240
46240 46350
46350 46454
46454 46560
46560 46669
46669 46776
46776 46884
46884 46991
46991 47099
47099 47206
47206 47313
47313 47422
47422 47534
47534 47643
47643 47752
47752 47862
47862 47970
47970 48082
48082 48193
48193 48300
48300 48412
48412 48523
48523 48632
48632 48741
48741 48847
48847 48959
48959 49062
49062 49176
49176 49281
49281 49390
49390 49492
49492 49593
49593 49690
49690 49788
49788 49886
49886 49987
49987 50095
50095 50206
50206 50319
50319 50429
50429 50541
50541 50652
50652 50766
50766 50878
50878 50988
50988 51098
51098 51207
51207 51315
51315 51425
51425 51532
51532 51645
51645 51753
51753 51867
51867 51940
51940 52133
52133 52242
52242 52344
52344 52446
52446 52548
52548 52651
52651 52760
52760 52868
52868 52974
52974 53081
53081 53184
53184 53290
53290 53397
53397 53501
53501 53606
53606 53712
53712 53814
53814 53913
53913 54014
54014 54122
54122 54231
54231 54339
54339 54448
54448 54557
54557 54665
54665 54769
54769 54876
54876 54983
54983 55091
55091 55200
55200 55309
55309 55419
55419 55529
55529 55638
55638 55750
55750 55858
55858 55975
55975 56084
56084 56198
56198 56306
56306 56413
56413 56520
56520 56628
56628 56732
56732 56839
56839 56948
56948 57053
57053 57162
57162 57266
57266 57371
57371 57471
57471 57573
57573 57682
57682 57790
57790 57894
57894 57997
57997 58098
58098 58200
58200 58310
58310 58416
58416 58523
58523 58628
58628 58735
58735 58842
58842 58958
58958 59069
59069 59177
59177 59288
59288 59396
59396 59503
59503 59612
59612 59720
59720 59825
59825 59932
59932 60044
60044 60150
60150 60256
60256 60358
60358 60465
60465 60573
60573 60681
60681 60789
60789 60897
60897 61004
61004 61111
61111 61219
61219 61329
61329 61437
61437 61549
61549 61667
61667 61778
61778 61892
61892 62002
62002 62040
62040 62137
62137 62238
62238 62343
62343 62448
62448 62545
62545 62646
62646 62746
62746 62843
62843 62943
62943 63051
63051 63156
63156 63259
63259 63366
63366 63473
63473 63578
63578 63689
63689 63793
63793 63906
63906 64015
64015 64123
64123 64231
64231 64339
64339 64449
64449 64560
64560 64671
64671 64779
64779 64888
64888 64994
64994 65103
