926 1140
4925 5062
5062 5140
5140 5274
5274 5352
5352 5426
5426 5504
5504 5572
5572 5710
5710 5784
5784 5874
5874 5948
5948 6075
6075 6152
6152 6239
6239 6310
6310 6399
6399 6484
6484 6574
6574 6652
6652 6770
6770 6861
6861 6944
6944 7066
7066 7174
7174 7264
7264 7346
7346 7426
7426 7551
7551 7652
7652 7743
7743 7850
