37 162
162 411
411 535
535 661
661 786
786 911
911 1036
1036 1161
1161 1286
1286 1410
1410 1535
1535 1661
1661 1786
1786 1910
1910 2030
2030 2133
2133 2257
2257 2383
2383 2507
2507 2632
2632 2757
2757 2882
2882 3007
3007 3132
3132 3257
3257 3381
3381 3507
3507 3632
3632 3756
3756 3881
3881 4006
4006 4132
4132 4256
4256 4381
4506 4631
4631 4755
5006 5131
5131 5255
5255 5379
5506 5631
5631 5755
5755 5880
5880 6006
6006 6130
6130 6255
6255 6380
6380 6505
6505 6629
6629 6755
6755 6880
6880 7005
7005 7129
7129 7255
7255 7379
7379 7505
7505 7629
7629 7754
7754 7880
7880 8005
8005 8129
8129 8254
8254 8379
8379 8504
8504 8629
8629 8754
8754 8878
8878 9000
9000 9104
9104 9228
9228 9353
9353 9478
9478 9604
9604 9728
9728 9853
9853 9978
9978 10103
10103 10228
10228 10353
10353 10478
10478 10603
10603 10728
10728 10852
10852 10978
10978 11103
11103 11227
11227 11352
11352 11478
11478 11603
11603 11728
11728 11852
11852 11977
11977 12102
12102 12227
12227 12352
12352 12476
12476 12602
12602 12727
12727 12852
12852 12976
12976 13102
13102 13227
13227 13351
13351 13476
13476 13602
13602 13726
13726 13850
13850 13976
13976 14101
14101 14226
14226 14350
14350 14475
14475 14601
14601 14725
14725 14851
14851 14976
14976 15101
15101 15225
15225 15350
15350 15476
15476 15600
15600 15725
15725 15850
15850 15975
15975 16100
16100 16225
16225 16349
16349 16475
16475 16599
16599 16725
16725 16849
16849 16975
16975 17099
17099 17224
17224 17349
17349 17475
17475 17599
17599 17724
17724 17849
17849 17974
17974 18073
18073 18199
18199 18324
18324 18448
18448 18573
18573 18698
18698 18824
18824 18948
18948 19073
19073 19198
19198 19323
19323 19448
19448 19573
19573 19698
19698 19823
19823 19948
19948 20072
20072 20197
20197 20322
20322 20447
20447 20572
20572 20697
20697 20821
20821 20947
20947 21071
21071 21195
21195 21321
21321 21445
21445 21571
21571 21696
21696 21821
21821 21945
21945 22070
22070 22195
22320 22446
22446 22570
22570 22695
22695 22820
22820 22945
22945 23069
23069 23194
23194 23319
23445 23570
23570 23694
23694 23819
23819 23944
23944 24070
24070 24194
24194 24319
24319 24444
24444 24569
24569 24694
24694 24818
24818 24943
24943 25044
25044 25168
25168 25294
25294 25418
25418 25542
25542 25668
25668 25793
25793 25918
25918 26042
26042 26167
26167 26292
26292 26418
26418 26542
26542 26668
26668 26792
26792 26917
26917 27042
27042 27167
27167 27292
27292 27418
27418 27542
27542 27666
27666 27791
27791 27917
27917 28042
28042 28167
28167 28291
28291 28417
28417 28542
28542 28666
28666 28792
28792 28917
28917 29041
29041 29166
29166 29292
29292 29416
29416 29541
29541 29665
29665 29791
29791 29916
29916 30041
30041 30165
30165 30290
30290 30416
30416 30540
30540 30665
30665 30790
30790 30915
30915 31030
31030 31140
31140 31264
31264 31390
31390 31515
31515 31640
31640 31764
31764 31889
31889 32015
32015 32139
32139 32263
32263 32389
32514 32639
32639 32764
32764 32889
32889 33013
33013 33139
33139 33264
33264 33388
33388 33514
33514 33638
33638 33763
33763 33888
33888 34014
34014 34112
34112 34237
34237 34362
34362 34487
34487 34612
34612 34737
34737 34861
34861 34986
34986 35111
35111 35236
35236 35361
35361 35485
35485 35610
35610 35735
35735 35859
