1114 1240
1240 1489
1489 1614
1614 1739
1739 1864
1864 1989
1989 2114
2114 2239
2239 2363
2363 2489
2489 2613
2613 2739
2739 2863
2863 2988
2988 3114
3114 3239
3239 3363
3363 3488
3488 3613
3613 3738
3738 3862
3862 3987
3987 4083
4083 4209
4209 4333
4333 4458
4458 4583
4583 4709
4709 4833
4833 4958
4958 5058
5058 5182
5182 5307
5307 5432
5432 5557
5557 5682
5682 5807
5807 5932
5932 6057
6057 6182
6182 6307
6307 6431
6431 6556
6556 6681
6681 6806
6806 6931
6931 7056
7056 7181
7181 7306
7306 7431
7431 7556
7556 7681
7681 7806
7806 7931
7931 8055
8055 8181
8181 8306
8306 8431
8431 8555
8555 8680
8680 8805
8805 8930
8930 9180
9180 9429
9429 9555
9555 9679
9679 9805
9805 9930
9930 10055
10055 10179
10179 10304
10304 10429
10429 10554
10554 10680
10680 10804
10804 10929
10929 11054
11054 11179
11179 11303
11303 11428
11428 11553
11553 11679
11679 11804
11804 11928
11928 12053
12053 12178
12178 12304
12304 12428
12428 12553
12553 12678
12678 12803
12803 12928
12928 13031
13031 13153
13153 13278
13278 13402
13402 13528
13528 13652
13652 13776
13776 13902
13902 14026
14026 14152
14152 14276
14276 14401
14401 14526
14526 14652
14652 14776
14776 14902
14902 15026
15026 15151
15151 15276
15276 15401
15401 15526
15526 15652
15652 15776
15776 15900
15900 16025
16025 16151
16151 16276
16276 16401
16401 16525
16525 16651
16651 16776
16776 16900
16900 17026
17026 17151
17151 17275
17275 17400
17400 17526
17526 17650
17650 17775
17775 17899
17899 18025
18025 18150
18150 18275
18275 18400
18400 18524
18524 18650
18650 18774
18774 18899
18899 19025
19025 19123
19123 19249
19249 19373
19373 19497
19497 19623
19623 19748
19748 19872
19872 19997
19997 20071
20071 20194
20194 20319
20319 20444
20444 20569
20569 20694
20694 20818
20818 20943
20943 21500
21500 21626
21626 22129
22129 22254
22254 22379
22379 22505
22505 22628
22628 22743
22743 22877
22877 23002
23002 23068
23068 23193
23193 23317
23317 23442
23442 23567
23567 23691
23691 23815
