266 391
391 515
515 640
640 765
765 891
891 1015
1015 1140
1140 1265
1265 1390
1390 1516
1516 1640
1640 1765
1765 1889
1889 2013
2013 2085
2085 2209
2209 2333
2333 2458
2458 2583
2707 2833
2833 2957
2957 3088
3088 3212
3212 3337
3337 3463
3463 3588
3588 3712
3712 3836
3836 3961
3961 4116
4116 4241
4241 4365
4365 4492
4492 4617
4617 4740
4740 4866
4866 4992
4992 5117
5117 5239
5239 5366
5366 5491
5491 5617
5617 5740
5740 5865
