90 201
2204 2315
6218 6330
6330 6441
7336 7448
7448 7560
7560 7671
10918 11029
11029 11091
12880 12992
12992 13104
14000 14109
14109 14196
14196 14308
14308 14420
14420 14532
14532 14644
14644 14757
14757 14869
14869 14981
14981 15094
15094 15205
15205 15317
15317 15430
15430 15542
15542 15654
15654 15767
15767 15879
15879 15990
15990 16088
16088 16201
16201 16313
16313 16426
16426 16539
16539 16652
16652 16764
16764 16877
16877 16989
16989 17077
17077 17190
17190 17304
17304 17417
17417 17530
17530 17644
17644 17757
17757 17870
17870 17982
17982 18101
18101 18212
18212 18323
18323 18436
18436 18548
18548 18660
18660 18771
18771 18884
18884 18995
18995 19092
19092 19204
19204 19316
19316 19429
19429 19541
19541 19653
19653 19765
19765 19878
19878 19990
19990 20130
20130 20242
20242 20355
20355 20467
20467 20580
20580 20692
20692 20805
20805 20917
20917 21030
21030 21091
21091 21204
21204 21318
21318 21431
21431 21544
21544 21657
21657 21771
21771 21884
21884 21997
21997 22113
22113 22225
22225 22338
22338 22450
22450 22562
