1282 1360
1360 1402
1559 1638
1638 1716
1716 1795
1795 1874
1874 1951
1951 2031
2031 2110
2110 2187
2187 2267
2267 2346
2346 2422
2422 2504
2504 2582
2582 2660
2660 2740
2740 2818
2818 2896
2896 2976
2976 3054
3054 3132
3132 3211
3211 3289
3289 3369
3369 3447
3447 3526
3526 3605
3605 3683
3683 3762
3762 3841
3841 3920
3920 3999
3999 4077
4077 4156
4156 4234
4234 4313
4313 4392
4392 4471
4471 4549
4549 4629
4629 4707
4707 4783
4783 4865
4865 4943
4943 5021
5021 5102
5102 5181
5181 5260
5260 5339
5339 5418
5418 5497
5497 5576
5576 5655
5655 5734
5734 5813
5813 5892
5892 5971
5971 6049
6049 6129
6129 6207
6207 6286
6286 6365
6365 6444
6444 6523
6523 6602
6602 6681
6681 6760
6760 6839
6839 6918
6918 6997
6997 7076
7076 7155
7155 7234
7234 7313
7313 7392
7392 7471
7471 7550
7550 7629
7629 7708
7708 7787
7787 7866
7866 7946
7946 8025
8025 8104
8104 8184
8184 8263
8263 8343
8343 8422
8422 8502
8502 8581
8581 8661
8661 8741
8741 8820
8820 8899
8899 8979
8979 9058
9058 9137
9137 9216
9216 9296
9296 9375
9375 9454
9454 9533
9533 9612
9612 9692
9692 9771
9771 9850
9850 9929
9929 10008
10008 10088
10088 10167
10167 10246
10246 10325
10325 10405
10405 10484
10484 10563
10563 10643
10643 10722
10722 10801
10801 10881
10881 10960
10960 11072
11072 11151
15369 15448
15448 15528
15528 15583
22224 22305
22305 22401
22401 22485
22485 22566
22566 22646
22646 22728
22728 22809
22809 22886
22886 22970
22970 23051
23051 23132
23132 23212
23212 23293
23293 23373
23373 23454
23454 23534
23534 23615
23615 23695
23695 23776
23776 23856
23856 23936
23936 24017
24017 24055
24055 24136
24136 24217
24217 24299
24299 24379
24379 24460
24460 24541
24541 24622
24622 24703
24703 24784
24784 24864
24864 24945
24945 25026
25026 25107
25107 25188
25188 25268
25268 25350
25350 25431
25431 25512
25512 25593
25593 25674
25674 25755
25755 25836
25836 25918
25918 25999
25999 26080
26080 26161
26161 26242
26242 26323
26323 26405
26405 26486
26486 26566
26566 26648
26648 26729
26729 26810
26810 26891
26891 26972
26972 27053
27053 27134
27134 27214
27214 27295
27295 27376
27376 27457
27457 27538
27538 27618
27618 27699
27699 27780
27780 27861
27861 27941
27941 28021
28021 28102
28102 28183
28183 28263
28263 28344
28344 28424
28424 28505
28505 28585
28585 28666
28666 28747
28747 28827
28827 28909
28909 28989
28989 29070
29070 29150
29150 29231
29231 29312
29312 29392
29392 29473
29473 29554
29554 29635
29635 29716
29716 29796
29796 29877
29877 29958
29958 30039
30039 30120
30120 30201
30201 30282
30282 30361
30361 30443
30443 30524
30524 30605
30605 30659
30659 30742
30742 30837
30837 30921
30921 31003
31003 31049
31049 31130
31130 31204
31204 31291
31291 31372
31372 31453
31453 31534
31534 31615
31615 31696
31696 31777
31777 31858
31858 31939
31939 32020
32020 32102
32102 32183
32183 32265
32265 32346
32346 32427
32427 32508
32508 32589
32589 32671
32671 32752
32752 32833
32833 32914
32914 32995
32995 33072
33072 33153
33153 33235
33235 33317
33317 33399
33399 33480
33480 33562
33562 33643
33643 33725
33725 33806
33806 33888
33888 33969
33969 34051
34051 34132
34132 34214
34214 34295
34295 34377
34377 34459
34459 34540
34540 34622
34622 34703
34703 34784
34784 34866
34866 34947
34947 35028
35028 35109
35109 35190
35190 35272
35272 35353
35353 35434
35434 35516
35516 35596
35596 35678
35678 35759
35759 35840
35840 35921
35921 36003
36003 36046
36046 36129
36129 36210
36210 36291
36291 36373
36373 36454
36454 36535
36535 36617
36617 36698
36698 36780
36780 36861
36861 36943
36943 37025
37025 37066
37066 37147
37147 37229
37229 37310
37310 37392
37392 37474
37474 37549
37549 37637
37637 37719
37719 37801
37801 37882
37882 37963
37963 38099
38099 38181
38181 38262
38262 38344
38344 38425
38425 38506
38506 38588
38588 38669
38669 38751
38751 38832
38832 38913
38913 38995
38995 39076
39076 39158
39158 39239
39239 39320
39320 39402
39402 39483
39483 39564
39564 39645
39645 39727
39727 39808
39808 39890
39890 39972
39972 40054
40054 40136
40136 40217
40217 40299
40299 40381
40381 40463
40463 40545
40545 40627
40627 40710
40710 40792
40792 40874
40874 40956
40956 41037
41037 41119
41119 41202
41202 41284
41284 41366
41366 41448
41448 41531
41531 41613
41613 41695
41695 41777
41777 41860
41860 41941
41941 42023
42023 42105
42105 42187
42187 42269
42269 42351
42351 42433
42433 42515
42515 42597
42597 42680
42680 42762
42762 42844
42844 42925
42925 43008
43008 43071
43071 43153
43153 43235
43235 43316
43316 43398
43398 43480
43480 43562
43562 43644
43644 43726
43726 43807
43807 43884
43884 43971
43971 44053
44053 44135
44135 44190
44190 44262
44262 44367
44367 44452
44452 44536
44536 44617
44617 44699
44699 44781
44781 44862
44862 44944
44944 45026
45026 45108
45108 45189
45189 45272
45272 45353
45353 45435
45435 45517
45517 45598
45598 45680
45680 45762
45762 45844
45844 45926
45926 46008
46008 46089
46089 46172
46172 46253
46253 46335
46335 46417
46417 46498
46498 46580
46580 46654
46654 46744
46744 46827
46827 46908
46908 46990
46990 47071
47071 47154
47154 47236
47236 47318
47318 47399
47399 47482
47482 47564
47564 47645
47645 47727
47727 47809
47809 47891
47891 47973
47973 48054
48054 48136
48136 48218
48218 48300
48300 48382
48382 48464
48464 48546
48546 48628
48628 48710
48710 48791
48791 48874
48874 48956
48956 49038
49038 49120
49120 49202
49202 49284
49284 49366
49366 49448
49448 49530
49530 49612
49612 49694
49694 49776
49776 49858
49858 49940
49940 50023
50023 50104
50104 50187
50187 50269
50269 50351
50351 50433
50433 50516
50516 50598
50598 50680
50680 50762
50762 50845
50845 50927
50927 51009
51009 51091
51091 51173
51173 51255
51255 51337
51337 51420
51420 51501
51501 51584
51584 51665
51665 51748
51748 51830
51830 51912
51912 51994
51994 52076
52076 52158
52158 52241
52241 52323
52323 52405
52405 52487
52487 52569
52569 52651
52651 52734
52734 52815
52815 52898
52898 52980
52980 53050
53050 53132
53132 53214
53214 53297
53297 53379
53379 53462
53462 53544
53544 53627
53627 53710
53710 53792
53792 53875
53875 53958
53958 54041
54041 54124
54124 54207
54207 54289
54289 54372
54372 54455
54455 54538
54538 54620
54620 54703
54703 54786
54786 54869
54869 54951
54951 55034
55034 55116
55116 55199
55199 55281
55281 55364
55364 55446
55446 55528
55528 55611
55611 55694
55694 55776
55776 55858
55858 55941
55941 56023
56023 56095
56095 56178
56178 56261
56261 56343
56343 56426
56426 56508
56508 56591
56591 56673
56673 56755
56755 56838
56838 56920
56920 57003
57003 57085
57085 57167
57167 57249
57249 57332
57332 57415
57415 57489
