1067 1127
1127 1187
1187 1247
1247 1308
1308 1368
1368 1428
1428 1489
1489 1549
1549 1610
1610 1670
1670 1730
1730 1791
1791 1852
1852 1912
1912 1973
1973 2034
2034 2094
2094 2155
2155 2215
2215 2275
2275 2336
2336 2397
2397 2457
2457 2518
2518 2579
2579 2639
2639 2700
2700 2760
2760 2821
2821 2882
2882 2943
2943 3003
3003 3064
3064 3124
3124 3185
3185 3246
3246 3307
3307 3367
3367 3428
3428 3488
3488 3549
3549 3610
3610 3670
3670 3731
3731 3792
3792 3852
3852 3913
3913 3974
3974 4031
4031 4090
4090 4149
4149 4209
4209 4269
4269 4329
4329 4389
4389 4449
4449 4509
4509 4569
4569 4629
4629 4690
4690 4750
4750 4810
4810 4870
4870 4931
4931 4991
4991 5072
5072 5133
5133 5194
5194 5254
5254 5315
5315 5376
5376 5437
5437 5498
5498 5559
5559 5620
5620 5681
5681 5743
5743 5804
5804 5865
5865 5926
5926 5988
5988 6049
6049 6110
6110 6171
6171 6233
6233 6294
6294 6355
6355 6416
6416 6477
6477 6539
6539 6600
6600 6660
6660 6721
6721 6783
6783 6843
6843 6904
6904 6965
6965 7026
7026 7087
7087 7148
7148 7209
7209 7269
7269 7330
7330 7391
7391 7452
7452 7513
7513 7574
7574 7635
7635 7696
7696 7757
7757 7818
7818 7879
7879 7941
7941 8002
8002 8063
8063 8124
8124 8185
8185 8247
8247 8308
8308 8369
8369 8430
8430 8491
8491 8552
8552 8614
8614 8674
8674 8736
8736 8797
8797 8858
8858 8919
8919 8980
8980 9041
9041 9102
9102 9163
9163 9225
9225 9286
9286 9347
9347 9408
9408 9470
9470 9531
9531 9593
9593 9654
9654 9715
9715 9777
9777 9838
9838 9899
9899 9960
9960 10022
10022 10083
10083 10145
10145 10205
10205 10267
10267 10328
10328 10389
10389 10450
10450 10511
10511 10573
10573 10634
10634 10695
10695 10756
10756 10817
10817 10878
10878 10940
10940 11001
11001 11062
11062 11123
11123 11184
11184 11246
11246 11307
11307 11368
11368 11429
11429 11490
11490 11552
11552 11613
11613 11674
11674 11735
11735 11796
11796 11858
11858 11919
11919 11980
11980 12042
12042 12103
12103 12164
12164 12226
12226 12287
12287 12348
12348 12410
12410 12471
12471 12532
12532 12593
12593 12654
12654 12716
12716 12777
12777 12838
12838 12899
12899 12960
12960 13022
13022 13083
13083 13144
13144 13205
13205 13267
13267 13328
13328 13389
13389 13451
13451 13512
13512 13573
13573 13634
13634 13696
13696 13757
13757 13818
13818 13879
13879 13940
13940 14002
14002 14063
14063 14125
14125 14186
14186 14247
14247 14309
14309 14370
14370 14431
14431 14493
14493 14554
14554 14616
14616 14677
14677 14738
14738 14799
14799 14860
14860 14922
14922 14983
14983 15044
15044 15105
15105 15166
15166 15227
15227 15287
15287 15349
15349 15409
15409 15470
15470 15531
15531 15592
15592 15653
15653 15714
15714 15775
15775 15836
15836 15897
15897 15959
15959 16020
16020 16081
16081 16142
16142 16203
16203 16264
16264 16325
16325 16387
16387 16448
16448 16509
16509 16570
16570 16631
16631 16692
16692 16752
16752 16813
16813 16874
16874 16935
16935 16996
16996 17056
17056 17117
17117 17178
17178 17238
17238 17299
17299 17360
17360 17421
17421 17482
17482 17542
17542 17603
17603 17664
17664 17725
17725 17785
17785 17846
17846 17907
17907 17967
17967 18028
18028 18089
18089 18149
18149 18210
18210 18271
18271 18332
18332 18392
18392 18453
18453 18514
18514 18575
18575 18636
18636 18697
18697 18757
18757 18818
18818 18879
18879 18940
18940 19001
19001 19062
19062 19123
19123 19185
19185 19246
19246 19307
19307 19369
19369 19430
19430 19491
19491 19553
19553 19614
19614 19675
19675 19736
19736 19797
19797 19858
19858 19920
19920 19981
19981 20042
20042 20103
20103 20165
20165 20226
20226 20287
20287 20349
20349 20410
20410 20472
20472 20533
20533 20595
20595 20656
20656 20718
20718 20780
20780 20841
20841 20902
20902 20964
20964 21026
21026 21087
21087 21148
21148 21210
21210 21271
21271 21333
21333 21394
21394 21455
21455 21517
21517 21578
21578 21639
21639 21701
21701 21762
21762 21823
21823 21885
21885 21946
21946 22007
22007 22068
22068 22130
22130 22191
22191 22252
22252 22313
22313 22374
22374 22435
22435 22496
22496 22557
22557 22618
22618 22679
22679 22740
22740 22801
22801 22862
22862 22923
22923 22984
22984 23045
23045 23106
23106 23167
23167 23228
23228 23289
23289 23350
23350 23411
23411 23472
23472 23533
23533 23594
23594 23655
23655 23717
23717 23778
23778 23839
23839 23901
23901 23962
23962 24024
24024 24085
24085 24147
24147 24209
24209 24270
24270 24332
24332 24393
24393 24454
24454 24515
24515 24576
24576 24637
24637 24697
24697 24758
24758 24819
24819 24880
24880 24941
24941 25001
25001 25062
25062 25123
25123 25184
25184 25245
25245 25306
25306 25367
25367 25429
25429 25490
25490 25551
25551 25612
25612 25674
25674 25735
25735 25797
25797 25858
25858 25919
25919 25981
25981 26047
26047 26108
26108 26169
26169 26229
26229 26290
26290 26350
26350 26411
26411 26471
26471 26532
26532 26593
26593 26653
26653 26714
26714 26774
26774 26835
26835 26896
26896 26957
26957 27017
27017 27078
27078 27139
27139 27200
27200 27261
27261 27321
27321 27382
27382 27443
27443 27504
27504 27564
27564 27625
27625 27686
27686 27747
27747 27807
27807 27868
27868 27928
27928 27989
27989 28050
28050 28111
28111 28171
28171 28232
28232 28293
28293 28354
28354 28415
28415 28476
28476 28537
28537 28597
28597 28659
28659 28719
28719 28780
28780 28841
28841 28902
28902 28963
28963 29023
29023 29084
29084 29144
29144 29205
29205 29265
29265 29326
29326 29386
29386 29447
29447 29507
29507 29568
29568 29628
29628 29689
29689 29749
29749 29810
29810 29871
29871 29932
29932 29992
29992 30053
30053 30114
30114 30175
30175 30236
30236 30297
30297 30358
30358 30419
30419 30480
30480 30541
30541 30602
30602 30664
30664 30725
30725 30786
30786 30848
30848 30909
30909 31007
31007 31069
31069 31131
31131 31192
31192 31254
31254 31316
31316 31377
31377 31439
31439 31500
31500 31562
31562 31623
31623 31685
31685 31746
31746 31808
31808 31870
31870 31931
31931 31993
31993 32054
32054 32115
32115 32177
32177 32239
32239 32300
32300 32361
32361 32423
32423 32485
32485 32547
32547 32608
32608 32670
32670 32732
32732 32794
32794 32856
32856 32917
32917 32979
32979 33041
33041 33103
33103 33165
33165 33226
33226 33288
33288 33350
33350 33412
33412 33473
33473 33535
33535 33597
33597 33659
33659 33720
33720 33782
33782 33844
33844 33905
33905 33967
33967 34029
34029 34090
34090 34152
34152 34214
34214 34275
34275 34337
34337 34398
34398 34460
34460 34522
34522 34583
34583 34645
34645 34707
34707 34768
34768 34830
34830 34891
34891 34953
34953 35014
35014 35076
35076 35137
35137 35198
35198 35260
35260 35321
35321 35382
35382 35444
35444 35505
35505 35566
35566 35627
35627 35689
35689 35750
35750 35811
35811 35873
35873 35934
35934 35995
35995 36057
36057 36118
36118 36180
36180 36241
36241 36302
36302 36364
36364 36425
36425 36487
36487 36548
36548 36609
36609 36671
36671 36732
36732 36793
36793 36854
36854 36915
36915 36976
36976 37037
37037 37098
37098 37158
37158 37219
37219 37280
37280 37341
37341 37402
37402 37462
37462 37523
37523 37584
37584 37645
37645 37706
37706 37767
37767 37828
37828 37889
37889 37950
37950 38011
38011 38072
38072 38133
38133 38194
38194 38255
38255 38316
38316 38377
38377 38439
38439 38500
38500 38562
38562 38623
38623 38685
38685 38746
38746 38808
38808 38869
38869 38931
38931 38992
38992 39054
39054 39116
39116 39177
39177 39239
39239 39300
39300 39362
39362 39423
39423 39485
39485 39546
39546 39608
39608 39669
39669 39730
39730 39792
39792 39853
39853 39914
39914 39975
39975 40036
40036 40097
40097 40158
40158 40219
40219 40280
40280 40341
40341 40401
40401 40462
40462 40523
40523 40584
40584 40645
40645 40706
40706 40767
40767 40829
40829 40890
40890 40951
40951 41013
41013 41074
41074 41136
41136 41197
41197 41259
41259 41321
41321 41382
41382 41444
41444 41505
41505 41567
41567 41629
41629 41690
41690 41751
41751 41813
41813 41874
41874 41935
41935 41997
41997 42058
42058 42119
42119 42180
42180 42242
42242 42303
42303 42364
42364 42425
42425 42487
42487 42548
42548 42609
42609 42670
42670 42732
42732 42793
42793 42855
42855 42916
42916 42978
42978 43039
43039 43100
43100 43162
43162 43223
43223 43284
43284 43345
43345 43406
43406 43467
43467 43528
43528 43589
43589 43650
43650 43711
43711 43772
43772 43833
43833 43894
43894 43955
43955 44016
44016 44077
44077 44138
44138 44199
44199 44260
44260 44321
44321 44382
44382 44443
44443 44504
44504 44565
44565 44626
44626 44687
44687 44748
44748 44809
44809 44870
44870 44931
44931 44992
44992 45053
45053 45115
45115 45176
45176 45237
45237 45298
45298 45359
45359 45421
45421 45482
45482 45543
45543 45604
45604 45665
45665 45726
45726 45787
45787 45848
45848 45909
45909 45970
45970 46031
46031 46092
46092 46153
46153 46214
46214 46274
46274 46335
46335 46396
46396 46457
46457 46518
46518 46579
46579 46640
46640 46701
46701 46763
46763 46824
46824 46885
46885 46946
46946 47007
47007 47069
47069 47130
47130 47191
47191 47253
47253 47314
47314 47375
47375 47437
47437 47498
47498 47559
47559 47621
47621 47682
47682 47743
47743 47805
47805 47866
47866 47928
47928 47989
47989 48050
48050 48111
48111 48173
48173 48234
48234 48295
48295 48355
48355 48417
48417 48478
48478 48539
48539 48600
48600 48660
48660 48722
48722 48783
48783 48844
48844 48905
48905 48966
48966 49027
49027 49088
49088 49150
49150 49211
49211 49272
49272 49333
49333 49395
49395 49456
49456 49517
49517 49578
49578 49639
49639 49701
49701 49762
49762 49823
49823 49885
49885 49946
49946 50007
50007 50068
50068 50130
50130 50191
50191 50252
50252 50313
50313 50375
50375 50436
50436 50497
50497 50558
50558 50620
50620 50681
50681 50742
50742 50803
50803 50865
50865 50926
50926 50988
50988 51049
51049 51111
51111 51172
51172 51234
51234 51296
51296 51357
51357 51419
51419 51480
51480 51542
51542 51604
51604 51665
51665 51727
51727 51788
51788 51850
51850 51911
51911 51973
51973 52034
52034 52096
52096 52158
52158 52219
52219 52280
52280 52342
52342 52403
52403 52464
52464 52525
52525 52586
52586 52647
52647 52709
52709 52770
52770 52831
52831 52891
52891 52952
52952 53014
53014 53075
53075 53136
53136 53196
53196 53258
53258 53319
53319 53380
53380 53441
53441 53502
53502 53563
53563 53625
53625 53686
53686 53747
53747 53808
53808 53869
53869 53931
53931 53992
53992 54053
54053 54114
54114 54175
54175 54236
54236 54297
54297 54358
54358 54419
54419 54480
54480 54541
54541 54602
54602 54663
54663 54724
54724 54785
54785 54846
54846 54906
54906 54967
54967 55028
55028 55089
55089 55150
55150 55211
55211 55272
55272 55333
55333 55394
55394 55455
55455 55516
55516 55577
55577 55638
55638 55699
55699 55760
55760 55821
55821 55882
55882 55944
55944 56005
56005 56066
56066 56128
56128 56189
56189 56250
56250 56312
56312 56373
56373 56434
56434 56495
56495 56556
56556 56618
56618 56679
56679 56740
56740 56801
56801 56862
56862 56924
56924 56985
56985 57046
57046 57107
57107 57169
57169 57230
57230 57291
57291 57352
57352 57414
57414 57475
57475 57536
57536 57598
57598 57659
57659 57721
57721 57782
57782 57843
57843 57904
57904 57966
57966 58027
58027 58089
58089 58150
58150 58211
58211 58272
58272 58334
58334 58395
58395 58456
58456 58518
58518 58615
58615 58676
58676 58737
58737 58798
58798 58859
58859 58920
58920 58981
58981 59042
59042 59103
59103 59165
59165 59226
59226 59287
59287 59349
59349 59410
59410 59471
59471 59533
59533 59594
59594 59656
59656 59717
59717 59778
59778 59840
59840 59901
59901 59963
59963 60024
60024 60086
60086 60147
60147 60208
60208 60269
60269 60331
60331 60392
60392 60453
60453 60515
