40 109
229 284
284 345
345 400
400 463
463 516
516 571
571 631
631 698
698 755
755 814
814 864
864 923
923 977
977 1042
1042 1100
1100 1157
1157 1235
1235 1300
1300 1364
1364 1425
1425 1486
1486 1546
1546 1605
1605 1667
1667 1732
1732 1787
1787 1839
1839 1913
1913 1970
1970 2050
2050 2110
2110 2176
2176 2246
2246 2320
2320 2380
2380 2436
2436 2499
2499 2564
2564 2627
2627 2693
2693 2755
2755 2814
2814 2875
2875 2927
2927 2990
2990 3038
3038 3100
3100 3156
3156 3219
3219 3269
3269 3330
3330 3383
3383 3436
3436 3485
3485 3546
3546 3600
3600 3668
3668 3725
3725 3784
3784 3874
3874 3939
3939 3999
3999 4081
4081 4147
4147 4208
4208 4274
4274 4344
4344 4398
4398 4450
4450 4503
4503 4574
4574 4646
4646 4702
4702 4761
4761 4820
4820 4886
4886 4954
4954 5022
5022 5075
5075 5131
5131 5196
5196 5267
5267 5322
5322 5383
5383 5443
