380 449
449 561
1263 1334
1334 1406
1406 1478
1478 1550
1550 1621
1621 1693
1693 1765
1765 1836
1836 1908
1908 1980
1980 2033
2033 2104
2248 2320
2320 2391
2391 2462
2462 2532
2532 2603
2603 2672
2672 2742
2742 2812
2812 2882
2882 2953
2953 3024
3024 3066
3066 3138
3138 3211
3211 3283
3283 3356
3356 3428
3428 3501
3501 3573
3573 3645
3645 3717
3717 3790
3790 3862
3862 3935
3935 4008
4008 4046
4046 4119
4119 4192
4192 4264
4264 4337
4337 4410
4410 4482
4482 4555
4555 4628
4628 4701
4701 4774
4774 4848
4848 4921
4921 4994
4994 5071
5071 5143
5143 5215
5215 5287
5287 5359
