978 1103
1952 2108
2108 2192
2192 2278
2278 2363
2363 2449
2449 2534
2534 2619
2619 2704
2704 2789
2789 2875
2875 2960
2960 3045
3045 3130
3130 3216
3216 3302
3302 3388
3388 3473
3473 3558
3558 3643
3643 3728
3728 3789
3789 3874
3874 3959
3959 4102
4102 4187
4187 4271
4271 4356
4356 4442
4442 4527
4527 4612
4612 4697
4697 4782
4782 4868
