55 147
357 427
427 562
1051 1234
1234 1303
1303 1510
1510 1580
1580 1719
1719 1789
1789 1858
1858 1927
1927 1997
1997 2053
2280 2347
2886 3022
3022 3089
3089 3156
3156 3291
3291 3359
3359 3427
3427 3495
3495 3631
3631 3698
3698 3766
3766 3834
3834 3902
3902 3970
3970 4063
4063 4132
4132 4201
4201 4270
4270 4339
4339 4408
4408 4477
4477 4547
4547 4616
4616 4685
4685 4754
4754 4824
4824 4893
4893 4963
4963 5037
5037 5420
5420 5489
5489 5559
5559 5628
5628 5667
5667 5767
5767 5837
5837 5906
5906 5976
5976 6093
6093 6160
6160 6229
6229 6296
6296 6364
6364 6432
6432 6499
6499 6567
6567 6635
6635 6702
6702 6770
6770 6837
6837 6905
6905 6972
6972 7093
7093 7292
7292 7427
7427 7493
7493 7559
7559 7625
7625 7691
7691 7758
7758 7824
7824 7890
7890 7956
7956 8092
8092 8156
8156 8284
8284 8348
8348 8476
8476 8540
8540 8604
8604 8667
8667 8731
8731 8796
8796 8860
8860 8923
8923 8987
8987 9051
9051 9116
9116 9180
9180 9244
9244 9308
9308 9373
9373 9437
9437 9502
9502 9566
9566 9630
9630 9695
9695 9760
9760 9824
