6924 7076
15925 16086
16086 16202
16202 16318
16318 16434
16434 16549
16549 16664
16664 16777
16777 16890
16890 17003
17003 17114
17114 17226
17226 17337
17337 17449
17449 17560
17560 17670
17670 17781
17781 17892
17892 18003
18003 18114
18114 18225
18225 18336
18336 18448
18448 18561
18561 18674
18674 18788
18788 18902
18902 19016
19016 19061
19061 19175
19175 19288
19288 19400
19400 19514
19514 19627
19627 19741
19741 19854
19854 19968
19968 20081
20081 20196
20196 20310
20310 20425
20425 20538
20538 20653
20653 20767
20767 20881
20881 20996
20996 21113
21113 21231
21231 21347
21347 21464
21464 21581
21581 21696
21696 21812
21812 21928
21928 22112
22112 22229
22229 22346
22346 22463
22463 22581
22581 22699
22699 22816
22816 22934
22934 23090
23090 23206
23206 23323
23323 23440
23440 23557
23557 23675
23675 23794
23794 23912
23912 24086
24086 24200
24200 24314
24314 24428
24428 24541
24541 24655
24655 24768
24768 24881
24881 24995
24995 25088
25088 25205
25205 25321
25321 25435
25435 25550
25550 25664
25664 25777
25777 25890
25890 26003
26003 26114
26114 26224
26224 26334
26334 26442
26442 26551
26551 26660
26660 26769
26769 26879
26879 26989
26989 27097
27097 27214
27214 27331
27331 27449
27449 27566
27566 27684
27684 27802
