23 62
671 747
800 876
876 952
952 1028
1028 1102
1102 1177
1177 1253
1253 1329
1329 1405
1405 1481
1481 1557
1557 1632
1632 1709
1709 1786
1786 1863
1863 1940
1940 2016
2016 2089
2089 2165
2165 2242
2242 2319
2319 2396
2396 2473
2473 2549
2549 2626
2626 2703
2703 2781
2781 2859
2859 2936
2936 3013
3013 3090
3090 3168
3168 3245
3245 3322
3322 3399
3399 3475
3475 3551
3551 3629
3629 3707
3707 3784
3784 3861
3861 3938
3938 4017
4017 4094
4094 4170
4170 4247
4247 4324
4324 4402
4402 4480
4480 4557
4557 4634
4634 4711
4711 4788
4788 4866
4866 4942
4942 5019
5019 5096
5096 5174
5174 5251
5251 5329
5329 5406
5406 5484
5484 5612
5612 5689
5689 5767
5767 5844
5844 5921
5921 5998
5998 6075
6075 6152
6152 6230
6230 6308
6308 6384
6384 6461
6461 6539
6539 6616
6616 6694
6694 6772
6772 6849
6849 6926
6926 7003
7003 7080
7080 7158
7158 7235
7235 7311
7311 7388
7388 7466
7466 7544
7544 7620
7620 7697
7697 7774
7774 7853
7853 7930
7930 8007
8007 8085
8085 8162
8162 8241
8241 8320
8320 8399
8399 8477
8477 8557
8557 8637
8637 8717
8717 8796
8796 8874
8874 8953
8953 9103
9103 9180
9180 9257
9257 9334
9334 9411
9411 9488
9488 9564
9564 9641
9641 9717
9717 9793
9793 9870
9870 9946
9946 10023
10023 10111
10111 10188
10188 10264
10264 10341
10341 10418
10418 10495
10495 10572
10572 10662
10662 10740
10740 10816
10816 10892
10892 10968
10968 11045
11045 11122
11122 11199
11199 11275
11275 11351
11351 11427
11427 11503
11503 11579
11579 11655
11655 11732
11732 11808
