67 139
139 211
211 281
281 351
351 422
422 494
494 567
567 638
638 709
709 779
779 850
850 925
925 1000
1000 1074
1074 1148
1148 1222
1222 1299
1299 1378
1378 1429
1429 1503
1503 1576
1576 1649
1649 1724
1724 1801
1801 1877
1877 1950
1950 2022
2022 2081
2081 2158
2158 2231
2231 2305
2305 2380
2380 2456
2456 2532
2532 2605
2605 2676
2676 2747
2747 2818
2818 2889
2889 2960
2960 3031
3031 3102
3102 3176
3176 3253
3253 3331
3331 3409
3409 3483
3483 3558
3558 3635
