34 123
123 211
211 297
297 386
386 474
474 563
563 650
650 738
738 825
825 915
1003 1134
1134 1224
1134 1224
1312 1491
1491 1579
1491 1579
1579 1669
1669 1758
1846 2027
2027 2093
2093 2181
2181 2270
2270 2358
2358 2447
2447 2537
2537 2625
2625 2714
2714 2803
2803 2892
2892 2981
2981 3160
3160 3248
3248 3336
3336 3425
3425 3514
3514 3603
3603 3691
3691 3779
3779 3867
3867 3955
3955 4133
4133 4219
4219 4309
4309 4396
4396 4482
4482 4571
4571 4659
4659 4745
4745 4833
4833 4921
4921 5009
5009 5095
5095 5182
5182 5271
5271 5359
5359 5537
5537 5623
5623 5712
5712 5800
5800 5887
5887 5974
5974 6063
6063 6150
6150 6238
6238 6327
6327 6415
6415 6504
6504 6592
6592 6681
6681 6767
6767 6855
6855 6945
6945 7033
7033 7121
7121 7209
7209 7298
7298 7384
7384 7563
7563 7649
7649 7737
7737 7825
7825 7914
7914 8002
8002 8090
8090 8176
8176 8354
8354 8440
8440 8529
8529 8707
8707 8793
8793 8881
8881 8968
8968 9057
9057 9143
9143 9230
9230 9319
9319 9405
9405 9492
9492 9580
9580 9667
9667 9756
9756 9843
9843 9929
9929 10016
10016 10105
10105 10193
10193 10278
10278 10367
10367 10454
10454 10541
10541 10629
10629 10716
10716 10802
10802 10889
10889 10977
10977 11045
11045 11133
11133 11220
11220 11308
11308 11396
11396 11481
11481 11569
11569 11656
11656 11743
11743 11830
11830 11916
11916 12092
12092 12178
12178 12221
12221 12352
12352 12440
12440 12526
12526 12676
12676 12764
12764 12851
12851 12937
12937 13023
13023 13065
13065 13241
13241 13326
13326 13413
13413 13501
13501 13588
13588 13673
13673 13761
13761 13847
13847 13936
13936 14021
14021 14127
14127 14215
14215 14302
14302 14390
14390 14478
14478 14566
14566 14654
14654 14740
14740 14829
14829 14917
14917 15059
15059 15146
15146 15233
15233 15319
15319 15407
15407 15495
15495 15582
15582 15668
15668 15755
15755 15842
15842 16104
16104 16192
16192 16278
16278 16455
16455 16541
16541 16628
16628 16802
16802 16888
16888 16977
16977 17063
17063 17149
17149 17237
17237 17324
17324 17412
17412 17500
17500 17587
17587 17765
17765 17853
17853 17942
17942 18065
18065 18242
18242 18330
18330 18418
18418 18506
18506 18592
18592 18681
18681 18770
18770 18858
18858 18946
18946 19034
19034 19123
19123 19211
19211 19299
19299 19388
19388 19475
19475 19566
19566 19636
19636 19717
19717 19897
19897 19950
19950 20072
20072 20162
20162 20252
20252 20428
20428 20519
20519 20607
20607 20695
20695 20783
20783 20872
20872 20960
20960 21030
21030 21153
21153 21239
21239 21326
21326 21411
21411 21502
21502 21589
21589 21677
21677 21765
21765 21851
21851 21940
21940 22028
22028 22117
22117 22203
22203 22382
22382 22469
22469 22556
22556 22645
22645 22733
22733 22822
22822 22908
22908 22998
22998 23086
23086 23174
23174 23262
23262 23352
23352 23440
23440 23526
23526 23617
23617 23878
23878 23967
23967 24055
24055 24185
24185 24273
24273 24359
24359 24537
24537 24625
24625 24711
24711 24797
24797 24884
24884 25177
25177 25265
25265 25354
25354 25439
25439 25530
25530 25617
25617 25704
25704 25790
25790 25880
25880 25968
25968 26100
26100 26187
26187 26278
26278 26368
26368 26457
26457 26546
26546 26634
26634 26724
26724 26813
26813 26903
26903 26992
26992 27064
27064 27154
27154 27244
27244 27423
27423 27509
27509 27601
27601 27689
27689 27778
27778 27957
27957 28046
28046 28136
28136 28223
28223 28313
28313 28402
28402 28491
28491 28579
28579 28669
28669 28759
28759 28848
28848 28938
28938 29030
29030 29120
29120 29209
29209 29300
29300 29482
29482 29571
29571 29662
29662 29752
29752 29841
29841 29932
29932 30023
30023 30205
30205 30296
30296 30386
30386 30474
30474 30564
30564 30656
30656 30746
