221 353
353 487
888 1021
1077 1208
1208 1339
1339 1471
1471 1603
1603 1736
1736 1867
1867 1999
1999 2080
2080 2214
2214 2346
2346 2479
2479 2615
2615 2749
2749 2884
2884 3009
3009 3075
3075 3206
3206 3339
3339 3470
3470 3600
3600 3730
3730 3861
3861 3992
3992 4070
4070 4193
4193 4316
4316 4441
4441 4566
4566 4693
4693 4822
4822 4950
4950 5113
5113 5244
5244 5376
5376 5507
5507 5639
5639 5772
5772 5906
5906 6082
6082 6219
6219 6351
6351 6483
6483 6615
6615 6747
6747 6878
6878 7009
7009 7109
7109 7240
7240 7371
7371 7500
7500 7631
7631 7760
7760 7889
7889 8019
8019 8082
8082 8215
8215 8350
8350 8482
8482 8615
8615 8747
8747 8876
8876 9006
9006 9103
9103 9230
9230 9359
9359 9487
9487 9616
9616 9744
