1927 2088
2088 2200
2200 2293
2293 2407
2407 2523
2523 2614
2614 2729
2729 2844
2844 2957
2957 3085
3085 3200
3200 3317
3317 3435
3435 3551
3551 3669
3669 3786
3786 3902
3902 4017
4017 4101
4101 4217
4217 4333
4333 4451
4451 4568
4568 4686
4686 4804
