1929 2021
2021 2068
2930 3058
3917 4009
4009 4076
4935 5067
5067 5161
5161 5257
5257 5355
5355 5454
5454 5552
5552 5649
5649 5742
5742 5836
5836 5933
5933 6026
6026 6066
6066 6156
6156 6250
6250 6347
6347 6442
6442 6536
6536 6628
6628 6721
6721 6818
6818 6913
6913 7007
7007 7085
7085 7179
7179 7270
7270 7364
7364 7460
7460 7556
7556 7653
7653 7746
7746 7841
7841 7938
7938 8082
8082 8173
8173 8267
8267 8362
8362 8458
8458 8553
8553 8645
8645 8740
8740 8835
8835 8935
8935 9029
9029 9123
9123 9218
9218 9315
9315 9411
9411 9504
9504 9599
9599 9693
9693 9789
9789 9880
9880 9975
9975 10070
10070 10167
10167 10260
10260 10355
10355 10449
10449 10548
10548 10645
10645 10739
10739 10837
10837 10935
10935 11030
11030 11087
11087 11180
11180 11273
11273 11365
11365 11460
11460 11558
11558 11651
11651 11747
11747 11840
11840 11932
11932 12057
12057 12151
12151 12247
12247 12346
12346 12444
12444 12539
12539 12635
12635 12733
12733 12828
12828 12926
12926 13021
13021 13074
13074 13166
13166 13260
13260 13355
13355 13447
13447 13537
13537 13628
13628 13723
13723 13815
13815 13906
13906 14000
14000 14096
14096 14186
14186 14280
14280 14377
14377 14471
14471 14565
14565 14658
14658 14753
14753 14850
14850 14945
14945 15037
15037 15131
15131 15227
15227 15321
15321 15412
15412 15503
15503 15596
15596 15686
15686 15775
15775 15866
15866 15956
15956 16044
16044 16134
16134 16229
16229 16322
16322 16413
16413 16506
16506 16602
16602 16693
16693 16786
16786 16879
16879 16974
16974 17068
17068 17159
17159 17254
17254 17345
17345 17438
17438 17531
17531 17630
17630 17727
17727 17821
17821 17916
17916 18011
18011 18109
18109 18209
18209 18306
18306 18401
18401 18495
18495 18589
18589 18685
18685 18780
18780 18873
18873 18969
18969 19062
19062 19153
19153 19246
19246 19341
19341 19434
19434 19526
19526 19622
19622 19713
19713 19806
19806 19893
19893 19986
19986 20078
20078 20168
20168 20263
20263 20353
20353 20447
20447 20537
20537 20630
20630 20725
20725 20820
20820 20985
20985 21078
21078 21173
21173 21271
21271 21367
21367 21461
21461 21558
21558 21656
21656 21751
21751 21845
21845 21941
21941 22040
22040 22136
22136 22230
22230 22324
22324 22420
22420 22514
22514 22606
22606 22701
22701 22792
22792 22886
22886 22977
22977 23070
23070 23165
23165 23258
23258 23352
23352 23443
23443 23538
23538 23631
23631 23723
23723 23819
23819 23937
23937 24054
24054 24147
24147 24243
24243 24337
24337 24428
24428 24521
24521 24616
24616 24711
24711 24803
24803 24897
24897 24995
24995 25093
25093 25187
25187 25284
25284 25384
25384 25480
25480 25571
25571 25665
25665 25762
25762 25857
25857 25951
25951 26046
26046 26141
26141 26237
26237 26332
26332 26424
26424 26519
26519 26617
26617 26710
26710 26804
26804 26900
26900 26994
26994 27090
27090 27182
27182 27278
27278 27369
27369 27460
27460 27556
27556 27647
27647 27742
27742 27835
27835 27925
27925 28019
28019 28115
28115 28207
28207 28303
28303 28396
28396 28493
28493 28584
28584 28678
28678 28772
28772 28869
28869 28961
28961 29055
29055 29151
29151 29243
29243 29335
29335 29427
29427 29524
29524 29616
29616 29712
29712 29806
29806 29897
29897 29989
29989 30079
30079 30167
30167 30260
30260 30353
30353 30443
30443 30536
30536 30627
30627 30718
30718 30809
30809 30904
30904 30998
30998 31090
31090 31183
31183 31280
31280 31375
31375 31469
31469 31565
31565 31661
31661 31753
31753 31842
31842 31935
31935 32023
32023 32117
32117 32209
32209 32303
32303 32397
32397 32494
32494 32588
32588 32678
32678 32772
32772 32868
32868 32959
32959 33051
33051 33145
33145 33239
33239 33330
33330 33424
33424 33521
33521 33614
33614 33707
33707 33798
33798 33896
33896 33992
33992 34088
34088 34180
34180 34273
34273 34368
34368 34459
34459 34552
34552 34645
34645 34741
34741 34831
34831 34923
34923 35018
35018 35109
35109 35202
35202 35295
35295 35389
35389 35481
35481 35576
35576 35666
35666 35762
35762 35852
35852 35948
35948 36038
36038 36129
36129 36223
36223 36314
36314 36408
36408 36498
36498 36593
36593 36683
36683 36777
36777 36866
36866 36960
36960 37070
37070 37165
37165 37261
37261 37361
37361 37461
37461 37556
37556 37654
37654 37753
37753 37848
37848 37945
37945 38044
38044 38137
38137 38235
38235 38328
38328 38422
38422 38516
38516 38611
38611 38707
38707 38801
38801 38898
38898 38995
38995 39088
39088 39185
39185 39280
39280 39379
39379 39476
39476 39570
39570 39665
39665 39760
39760 39853
39853 39945
39945 40040
40040 40139
40139 40235
40235 40328
40328 40424
40424 40518
40518 40612
40612 40707
40707 40799
40799 40895
40895 40987
40987 41074
41074 41166
41166 41255
41255 41346
41346 41434
41434 41525
41525 41615
41615 41708
41708 41802
41802 41894
41894 41989
41989 42086
42086 42178
42178 42273
42273 42365
42365 42457
42457 42552
42552 42651
42651 42747
42747 42840
42840 42937
42937 43032
43032 43128
43128 43226
43226 43325
43325 43419
43419 43516
43516 43610
43610 43701
43701 43796
43796 43889
43889 43981
43981 44073
44073 44168
44168 44263
44263 44360
44360 44456
44456 44555
44555 44649
44649 44743
44743 44841
44841 44939
44939 45039
45039 45134
45134 45231
45231 45324
45324 45421
45421 45514
45514 45608
45608 45703
45703 45799
45799 45893
