1355 1425
1425 1496
1496 1566
1566 1637
1637 1708
1708 1779
1779 1850
1850 1922
1922 1994
1994 2066
2066 2138
2138 2211
2211 2283
2283 2356
2356 2428
2428 2501
2647 2720
2720 2793
2793 2865
2865 2938
2938 3012
3012 3085
3085 3159
3159 3232
3232 3305
3305 3378
3378 3451
3451 3525
3525 3598
3598 3672
3672 3746
3746 3819
3819 3893
3893 3966
3966 4040
4040 4115
4115 4189
4189 4264
4264 4338
4338 4413
4413 4487
4487 4562
4562 4636
4636 4712
4712 4788
4788 4863
4863 4940
4940 5015
5015 5090
5090 5166
5166 5242
5242 5318
5318 5394
5394 5472
5472 5549
5549 5627
5627 5706
5706 5785
5785 5862
5862 5941
5941 6019
6019 6097
6097 6174
6174 6253
6253 6331
6331 6410
6410 6488
6488 6565
6565 6643
6643 6720
6720 6797
6797 6874
6874 6951
6951 7029
7029 7107
7107 7185
7185 7262
7262 7340
7340 7418
7418 7495
7495 7573
7573 7650
7650 7728
7728 7806
7806 7884
7884 7961
7961 8039
8039 8116
8116 8194
8194 8271
8271 8349
8349 8428
8428 8508
8508 8587
8587 8667
8667 8747
8747 8827
8827 8907
8907 8988
8988 9068
9068 9148
9148 9229
9229 9309
9309 9389
9389 9470
9470 9550
9550 9630
9630 9709
9709 9788
9788 9867
9867 9946
9946 10024
10024 10103
10103 10180
10180 10257
10257 10311
10311 10386
10386 10461
10461 10535
10535 10609
10609 10657
10657 10730
10730 10802
10802 10875
10875 10947
10947 11066
11066 11138
11138 11211
11211 11283
11283 11355
11355 11427
11427 11500
11500 11572
11572 11644
11644 11717
11717 11790
11790 11862
11862 11935
11935 12008
12008 12057
12057 12130
12130 12178
12178 12252
12252 12326
12326 12400
12400 12474
12474 12549
12549 12624
12624 12698
12698 12774
12774 12849
12849 12924
12924 12999
12999 13075
13075 13151
13151 13201
13201 13276
13276 13352
13352 13427
13427 13502
13502 13577
13577 13653
13653 13728
13728 13778
13778 13854
13854 13929
13929 14004
14004 14080
14080 14156
14156 14232
14232 14307
14307 14383
14383 14458
14458 14533
14533 14608
14608 14684
14684 14760
14760 14836
14836 14911
14911 14986
14986 15062
15062 15137
15137 15212
15212 15288
15288 15365
15365 15441
15441 15517
15517 15593
15593 15670
15670 15747
15747 15824
15824 15902
15902 15980
15980 16059
16059 16138
16138 16192
16192 16270
16270 16348
16348 16426
16426 16504
16504 16583
16583 16662
16662 16741
16741 16819
16819 16897
16897 16975
16975 17053
17053 17130
17130 17208
17208 17286
17286 17365
17365 17442
17442 17521
17521 17600
17600 17679
17679 17758
17758 17838
17838 17918
17918 17998
17998 18078
18078 18158
18158 18237
18237 18317
18317 18398
18398 18478
18478 18558
18558 18639
18639 18719
18719 18800
18800 18880
18880 18961
18961 19042
19042 19122
19122 19203
19203 19283
19283 19363
19363 19444
19444 19524
19524 19604
19604 19685
19685 19765
19765 19846
19846 19926
19926 20006
20006 20085
20085 20164
20164 20245
20245 20325
20325 20404
20404 20484
20484 20564
20564 20644
20644 20725
20725 20805
20805 20884
20884 20964
20964 21044
21044 21123
21123 21203
21203 21283
21283 21364
21364 21444
21444 21524
21524 21603
21603 21682
21682 21762
21762 21842
21842 21922
21922 22003
22003 22083
22083 22162
22162 22242
22242 22322
22322 22402
22402 22482
22482 22563
22563 22644
22644 22726
22726 22808
22808 22890
22890 22972
22972 23053
23053 23135
23135 23217
23217 23298
23298 23379
23379 23460
23460 23541
23541 23621
23621 23701
23701 23781
23781 23861
23861 23942
23942 24023
24023 24104
24104 24185
24185 24267
24267 24348
24348 24430
24430 24512
24512 24593
24593 24675
24675 24757
24757 24839
24839 24921
24921 25002
25002 25083
25083 25164
25164 25244
25244 25325
25325 25405
25405 25486
25486 25566
25566 25646
25646 25726
25726 25806
25806 25886
25886 25966
25966 26046
26046 26125
26125 26204
26204 26283
26283 26363
26363 26442
26442 26523
26523 26604
26604 26686
26686 26767
26767 26850
26850 26932
26932 27014
27014 27096
27096 27179
27179 27261
27261 27343
27343 27425
27425 27507
27507 27588
27588 27669
27669 27749
27749 27829
27829 27908
27908 27988
27988 28067
28067 28146
28146 28226
28226 28306
28306 28386
28386 28467
28467 28548
28548 28630
28630 28711
28711 28794
28794 28875
28875 28957
28957 29040
29040 29122
29122 29204
29204 29286
29286 29368
29368 29451
29451 29534
29534 29618
29618 29701
29701 29784
29784 29867
29867 29938
29938 30035
30035 30121
30121 30206
30206 30291
30291 30375
30375 30458
30458 30542
30542 30624
30624 30708
30708 30791
30791 30874
30874 30957
30957 31040
31040 31123
31123 31206
31206 31290
31290 31373
31373 31456
31456 31540
31540 31624
31624 31707
31707 31791
31791 31874
31874 31958
31958 32041
32041 32124
32124 32208
32208 32292
32292 32376
32376 32461
32461 32546
32546 32631
32631 32716
32716 32801
32801 32885
32885 32969
32969 33054
33054 33138
33138 33222
33222 33306
33306 33391
33391 33477
33477 33562
33562 33648
33648 33734
33734 33821
33821 33908
33908 33994
33994 34080
34080 34166
34166 34251
34251 34335
34335 34419
34419 34502
34502 34586
34586 34670
34670 34753
34753 34837
34837 34920
34920 35004
35004 35087
35087 35171
35171 35256
35256 35340
35340 35425
35425 35510
35510 35595
35595 35680
35680 35764
35764 35849
35849 35932
35932 36016
36016 36099
36099 36183
36183 36266
36266 36350
36350 36433
36433 36516
36516 36600
36600 36684
36684 36767
36767 36850
36850 36933
36933 37015
37015 37099
37099 37183
37183 37267
37267 37352
37352 37437
37437 37521
37521 37605
37605 37689
37689 37773
37773 37856
37856 37939
37939 38022
38022 38105
38105 38187
38187 38270
38270 38352
38352 38434
38434 38517
38517 38600
38600 38683
38683 38767
38767 38851
38851 38935
38935 39019
39019 39103
39103 39187
39187 39271
39271 39356
39356 39440
39440 39525
39525 39610
39610 39696
39696 39781
39781 39867
39867 39952
39952 40038
40038 40123
40123 40208
40208 40293
40293 40378
40378 40464
40464 40549
40549 40634
40634 40718
40718 40803
40803 40888
40888 40972
40972 41056
41056 41141
41141 41226
41226 41310
41310 41394
41394 41479
41479 41563
41563 41648
41648 41734
41734 41821
41821 41909
41909 41981
41981 42083
42083 42173
42173 42261
42261 42348
42348 42434
42434 42520
42520 42605
42605 42691
42691 42777
42777 42862
42862 42948
42948 43034
43034 43120
43120 43181
43181 43268
43268 43354
43354 43441
43441 43528
43528 43616
43616 43702
43702 43789
43789 43875
43875 43961
43961 44047
44047 44132
44132 44217
44217 44303
44303 44389
44389 44475
44475 44561
44561 44647
44647 44733
44733 44820
44820 44907
44907 44995
44995 45083
45083 45171
45171 45259
45259 45347
45347 45434
45434 45522
45522 45610
45610 45697
45697 45785
45785 45872
45872 45959
45959 46045
46045 46132
46132 46219
46219 46306
46306 46393
46393 46480
46480 46567
46567 46654
46654 46741
46741 46827
46827 46914
46914 47000
47000 47087
47087 47174
47174 47262
47262 47349
47349 47437
47437 47526
47526 47614
47614 47703
47703 47791
47791 47878
47878 47965
47965 48052
48052 48139
48139 48225
48225 48310
48310 48395
48395 48481
48481 48567
48567 48652
48652 48738
48738 48824
48824 48909
48909 48995
48995 49083
49083 49171
49171 49259
49259 49346
49346 49434
49434 49521
49521 49608
49608 49694
49694 49782
49782 49868
49868 49955
49955 50041
50041 50127
50127 50214
50214 50300
50300 50387
50387 50473
50473 50560
50560 50646
50646 50733
50733 50820
50820 50907
50907 50995
50995 51082
51082 51170
51170 51258
51258 51346
51346 51433
51433 51521
51521 51609
51609 51697
51697 51785
51785 51872
51872 51959
51959 52045
52045 52132
52132 52219
52219 52307
52307 52394
52394 52482
52482 52571
52571 52660
52660 52748
52748 52836
52836 52924
52924 53011
53011 53098
53098 53185
53185 53272
53272 53360
53360 53448
53448 53537
53537 53626
53626 53715
53715 53804
53804 53893
53893 53982
53982 54072
54072 54161
54161 54250
54250 54339
54339 54429
54429 54517
54517 54606
54606 54695
54695 54783
54783 54872
54872 54959
54959 55047
55047 55135
55135 55223
55223 55312
55312 55400
55400 55489
55489 55578
55578 55667
55667 55756
55756 55844
55844 55932
55932 56020
56020 56107
56107 56193
56193 56280
56280 56366
56366 56452
56452 56539
56539 56627
56627 56715
56715 56803
56803 56892
56892 56982
56982 57071
57071 57160
57160 57250
57250 57340
57340 57429
57429 57518
57518 57607
57607 57696
57696 57784
57784 57873
57873 57960
57960 58048
58048 58136
58136 58224
58224 58313
58313 58401
58401 58489
58489 58577
58577 58664
58664 58751
58751 58838
58838 58925
58925 59012
59012 59099
59099 59184
59184 59270
59270 59356
59356 59443
59443 59530
59530 59617
59617 59704
59704 59790
59790 59877
59877 59964
59964 60051
60051 60139
60139 60227
60227 60316
60316 60404
60404 60491
60491 60579
60579 60665
60665 60752
60752 60838
60838 60925
60925 61011
61011 61097
61097 61185
61185 61273
61273 61361
61361 61449
61449 61538
61538 61626
61626 61714
61714 61801
61801 61889
61889 61977
61977 62065
62065 62154
62154 62242
62242 62331
62331 62421
62421 62510
62510 62599
62599 62688
62688 62778
62778 62867
62867 62956
62956 63046
63046 63135
63135 63224
63224 63312
63312 63401
63401 63490
63490 63579
63579 63668
63668 63757
63757 63846
63846 63936
63936 64024
64024 64112
64112 64200
64200 64288
64288 64376
64376 64464
64464 64551
64551 64638
64638 64725
64725 64812
64812 64899
64899 64987
64987 65074
65074 65161
65161 65249
65249 65337
65337 65424
65424 65512
65512 65601
65601 65689
65689 65778
65778 65868
65868 65957
65957 66046
66046 66134
66134 66222
66222 66309
66309 66396
66396 66483
66483 66570
66570 66658
66658 66746
66746 66835
66835 66924
66924 67012
67012 67100
67100 67187
67187 67275
67275 67364
67364 67453
67453 67542
67542 67632
67632 67722
67722 67812
67812 67902
67902 67993
67993 68083
68083 68173
68173 68263
68263 68353
