1933 2027
2027 2065
2159 2253
10851 10946
10946 11092
13938 14076
16535 16631
16631 16725
16725 16820
16820 16916
20904 21001
21001 21049
21049 21142
24317 24412
24412 24506
24506 24601
24601 24697
24697 24792
24792 24886
24886 24981
24981 25077
25077 25172
25172 25267
25267 25362
25362 25458
25458 25553
25553 25648
25648 25744
25744 25839
25839 25934
25934 26029
26029 26126
26126 26221
26221 26317
26317 26412
26412 26510
26510 26606
26606 26701
26701 26798
26798 26895
26895 26990
26990 27086
27086 27182
27182 27278
27278 27374
27374 27469
27469 27564
27564 27659
27659 27756
27756 27851
27851 27945
27945 28071
28071 28165
28165 28261
28261 28355
28355 28450
28450 28546
28546 28640
28640 28734
28734 28830
28830 28924
28924 29018
29018 29113
29113 29207
29207 29301
29301 29396
29396 29491
29491 29586
29586 29680
29680 29776
29776 29871
29871 29965
29965 30060
30060 30156
30156 30250
30250 30345
30345 30441
30441 30536
30536 30631
30631 30726
30726 30822
30822 30917
30917 31012
31012 31108
31108 31203
31203 31298
31298 31393
31393 31490
31490 31585
31585 31681
31681 31777
31777 31872
31872 31967
31967 32063
32063 32158
32158 32254
32254 32349
32349 32446
32446 32541
32541 32637
32637 32732
32732 32829
32829 32925
32925 33021
33021 33117
33117 33213
33213 33310
33310 33406
33406 33501
33501 33598
33598 33694
33694 33789
33789 33884
33884 33979
33979 34075
34075 34171
34171 34266
34266 34361
34361 34457
34457 34553
34553 34648
34648 34743
34743 34839
34839 34936
34936 35043
35043 35139
35139 35235
35235 35330
35330 35424
35424 35518
35518 35614
35614 35708
35708 35802
35802 35897
35897 35992
35992 36120
36120 36213
36213 36307
36307 36402
36402 36495
36495 36589
36589 36683
36683 36778
36778 36874
36874 36968
36968 37063
37063 37158
37158 37254
37254 37348
37348 37443
37443 37538
37538 37632
37632 37727
37727 37822
37822 37917
37917 38012
38012 38107
38107 38202
38202 38297
38297 38392
38392 38487
38487 38583
38583 38678
38678 38773
38773 38869
38869 38964
38964 39059
39059 39155
39155 39250
39250 39346
39346 39441
39441 39536
39536 39632
39632 39728
39728 39824
39824 39920
39920 40016
40016 40113
40113 40209
40209 40305
40305 40401
40401 40498
40498 40595
40595 40691
40691 40787
40787 40883
40883 40980
40980 41075
41075 41170
41170 41266
41266 41363
41363 41458
41458 41554
41554 41651
41651 41749
41749 41845
41845 41941
41941 42037
42037 42134
42134 42230
42230 42325
42325 42421
42421 42518
42518 42614
42614 42710
42710 42807
42807 42879
42879 42974
42974 43117
43117 43213
43213 43308
43308 43405
43405 43501
43501 43597
43597 43693
43693 43789
43789 43885
43885 43980
43980 44075
44075 44171
