7813 7931
7931 8124
8124 8241
8241 8356
8356 8467
8467 8583
8583 8700
8700 8813
8813 8929
8929 9049
9049 9168
9168 9284
9284 9405
9405 9525
9525 9640
9640 9757
9757 9875
9875 9989
9989 10106
10106 10224
10224 10340
10340 10456
10456 10574
10574 10694
10694 10784
10784 10901
10901 11021
11021 11116
11116 11233
11233 11354
11354 11477
11477 11600
11600 11718
11718 11839
11839 11958
11958 12073
12073 12189
12189 12306
12306 12426
12426 12542
12542 12662
12662 12785
12785 12906
12906 13023
13023 13141
13141 13260
13260 13376
13376 13490
13490 13607
13607 13724
13724 13838
13838 13953
13953 14070
14070 14189
14189 14305
14305 14423
14423 14543
14543 14662
14662 14776
14776 14891
14891 15009
15009 15128
15128 15243
15243 15360
15360 15477
15477 15591
15591 15708
15708 15828
15828 15944
15944 16061
16061 16181
16181 16301
16301 16416
16416 16530
16530 16646
16646 16763
16763 16875
16875 16991
16991 17131
17131 17248
17248 17366
17366 17480
17480 17595
17595 17713
17713 17828
17828 17942
17942 18059
18059 18176
18176 18290
18290 18408
18408 18528
18528 18646
18646 18759
18759 18875
18875 18992
18992 19108
19108 19221
19221 19338
19338 19457
19457 19572
19572 19689
19689 19809
19809 19927
19927 20043
20043 20161
20161 20280
20280 20396
20396 20513
20513 20632
20632 20746
20746 20863
20863 20978
20978 21094
21094 21211
21211 21324
21324 21439
21439 21557
21557 21674
21674 21789
21789 21905
21905 22024
22024 22142
22142 22258
22258 22375
22375 22495
22495 22614
22614 22730
22730 22847
22847 22968
22968 23089
23089 23206
23206 23323
23323 23442
23442 23559
23559 23675
23675 23795
23795 23915
23915 24031
24031 24148
24148 24265
24265 24382
24382 24494
24494 24609
24609 24726
24726 24842
24842 24958
24958 25079
25079 25199
25199 25315
25315 25433
25433 25554
25554 25673
25673 25789
25789 25909
25909 26029
26029 26146
26146 26262
26262 26381
26381 26499
26499 26613
26613 26729
26729 26846
26846 26960
26960 27076
27076 27193
27193 27309
27309 27425
27425 27543
27543 27658
27658 27773
27773 27892
27892 28011
28011 28125
28125 28239
28239 28354
28354 28467
28467 28553
28553 28666
28666 28782
28782 28896
28896 29012
29012 29130
29130 29249
29249 29363
29363 29480
29480 29596
29596 29709
29709 29820
29820 29931
29931 30085
30085 30202
30202 30318
30318 30428
30428 30539
30539 30650
30650 30762
30762 30869
30869 30981
30981 31098
31098 31189
31189 31307
31307 31426
31426 31546
31546 31662
31662 31780
31780 31897
31897 32008
32008 32118
32118 32228
32228 32340
32340 32453
32453 32563
32563 32677
32677 32795
32795 32910
32910 33138
33138 33251
33251 33366
33366 33482
33482 33593
33593 33704
33704 33818
33818 33935
33935 34050
34050 34168
34168 34289
34289 34410
34410 34527
34527 34643
34643 34760
34760 34877
34877 34989
34989 35146
35146 35263
35263 35376
35376 35488
35488 35603
35603 35719
35719 35830
35830 35944
35944 36063
36063 36181
36181 36300
36300 36422
36422 36541
36541 36660
36660 36778
36778 36892
36892 37007
37007 37124
37124 37241
37241 37355
37355 37471
37471 37592
37592 37711
37711 37827
37827 37947
37947 38068
38068 38185
38185 38300
38300 38417
38417 38535
38535 38652
38652 38766
38766 38878
38878 38993
38993 39110
39110 39223
39223 39337
39337 39455
39455 39548
39548 39662
39662 39779
39779 39898
39898 40016
40016 40132
40132 40250
40250 40369
40369 40484
40484 40596
40596 40712
40712 40828
40828 40940
40940 41054
41054 41172
41172 41289
41289 41402
41402 41516
41516 41635
41635 41751
41751 41862
41862 41975
41975 42088
42088 42199
42199 42308
42308 42419
42419 42533
42533 42647
42647 42761
42761 42879
42879 42998
42998 43114
43114 43231
43231 43350
43350 43466
43466 43578
43578 43692
43692 43783
43783 43899
43899 44009
44009 44120
44120 44233
44233 44347
44347 44458
44458 44565
44565 44671
44671 44777
44777 44881
44881 44981
44981 45081
45081 45182
45182 45279
45279 45378
45378 45477
45477 45582
45582 45685
45685 45795
45795 45908
45908 46018
46018 46129
46129 46242
46242 46355
46355 46464
46464 46575
46575 46689
46689 46800
46800 46907
46907 47017
47017 47131
47131 47248
47248 47363
47363 47477
47477 47593
47593 47710
47710 47821
47821 47933
47933 48033
48033 48150
48150 48269
48269 48385
48385 48496
48496 48586
48586 48705
48705 48826
48826 48944
48944 49066
49066 49186
49186 49303
49303 49419
49419 49539
49539 49660
49660 49778
49778 49893
49893 50012
50012 50129
50129 50241
50241 50353
50353 50468
50468 50583
50583 50693
50693 50806
50806 50922
50922 51036
51036 51154
51154 51275
51275 51395
51395 51511
51511 51628
51628 51744
51744 51858
51858 51967
51967 52072
52072 52178
52178 52287
52287 52395
52395 52498
52498 52603
52603 52709
52709 52815
52815 52917
52917 53019
53019 53119
53119 53229
53229 53342
53342 53459
53459 53577
53577 53690
53690 53805
53805 53922
53922 54038
54038 54150
54150 54265
54265 54382
54382 54496
54496 54609
54609 54724
54724 54842
54842 54957
54957 55073
55073 55192
55192 55310
55310 55424
55424 55540
55540 55658
55658 55774
55774 55887
55887 56002
56002 56120
56120 56239
56239 56352
56352 56468
56468 56586
56586 56704
56704 56818
56818 56937
56937 57090
57090 57207
57207 57324
57324 57444
57444 57536
57536 57650
57650 57769
57769 57888
57888 58003
58003 58094
58094 58212
58212 58330
58330 58533
58533 58650
58650 58767
58767 58879
58879 58993
58993 59110
59110 59227
59227 59341
59341 59457
59457 59575
59575 59691
59691 59803
59803 59916
59916 60031
60031 60146
60146 60256
60256 60367
60367 60481
60481 60596
60596 60707
60707 60819
60819 60934
60934 61147
61147 61265
61265 61377
61377 61492
61492 61608
61608 61725
61725 61840
61840 61957
61957 62076
62076 62193
62193 62306
62306 62425
62425 62546
62546 62664
62664 62785
62785 62908
62908 63033
63033 63151
63151 63272
63272 63394
63394 63513
63513 63632
63632 63755
63755 63877
