2424 2501
5765 5844
7992 8068
8068 8143
8143 8218
8218 8292
8292 8368
8368 8443
8443 8518
8518 8593
8593 8668
8668 8743
8743 8817
8817 8892
8892 8967
8967 9042
9042 9116
9116 9191
9191 9266
9266 9341
9341 9415
9415 9490
9490 9565
9565 9640
9640 9714
9714 9789
9789 9865
9865 9939
9939 10014
10014 10072
10072 10147
10147 10222
10222 10297
10297 10373
10373 10448
10448 10523
10523 10599
10599 10674
10674 10749
10749 10824
10824 10898
10898 10974
10974 11049
11049 11124
11124 11188
11188 11271
11271 11348
11348 11423
11423 11497
11497 11573
11573 11649
11649 11724
11724 11798
11798 11874
11874 11951
11951 12026
12026 12100
12100 12176
12176 12253
12253 12329
12329 12404
12404 12479
12479 12557
12557 12632
12632 12708
12708 12782
12782 12859
12859 12935
12935 13011
13011 13086
13086 13162
13162 13237
13237 13313
13313 13388
13388 13463
13463 13541
13541 13617
13617 13682
13682 13766
13766 13843
13843 13920
13920 13997
13997 14072
14072 14149
14149 14227
14227 14303
14303 14379
14379 14455
14455 14531
14531 14609
14609 14686
14686 14762
14762 14838
14838 14914
14914 14991
14991 15069
15069 15145
15145 15222
15222 15298
15298 15374
15374 15451
15451 15528
15528 15605
15605 15681
15681 15757
15757 15834
15834 15910
15910 15986
15986 16063
16063 16138
16138 16215
16215 16291
16291 16367
16367 16443
16443 16518
16518 16594
16594 16669
16669 16745
16745 16821
16821 16897
16897 16972
16972 17047
17047 17123
17123 17199
17199 17274
17274 17349
17349 17424
17424 17500
17500 17576
17576 17652
17652 17727
17727 17803
17803 17878
17878 17954
17954 18030
18030 18106
18106 18182
18182 18257
18257 18335
18335 18412
18412 18475
18475 18559
18559 18636
18636 18713
18713 18789
18789 18865
18865 18941
18941 19006
19006 19092
19092 19168
19168 19246
19246 19323
19323 19398
19398 19475
19475 19552
19552 19627
19627 19690
19690 19774
19774 19851
19851 19927
19927 20033
20033 20107
20107 20181
20181 20257
20257 20323
20323 20405
20405 20479
20479 20553
20553 20630
20630 20704
20704 20779
20779 20854
20854 20929
20929 21004
21004 21078
21078 21152
21152 21227
21227 21301
21301 21374
21374 21449
21449 21525
21525 21599
21599 21673
21673 21746
21746 21822
21822 21896
21896 21970
21970 22044
22044 22119
22119 22193
22193 22267
22267 22341
22341 22416
22416 22490
22490 22564
22564 22638
22638 22713
22713 22787
22787 22861
22861 22935
22935 23009
23009 23084
23084 23157
23157 23232
23232 23306
23306 23381
23381 23455
23455 23529
23529 23603
23603 23677
23677 23751
23751 23825
23825 23900
23900 23974
23974 24048
24048 24123
24123 24197
24197 24271
24271 24346
24346 24420
24420 24570
24570 24634
24634 24715
24715 24791
24791 24866
24866 24941
24941 25015
25015 25089
25089 25164
25164 25239
25239 25314
25314 25388
25388 25462
25462 25537
25537 25611
25611 25674
25674 25756
25756 25831
25831 25905
25905 25980
25980 26054
26054 26128
26128 26204
26204 26278
26278 26353
26353 26426
26426 26502
26502 26576
26576 26650
26650 26724
26724 26791
26791 26872
26872 26946
26946 27020
27020 27094
27094 27170
27170 27245
27245 27318
27318 27392
27392 27468
27468 27543
27543 27617
27617 27691
27691 27765
27765 27840
27840 27914
27914 27987
27987 28062
28062 28137
28137 28212
28212 28359
28359 28434
28434 28498
28498 28580
28580 28654
28654 28728
28728 28803
28803 28877
28877 28952
28952 29027
29027 29102
29102 29176
29176 29251
29251 29324
29324 29400
29400 29474
29474 29549
29549 29622
29622 29688
29688 29770
29770 29844
29844 29933
29933 30008
30008 30044
30044 30119
30119 30192
30192 30266
30266 30340
30340 30414
30414 30480
30480 30560
30560 30635
30635 30783
30783 30857
30857 30931
30931 31005
31005 31079
31079 31153
31153 31221
31221 31299
31299 31374
31374 31448
31448 31522
31522 31595
31595 31669
31669 31743
31743 31817
31817 31890
31890 31964
31964 32030
32030 32184
32184 32258
32258 32332
32332 32405
32405 32479
32479 32553
32553 32627
32627 32700
32700 32763
32763 32844
32844 32920
32920 32994
32994 33067
33067 33141
33141 33215
33215 33288
33288 33362
33362 33436
33436 33510
33510 33583
33583 33657
33657 33719
33719 33799
33799 33949
33949 34022
34022 34097
34097 34170
34170 34244
34244 34317
34317 34391
34391 34465
34465 34538
34538 34611
34611 34685
34685 34750
34750 34831
34831 34905
34905 34979
34979 35053
35053 35128
35128 35201
35201 35275
35275 35349
35349 35424
35424 35498
35498 35572
35572 35647
35647 35722
35722 35797
35797 35872
35872 35948
35948 36024
36024 36099
36099 36175
36175 36250
36250 36326
36326 36402
36402 36478
36478 36554
36554 36631
36631 36708
36708 36784
36784 36861
36861 36938
36938 37015
37015 37092
37092 37170
37170 37247
37247 37325
37325 37402
37402 37480
37480 37533
37533 37611
37611 37690
37690 37768
37768 37846
37846 37925
37925 38004
38004 38083
38083 38162
38162 38241
38241 38320
38320 38399
38399 38478
38478 38558
38558 38637
38637 38716
38716 38796
38796 38875
38875 38955
38955 39034
39034 39114
39114 39194
39194 39274
39274 39353
39353 39433
39433 39513
39513 39593
39593 39672
39672 39751
39751 39830
39830 39909
39909 39988
39988 40040
40040 40104
40104 40183
40183 40257
40257 40331
40331 40404
40404 40477
40477 40550
40550 40615
40615 40694
40694 40768
40768 40841
40841 40914
40914 40987
40987 41059
41059 41122
41122 41203
41203 41276
41276 41349
41349 41422
41422 41495
41495 41567
41567 41640
41640 41704
41704 41784
41784 41857
41857 41929
41929 42002
42002 42075
42075 42147
42147 42219
42219 42282
42282 42363
42363 42435
42435 42508
42508 42580
42580 42653
42653 42726
42726 42798
42798 42862
42862 42942
42942 43014
43014 43107
43107 43179
43179 43252
43252 43324
43324 43397
43397 43469
43469 43542
43542 43607
43607 43686
43686 43759
43759 43832
43832 43905
43905 43977
43977 44049
44049 44122
44122 44188
44188 44266
44266 44338
44338 44411
44411 44484
44484 44557
44557 44629
44629 44702
44702 44766
44766 44845
44845 44918
44918 44991
44991 45087
45087 45159
45159 45232
45232 45304
45304 45371
45371 45448
45448 45521
45521 45594
45594 45666
45666 45738
45738 45811
45811 45884
45884 45957
45957 46020
46020 46100
46100 46174
46174 46247
46247 46319
46319 46392
46392 46465
46465 46538
46538 46610
46610 46683
46683 46756
46756 46829
46829 46893
46893 46972
46972 47046
47046 47119
47119 47191
47191 47264
47264 47337
47337 47410
47410 47474
47474 47553
47553 47626
47626 47700
47700 47772
47772 47845
47845 47918
47918 47991
47991 48064
48064 48127
48127 48207
48207 48281
48281 48353
48353 48426
48426 48499
48499 48572
48572 48645
48645 48717
48717 48790
48790 48863
48863 48936
48936 49000
49000 49080
