560 635
1541 1617
7147 7226
7226 7306
8960 9040
9357 9435
9435 9514
9514 9566
9800 9878
9878 9955
9955 10030
10160 10237
10237 10314
10314 10391
10391 10467
10467 10544
10544 10620
10620 10697
10697 10774
10774 10850
10850 10926
10926 11002
11002 11078
11078 11155
11155 11231
11231 11307
11307 11383
11383 11459
11459 11535
11535 11612
11612 11689
11689 11765
11765 11842
11842 11917
11917 11994
11994 12057
12057 12133
12133 12209
12209 12285
12285 12361
12361 12437
12437 12513
12513 12589
12589 12665
12665 12741
12741 12817
12817 12892
12892 12969
12969 13045
13045 13121
13121 13197
13197 13272
13272 13348
13348 13424
13424 13500
13500 13576
13576 13652
13652 13727
13727 13803
13803 13879
13879 13954
13954 14031
14031 14107
14107 14182
14182 14257
14257 14333
14333 14409
14409 14485
14485 14561
14561 14637
14637 14713
14713 14788
14788 14864
14864 14940
14940 15043
15043 15118
15118 15193
15193 15269
15269 15344
15344 15420
15420 15496
15496 15572
15572 15648
15648 15724
15724 15799
15799 15875
15875 15951
15951 16026
16026 16102
16102 16178
16178 16253
16253 16330
16330 16406
16406 16482
16482 16558
16558 16635
16635 16710
16710 16787
16787 16864
16864 16940
16940 17017
17017 17065
17065 17142
17142 17218
17218 17294
17294 17371
17371 17448
17448 17524
17524 17600
17600 17677
17677 17754
17754 17830
17830 17907
17907 17984
17984 18060
18060 18137
18137 18215
18215 18292
18292 18370
18370 18447
18447 18500
18500 18578
18578 18656
18656 18734
18734 18812
18812 18891
18891 18969
18969 19038
19038 19116
19116 19196
19196 19275
19275 19354
19354 19433
19433 19512
19512 19592
19592 19671
19671 19749
19749 19826
19826 19904
19904 19981
19981 20094
20094 20172
20172 20251
20251 20329
20329 20408
20408 20486
20486 20564
20564 20643
20643 20722
20722 20799
20799 20877
20877 20956
20956 21034
21034 21113
21113 21192
21192 21270
21270 21349
21349 21428
21428 21508
21508 21586
21586 21666
21666 21745
21745 21823
21823 21901
21901 21980
21980 22058
22058 22136
22136 22214
22214 22292
22292 22370
22370 22449
22449 22526
22526 22605
22605 22683
22683 22761
22761 22839
22839 22918
22918 22997
22997 23076
23076 23155
23155 23233
23233 23312
23312 23391
23391 23468
23468 23547
23547 23625
23625 23702
23702 23781
23781 23859
23859 23937
23937 24015
24015 24093
24093 24171
24171 24249
24249 24328
24328 24406
24406 24484
24484 24562
24562 24641
24641 24720
24720 24798
24798 24877
24877 24955
24955 25035
25035 25114
25114 25193
25193 25273
25273 25353
25353 25431
25431 25511
25511 25590
25590 25669
25669 25747
25747 25824
25824 25902
25902 25979
25979 26056
26056 26133
26133 26210
26210 26288
26288 26364
26364 26442
26442 26519
26519 26597
26597 26674
26674 26752
26752 26830
26830 26908
26908 26987
26987 27065
27065 27143
27143 27222
27222 27301
27301 27379
27379 27458
27458 27537
27537 27615
27615 27694
27694 27773
27773 27852
27852 27931
27931 28009
28009 28087
28087 28166
28166 28244
28244 28321
28321 28399
28399 28476
28476 28554
28554 28632
28632 28709
28709 28786
28786 28863
28863 28940
28940 29016
29016 29093
29093 29171
29171 29247
29247 29325
29325 29402
29402 29479
29479 29557
29557 29634
29634 29711
29711 29788
29788 29866
29866 29943
29943 30020
30020 30082
30082 30159
30159 30237
30237 30313
30313 30391
30391 30469
30469 30546
30546 30624
30624 30701
30701 30779
30779 30857
30857 30934
30934 31011
31011 31074
31074 31152
31152 31229
31229 31306
31306 31383
31383 31460
31460 31538
31538 31614
31614 31691
31691 31769
31769 31846
31846 31923
31923 32001
32001 32086
32086 32164
32164 32241
32241 32318
32318 32396
32396 32474
32474 32551
32551 32629
32629 32708
32708 32786
32786 32864
32864 32942
32942 33021
33021 33096
33096 33174
33174 33252
33252 33330
33330 33408
33408 33486
33486 33564
33564 33643
33643 33720
33720 33799
33799 33877
33877 33956
33956 34034
34034 34114
34114 34192
34192 34272
34272 34351
34351 34405
34405 34484
34484 34564
34564 34644
34644 34724
34724 34803
34803 34883
34883 34962
34962 35041
35041 35121
35121 35200
35200 35279
35279 35358
35358 35437
35437 35516
35516 35596
35596 35675
35675 35755
35755 35835
35835 35914
35914 35993
35993 36073
36073 36127
36127 36207
36207 36286
36286 36366
36366 36445
36445 36524
36524 36605
36605 36684
36684 36764
36764 36845
36845 36924
36924 37004
37004 37097
37097 37178
37178 37258
37258 37337
37337 37418
37418 37498
37498 37579
37579 37658
37658 37738
37738 37818
37818 37897
37897 37976
37976 38056
38056 38135
38135 38215
38215 38295
38295 38374
38374 38454
38454 38534
38534 38614
38614 38694
38694 38774
38774 38854
38854 38935
38935 39015
39015 39122
39122 39200
39200 39278
39278 39357
39357 39435
39435 39514
39514 39593
39593 39673
39673 39752
39752 39831
39831 39911
39911 39991
39991 40071
40071 40151
40151 40231
40231 40310
40310 40390
40390 40469
40469 40548
40548 40627
40627 40706
40706 40785
40785 40864
40864 40944
40944 41023
41023 41102
41102 41182
