992 1045
1203 1282
1282 1362
1362 1441
1441 1522
1522 1601
1601 1681
1681 1761
1761 1842
1842 1922
1922 2003
2003 2082
2082 2161
2161 2242
2242 2322
2322 2403
2403 2485
2485 2566
2566 2646
2646 2727
2727 2807
2807 2888
2888 2967
2967 3044
3044 3096
3096 3174
3174 3331
3331 3409
3409 3463
3463 3541
3541 3619
3619 3698
3698 3775
3775 3854
3854 3933
3933 4012
4012 4091
4091 4170
4170 4248
4248 4327
4327 4406
4406 4486
4486 4540
4540 4619
4619 4698
4698 4777
4777 4856
4856 4935
4935 5014
5014 5093
5093 5172
5172 5250
5250 5329
5329 5408
5408 5487
5487 5565
5565 5644
5644 5722
5722 5801
5801 5880
5880 5959
5959 6037
6037 6116
6116 6195
6195 6274
6274 6353
6353 6432
6432 6510
6510 6589
6589 6668
6668 6747
6747 6826
6826 6905
6905 6984
6984 7105
7105 7184
7184 7263
7263 7342
7342 7421
7421 7501
7501 7579
7579 7659
7659 7738
7738 7817
7817 7896
7896 7976
7976 8112
8112 8190
8190 8269
8269 8348
8348 8427
8427 8506
8506 8585
8585 8665
8665 8744
8744 8823
8823 8902
8902 8982
8982 9061
9061 9140
9140 9219
9219 9298
9298 9377
9377 9455
9455 9533
9533 9612
9612 9691
9691 9769
9769 9848
9848 9927
9927 10006
10006 10076
10076 10155
10155 10234
10234 10314
10314 10393
10393 10472
10472 10551
10551 10630
10630 10709
10709 10788
10788 10867
10867 10946
10946 11026
11026 11105
11105 11184
11184 11263
11263 11343
11343 11422
11422 11502
11502 11581
11581 11660
11660 11739
