4 44
1696 1775
1775 1854
1854 1907
5846 5926
5926 6006
6006 6046
6521 6601
6601 6681
6681 6816
6816 6896
6896 6975
6975 7072
7072 7151
7151 7231
7231 7310
7310 7390
7390 7471
7471 7550
7550 7630
7630 7710
7710 7789
7789 7869
7869 7950
7950 8005
8005 8085
8085 8163
8163 8241
8241 8319
8319 8397
8397 8474
8474 8552
8552 8629
8629 8707
8707 8784
8784 8862
8862 8941
8941 9019
9019 9098
9098 9177
9177 9255
9255 9334
9334 9414
9414 9493
9493 9573
9573 9654
9654 9734
9734 9814
9814 9895
9895 9975
9975 10055
10055 10135
10135 10214
10214 10293
10293 10373
10373 10452
10452 10531
10531 10610
10610 10689
10689 10767
10767 10846
10846 10925
10925 11003
11003 11082
11082 11160
11160 11238
11238 11316
11316 11395
11395 11474
11474 11553
11553 11633
11633 11712
11712 11791
11791 11871
11871 11951
11951 12032
12032 12113
12113 12169
12169 12249
12249 12328
12328 12406
12406 12485
12485 12563
12563 12641
12641 12718
12718 12795
12795 12873
12873 12949
12949 13049
13049 13128
13128 13207
13207 13286
13286 13365
13365 13443
13443 13522
13522 13601
13601 13679
13679 13757
13757 13836
13836 13889
13889 13967
13967 14046
14046 14124
14124 14202
14202 14281
14281 14359
14359 14438
14438 14516
14516 14595
14595 14673
14673 14752
14752 14831
14831 14909
14909 14988
14988 15092
15092 15170
15170 15248
15248 15327
15327 15404
15404 15482
15482 15536
15536 15614
15614 15693
15693 15747
15747 15826
15826 15906
15906 15985
15985 16086
16086 16164
16164 16243
16243 16322
16322 16400
16400 16479
16479 16557
16557 16635
16635 16714
16714 16792
16792 16871
16871 16949
16949 17028
17028 17107
17107 17185
17185 17263
17263 17342
17342 17420
17420 17498
17498 17576
17576 17654
17654 17732
17732 17810
17810 17888
17888 17965
17965 18056
18056 18135
18135 18213
18213 18291
18291 18370
18370 18450
18450 18528
