378 460
460 539
1024 1107
1107 1189
1189 1271
1271 1354
1354 1436
1436 1515
1515 1622
1622 1667
1667 1757
1757 1840
1840 1923
1923 2005
2005 2049
2049 2130
2130 2212
2212 2294
2294 2375
2375 2414
2414 2453
2453 2528
2528 2603
2603 2682
2682 2772
2772 2855
2855 2938
2938 3047
3047 3124
3124 3202
3202 3293
3293 3376
3376 3460
3460 3541
3541 3624
3624 3707
3707 3790
3790 3872
3872 3955
3955 4096
4096 4188
4188 4271
4271 4355
4355 4439
4439 4523
4523 4606
4606 4689
4689 4772
4772 4852
4852 4927
4927 5006
5006 5052
5052 5135
5135 5218
5218 5300
5300 5383
5383 5466
5466 5547
5547 5630
5630 5713
5713 5796
5796 5878
5878 5961
5961 6109
6109 6192
6192 6274
6274 6358
6358 6440
6440 6522
6522 6605
6605 6687
6687 6769
6769 6851
6851 6924
6924 6996
6996 7108
7108 7192
7192 7273
7273 7355
7355 7438
7438 7515
7515 7591
7591 7666
7666 7746
7746 7836
7836 7919
7919 8002
8002 8067
8067 8144
8144 8223
8223 8313
8313 8396
8396 8479
8479 8561
8561 8642
8642 8725
8725 8806
8806 8889
8889 8971
8971 9110
9110 9191
9191 9272
9272 9354
9354 9436
9436 9518
9518 9596
9596 9671
9671 9750
9750 9828
9828 9918
9918 10002
10002 10084
10084 10167
10167 10249
10249 10330
10330 10413
10413 10493
10493 10575
10575 10657
10657 10738
10738 10821
10821 10902
10902 10981
10981 11035
11035 11117
11117 11198
11198 11280
11280 11362
11362 11444
11444 11525
11525 11606
11606 11689
11689 11770
11770 11852
11852 11933
11933 12013
12013 12055
12055 12132
12132 12213
12213 12304
12304 12388
12388 12471
12471 12553
12553 12637
12637 12719
12719 12801
12801 12884
12884 12965
12965 13059
13059 13143
13143 13227
13227 13309
13309 13394
13394 13477
13477 13557
13557 13635
13635 13713
13713 13791
13791 13884
13884 13969
13969 14054
14054 14137
14137 14222
14222 14306
14306 14387
