475 579
683 796
796 845
845 954
1056 1165
1165 1272
1824 1935
1935 2123
2123 2239
3935 4063
4063 4178
4984 5133
5133 5248
6949 7065
7065 7184
7877 7997
7997 8146
8146 8267
8632 8753
8753 8874
8996 9115
9115 9185
9712 9836
9836 9908
9908 10026
10026 10084
10330 10450
10450 10573
10573 10669
13227 13350
13350 13474
13474 13596
13596 13694
13941 14065
14065 14188
14188 14286
14383 14507
14507 14603
15110 15229
15229 15323
15783 15904
15904 16004
16004 16100
16691 16814
16814 16936
16936 17034
17276 17398
17398 17492
17492 17615
17615 17712
19527 19648
19648 19771
19771 19893
19893 20012
20012 20134
20134 20255
20255 20377
20377 20500
20500 20623
20623 20722
21461 21583
21583 21683
21905 22107
22107 22203
22323 22444
22444 22540
23045 23171
23171 23268
23268 23367
23367 23469
23469 23543
23543 23642
23642 23731
24071 24194
24194 24294
24543 24768
24768 24894
24894 25020
25020 25123
25123 25248
25248 25347
25347 25470
25470 25594
25594 25717
25717 25840
25840 25963
25963 26062
26062 26184
26184 26306
26306 26428
26428 26551
26551 26676
26676 26800
26800 26926
26926 27130
27130 27252
27252 27376
27376 27498
27498 27595
27595 27692
27692 27813
27813 27934
27934 28035
28035 28154
28154 28275
28275 28398
28398 28520
28520 28642
28642 28766
28766 28886
28886 29005
29005 29126
29126 29248
29248 29369
29369 29489
29489 29609
29609 29729
29729 29849
29849 29970
29970 30093
30093 30217
30217 30344
30344 30471
30471 30594
30594 30723
30723 30848
30848 30973
30973 31127
31127 31250
31250 31373
31373 31498
31498 31618
31618 31739
31739 31864
