4918 4998
4998 5107
7925 8031
8031 8112
8112 8192
8192 8273
8273 8332
8332 8388
8388 8469
8469 8550
8550 8609
8609 8689
8689 8749
8749 8807
8807 8887
8887 8944
8944 9024
9024 9105
9105 9185
9185 9266
9266 9323
9323 9404
9404 9485
9485 9540
9540 9620
9620 9701
9701 9782
9782 9863
9863 9922
9922 9982
9982 10063
10063 10120
10120 10201
10201 10260
10260 10318
10318 10399
10399 10457
10457 10538
10538 10618
10618 10677
10677 10757
10757 10813
10813 10873
10873 10953
10953 11009
11009 11108
11108 11189
11189 11270
11270 11351
11351 11432
11432 11513
11513 11595
11595 11676
11676 11757
11757 11839
11839 11920
11920 11981
11981 12036
12036 12117
12117 12199
12199 12258
12258 12339
12339 12398
12398 12479
12479 12560
12560 12641
12641 12698
12698 12757
12757 12839
12839 12920
12920 12978
12978 13059
13059 13140
13140 13221
13221 13302
13302 13383
13383 13464
13464 13545
13545 13626
13626 13707
13707 13788
13788 13869
