3530 3588
3657 3714
3714 3771
3771 4080
4080 4175
4659 4778
5124 5182
5182 5251
5251 5319
5846 5934
6022 6080
12105 12211
12211 12304
12304 12394
12394 12484
12484 12572
12572 12660
12660 12747
12747 12835
12835 12924
12924 13012
13012 13102
13102 13189
13189 13280
13280 13370
13370 13461
13461 13550
13550 13640
13640 13731
13731 13822
13822 13911
13911 13998
13998 14088
14088 14177
14177 14266
14266 14354
14354 14441
14441 14530
14530 14618
14618 14706
14706 14792
14792 14882
14882 14973
14973 15063
15063 15154
15154 15245
15245 15338
15338 15431
15431 15524
15524 15617
15617 15709
15709 15801
15801 15892
15892 15984
15984 16075
16075 16165
16165 16255
16255 16348
16348 16442
16442 16534
16534 16625
16625 16719
16719 16810
16810 16905
16905 16999
16999 17094
17094 17188
17188 17281
17281 17374
17374 17470
17470 17566
17566 17661
17661 17755
17755 17848
17848 17943
17943 18037
18037 18130
18130 18224
18224 18316
18316 18407
18407 18501
18501 18595
18595 18688
18688 18779
18779 18868
18868 18960
18960 19050
19050 19139
19139 19227
19227 19314
19314 19403
19403 19490
19490 19577
19577 19662
19662 19722
19722 19790
19790 19845
19845 19981
19981 20055
20055 20140
20140 20227
20227 20315
20315 20403
20403 20491
20491 20578
20578 20668
20668 20757
20757 20846
20846 20933
20933 21019
21019 21106
21106 21192
21192 21279
21279 21363
21363 21449
21449 21533
21533 21616
21616 21697
21697 21778
21778 21860
21860 21943
21943 22025
22025 22106
22106 22188
22188 22268
22268 22349
22349 22431
22431 22511
22511 22570
22570 22669
22669 22759
22759 22847
22847 22936
22936 23024
23024 23110
23110 23196
23196 23282
23282 23368
23368 23453
23453 23512
23512 23580
23580 23653
23653 23745
23745 23837
23837 23925
23925 24014
24014 24103
24103 24191
24191 24279
24279 24368
24368 24457
24457 24546
24546 24634
24634 24722
24722 24811
24811 24901
24901 24989
24989 25077
25077 25166
25166 25258
25258 25348
25348 25438
25438 25526
25526 25616
25616 25705
25705 25794
25794 25882
25882 25969
25969 26028
26028 26133
26133 26225
26225 26315
26315 26404
26404 26492
26492 26581
26581 26670
26670 26760
26760 26849
26849 26938
26938 27027
27027 27118
27118 27209
27209 27299
27299 27388
27388 27480
27480 27572
27572 27663
27663 27754
27754 27843
27843 27936
27936 28029
28029 28123
28123 28216
28216 28307
28307 28404
28404 28500
28500 28595
28595 28689
28689 28782
28782 28876
28876 28972
28972 29067
29067 29164
29164 29259
29259 29352
29352 29447
29447 29541
29541 29635
29635 29727
29727 29819
29819 29911
29911 30008
30008 30104
30104 30199
30199 30293
30293 30386
30386 30479
30479 30573
30573 30667
30667 30760
30760 30852
30852 30945
30945 31040
31040 31133
31133 31225
31225 31317
31317 31409
31409 31502
31502 31594
31594 31687
31687 31779
31779 31870
31870 31960
31960 32054
32054 32148
32148 32241
32241 32333
32333 32422
32422 32516
32516 32607
32607 32698
32698 32787
32787 32876
32876 32966
32966 33055
33055 33144
33144 33232
33232 33323
33323 33413
33413 33503
33503 33592
33592 33680
33680 33768
33768 33857
33857 33946
33946 34034
34034 34120
34120 34209
34209 34299
34299 34388
34388 34477
34477 34564
34564 34654
34654 34745
34745 34834
34834 34923
34923 35013
35013 35101
35101 35193
35193 35283
35283 35374
35374 35465
35465 35555
35555 35645
35645 35738
35738 35830
35830 35923
35923 36015
36015 36107
36107 36197
36197 36291
36291 36386
36386 36479
36479 36571
36571 36663
36663 36756
36756 36850
36850 36943
36943 37036
37036 37128
37128 37218
37218 37312
37312 37405
37405 37497
37497 37587
37587 37677
37677 37769
37769 37862
37862 37953
37953 38044
38044 38135
38135 38226
38226 38320
38320 38413
38413 38506
38506 38598
38598 38689
38689 38778
38778 38870
38870 38959
38959 39048
39048 39134
39134 39223
39223 39312
39312 39400
39400 39485
39485 39573
39573 39661
39661 39747
39747 39831
39831 39918
39918 40004
40004 40088
40088 40172
40172 40257
40257 40340
40340 40423
40423 40509
40509 40594
40594 40678
40678 40762
40762 40846
40846 40929
40929 41010
41010 41080
41080 41169
41169 41256
41256 41342
41342 41429
41429 41516
41516 41603
41603 41688
41688 41776
41776 41864
41864 41952
41952 42039
42039 42125
42125 42214
42214 42302
42302 42390
42390 42476
42476 42565
42565 42655
42655 42744
42744 42832
42832 42921
42921 43010
43010 43099
43099 43186
43186 43274
43274 43364
43364 43453
43453 43542
43542 43629
43629 43721
43721 43812
43812 43902
43902 43991
43991 44081
44081 44172
44172 44263
44263 44354
44354 44443
44443 44537
44537 44631
44631 44724
44724 44816
44816 44908
44908 45000
45000 45093
45093 45185
45185 45275
45275 45368
45368 45462
45462 45555
45555 45647
45647 45741
45741 45833
45833 45928
45928 46024
46024 46120
46120 46215
46215 46309
46309 46403
46403 46501
46501 46598
46598 46693
46693 46788
46788 46882
46882 46977
46977 47072
47072 47164
47164 47256
47256 47347
47347 47435
47435 47527
47527 47618
47618 47708
47708 47796
47796 47884
47884 47974
47974 48065
48065 48155
48155 48244
48244 48334
48334 48422
48422 48514
48514 48606
48606 48698
48698 48790
48790 48881
48881 48970
48970 49062
49062 49154
49154 49245
49245 49335
49335 49424
49424 49513
49513 49604
49604 49694
49694 49785
49785 49876
49876 49967
49967 50056
50056 50150
50150 50244
50244 50337
50337 50429
50429 50521
50521 50613
50613 50705
50705 50798
50798 50890
50890 50981
50981 51070
51070 51162
51162 51255
51255 51346
51346 51437
51437 51526
51526 51619
51619 51711
51711 51802
51802 51892
51892 51982
51982 52071
52071 52164
52164 52255
52255 52346
52346 52437
52437 52526
52526 52616
52616 52708
52708 52798
52798 52888
52888 52975
52975 53033
53033 53124
53124 53213
53213 53301
53301 53387
53387 53476
53476 53563
53563 53651
53651 53735
53735 53823
53823 53910
53910 53996
53996 54080
54080 54166
54166 54252
54252 54337
54337 54420
54420 54504
54504 54588
54588 54672
54672 54754
54754 54837
54837 54919
54919 54999
54999 55047
55047 55145
55145 55238
55238 55328
55328 55416
55416 55505
55505 55593
55593 55681
55681 55767
55767 55854
55854 55941
55941 56028
56028 56115
56115 56202
56202 56291
56291 56380
56380 56469
56469 56557
56557 56647
56647 56738
56738 56829
56829 56918
56918 57009
57009 57101
57101 57192
57192 57283
57283 57375
57375 57468
57468 57561
57561 57653
57653 57743
57743 57836
57836 57929
57929 58021
58021 58112
58112 58205
58205 58299
58299 58392
58392 58483
58483 58574
58574 58668
58668 58762
58762 58857
58857 58950
58950 59045
59045 59142
59142 59237
59237 59332
59332 59426
59426 59524
59524 59621
59621 59716
59716 59811
59811 59905
59905 59999
59999 60094
60094 60188
60188 60282
60282 60376
60376 60467
60467 60562
60562 60657
60657 60752
60752 60845
60845 60937
60937 61032
61032 61127
61127 61219
61219 61310
61310 61400
61400 61489
61489 61579
61579 61667
61667 61755
61755 61842
61842 61928
61928 62014
62014 62100
62100 62185
62185 62269
62269 62355
62355 62441
62441 62527
62527 62611
62611 62699
62699 62788
62788 62875
62875 62962
62962 63116
63116 63204
63204 63290
63290 63377
63377 63464
63464 63550
63550 63635
63635 63722
63722 63809
63809 63897
63897 63984
63984 64086
