891 999
999 1056
13165 13275
13275 13385
13385 13495
13495 13606
13606 13693
13693 13805
13805 13914
13914 14025
14025 14139
14139 14249
14249 14358
14358 14469
14469 14578
14578 14688
14688 14800
14800 14909
14909 14986
14986 15032
15032 15143
15143 15253
15253 15365
15365 15477
15477 15590
15590 15700
15700 15789
15789 15902
15902 15988
15988 16098
16098 16212
16212 16323
16323 16435
16435 16544
16544 16657
16657 16767
16767 16876
16876 16989
16989 17099
17099 17209
17209 17320
17320 17404
17404 17516
17516 17627
17627 17737
17737 17846
17846 17961
17961 18048
18048 18158
18158 18268
18268 18383
18383 18493
18493 18602
18602 18718
18718 18805
18805 18915
18915 19027
19027 19141
19141 19250
19250 19370
19370 19474
19474 19578
19578 19680
19680 19782
19782 19889
19889 19996
19996 20079
20079 20189
20189 20304
20304 20413
20413 20521
20521 20630
20630 20739
20739 20847
20847 20958
20958 21069
21069 21179
21179 21288
21288 21400
21400 21511
21511 21621
21621 21734
21734 21849
21849 21959
21959 22046
22046 22158
22158 22269
22269 22382
22382 22470
22470 22580
22580 22692
22692 22806
22806 22917
22917 23002
23002 23118
23118 23205
23205 23315
23315 23428
23428 23542
23542 23653
23653 23763
23763 23874
23874 23985
23985 24097
24097 24208
24208 24320
24320 24428
24428 24542
24542 24653
24653 24764
24764 24874
24874 24989
24989 25099
25099 25209
25209 25320
25320 25431
25431 25542
25542 25652
25652 25763
25763 25874
25874 25985
25985 26096
26096 26206
26206 26315
26315 26426
26426 26534
26534 26642
26642 26754
26754 26865
26865 26973
26973 27082
27082 27194
27194 27303
27303 27396
27396 27484
27484 27595
27595 27709
27709 27798
27798 27909
27909 28020
28020 28081
28081 28192
28192 28301
28301 28412
28412 28525
28525 28638
28638 28752
28752 28862
28862 28973
28973 29088
29088 29201
29201 29312
29312 29424
29424 29539
29539 29650
29650 29761
29761 29874
29874 29961
29961 30071
30071 30182
30182 30295
30295 30404
30404 30513
30513 30625
30625 30730
30730 30832
30832 30931
30931 31028
31028 31123
31123 31224
31224 31322
31322 31418
31418 31518
31518 31616
31616 31714
31714 31813
31813 31913
31913 32016
32016 32117
32117 32222
32222 32325
32325 32427
32427 32536
32536 32643
32643 32748
32748 32851
32851 32955
32955 33054
33054 33152
33152 33254
33254 33355
33355 33457
33457 33560
33560 33668
33668 33772
33772 33874
33874 33976
33976 34079
34079 34180
34180 34281
34281 34382
34382 34482
34482 34583
34583 34683
34683 34782
34782 34881
34881 34982
34982 35083
35083 35182
35182 35280
35280 35382
35382 35485
35485 35585
35585 35685
35685 35789
35789 35892
35892 35996
35996 36098
36098 36202
36202 36307
36307 36412
36412 36518
36518 36622
36622 36726
36726 36832
36832 36937
36937 37041
37041 37145
37145 37251
37251 37356
37356 37460
37460 37565
37565 37671
37671 37779
37779 37888
37888 37996
37996 38102
38102 38210
38210 38319
38319 38426
38426 38530
38530 38636
38636 38743
38743 38848
38848 38953
38953 39058
39058 39164
39164 39271
39271 39379
39379 39487
39487 39598
39598 39718
39718 39833
39833 39944
39944 40057
40057 40169
40169 40278
40278 40386
40386 40495
40495 40602
40602 40709
40709 40818
40818 40926
40926 41032
41032 41142
41142 41252
41252 41361
41361 41470
41470 41579
41579 41684
41684 41787
41787 41891
41891 41994
41994 42096
42096 42201
42201 42304
42304 42408
42408 42514
42514 42620
42620 42728
42728 42838
42838 42949
42949 43057
43057 43168
43168 43278
43278 43386
43386 43494
43494 43607
43607 43717
43717 43826
43826 43944
43944 44061
44061 44177
44177 44289
44289 44404
44404 44520
44520 44636
44636 44749
44749 44870
44870 44986
44986 45101
45101 45218
45218 45332
45332 45446
45446 45568
45568 45686
45686 45808
45808 45924
45924 46059
46059 46138
46138 46251
46251 46364
46364 46473
46473 46581
46581 46693
46693 46800
46800 46907
46907 47017
47017 47058
47058 47177
47177 47295
47295 47413
47413 47533
47533 47655
47655 47773
47773 47888
47888 48003
48003 48118
48118 48236
48236 48350
48350 48462
48462 48575
48575 48692
48692 48814
48814 48928
48928 49049
49049 49161
49161 49275
49275 49389
49389 49498
49498 49606
49606 49716
49716 49823
49823 49929
49929 50089
50089 50202
50202 50311
50311 50418
50418 50527
50527 50634
50634 50741
50741 50847
50847 50952
50952 51055
51055 51157
51157 51261
