2909 2994
3052 3138
3138 3223
3223 3307
3307 3393
3393 3477
3477 3562
3562 3646
3646 3731
3731 3816
3816 3902
3902 3986
3986 4071
4071 4156
4156 4240
4240 4326
4326 4411
4411 4495
4495 4580
4580 4666
4666 4750
4750 4835
4835 4921
4921 5005
5005 5090
5090 5174
5174 5260
5260 5344
5344 5430
5430 5513
5513 5599
5599 5683
5683 5768
5768 5853
5853 5937
5937 6022
6022 6105
6105 6191
6191 6274
6274 6359
6359 6444
6444 6527
6527 6611
6611 6696
6696 6780
6780 6865
6865 6949
6949 7032
7032 7117
7117 7201
7201 7285
7285 7368
7368 7454
7454 7537
7537 7621
7621 7706
7706 7790
7790 7874
7874 7956
7956 8040
8040 8125
8125 8209
8209 8292
8292 8377
8377 8461
8461 8546
8546 8629
8629 8714
8714 8798
8798 8882
8882 8967
8967 9065
9065 9149
9149 9232
9232 9316
9316 9401
9401 9485
9485 9568
9568 9651
9651 9735
9735 9819
9819 9902
9902 9985
9985 10095
10095 10178
10178 10261
10261 10346
10346 10428
10428 10513
10513 10597
10597 10680
10680 10764
10764 10848
10848 10932
10932 11017
11017 11088
11088 11173
11173 11256
11256 11341
11341 11425
11425 11508
11508 11592
11592 11677
11677 11760
11760 11845
11845 11929
11929 12013
12013 12110
12110 12194
12194 12278
12278 12363
12363 12447
12447 12532
12532 12616
12616 12700
12700 12785
12785 12869
12869 12953
12953 13039
13039 13122
13122 13207
13207 13291
13291 13376
13376 13460
13460 13545
13545 13629
13629 13714
13714 13798
13798 13882
13882 13967
13967 14051
14051 14136
14136 14220
14220 14304
14304 14389
14389 14473
14473 14556
14556 14642
14642 14725
14725 14810
14810 14895
14895 14980
14980 15064
15064 15149
15149 15234
15234 15319
15319 15405
15405 15490
15490 15574
15574 15660
15660 15744
15744 15830
15830 15916
15916 16000
16000 16086
16086 16172
16172 16256
16256 16343
16343 16427
16427 16513
16513 16597
16597 16683
16683 16769
16769 16854
16854 16938
16938 17023
17023 17129
17129 17214
17214 17300
17300 17384
17384 17470
17470 17554
17554 17640
17640 17725
17725 17812
17812 17897
17897 17981
17981 18068
18068 18153
18153 18239
18239 18324
18324 18409
18409 18496
18496 18581
18581 18668
18668 18755
18755 18840
18840 18926
18926 19012
19012 19098
19098 19185
19185 19271
19271 19357
19357 19443
19443 19530
19530 19615
19615 19702
19702 19789
19789 19874
19874 19960
19960 20047
20047 20134
20134 20219
20219 20305
20305 20391
20391 20479
20479 20565
20565 20652
20652 20737
20737 20824
20824 20910
20910 20996
20996 21083
21083 21169
21169 21254
21254 21340
21340 21427
21427 21512
21512 21599
21599 21684
21684 21770
21770 21857
21857 21943
21943 22064
22064 22151
22151 22237
22237 22322
22322 22409
22409 22496
22496 22581
22581 22668
22668 22755
22755 22841
22841 22927
22927 23015
23015 23101
23101 23186
23186 23274
23274 23360
23360 23448
23448 23534
23534 23621
23621 23707
23707 23793
23793 23880
23880 23968
23968 24053
24053 24139
24139 24226
24226 24312
24312 24400
24400 24486
24486 24572
24572 24659
24659 24745
24745 24831
24831 24918
24918 25004
25004 25090
25090 25178
25178 25264
25264 25349
25349 25437
25437 25523
25523 25608
25608 25695
25695 25782
25782 25867
25867 25954
25954 26040
26040 26126
26126 26211
26211 26298
26298 26382
26382 26468
26468 26554
26554 26640
26640 26724
26724 26811
26811 26896
26896 26980
26980 27067
27067 27151
27151 27237
27237 27322
27322 27407
27407 27493
27493 27578
27578 27665
27665 27749
27749 27836
27836 27920
27920 28006
28006 28093
28093 28178
28178 28264
