948 1061
1241 1332
1332 1424
11319 11411
11411 11503
11503 11596
11596 11688
11688 11782
11782 11872
11872 11964
11964 12034
12034 12123
12123 12214
12214 12305
12305 12393
12393 12483
12483 12574
12574 12662
12662 12750
12750 12840
12840 12929
12929 13016
13016 13105
13105 13193
