637 746
746 855
16208 16312
16312 16415
16415 16518
16518 16619
16619 16723
16723 16826
16826 16928
16928 17032
17032 17136
17136 17240
17240 17342
17342 17448
17448 17553
17553 17657
17657 17761
17761 17867
17867 17972
17972 18075
18075 18180
18180 18286
18286 18391
18391 18496
18496 18600
18600 18706
18706 18814
18814 18919
18919 19028
19028 19137
19137 19246
19246 19352
19352 19462
19462 19570
19570 19677
19677 19782
19782 19891
19891 19999
19999 20106
20106 20213
20213 20319
20319 20426
20426 20533
20533 20641
20641 20747
20747 20851
20851 20957
20957 21065
21065 21171
21171 21277
21277 21383
21383 21492
21492 21599
21599 21704
21704 21811
21811 21918
21918 22023
22023 22131
22131 22236
22236 22344
22344 22450
22450 22558
22558 22663
22663 22771
22771 22878
22878 22983
22983 23089
23089 23198
23198 23305
23305 23411
23411 23519
23519 23626
23626 23732
23732 23841
23841 23949
23949 24058
24058 24166
24166 24274
24274 24379
24379 24488
24488 24595
24595 24701
24701 24807
24807 24914
24914 25016
25016 25137
25137 25241
25241 25344
25344 25448
25448 25550
25550 25653
25653 25757
25757 25862
25862 25963
25963 26069
26069 26173
26173 26275
26275 26380
26380 26483
26483 26587
26587 26690
26690 26796
26796 26900
26900 27004
27004 27109
27109 27216
27216 27321
27321 27428
27428 27532
27532 27641
27641 27747
27747 27853
27853 27961
27961 28065
28065 28173
28173 28277
28277 28384
28384 28489
28489 28595
28595 28702
28702 28811
28811 28918
28918 29025
29025 29130
29130 29238
29238 29345
29345 29452
29452 29557
29557 29666
