1965 2074
3102 3193
3193 3283
3283 3364
3364 3460
3460 3534
3534 3624
3624 3704
3704 3797
3797 3877
3877 3967
3967 4069
4069 4166
4166 4266
4266 4362
4362 4458
4458 4532
4532 4603
4603 4699
4699 4797
4797 4893
4893 4989
4989 5085
5085 5181
5181 5275
5275 5369
5369 5465
5465 5537
5537 5628
5628 5717
5717 5800
5800 5886
5886 5970
5970 6114
6114 6213
6213 6310
6310 6409
6409 6509
6509 6609
6609 6709
6709 6808
6808 6907
6907 7007
7007 7109
7109 7207
7207 7305
7305 7404
7404 7501
7501 7597
7597 7696
7696 7791
7791 7887
7887 7986
7986 8058
8058 8155
8155 8254
8254 8349
8349 8446
8446 8544
8544 8640
8640 8738
8738 8838
8838 8935
8935 9033
9033 9133
9133 9233
9233 9330
9330 9428
9428 9528
9528 9625
9625 9723
9723 9824
9824 9924
9924 10023
10023 10127
10127 10226
10226 10325
10325 10426
10426 10523
10523 10621
10621 10721
10721 10826
10826 10924
10924 11024
11024 11127
11127 11226
11226 11325
11325 11428
11428 11529
11529 11628
11628 11731
11731 11830
11830 11929
11929 12030
12030 12130
12130 12231
12231 12336
12336 12437
12437 12537
12537 12639
12639 12739
12739 12838
12838 12941
12941 13042
13042 13142
13142 13244
13244 13323
13323 13423
13423 13524
13524 13631
13631 13707
13707 13808
13808 13913
13913 13989
13989 14061
14061 14163
14163 14264
14264 14368
14368 14471
14471 14573
14573 14677
14677 14758
14758 14860
14860 14963
14963 15071
15071 15173
15173 15276
15276 15384
15384 15485
15485 15588
15588 15696
15696 15799
15799 15904
15904 16098
16098 16205
16205 16313
16313 16419
16419 16528
16528 16615
16615 16719
16719 16826
16826 16935
16935 17037
17037 17141
17141 17251
17251 17354
17354 17459
17459 17566
17566 17669
17669 17772
17772 17855
17855 17959
17959 18052
18052 18157
18157 18267
18267 18377
18377 18482
18482 18591
18591 18701
18701 18807
18807 18917
18917 19027
19027 19132
19132 19242
19242 19356
19356 19461
19461 19568
19568 19677
19677 19781
19781 19888
19888 20001
20001 20105
20105 20213
20213 20323
20323 20428
20428 20537
20537 20624
20624 20730
20730 20840
20840 20951
20951 21056
21056 21164
21164 21278
21278 21383
21383 21492
21492 21602
21602 21708
21708 21818
21818 21928
21928 22033
22033 22140
22140 22250
22250 22355
22355 22462
22462 22571
22571 22677
22677 22786
22786 22898
22898 23004
23004 23111
23111 23224
23224 23328
23328 23433
23433 23517
23517 23621
23621 23727
23727 23838
23838 23943
23943 24026
24026 24135
24135 24239
24239 24344
24344 24454
24454 24557
24557 24612
24612 24697
24697 24800
24800 24906
24906 25016
25016 25120
25120 25224
25224 25334
25334 25438
25438 25543
25543 25654
25654 25758
25758 25863
25863 25976
25976 26082
26082 26189
26189 26301
26301 26406
26406 26513
26513 26624
26624 26729
26729 26837
26837 26950
26950 27056
27056 27165
27165 27279
27279 27386
27386 27471
27471 27584
27584 27666
27666 27777
27777 27893
27893 28001
28001 28112
28112 28228
28228 28334
28334 28444
28444 28557
28557 28663
28663 28775
28775 28898
28898 29005
29005 29115
29115 29227
29227 29333
29333 29444
29444 29556
29556 29663
29663 29773
29773 29885
29885 29991
29991 30102
30102 30214
30214 30320
30320 30434
30434 30549
30549 30658
30658 30773
30773 30885
30885 30988
30988 31101
31101 31206
31206 31314
31314 31407
31407 31513
31513 31623
31623 31734
31734 31839
31839 31948
31948 32059
32059 32163
32163 32271
32271 32378
32378 32482
32482 32589
32589 32700
32700 32805
32805 32887
32887 32998
32998 33103
33103 33210
33210 33322
33322 33426
33426 33533
33533 33643
33643 33747
33747 33854
33854 33937
33937 34040
34040 34146
34146 34256
34256 34360
34360 34467
34467 34578
34578 34681
34681 34788
34788 34899
34899 35003
35003 35110
35110 35222
35222 35326
35326 35435
35435 35525
35525 35631
35631 35742
35742 35853
35853 35959
35959 36071
36071 36184
36184 36291
36291 36401
36401 36511
36511 36618
36618 36730
36730 36843
36843 36949
36949 37062
37062 37173
37173 37279
37279 37390
37390 37478
37478 37584
37584 37696
37696 37805
37805 37910
37910 38019
38019 38132
38132 38238
38238 38348
38348 38460
38460 38566
38566 38674
38674 38787
38787 38893
38893 39002
39002 39043
39043 39148
39148 39259
39259 39376
39376 39483
39483 39594
39594 39707
39707 39815
39815 39927
39927 40041
40041 40148
40148 40260
40260 40371
40371 40479
40479 40592
40592 40704
40704 40811
40811 40923
40923 41033
41033 41140
41140 41231
41231 41342
41342 41451
41451 41568
41568 41678
41678 41788
41788 41879
41879 41987
41987 42096
42096 42208
42208 42314
42314 42422
42422 42537
42537 42643
42643 42751
42751 42863
42863 42943
42943 43051
43051 43164
43164 43271
43271 43382
43382 43497
43497 43605
43605 43717
43717 43830
43830 43937
43937 44047
44047 44158
44158 44264
44264 44374
44374 44486
44486 44593
44593 44705
44705 44823
44823 44931
44931 45043
45043 45155
45155 45262
45262 45373
45373 45487
45487 45595
45595 45708
45708 45820
45820 45926
45926 46040
46040 46152
46152 46259
46259 46371
46371 46481
46481 46588
46588 46699
46699 46808
46808 46915
46915 47030
47030 47141
47141 47248
47248 47360
47360 47468
47468 47574
47574 47686
47686 47793
47793 47900
47900 48016
48016 48125
48125 48233
48233 48349
48349 48456
48456 48565
48565 48680
48680 48786
48786 48895
48895 49007
49007 49113
49113 49220
49220 49333
49333 49438
49438 49547
49547 49666
49666 49774
49774 49884
49884 50005
50005 50113
50113 50225
50225 50342
50342 50425
50425 50512
50512 50626
50626 50733
50733 50845
50845 50969
50969 51079
51079 51192
51192 51304
51304 51412
51412 51527
51527 51639
51639 51748
51748 51866
51866 51979
51979 52089
52089 52211
52211 52381
52381 52496
