2960 3114
6933 7030
7030 7149
7149 7241
7241 7333
7333 7425
7425 7517
7517 7608
7608 7699
7699 7790
7790 7880
7880 7973
7973 8064
8064 8155
8155 8247
8247 8292
8292 8340
9826 9939
9939 10009
14216 14339
14339 14395
14994 15132
15132 15205
15205 15274
