9 84
2035 2141
2141 2237
3004 3197
3197 3295
3197 3295
3390 3581
3769 3960
3960 4055
4055 4148
4148 4241
4241 4334
4334 4427
4427 4520
4520 4613
4613 4706
4706 4799
4799 4891
4891 4985
4985 5078
5078 5172
5172 5267
5267 5362
5362 5456
5456 5549
5549 5643
5643 5737
5737 5831
5831 5924
5924 6017
6017 6111
6111 6204
6204 6297
6297 6390
6390 6484
6484 6580
6580 6677
6677 6773
6773 6868
6868 6962
6962 7058
7058 7153
7153 7248
7248 7341
7341 7435
7435 7529
7529 7623
7623 7716
7716 7809
7809 7903
7903 7998
7998 8092
8092 8188
8188 8285
8285 8381
8381 8475
8475 8570
8570 8665
8665 8760
8760 8854
8854 8947
8947 9040
9040 9134
9134 9228
9228 9321
9321 9415
9415 9508
9508 9603
9603 9698
9698 9795
9795 9892
9892 9988
9988 10084
10084 10178
10178 10274
10274 10369
10369 10556
10556 10650
10650 10744
10744 10838
10838 10932
10932 11026
11026 11122
11122 11221
11221 11320
11320 11417
11417 11513
11513 11609
11609 11706
11706 11801
11801 11896
11896 11989
11989 12083
12083 12177
12177 12271
12271 12365
12365 12459
12459 12552
12552 12648
12648 12744
12744 12843
12843 12943
12943 13097
13097 13190
13190 13284
13284 13378
13378 13473
13473 13568
13568 13661
13661 13755
13755 13849
13849 13943
13943 14037
14037 14129
14129 14222
14222 14316
14316 14409
14409 14502
14502 14596
14596 14689
14689 14783
14783 14878
14878 14973
14973 15070
15070 15167
15167 15263
15263 15357
15357 15452
15452 15547
15547 15641
15641 15735
15735 15828
15828 15921
15921 16015
16015 16108
16108 16201
16201 16296
16296 16390
16390 16485
16485 16580
16580 16676
16676 16771
16771 16865
16865 16959
16959 17053
17053 17147
17147 17241
17241 17333
17333 17427
17427 17520
17520 17613
17613 17706
17706 17800
17800 17894
17894 17988
17988 18083
18083 18178
18178 18272
18272 18366
18366 18460
18460 18554
18554 18647
18647 18740
18740 18833
18833 18926
18926 19020
19020 19064
19064 19158
19158 19251
19251 19345
19345 19438
19438 19532
19532 19625
19625 19719
19719 19812
19812 19905
19905 19999
19999 20094
20094 20190
20190 20286
20286 20382
20382 20477
20477 20572
20572 20667
20667 20762
20762 20856
20856 20949
20949 21063
21063 21160
21160 21256
21256 21352
21352 21446
21446 21541
21541 21635
21635 21730
21730 21824
21824 21916
21916 22010
22010 22104
22104 22198
22198 22290
22290 22384
22384 22477
22477 22571
22571 22666
22666 22761
22761 22855
22855 22948
22948 23043
23043 23137
23137 23231
23231 23324
23324 23417
23417 23580
23580 23675
23675 23771
23771 23865
23865 23961
23961 24058
24058 24154
24154 24249
24249 24344
24344 24439
24439 24534
24534 24628
24628 24721
24721 24814
24814 24908
24908 25002
25002 25095
25095 25190
25190 25285
25285 25381
25381 25475
25475 25570
25570 25665
25665 25760
25760 25854
25854 25947
25947 26041
26041 26135
26135 26228
26228 26321
26321 26415
26415 26509
26509 26602
26602 26697
26697 26791
26791 26886
26886 26979
26979 27073
27073 27167
27167 27261
27261 27354
27354 27447
27447 27540
27540 27633
27633 27726
27726 27819
27819 27913
27913 28007
28007 28100
28100 28195
28195 28289
28289 28384
28384 28477
28477 28570
28570 28664
28664 28758
28758 28851
28851 28944
28944 29037
29037 29130
29130 29224
29224 29317
29317 29412
29412 29506
29506 29601
29601 29695
29695 29789
29789 29884
29884 29978
29978 30072
30072 30165
30165 30258
30258 30352
30352 30445
30445 30538
30538 30632
30632 30726
30726 30819
30819 30912
30912 31193
31193 31286
31286 31378
31378 31471
31471 31564
31564 31658
31658 31750
31750 31844
31844 31938
31938 32033
32033 32129
32129 32224
32224 32319
32319 32413
32413 32508
32508 32602
32602 32696
32696 32789
32789 32883
32883 32976
32976 33069
33069 33163
33163 33256
33256 33350
33350 33445
33445 33538
33538 33632
33632 33727
33727 33821
33821 33915
33915 34085
34085 34179
34179 34366
34366 34649
34649 35124
35124 36102
36102 36766
36766 37102
37102 37202
37202 37297
37297 37393
37393 37489
37489 37584
37584 37677
37677 37772
37772 37865
37865 37928
37928 38075
38075 38170
38170 38263
38263 38356
38356 38448
38448 38540
38540 38633
38633 38726
38726 38818
38818 38911
38911 39004
39004 39097
39097 39191
39191 39285
39285 39378
39378 39471
39471 39564
39564 39657
39657 39750
39750 39842
39842 39934
39934 40134
40134 40229
40229 40326
40326 40421
40421 40517
40517 40612
40612 40708
40708 40803
40803 40896
40896 40990
40990 41083
41083 41177
41177 41270
41270 41362
41362 41455
41455 41547
41547 41640
41640 41734
41734 41827
41827 41919
41919 42013
42013 42107
42107 42200
42200 42295
42295 42391
42391 42485
42485 42579
42579 42673
42673 42767
42767 42861
42861 42954
42954 43046
43046 43139
43139 43232
43232 43325
43325 43418
43418 43511
43511 43603
43603 43697
43697 43791
43791 43886
43886 43980
43980 44077
44077 44170
44170 44264
44264 44359
44359 44455
44455 44550
44550 44647
44647 44744
44744 44840
44840 44935
44935 44980
44980 45031
45031 45126
45126 45221
45221 45315
45315 45408
45408 45502
45502 45596
45596 45690
45690 45783
45783 45878
45878 45972
45972 46067
46067 46163
46163 46259
46259 46355
46355 46450
46450 46545
46545 46640
46640 46735
46735 46829
46829 46922
46922 47016
47016 47110
47110 47204
47204 47297
47297 47392
47392 47487
47487 47582
47582 47677
47677 47773
47773 47868
47868 47963
47963 48057
48057 48152
48152 48246
48246 48340
48340 48433
48433 48527
48527 48621
48621 48714
48714 48809
48809 48904
48904 48999
48999 49096
49096 49191
49191 49289
49289 49388
49388 49485
49485 49581
49581 49676
49676 49772
49772 49866
49866 49960
49960 50053
50053 50147
50147 50241
50241 50334
50334 50428
50428 50521
50521 50616
50616 50711
50711 50806
50806 50900
50900 50994
50994 51088
51088 51183
51183 51277
51277 51369
51369 51463
51463 51556
51556 51649
51649 51742
51742 51836
51836 51930
51930 52025
52025 52140
52140 52233
52233 52326
52326 52419
52419 52513
52513 52607
52607 52701
52701 52796
52796 52891
52891 52986
52986 53080
53080 53174
53174 53268
53268 53335
53335 53389
53389 53481
53481 53576
53576 53670
53670 53764
53764 53857
53857 53952
53952 54046
54046 54140
54140 54235
54235 54331
54331 54429
54429 54527
54527 54624
54624 54721
54721 54817
