707 833
833 936
936 1148
1752 1877
1877 1977
1977 2062
3240 3365
3907 4030
4030 4118
4474 4599
4599 4700
5886 6008
6008 6075
6805 6931
6931 7108
7108 7235
7235 7338
7338 7465
7465 7591
7591 7697
7697 7821
