175 286
286 323
5927 6020
6020 6062
6296 6414
6414 6532
6532 6638
8924 9053
13526 13643
13643 13750
25372 25489
28932 29120
29120 29232
29232 29324
29324 29439
29439 29549
29549 29658
29658 29769
29769 29884
29884 30001
30001 30111
30111 30220
30220 30339
30339 30455
30455 30572
30572 30683
30683 30793
30793 30907
30907 31025
31025 31141
31141 31248
31248 31356
31356 31470
31470 31586
31586 31697
31697 31807
31807 31916
31916 32031
32031 32142
32142 32257
32257 32368
32368 32475
32475 32586
32586 32700
32700 32812
32812 32922
32922 33028
33028 33140
33140 33254
33254 33369
33369 33484
33484 33598
33598 33708
33708 33817
33817 33932
33932 34045
34045 34152
34152 34256
34256 34362
34362 34469
34469 34583
34583 34697
34697 34804
34804 34906
34906 35006
35006 35112
35112 35219
35219 35331
35331 35445
35445 35558
35558 35668
35668 35772
35772 35882
35882 35995
35995 36099
36099 36204
36204 36313
36313 36421
36421 36532
36532 36635
36635 36738
36738 36845
36845 36957
36957 37066
37066 37170
37170 37278
37278 37389
37389 37499
37499 37611
37611 37717
37717 37828
37828 37943
37943 38061
38061 38173
38173 38278
38278 38386
38386 38501
38501 38616
38616 38732
38732 38842
38842 38943
38943 39050
39050 39164
39164 39277
39277 39383
39383 39488
39488 39598
39598 39718
39718 39830
39830 39935
39935 40033
40033 40130
40130 40227
40227 40323
40323 40416
40416 40510
40510 40605
40605 40711
40711 40811
43511 43608
43907 44009
44009 44087
46955 47097
46955 47097
51723 51840
51840 51960
51960 52053
56644 56759
