401 444
444 566
2252 2371
2371 2492
2711 2829
2829 2898
4698 4817
4817 4890
8519 8638
8638 8760
8760 8854
11043 11161
11161 11283
15614 15736
15736 15929
15929 16050
15929 16050
20541 20660
20660 20778
25720 25873
25873 25994
26598 26719
26719 26904
29908 30032
30032 30154
31714 31884
31884 32005
32710 32829
32829 32874
34582 34704
34704 34824
34824 34897
35258 35379
35379 35501
35501 35623
35623 35745
35944 36067
38603 38726
38726 38924
38924 39047
40883 41006
41006 41124
41710 41937
43898 44020
44020 44140
