12807 12887
14142 14221
15966 16045
16045 16126
19539 19619
19619 19699
19699 19780
19780 19862
19862 19944
19944 20021
20021 20105
20105 20185
20185 20266
20266 20348
20348 20431
20431 20511
20511 20590
20590 20671
20671 20752
20752 20836
20836 20920
20920 21002
21002 21082
21082 21161
21161 21240
21240 21320
21320 21401
21401 21482
21482 21560
21560 21638
21638 21717
21717 21795
21795 21873
21873 21953
21953 22033
22033 22111
22111 22189
22189 22267
22267 22346
22346 22425
22425 22506
22506 22586
22586 22664
22664 22742
22742 22820
22820 22898
22898 22977
22977 23057
23057 23136
23136 23215
23215 23293
23293 23372
23372 23451
23451 23531
23531 23611
23611 23691
23691 23769
23769 23848
23848 23927
23927 24062
24062 24144
27168 27248
29495 29575
29575 29657
29657 29738
29738 29818
29818 29897
29897 29977
29977 30056
30056 30137
30137 30218
30218 30300
30300 30378
30378 30457
30457 30536
30536 30614
30614 30694
30694 30774
30774 30853
30853 30931
30931 31009
31009 31087
31087 31165
31165 31245
31245 31325
31325 31407
31407 31490
31490 31572
31572 31653
31653 31733
31733 31814
31814 31895
31895 31976
31976 32058
32058 32139
32139 32220
32220 32300
32300 32379
32379 32458
32458 32537
32537 32617
32617 32698
32698 32777
32777 32856
32856 32935
32935 33013
33013 33093
33093 33174
33174 33255
33255 33334
33334 33413
33413 33492
33492 33572
33572 33653
33653 33734
33734 33814
33814 33893
33893 33972
33972 34051
34051 34130
34130 34210
34210 34290
34290 34371
34371 34450
34450 34529
34529 34610
34610 34691
34691 34772
34772 34853
34853 34933
34933 35013
35013 35094
35094 35176
35176 35258
35258 35341
35341 35421
35421 35502
35502 35583
35583 35665
35665 35748
35748 35832
35832 35913
35913 35994
35994 36074
36074 36155
36155 36236
36236 36318
36318 36400
36400 36480
36480 36559
36559 36639
36639 36719
36719 36800
36800 36881
36881 36962
36962 37042
37042 37121
37121 37201
37201 37282
37282 37364
37364 37446
37446 37527
37527 37609
37609 37690
37690 37772
37772 37856
37856 37942
37942 38027
38027 38109
38109 38192
38192 38274
38274 38357
38357 38441
38441 38525
38525 38604
38604 38687
38687 38769
38769 38851
38851 38934
38934 39018
39018 39097
39097 39183
39183 39265
39265 39347
39347 39432
39432 39517
39517 39599
39599 39680
39680 39761
39761 39841
39841 39923
39923 40005
40005 40088
40088 40168
40168 40249
40249 40329
40329 40410
40410 40492
40492 40574
40574 40655
40655 40735
40735 40814
40814 40892
40892 40971
40971 41051
41051 41131
41131 41210
41210 41288
41288 41367
41367 41445
41445 41525
41525 41605
41605 41685
41685 41763
41763 41841
41841 41920
41920 41998
41998 42077
42077 42157
42157 42237
42237 42315
42315 42393
42393 42471
42471 42549
42549 42628
42628 42708
42708 42786
42786 42865
42865 42942
42942 43020
43020 43099
43099 43178
43178 43257
43257 43335
43335 43413
43413 43491
43491 43569
43569 43648
43648 43728
43728 43808
43808 43887
43887 43965
43965 44042
44042 44120
44120 44199
44199 44279
44279 44358
44358 44436
44436 44514
44514 44591
44591 44669
44669 44748
44748 44828
44828 44907
44907 44986
44986 45089
45089 45168
45168 45248
45248 45328
45328 45406
45406 45483
45483 45561
45561 45638
45638 45718
45718 45798
45798 45878
45878 45957
45957 46035
46035 46113
46113 46191
46191 46270
46270 46349
46349 46428
46428 46507
46507 46586
46586 46664
46664 46744
46744 46825
46825 46909
46909 46991
46991 47072
47072 47153
47153 47235
47235 47316
47316 47399
47399 47480
47480 47559
47559 47639
47639 47718
47718 47798
47798 47878
47878 47957
47957 48034
48034 48113
48113 48193
48193 48272
48272 48350
48350 48429
48429 48507
48507 48586
48586 48666
48666 48747
48747 48826
48826 48906
48906 48985
48985 49064
49064 49145
49145 49227
49227 49306
49306 49385
49385 49463
49463 49542
49542 49622
49622 49703
49703 49784
49784 49863
49863 49942
49942 50020
50020 50105
50105 50184
50184 50264
50264 50344
50344 50422
50422 50501
50501 50580
50580 50658
50658 50738
50738 50818
50818 50899
50899 50978
50978 51057
51057 51136
51136 51214
51214 51293
51293 51373
51373 51452
51452 51531
51531 51609
51609 51687
51687 51766
51766 51845
51845 51924
51924 52004
52004 52083
52083 52161
52161 52240
52240 52319
52319 52398
52398 52478
52478 52558
52558 52637
52637 52714
52714 52792
52792 52870
52870 52947
52947 53026
53026 53106
53106 53185
53185 53263
53263 53317
53317 53396
53396 53475
53475 53555
53555 53635
53635 53714
53714 53767
53767 53846
53846 54000
54000 54086
54086 54165
54165 54243
54243 54320
54320 54398
54398 54475
54475 54553
54553 54631
54631 54709
54709 54786
54786 54863
54863 54940
54940 55017
55017 55096
55096 55176
55176 55255
55255 55334
55334 55414
55414 55493
55493 55573
55573 55653
55653 55734
55734 55815
55815 55894
55894 55974
55974 56055
56055 56136
56136 56218
56218 56299
56299 56380
56380 56461
56461 56544
56544 56626
56626 56709
56709 56790
56790 56870
56870 56950
56950 57030
57030 57112
57112 57194
57194 57276
57276 57356
57356 57437
57437 57517
57517 57598
57598 57680
57680 57761
57761 57841
57841 57920
57920 58000
58000 58082
58082 58163
58163 58245
58245 58325
58325 58405
58405 58485
58485 58564
58564 58646
58646 58728
58728 58810
58810 58889
58889 58971
58971 59076
59076 59155
59155 59235
59235 59313
59313 59391
59391 59469
59469 59546
59546 59625
59625 59704
59704 59784
59784 59862
59862 59941
59941 60020
60020 60098
60098 60178
60178 60259
60259 60339
60339 60419
60419 60500
60500 60579
60579 60660
60660 60741
60741 60824
60824 60905
60905 60985
60985 61065
61065 61145
61145 61226
61226 61306
61306 61386
61386 61464
61464 61544
61544 61623
61623 61703
61703 61783
61783 61864
61864 61944
61944 62023
62023 62102
62102 62181
62181 62261
62261 62341
62341 62420
62420 62499
62499 62577
62577 62655
62655 62733
62733 62813
62813 62895
62895 62966
62966 63055
63055 63134
63134 63214
63214 63286
63286 63367
63367 63445
63445 63524
63524 63605
63605 63687
63687 63768
63768 63849
63849 63929
63929 64010
64010 64093
64093 64176
64176 64258
