23911 23993
23993 24032
26090 26177
41252 41414
41414 41497
41739 41810
41810 41896
41896 41975
41975 42053
42053 42132
42132 42212
42212 42291
42291 42370
42370 42450
42450 42530
42530 42611
42611 42692
42692 42775
42775 42858
42858 42942
42942 43023
43023 43106
43106 43187
43187 43269
43269 43351
43351 43434
43434 43515
43515 43597
43597 43679
43679 43761
43761 43843
43843 43926
43926 44009
44009 44081
44081 44172
44172 44255
44255 44338
44338 44419
44419 44501
44501 44583
44583 44666
44666 44747
44747 44829
44829 44912
44912 44992
44992 45074
45074 45155
45155 45235
45235 45317
45317 45398
45398 45479
45479 45560
45560 45639
45639 45718
45718 45797
45797 45876
45876 45956
45956 46036
46036 46116
46116 46195
46195 46273
46273 46352
46352 46430
46430 46510
46510 46589
46589 46669
46669 46750
46750 46829
46829 46910
46910 46990
46990 47070
47070 47149
47149 47230
47230 47311
47311 47392
47392 47473
47473 47552
47552 47633
47633 47714
47714 47794
47794 47876
47876 47956
47956 48037
48037 48118
48118 48199
48199 48281
48281 48363
48363 48445
48445 48527
48527 48606
48606 48686
48686 48765
48765 48846
48846 48925
48925 49006
49006 49086
49086 49141
49141 49220
49220 49298
49298 49379
49379 49459
49459 49539
49539 49619
49619 49699
49699 49780
49780 49861
49861 49941
49941 50021
50021 50100
50100 50179
50179 50258
50258 50339
50339 50419
50419 50499
50499 50580
50580 50661
50661 50741
50741 50823
50823 50905
50905 50987
50987 51070
51070 51153
51153 51237
51237 51320
51320 51402
51402 51485
51485 51567
51567 51650
51650 51734
51734 51818
51818 51889
51889 51981
51981 52063
52063 52145
52145 52227
52227 52309
52309 52392
52392 52474
52474 52556
52556 52636
52636 52717
52717 52796
52796 52876
52876 52958
52958 53039
53039 53121
53121 53201
53201 53284
53284 53365
53365 53446
53446 53528
53528 53611
53611 53694
53694 53776
53776 53855
53855 53940
53940 54022
54022 54105
54105 54187
54187 54269
54269 54352
54352 54433
54433 54515
54515 54597
54597 54680
54680 54762
54762 54838
54838 54921
54921 55001
55001 55083
55083 55163
55163 55244
55244 55325
55325 55405
55405 55481
55481 55563
55563 55641
55641 55721
55721 55800
55800 55879
55879 55960
55960 56040
56040 56120
56120 56201
56201 56282
56282 56363
56363 56444
56444 56526
56526 56606
56606 56685
56685 56763
56763 56841
56841 56919
56919 56999
56999 57047
57047 57123
57123 57210
57210 57293
57293 57376
57376 57459
57459 57542
57542 57625
57625 57707
57707 57788
57788 57871
57871 57953
57953 58030
58030 58110
58110 58191
58191 58272
58272 58353
58353 58435
58435 58517
58517 58597
58597 58676
58676 58759
58759 58841
58841 58923
58923 59004
59004 59086
59086 59167
59167 59247
59247 59326
59326 59406
59406 59485
59485 59565
59565 59645
59645 59726
59726 59806
59806 59886
59886 59969
59969 60049
60049 60130
60130 60210
60210 60292
60292 60373
60373 60454
60454 60531
60531 60615
