5987 6075
6941 7020
7020 7058
7928 8039
9937 10048
10048 10128
10128 10208
10208 10287
10287 10365
10365 10442
10442 10520
10520 10600
10600 10678
10678 10755
10755 10832
10832 10910
10910 10987
10987 11065
11065 11144
11144 11222
11222 11298
11298 11376
11376 11455
11455 11531
11531 11609
11609 11686
11686 11762
11762 11839
11839 11917
11917 11995
11995 12109
12109 12189
12189 12269
12269 12349
12349 12426
12426 12503
12503 12580
12580 12657
12657 12736
12736 12817
12817 12897
12897 12976
12976 13055
13055 13135
13135 13214
13214 13294
13294 13374
13374 13455
13455 13535
13535 13612
13612 13695
13695 13773
13773 13850
13850 13928
13928 14007
14007 14086
14086 14166
14166 14244
14244 14322
14322 14400
14400 14477
14477 14554
14554 14633
14633 14713
14713 14792
14792 14868
14868 14947
14947 15027
15027 15107
15107 15188
15188 15270
15270 15350
15350 15420
15420 15510
15510 15591
15591 15673
15673 15753
15753 15834
15834 15913
15913 15994
15994 16073
16073 16152
16152 16232
16232 16311
16311 16390
16390 16466
16466 16542
16542 16618
16618 16695
16695 16773
16773 16851
16851 16929
16929 17005
17005 17081
17081 17159
17159 17235
17235 17313
17313 17391
17391 17469
17469 17546
17546 17623
17623 17700
17700 17778
17936 18015
18015 18120
18120 18198
18198 18276
18276 18354
18354 18434
18434 18513
18513 18592
18592 18670
18670 18749
18749 18828
18828 18907
18907 18986
18986 19042
19042 19120
19120 19199
19199 19274
19274 19352
19352 19428
19428 19504
19504 19580
19580 19659
19659 19736
19736 19812
19812 19887
19887 19963
19963 20031
20031 20107
20107 20184
20184 20262
20262 20341
20341 20418
20418 20495
20495 20571
20571 20648
20648 20726
20726 20803
20803 20881
20881 20958
20958 21036
21036 21112
21112 21187
21187 21262
21262 21340
21340 21417
21417 21493
21493 21569
21569 21644
21644 21721
21721 21798
21798 21875
21875 21953
21953 22030
22030 22140
22140 22218
22218 22295
22295 22371
22371 22447
22447 22522
22522 22598
22598 22676
22676 22753
22753 22829
22829 22903
22903 22980
22980 23056
23056 23133
23133 23210
23210 23287
23287 23365
23365 23444
23444 23521
23521 23598
23598 23675
23675 23751
23751 23829
23829 23907
23907 23985
23985 24063
24063 24140
24140 24218
24218 24296
24296 24375
24375 24454
24454 24534
24534 24612
24612 24692
24692 24772
24772 24852
24852 24933
24933 25015
25015 25105
25105 25182
25182 25258
25258 25334
25334 25412
25412 25490
25490 25569
25569 25648
25648 25726
25726 25804
25804 25881
25881 25960
25960 26031
26031 26109
26109 26187
26187 26264
26264 26341
26341 26417
26417 26493
26493 26569
26569 26647
26647 26724
26724 26801
26801 26877
26877 26952
26952 27060
27060 27138
27138 27217
27217 27295
27295 27374
27374 27454
27454 27535
27535 27616
27616 27696
27696 27776
27776 27855
