217 423
423 491
491 558
558 626
626 695
695 898
898 965
965 1033
1033 1101
1101 1168
1168 1303
1303 1371
1371 1438
1438 1506
1506 1641
1641 1708
1708 1776
1776 1912
1912 1979
1979 2046
2046 2113
2113 2181
2181 2248
2248 2315
2315 2382
2382 2448
2448 2516
2516 2583
2583 2649
2649 2717
2717 2783
2783 2850
2850 3220
3220 3481
3481 3743
3743 3874
3874 4400
4400 5725
5725 6524
6524 6789
6789 7253
7253 7451
7451 7715
7715 7780
7780 7954
7954 8020
8020 8218
8218 8285
8285 8482
8482 8548
8548 9049
9049 9113
9113 9310
9310 9440
9440 9570
9570 9831
9831 9896
9896 10093
10093 11212
11212 11612
11612 11946
11946 13096
13096 13366
13366 13435
13435 13707
13707 14257
14257 14327
14327 14601
14601 14873
14873 14940
14940 15212
15212 15414
15414 15481
15481 15818
15818 15885
15885 15952
15952 16088
16088 16356
16356 16623
16623 16690
16690 16888
16888 16955
16955 17153
17153 17416
17416 17482
17482 17679
17679 17745
17745 17941
17941 18204
18204 18269
18269 18334
18334 18596
18596 18793
18793 18858
18858 18924
18924 19056
19056 19121
19121 19186
19186 19318
19318 19582
19582 19648
19648 19849
19849 20248
20248 20449
20449 20716
20716 20915
20915 21180
21180 22244
22244 23162
23162 23747
23747 23826
23826 23961
23961 24096
24096 24164
24164 24233
24233 24299
24299 24436
24436 24487
24487 24569
24569 24639
24639 24706
24706 24775
24775 24843
24843 24913
24913 24981
24981 25048
25048 25117
25117 25187
25187 25324
25324 25393
25393 25531
25531 25600
25600 25667
25667 25736
25736 25805
25805 25875
25875 25942
25942 26011
26011 26080
26080 26149
26149 26285
26285 26354
26354 26420
26420 26489
26489 26556
26556 26624
26624 26691
26691 26826
26826 26892
26892 26959
26959 27092
27092 27158
27158 27224
27224 27290
27290 27356
27356 27422
27422 27488
27488 27620
27620 27686
27686 27818
27818 27884
27884 27951
27951 28017
28017 28084
28084 28150
28150 28217
28217 28283
28283 28350
28350 28416
28416 28484
28484 28550
28550 28682
28682 28942
28942 29007
29007 29072
29072 29203
29203 29268
29268 29333
29333 29463
29463 29528
29528 29593
29593 29723
29723 29788
29788 29853
29853 29984
29984 30049
30049 30113
30113 30244
30244 30308
30308 30504
30504 30569
30569 30764
30764 30829
30829 31025
31025 31090
31090 31155
31155 31286
31286 31612
31612 31677
31677 31742
31742 31873
31873 31937
31937 32198
32198 32262
32262 32432
32432 32691
32691 32926
32926 33121
33121 33780
33780 34247
34247 34826
34826 34894
34894 35233
35233 35504
35504 35849
35849 36125
36125 36262
36262 36401
36401 36470
36470 36537
36537 36606
36606 36674
36674 36743
36743 36812
36812 36880
36880 36948
36948 37019
37019 37088
37088 37157
37157 37226
37226 37294
37294 37364
37364 37433
37433 37502
37502 37640
37640 37708
37708 37775
37775 37844
37844 37912
37912 38115
38115 38181
38181 38249
38249 38315
38315 38382
38382 38451
38451 38516
38516 38582
38582 38716
38716 38783
38783 38851
38851 38916
38916 38983
38983 39051
39051 39119
39119 39254
39254 39322
39322 39390
39390 39500
39500 39831
39831 39897
39897 40161
40161 40201
40201 40333
40333 40529
40529 40596
40596 40662
40662 40726
40726 40857
40857 40919
40919 40987
40987 41118
41118 41378
41378 41443
41443 41703
41703 41767
41767 41963
41963 42158
42158 42288
42288 42354
42354 42420
42420 42484
42484 42616
42616 42681
42681 42878
42878 42943
42943 43009
43009 43205
43205 43271
43271 43532
43532 43597
43597 43991
43991 44253
44253 44318
44318 44384
44384 44645
44645 44710
44710 44905
44905 44970
44970 45333
45333 45396
45396 45460
45460 45587
45587 45651
45651 45714
45714 45906
45906 45969
45969 46032
46032 46160
46160 46223
46223 46287
46287 46414
46414 46478
46478 46541
46541 46669
46669 46733
46733 46796
46796 46924
46924 46988
46988 47051
47051 47115
47115 47180
47180 47243
47243 47307
47307 47499
47499 47563
47563 47627
47627 47755
47755 47819
47819 48012
48012 48075
48075 48140
48140 48268
48268 48333
48333 48396
48396 48526
48526 48590
48590 48654
48654 48783
48783 48847
48847 48912
48912 49105
49105 49169
49169 49363
49363 49427
49427 49491
49491 49621
49621 49685
49685 49750
49750 49880
49880 49945
49945 50009
50009 50140
50140 50205
50205 50271
50271 50533
50533 50795
50795 50992
50992 51058
51058 51123
51123 51387
51387 51586
51586 51785
51785 51853
51853 52464
52464 52600
52600 52668
52668 52736
52736 52804
52804 52871
52871 52938
52938 53006
53006 53073
53073 53207
53207 53274
53274 53407
53407 53473
53473 53539
53539 53606
53606 53672
53672 53738
53738 53805
53805 53938
53938 54004
54004 54071
54071 54137
54137 54269
54269 54335
54335 54401
54401 54532
54532 54598
54598 54663
54663 54729
54729 54794
54794 54860
54860 54926
54926 54992
54992 55056
55056 55122
55122 55188
55188 55253
55253 55318
55318 55383
55383 55449
55449 55514
55514 55579
55579 55644
55644 55710
55710 55776
55776 55841
55841 55906
55906 55972
55972 56039
56039 56105
56105 56170
56170 56236
56236 56303
56303 56368
56368 56564
56564 56629
56629 56759
56759 56888
56888 57082
57082 57147
57147 57211
57211 57341
57341 57406
57406 57860
57860 57925
57925 58120
58120 58186
58186 58251
58251 58512
58512 58971
58971 59566
59566 59633
59633 59831
59831 60096
60096 60427
60427 60692
60692 60758
60758 60929
60929 60995
60995 61192
61192 61389
61389 61518
61518 61778
61778 61973
61973 62102
62102 62297
62297 62362
62362 62556
62556 62620
62620 62685
62685 62879
62879 62944
62944 63008
63008 63137
63137 63265
63265 63330
63330 63459
63459 63523
63523 63587
63587 63717
63717 63781
63781 63845
63845 64040
64040 64105
64105 64366
64366 64431
64431 64627
64627 64693
64693 64955
64955 65021
65021 65285
65285 65351
65351 65457
65457 65523
65523 65588
65588 65654
65654 65785
65785 65851
65851 65917
65917 65982
65982 66048
66048 66114
66114 66179
66179 66245
66245 66310
66310 66376
66376 66442
66442 66507
66507 66639
66639 66704
66704 66768
66768 66834
66834 66963
66963 67028
67028 67222
67222 67288
67288 67352
67352 67417
67417 67481
67481 67546
67546 67611
67611 67676
67676 67740
67740 67804
67804 67934
67934 67999
67999 68063
68063 68127
68127 68257
68257 68321
68321 68385
68385 68450
68450 68580
68580 68644
68644 68708
68708 68838
68838 68902
68902 68967
68967 69096
69096 69161
69161 69226
69226 69312
69312 69407
69407 69475
69475 69540
69540 69605
69605 69670
69670 69735
69735 69800
69800 69866
69866 69931
69931 69996
69996 70062
70062 70128
70128 70193
70193 70258
70258 70324
70324 70390
70390 70455
70455 70520
70520 70586
70586 70651
70651 70716
70716 70781
70781 70847
70847 70912
70912 70977
70977 71042
71042 71108
71108 71173
71173 71239
71239 71303
71303 71369
71369 71434
71434 71500
71500 71565
71565 71631
71631 71696
71696 71761
71761 71825
71825 71891
71891 71956
71956 72021
72021 72086
72086 72152
72152 72217
72217 72282
72282 72347
72347 72413
72413 72478
72478 72543
72543 72608
72608 72674
72674 72739
72739 72804
72804 72869
72869 72935
