7591 7703
7703 7812
10886 10996
10996 11047
14873 14964
14964 15041
19937 20096
20096 20206
20206 20317
20317 20428
20428 20540
20540 20651
20651 20762
20762 20873
20873 20987
20987 21098
21098 21210
21210 21320
21320 21428
21428 21540
21540 21652
21652 21766
22437 22549
22549 22631
22831 22942
22942 23110
23110 23221
23221 23330
23330 23437
23437 23547
23547 23659
23659 23769
23769 23883
