90 161
161 232
232 305
305 373
373 448
448 517
517 585
585 660
660 726
726 795
864 1046
1046 1117
1117 1188
1188 1328
1328 1398
1398 1469
1469 1537
1597 1675
1675 1746
1882 1952
1952 2023
2135 2202
2202 2343
2343 2413
2413 2481
2621 2683
2683 2759
2759 2829
2829 3058
3058 3195
3058 3195
3195 3266
3266 3339
3339 3408
3408 3479
3479 3548
3548 3759
3759 3831
3831 3905
3905 3976
3976 4049
4049 4121
4121 4193
4193 4334
4334 4408
4408 4482
4482 4551
4551 4623
4623 4694
4694 4765
4765 4835
4835 4907
4907 4976
4976 5049
5049 5186
5186 5256
5256 5466
5466 5534
5534 5607
5607 5675
5675 5746
5746 5817
5817 5887
5887 5958
5958 6027
6027 6096
6096 6169
6169 6238
6238 6308
6308 6381
6381 6596
6596 6669
6669 6810
6810 6883
6883 6954
6954 7096
7096 7169
7169 7227
7227 7309
7309 7380
7380 7451
7451 7525
7525 7597
7597 7666
7666 7739
7739 7808
7808 7879
7879 7950
7950 8162
8162 8232
8232 8303
8303 8375
8375 8446
8446 8515
8515 8726
8726 8940
8940 9009
9009 9079
9079 9221
9221 9283
9283 9360
9360 9429
9429 9498
9498 9567
9567 9773
9773 9845
9845 10084
10084 10156
10156 10227
10227 10370
10370 10442
10442 10658
10658 10731
10731 10804
10804 10876
10876 10948
10948 11018
11018 11093
11093 11234
11234 11305
11305 11378
11378 11451
11451 11522
11522 11593
11593 11802
11802 11872
11872 12081
12081 12142
12142 12221
12221 12291
12291 12361
12361 12434
12434 12577
12577 12646
12646 12719
12719 12791
12791 12930
12930 13002
13002 13216
13216 13289
13289 13431
13431 13504
13504 13576
13576 13721
13721 13792
13792 13864
13864 14070
14070 14141
14141 14213
14213 14284
14284 14355
14355 14495
14495 14565
14565 14636
14636 14709
14709 14779
14779 14852
14852 14926
14926 15114
15114 15186
15186 15259
15259 15331
15331 15402
15402 15475
15475 15689
15689 15762
15762 15833
15833 15972
15972 16191
16191 16260
16260 16334
16334 16474
16474 16520
16520 16564
16564 16653
16653 16797
16797 16870
16870 16943
16943 17088
17088 17159
17159 17228
17228 17370
17370 17438
17438 17509
17509 17650
17650 17719
17719 17791
17791 17932
17932 18050
18050 18123
18123 18340
18340 18412
18412 18629
18629 18700
18700 18770
18770 18984
18984 19055
19055 19264
19264 19335
19335 19545
19545 19615
19615 19827
19827 19897
19897 20038
20038 20111
20111 20329
20329 20400
20400 20473
20473 20614
20614 20685
20685 21072
21072 21143
21143 21357
21357 21427
21427 21640
21640 21708
21708 21916
21916 21987
21987 22055
22055 22261
22261 22331
22331 22401
22401 22471
22471 22608
22608 22678
22678 22746
22746 22842
22842 22928
22928 23268
23268 23338
23338 23549
23549 23617
23617 23828
23828 23898
23898 23972
23972 24184
24184 24255
24255 24467
24467 24539
24539 24762
24762 24891
24891 25076
25076 25146
25146 25220
25220 25291
25291 25508
25508 25581
25581 25654
25654 25800
25800 25872
25872 26087
26087 26157
26157 26370
26370 26441
26441 26658
26658 26728
26728 26799
26799 26929
26929 26999
26999 27072
27072 27212
27212 27283
27283 27496
27496 27564
27564 27635
27635 27848
27848 27918
27918 28134
28134 28207
28207 28352
28352 28425
28425 28495
28495 28711
28711 28785
28785 28858
28858 29000
29000 29074
29074 29205
29205 29344
29344 29415
29415 29557
29557 29625
29625 29697
29697 29909
29909 29978
29978 30049
30049 30194
30194 30265
30265 30339
30339 30482
30482 30555
30555 30768
30768 30909
30909 30984
30984 31113
31113 31184
31184 31394
31394 31466
31466 31684
31684 31757
31757 31972
31972 32095
32095 32166
32166 32239
32239 32313
32313 32387
32387 32531
32531 32748
32748 32821
32821 32895
32895 33185
33185 33335
33335 33406
33406 33481
33481 33555
33555 33629
33629 33775
33775 33846
33846 33920
33920 33993
33993 34137
34137 34207
34207 34501
34501 34799
34799 34870
34870 34947
34947 35022
35022 35096
35096 35164
35164 35235
35235 35376
35376 35448
35448 35661
35661 35733
35733 36010
36010 36220
36220 36290
36290 36499
36499 36570
36570 36778
36778 36848
36848 37127
37127 37199
37199 37343
37343 37413
37413 37485
37485 37690
37690 37973
37973 38045
38045 38255
38255 38323
38323 38534
38534 38602
38602 38884
38884 38954
38954 39164
39164 39237
39237 39379
39379 39450
39450 39730
39730 39803
39803 39947
39947 40018
40018 40236
40236 40305
40305 40522
40522 40594
40594 40882
40882 41169
41169 41240
41240 41462
41462 41533
41533 41756
41756 41827
41827 42041
42041 42112
42112 42185
42185 42328
42328 42398
42398 42470
42470 42681
42681 42753
42753 42899
42899 42970
42970 43189
43189 43260
43260 43547
43547 43621
43621 43833
43833 43905
43905 43978
43978 44081
44081 44296
44296 44367
44367 44439
44439 44652
44652 44932
44932 45005
45005 45218
45218 45287
45287 45501
45501 45571
45571 45788
45788 45858
45858 46079
46079 46435
46435 46507
46507 46720
46720 46795
46795 47013
47013 47084
47084 47371
47371 47584
47584 47652
47652 47722
47722 48005
48005 48075
48075 48291
48291 48364
48364 48724
