88 243
243 321
321 399
399 506
506 553
553 631
631 709
709 787
787 941
941 1020
1020 1058
1058 1182
1182 1259
1259 1334
1334 1410
1410 1516
1516 1562
1562 1639
1639 1715
1715 1792
1792 1945
1945 2023
2023 2065
2065 2215
2215 2297
2297 2408
2408 2460
2460 2542
2542 2624
2624 2705
2705 3000
3000 3061
3061 3140
3140 3326
3326 3375
3375 3455
3455 3535
3535 3614
3614 3720
3720 3772
3772 3852
3852 3932
3932 4039
4039 4246
4246 4325
4325 4434
4434 4560
4560 4639
4639 4717
4717 4824
4824 4951
4951 5030
5030 5109
5109 5218
5218 5295
5295 5344
5344 5422
5422 5502
5502 5581
5581 5738
5738 5818
5818 5896
5896 5974
5974 6083
6083 6210
6210 6289
6289 6370
6370 6478
6478 6556
6556 6609
6609 6691
6691 6771
6771 6851
6851 6959
6959 7009
7009 7047
7047 7157
7157 7286
7286 7364
7364 7443
7443 7551
7551 7678
7678 7758
7758 7836
7836 7945
