197 869
869 943
943 1039
1039 1261
1261 1336
1336 1409
1409 1704
1704 1779
1779 1981
1981 2118
2118 2410
2410 2488
2488 4344
4344 4391
4391 5187
5187 5497
5497 5574
5574 5877
5877 6156
6156 6397
6397 6474
6474 6762
6762 6841
6841 7128
7128 7443
7443 7835
7835 8140
8140 8858
8858 9564
9564 10189
10189 10266
10266 10574
10574 10778
10778 10871
10871 10949
10949 11180
11180 11257
11257 11484
11484 11561
11561 11866
11866 11943
11943 12219
12219 12533
12533 13083
13083 13369
13369 13693
13693 13769
13769 13825
13825 14384
14384 14463
14463 14618
14618 14923
14923 15010
15010 15082
15082 15167
15167 15245
15245 15556
15556 15941
15941 16292
16292 16596
16596 16880
16880 18903
18903 20841
20841 21862
21862 22186
