2936 3091
5536 5653
5653 5766
6445 6562
6562 6662
8510 8604
14097 14213
14213 14327
14327 14443
14887 15003
15003 15052
16866 16983
22967 23083
23083 23196
23754 23869
23869 23982
24896 25043
25043 25159
25159 25275
25275 25388
25388 25479
25479 25595
25595 25715
25715 25831
25831 25946
25946 26061
26061 26177
26177 26292
26292 26407
26407 26523
26523 26639
26639 26755
26755 26868
26868 26959
26959 27079
27079 27195
27195 27307
27307 27402
27402 27518
27518 27633
27633 27745
27745 27835
27835 27954
27954 28070
28070 28185
28185 28301
28301 28417
28417 28532
28532 28648
28648 28761
28761 28854
28854 28969
28969 29084
29084 29201
29201 29317
29317 29433
29433 29549
29549 29664
29664 29780
29780 29895
29895 30011
30011 30124
30124 30218
30218 30333
30333 30448
30448 30561
30561 30654
30654 30770
30770 30882
30882 30975
30975 31091
31091 31207
31207 31320
31320 31415
31415 31531
31531 31648
31648 31736
31736 31832
31832 31945
31945 32037
32037 32155
32155 32271
32271 32387
32387 32503
32503 32616
32616 32707
32707 32827
32827 32943
32943 33060
33060 33176
33176 33292
33292 33405
33405 33521
33521 33640
33640 33753
33753 33870
33870 33985
33985 34101
34101 34219
34219 34336
34336 34452
34452 34568
34568 34683
34683 34797
34797 34890
34890 35006
35006 35122
35122 35235
35235 35326
35326 35444
35444 35560
35560 35676
35676 35791
35791 35907
35907 36020
36020 36114
36114 36230
36230 36343
36343 36434
36434 36553
36553 36669
36669 36784
36784 36900
36900 37015
37015 37136
37136 37252
37252 37368
37368 37481
37481 37573
37573 37691
37691 37781
37781 37896
37896 38007
38007 38095
38095 38204
38204 38315
38315 38428
38428 38536
38536 38623
38623 38739
38739 38849
38849 38958
38958 39078
39078 39193
39193 39306
39306 39422
39422 39537
39537 39653
39653 39768
39768 39884
39884 40002
40002 40119
40119 40235
40235 40351
40351 40464
40464 40559
40559 40674
40674 40789
40789 40904
40904 41018
41018 41129
41129 41222
41222 41337
41337 41451
41451 41563
41563 41653
41653 41770
41770 41885
41885 41999
41999 42114
42114 42229
42229 42345
42345 42460
42460 42572
42572 42664
42664 42780
42780 42895
42895 43009
43009 43121
43121 43236
43236 43351
43351 43467
43467 43581
43581 43695
43695 43813
43813 43927
43927 44042
44042 44156
44156 44268
44268 44357
44357 44475
44475 44590
44590 44704
44704 44815
44815 44905
44905 45023
45023 45138
45138 45252
45252 45367
45367 45479
45479 45594
45594 45710
45710 45825
45825 45940
45940 46058
46058 46173
46173 46287
46287 46402
46402 46513
46513 46602
46602 46720
46720 46834
46834 46949
46949 47064
47064 47178
47178 47293
47293 47407
47407 47520
47520 47613
47613 47725
47725 47817
47817 47932
47932 48046
48046 48158
48158 48272
48272 48386
48386 48501
48501 48615
48615 48731
48731 48848
48848 48958
48958 49072
49072 49185
49185 49298
49298 49414
49414 49527
49527 49635
49635 49746
49746 49857
49857 49969
49969 50098
50098 50216
50216 50334
50334 50451
50451 50566
50566 50683
50683 50800
50800 50917
50917 51043
51043 51158
51158 51278
51278 51397
51397 51514
51514 51633
51633 51747
51747 51859
51859 51977
51977 52069
52069 52191
52191 52316
52316 52431
