65 160
160 256
256 351
351 445
445 539
539 636
636 732
732 826
826 920
920 1015
1015 1108
1108 1203
1203 1299
1299 1390
1390 1484
1484 1576
1576 1668
1668 1760
1760 1853
1853 1944
1944 2035
2035 2124
2124 2213
2213 2302
2302 2393
2393 2481
2481 2571
2571 2659
2659 2748
2748 2836
2836 2926
2926 3016
3016 3107
3107 3197
3197 3289
3289 3381
3381 3473
3473 3564
3564 3654
3654 3747
3747 3839
3839 3930
3930 4022
4022 4111
4111 4202
4202 4291
4291 4380
4380 4471
4471 4566
4566 4657
4657 4749
4749 4840
4840 4933
4933 5023
5023 5118
5118 5209
5209 5301
5301 5394
5394 5488
5488 5580
5580 5673
5673 5769
5769 5863
5863 5956
5956 6052
6052 6147
6147 6242
6242 6338
6338 6432
6432 6523
6523 6617
6617 6711
6711 6805
6805 6899
6899 6993
6993 7087
7087 7179
7179 7273
7273 7368
7368 7465
7465 7558
7558 7653
7653 7749
7749 7841
7841 7936
7936 8032
8032 8126
8126 8218
8218 8311
8311 8401
8401 8495
8495 8588
8588 8680
8680 8774
8774 8868
8868 8961
8961 9057
9057 9147
9147 9239
9239 9332
9332 9421
9421 9513
9513 9604
9604 9693
9693 9784
9784 9875
9875 9965
9965 10057
10057 10149
10149 10241
10241 10334
10334 10428
10428 10521
10521 10617
10617 10712
10712 10806
10806 10899
10899 10994
10994 11087
11087 11185
11185 11278
11278 11374
11374 11468
11468 11563
11563 11659
11659 11755
11755 11850
11850 11945
11945 12039
12039 12134
12134 12229
12229 12322
12322 12415
12415 12507
12507 12599
12599 12689
12689 12783
12783 12876
12876 12969
12969 13064
13064 13158
13158 13250
13250 13347
13347 13440
13440 13534
13534 13628
13628 13723
13723 13816
13816 13913
13913 14009
14009 14102
14102 14197
14197 14289
14289 14382
14382 14474
14474 14565
14565 14658
14658 14751
14751 14842
14842 14932
14932 15026
15026 15117
15117 15207
15207 15297
15297 15386
15386 15478
15478 15570
15570 15660
15660 15750
15750 15841
15841 15929
15929 16019
16019 16111
16111 16202
16202 16291
16291 16382
16382 16471
16471 16561
16561 16652
16652 16743
16743 16836
16836 16927
16927 17020
17020 17114
17114 17208
17208 17302
17302 17394
17394 17484
17484 17578
17578 17672
17672 17767
17767 17860
17860 17952
17952 18010
18010 18089
18089 18184
18184 18279
18279 18373
18373 18469
18469 18562
18562 18656
18656 18751
18751 18847
18847 18941
18941 19036
19036 19129
19129 19226
19226 19321
19321 19416
19416 19511
19511 19605
19605 19697
19697 19794
19794 19888
19888 19982
19982 20077
20077 20169
20169 20263
20263 20357
20357 20451
20451 20544
20544 20637
20637 20727
20727 20822
20822 20916
20916 21010
21010 21100
21100 21193
21193 21285
21285 21379
21379 21470
21470 21562
21562 21656
21656 21746
21746 21837
21837 21929
21929 22023
22023 22116
22116 22206
22206 22299
22299 22392
22392 22484
22484 22575
22575 22667
22667 22758
22758 22852
22852 22944
22944 23036
23036 23129
23129 23221
23221 23310
23310 23404
23404 23496
23496 23587
23587 23681
23681 23772
23772 23866
23866 23959
23959 24052
24052 24145
24145 24237
24237 24331
24331 24426
24426 24519
24519 24613
24613 24706
24706 24798
24798 24892
24892 24987
24987 25080
25080 25174
25174 25266
25266 25359
25359 25453
25453 25538
25538 25635
25635 25726
25726 25817
25817 25913
25913 26008
26008 26102
26102 26198
26198 26288
26288 26382
26382 26479
26479 26572
26572 26664
26664 26758
26758 26849
26849 26946
26946 27041
27041 27135
27135 27230
27230 27323
27323 27418
27418 27515
27515 27611
27611 27705
27705 27799
27799 27894
27894 27991
27991 28086
28086 28180
28180 28277
28277 28371
28371 28465
28465 28561
28561 28657
28657 28752
28752 28845
28845 28937
28937 29030
29030 29124
29124 29216
29216 29311
29311 29406
29406 29498
29498 29593
29593 29690
29690 29785
29785 29879
29879 29974
29974 30066
30066 30161
30161 30253
30253 30348
30348 30441
30441 30533
30533 30626
30626 30720
30720 30816
30816 30910
30910 31004
31004 31099
31099 31193
31193 31290
31290 31387
31387 31483
31483 31579
31579 31674
31674 31769
31769 31865
31865 31959
31959 32053
32053 32148
32148 32243
32243 32339
32339 32433
32433 32527
32527 32622
32622 32714
32714 32809
32809 32906
32906 33000
33000 33094
33094 33186
33186 33279
33279 33374
33374 33470
33470 33563
33563 33658
33658 33752
33752 33845
33845 33941
33941 34037
34037 34130
34130 34225
34225 34318
34318 34412
34412 34506
34506 34601
34601 34694
34694 34787
34787 34879
34879 34972
34972 35066
35066 35158
35158 35252
35252 35343
35343 35437
35437 35529
35529 35622
35622 35716
35716 35809
35809 35899
35899 35993
35993 36085
36085 36176
36176 36269
36269 36362
36362 36454
36454 36547
36547 36644
36644 36738
36738 36833
36833 36928
36928 37024
37024 37119
37119 37213
37213 37306
37306 37396
37396 37489
37489 37582
37582 37672
37672 37765
37765 37858
37858 37954
37954 38017
38017 38099
38099 38194
38194 38291
38291 38386
38386 38481
38481 38578
38578 38678
38678 38775
38775 38872
38872 38969
38969 39065
39065 39161
39161 39260
39260 39355
39355 39451
39451 39547
39547 39640
39640 39734
39734 39831
39831 39926
39926 40020
40020 40115
40115 40210
40210 40306
40306 40398
40398 40493
40493 40586
40586 40679
40679 40771
40771 40865
40865 40957
40957 41048
41048 41139
41139 41232
41232 41322
41322 41416
41416 41507
41507 41601
41601 41692
41692 41782
41782 41874
41874 41965
41965 42060
42060 42155
42155 42250
42250 42347
42347 42441
42441 42536
42536 42634
42634 42729
42729 42826
42826 42921
42921 43015
43015 43112
43112 43209
43209 43302
43302 43397
43397 43493
43493 43586
43586 43683
43683 43779
43779 43874
43874 43969
43969 44065
44065 44157
44157 44255
44255 44350
44350 44444
44444 44538
44538 44631
44631 44726
44726 44820
44820 44912
44912 45005
45005 45095
45095 45189
45189 45284
45284 45376
45376 45468
45468 45560
45560 45651
45651 45743
45743 45838
45838 45931
45931 46022
46022 46116
46116 46207
46207 46301
46301 46397
46397 46488
46488 46581
46581 46673
46673 46765
46765 46860
46860 46952
46952 47044
47044 47134
47134 47226
47226 47319
47319 47413
47413 47505
47505 47595
47595 47688
47688 47778
47778 47871
47871 47966
47966 48060
48060 48152
48152 48244
48244 48337
48337 48432
48432 48524
48524 48618
48618 48711
48711 48802
48802 48896
48896 48992
48992 49085
49085 49178
49178 49268
49268 49361
49361 49457
49457 49549
49549 49641
49641 49733
49733 49822
49822 49916
49916 50010
50010 50100
50100 50191
50191 50280
50280 50369
50369 50458
50548 50638
50638 50727
50727 50815
50815 50902
50902 50993
50993 51080
51080 51168
51168 51254
51254 51338
51338 51421
51421 51507
51507 51594
51594 51678
51678 51762
51762 51849
51849 51937
51937 52022
52022 52108
52108 52192
52192 52276
52276 52362
52362 52449
52449 52532
52532 52616
52616 52701
52701 52787
52787 52846
52846 52940
52940 53023
53023 53136
53136 53225
53225 53313
53313 53398
53398 53486
53486 53573
53573 53656
53656 53743
53743 53829
53829 53914
53914 54005
54005 54090
54090 54176
54176 54263
54263 54350
54350 54438
54438 54524
54524 54609
54609 54696
54696 54783
54783 54873
54873 54957
54957 55046
55046 55130
55130 55220
55220 55307
55307 55396
55396 55485
55485 55570
55570 55656
55656 55743
55743 55836
55836 55923
55923 56008
56008 56095
56095 56182
56182 56273
56273 56358
56358 56443
56443 56532
56532 56615
56615 56703
56703 56793
56793 56879
56879 56966
56966 57053
57053 57138
57138 57226
57226 57316
57316 57404
57404 57492
57492 57579
57579 57666
57666 57754
57754 57845
57845 57933
57933 58021
58021 58110
58110 58197
58197 58286
58286 58377
58377 58466
58466 58555
58555 58644
58644 58734
58734 58824
58824 58915
58915 59005
59005 59095
59095 59183
59183 59272
59272 59362
59362 59451
59451 59539
59539 59628
59628 59716
59716 59803
59803 59893
59893 59981
59981 60068
60068 60155
60155 60243
60243 60331
60331 60419
60419 60504
60504 60593
60593 60681
60681 60769
60769 60857
60857 60945
60945 61034
61034 61123
61123 61212
61212 61300
61300 61388
61388 61477
61477 61566
61566 61657
61657 61747
61747 61836
61836 61923
61923 62013
62013 62102
62102 62193
62193 62282
62282 62373
62373 62462
62462 62552
62552 62642
62642 62732
62732 62823
62823 62913
62913 63004
63004 63094
63094 63185
63185 63276
63276 63370
63370 63461
63461 63551
63551 63644
63644 63735
63735 63827
63827 63921
63921 64010
64010 64102
64102 64192
64192 64285
64285 64377
64377 64467
64467 64558
64558 64648
64648 64741
64741 64832
64832 64923
64923 65012
65012 65105
65105 65198
65198 65289
65289 65380
65380 65471
65471 65563
65563 65653
65653 65746
65746 65838
65838 65929
65929 66021
66021 66111
66111 66201
66201 66296
66296 66387
66387 66476
66476 66566
66566 66658
66658 66749
66749 66840
66840 66930
66930 67021
67021 67110
67110 67202
67202 67297
67297 67388
67388 67479
67479 67570
67570 67661
67661 67755
67755 67847
67847 67940
67940 68032
68032 68124
68124 68215
68215 68308
68308 68401
68401 68494
68494 68587
68587 68680
68680 68771
68771 68864
68864 68958
68958 69052
69052 69143
69143 69235
69235 69326
69326 69419
