572 997
997 1101
1101 1201
1201 1305
1305 1415
1415 1518
1518 1626
1626 1731
1731 1837
1837 1938
1938 2047
2047 2151
2151 2257
2257 2363
2363 2465
2465 2569
2569 2669
2669 2779
2779 2883
2883 2988
2988 3094
3094 3194
3194 3298
3298 3401
3401 3505
3505 3612
3612 4027
4027 4127
4127 4233
4233 4336
4336 4441
4441 4541
4541 4644
4644 4746
4746 4848
4848 4930
4930 5202
5202 5303
5303 5512
5512 5720
5720 5822
5822 5925
5925 6027
6027 6132
6132 6240
6240 6343
6343 6447
6447 6550
6550 6654
6654 6754
6754 6861
6861 6966
6966 7173
7173 7279
7279 7382
7382 7486
7486 7595
7595 7702
7702 7805
7805 7911
7911 8014
8014 8358
8358 8428
8428 8530
8530 8744
8744 8844
8844 8948
8948 9048
9048 9157
9157 9259
9259 9366
9366 9572
9572 9674
9674 9778
9778 9886
9886 9988
9988 10096
10096 10305
10305 10411
10411 10517
10517 10620
10620 10727
10727 10831
10831 10938
10938 11039
11039 11144
11144 11251
11251 11355
11355 11462
11462 11563
11563 11667
11667 11768
11768 11871
11871 11978
11978 12078
12078 12182
12182 12285
12285 12387
12387 12486
12486 12592
12592 12694
12694 12795
12795 12899
12899 13000
13000 13101
13101 13203
13203 13306
13306 13412
13412 13514
13514 13618
13618 13721
13721 13823
13823 13927
13927 14033
14033 14134
14134 14239
14239 14343
14343 14443
14443 14547
14547 14654
14654 14860
14860 14961
14961 15065
15065 15166
15166 15268
15268 15374
15374 15475
15475 15529
15529 15754
15754 15851
15851 16065
16065 16167
16167 16272
16272 16375
16375 16477
16477 16577
16577 16686
16686 16894
16894 17000
17000 17099
17099 17201
17201 17305
17305 17411
17411 17513
17513 17587
17587 17893
17893 17999
17999 18123
18123 18226
18226 18332
18332 18430
18430 18533
18533 18638
18638 18741
18741 18846
18846 18948
18948 19062
19062 19168
19168 19270
19270 19378
19378 19582
19582 19682
19682 19896
19896 20004
20004 20118
20118 20192
20192 20298
20298 20403
20403 20511
20511 20823
20823 20968
20968 21101
21101 21303
21303 21404
21404 21504
21504 21603
21603 21812
21812 21885
21885 22102
22102 22206
22206 22313
22313 22415
22415 22520
22520 22625
22625 22730
22730 22833
22833 22939
22939 23043
23043 23148
23148 23257
23257 23363
23363 23468
23468 23574
23574 23680
23680 23782
23782 23884
23884 23989
23989 24091
24091 24200
24200 24305
24305 24411
24411 24514
24514 24620
24620 24724
24724 24828
24828 24935
24935 25042
25042 25147
25147 25254
25254 25362
25362 25465
25465 25570
25570 25671
25671 25780
25780 25887
25887 25994
25994 26101
26101 26210
26210 26315
26315 26423
26423 26526
26526 26634
26634 26739
26739 26846
26846 26952
26952 27056
27056 27164
27164 27269
27269 27374
27374 27481
27481 27588
27588 27695
27695 27800
27800 27907
27907 28008
28008 28112
28112 28214
28214 28427
28427 28535
28535 28642
28642 28749
28749 28858
28858 28968
28968 29077
29077 29188
29188 29299
29299 29410
29410 29526
29526 29634
29634 29745
29745 29851
