167 211
211 332
498 542
542 663
663 830
830 874
874 993
993 1126
1126 1171
1171 1300
1300 1474
1474 1519
1519 1652
1652 1829
1829 1874
1874 2013
2013 2095
2095 2228
2228 2359
2359 2495
2495 2629
2629 2767
2767 2905
2905 3046
3046 3185
3185 3326
3326 3469
3469 3615
3615 3759
3759 3905
3905 4068
4068 4213
4213 4356
4356 4502
4502 4546
4546 4644
4644 4780
4780 4915
4915 5070
5070 5202
5202 5336
5336 5466
5466 5592
5592 5635
5635 5722
5722 5851
5851 5977
5977 6102
6102 6143
6143 6224
6224 6264
6264 6341
6341 6467
6467 6592
6592 6716
6716 6841
6841 6966
6966 7089
7089 7208
7208 7324
7324 7440
7440 7557
7557 7679
7679 7806
7806 7936
7936 8117
8117 8269
8269 8426
8426 8587
8587 8742
8742 8784
8784 8893
8893 9091
9091 9245
9245 9394
9394 9541
9541 9694
