28 130
829 900
4961 5056
12955 13037
13961 14032
14174 14245
14245 14316
14316 14388
14388 14459
14459 14530
14530 14601
14601 14671
14671 14742
14742 14813
15113 15184
15184 15254
15254 15325
15325 15396
15396 15466
15466 15537
15537 15608
15608 15678
15678 15749
15749 15820
15820 15891
15891 15961
15961 16032
16032 16102
16102 16173
16173 16244
16244 16315
16315 16385
16385 16456
16456 16527
16527 16597
16597 16668
16668 16739
16739 16810
16810 16881
16881 16951
16951 17022
17022 17082
17082 17153
17153 17223
17223 17294
17294 17365
17365 17436
17436 17506
17506 17577
17577 17647
17647 17718
17718 17789
17789 17835
17835 17905
17905 17976
17976 18098
19155 19226
19226 19272
20895 20966
21042 21113
21113 21183
21183 21254
21254 21324
21324 21394
21394 21465
21465 21535
21535 21605
21605 21676
21676 21746
21746 21817
21817 21887
21887 21957
21957 22027
22027 22097
22097 22168
22168 22238
22238 22308
22308 22378
22378 22448
22448 22518
22518 22589
22589 22659
22659 22729
22729 22800
22800 22870
22870 22940
22940 23010
23010 23080
23080 23151
23151 23221
23221 23292
23292 23362
23362 23432
23432 23503
23503 23573
23573 23643
23643 23714
23714 23784
23784 23855
23855 23925
23925 23996
23996 24066
24066 24137
24137 24208
24208 24278
24278 24349
24349 24419
24419 24490
24490 24560
24560 24631
24631 24748
24748 24819
24819 24889
24889 24960
24960 25031
25031 25101
25101 25172
25172 25243
25243 25314
25314 25385
25385 25455
25455 25526
25526 25597
25597 25668
25668 25739
25739 25809
25809 25880
25880 25951
25951 26021
26021 26092
26092 26163
26163 26234
26234 26305
26305 26375
26375 26446
26446 26516
26516 26587
26587 26658
26658 26729
26729 26800
26800 26871
26871 26941
26941 27012
27012 27083
27083 27154
27154 27225
27225 27295
27295 27366
27366 27437
27437 27507
27507 27578
27578 27649
27649 27766
27766 27837
27837 27907
27907 27978
27978 28049
28049 28120
28120 28191
28191 28261
28261 28332
28332 28449
28449 28519
28519 28591
28591 28662
28662 28733
28733 28804
28804 28874
28874 28945
28945 29016
29016 29087
29087 29158
29158 29229
29229 29300
29300 29371
29371 29442
29442 29513
29513 29584
29584 29655
29655 29726
29726 29797
29797 29868
29868 29938
29938 30035
30035 30105
30105 30176
30176 30246
30246 30317
30317 30387
30387 30457
30457 30528
30528 30599
30599 30669
30669 30740
30740 30810
30810 30880
30880 30951
30951 31021
31021 31092
31092 31163
31163 31233
31233 31304
31304 31374
31374 31445
31445 31515
31515 31586
31586 31657
31657 31727
31727 31798
31798 31869
31869 31939
31939 32010
32010 32080
32080 32151
32151 32222
32222 32292
32292 32362
32362 32433
32433 32503
32503 32574
32574 32645
32645 32690
32690 32760
32760 32831
32831 32901
32901 32972
32972 33043
33043 33113
33113 33184
33184 33255
33255 33325
33325 33396
33396 33466
33466 33537
33537 33608
33608 33679
33679 33750
33750 33820
33820 33891
33891 33962
33962 34033
34033 34104
34104 34175
34175 34246
34246 34317
34317 34388
34388 34459
34459 34530
34530 34601
34601 34672
34672 34743
34743 34814
34814 34885
34885 34956
34956 35028
35028 35099
35099 35170
35170 35241
35241 35312
35312 35383
35383 35455
35455 35526
35526 35597
35597 35669
35669 35740
35740 35811
35811 35882
35882 35954
35954 36025
36025 36097
36097 36168
36168 36240
36240 36311
36311 36382
36382 36454
36454 36526
36526 36597
36597 36669
36669 36740
36740 36811
36811 36883
36883 36954
36954 37026
37026 37097
37097 37169
37169 37240
37240 37311
37311 37383
37383 37501
37501 37572
37572 37644
37644 37715
37715 37786
37786 37857
37857 37928
37928 38000
38000 38071
38071 38143
38143 38214
38214 38285
38285 38356
38356 38427
38427 38499
38499 38570
38570 38641
38641 38712
38712 38783
38783 38854
38854 38925
38925 38996
38996 39059
39059 39129
39129 39200
39200 39271
39271 39342
39342 39412
39412 39483
39483 39554
39554 39625
39625 39696
39696 39766
39766 39837
39837 39908
39908 39979
39979 40050
40050 40095
40095 40166
40166 40237
40237 40307
40307 40378
40378 40449
40449 40520
40520 40590
40590 40661
40661 40732
40732 40802
40802 40873
40873 40944
40944 41015
41015 41085
41085 41156
41156 41227
41227 41297
41297 41368
41368 41439
41439 41510
41510 41580
41580 41651
41651 41722
41722 41793
41793 41863
41863 41934
41934 42005
42005 42076
42076 42147
42147 42218
42218 42288
42288 42359
42359 42430
42430 42501
42501 42572
42572 42643
42643 42714
42714 42785
42785 42855
42855 42926
42926 42998
42998 43069
43069 43139
43139 43210
43210 43281
43281 43351
43351 43422
43422 43493
43493 43564
43564 43635
43635 43705
43705 43776
43776 43846
43846 43917
43917 43988
43988 44059
44059 44130
44130 44200
44200 44271
44271 44342
44342 44412
44412 44483
44483 44554
44554 44625
44625 44696
44696 44767
44767 44837
44837 44908
44908 44979
44979 45050
45050 45121
45121 45192
45192 45263
45263 45334
45334 45405
45405 45477
45477 45548
45548 45619
45619 45690
45690 45761
45761 45832
45832 45903
45903 45975
45975 46047
46047 46118
46118 46189
46189 46261
46261 46332
46332 46404
46404 46475
46475 46547
46547 46619
46619 46690
46690 46762
46762 46833
46833 46905
46905 46977
46977 47048
47048 47120
47120 47191
47191 47262
47262 47333
47333 47405
47405 47476
47476 47548
47548 47619
47619 47690
47690 47761
47761 47832
47832 47903
47903 47975
47975 48046
48046 48117
48117 48188
48188 48259
48259 48330
48330 48401
48401 48472
48472 48543
48543 48614
48614 48685
48685 48756
48756 48827
48827 48898
48898 48969
48969 49041
49041 49112
49112 49183
49183 49254
49254 49325
49325 49396
49396 49467
49467 49538
49538 49609
49609 49680
49680 49751
49751 49822
49822 49893
49893 49964
49964 50036
50036 50107
