920 1047
1047 1159
1159 1246
1246 1335
1335 1427
1427 1512
1512 1603
1603 1691
1691 1774
1774 1863
1863 1949
1949 2031
2031 2116
2116 2205
2205 2287
2287 2376
2376 2458
2458 2547
2547 2630
2630 2720
2720 2806
2806 2889
2889 2979
2979 3066
3066 3149
3149 3234
3234 3323
3323 3409
3409 3496
3496 3579
3579 3667
3667 3748
3748 3832
3832 3920
3920 4002
4002 4070
4070 4150
4150 4234
4234 4320
4320 4400
4400 4486
4486 4569
4569 4649
4649 4734
4734 4819
4819 4900
4900 4986
4986 5083
38898 38950
38950 39062
