51 87
147 185
185 245
245 283
283 374
374 470
470 528
528 566
566 623
623 660
660 718
718 755
755 816
816 853
853 949
949 1043
1043 1102
1102 1140
1140 1195
1195 1232
1232 1290
1290 1328
1328 1385
1385 1422
1422 1483
1483 1521
1521 1613
1613 1671
1671 1709
1709 1766
1766 1802
1802 1861
1861 1898
1898 1956
1956 1994
1994 2088
2088 2183
2183 2241
2241 2279
2279 2339
2339 2377
2377 2469
2469 2527
2527 2564
2564 2625
2625 2664
2664 2718
2718 2756
2756 2813
2813 2852
2852 2911
2911 2949
2949 3041
3041 3101
3101 3139
3139 3197
3197 3235
3235 3290
3290 3326
3326 3387
3387 3426
3426 3480
3480 3518
3518 3575
3575 3612
3612 3670
3670 3707
3707 3767
3767 3805
3805 3897
3897 3957
3957 3995
3995 4050
4050 4088
4088 4145
4145 4182
4182 4240
4240 4278
4278 4337
4337 4374
4374 4430
4430 4524
4524 4561
4561 4619
4619 4656
4656 4713
4713 4750
4750 4808
4808 4846
4846 4906
4906 4942
4942 5036
5036 5092
5092 5129
5129 5187
5187 5225
5225 5281
5281 5319
5319 5377
5377 5414
5414 5475
5475 5512
5512 5604
5604 5664
5664 5702
5702 5757
5757 5795
5795 5852
5852 5889
5889 5947
5947 5985
5985 6045
6045 6083
6083 6137
6137 6174
6174 6232
6232 6270
6270 6327
6327 6364
6364 6421
6421 6459
6459 6516
6516 6555
6555 6614
6614 6651
6651 6707
6707 6743
6743 6801
6801 6839
6839 6896
6896 6934
6934 6990
6990 7028
7028 7073
7073 7127
7127 7165
7165 7258
7258 7319
7319 7356
7356 7412
7412 7450
7450 7507
7507 7544
7544 7604
7604 7642
7642 7697
7697 7735
7735 7792
7792 7829
7829 7887
7887 7925
7925 7985
7985 8023
8023 8078
8078 8116
8116 8176
8176 8214
8214 8269
8269 8306
8306 8364
8364 8401
8401 8459
8459 8497
8497 8554
8554 8591
8591 8649
8649 8687
8687 8747
8747 8785
8785 8840
8840 8878
8878 8935
8935 8972
8972 9033
9033 9070
9070 9126
9126 9163
9163 9221
9221 9259
9259 9316
9316 9353
9353 9411
9411 9449
9449 9506
9506 9544
9544 9605
9605 9642
9642 9697
9697 9736
9736 9792
9792 9829
9829 9890
9890 9927
9927 9983
9983 10019
10019 10078
10078 10115
10115 10176
10176 10213
10213 10306
10306 10402
10402 10462
10462 10500
10500 10555
10555 10591
10591 10650
10650 10687
10687 10745
10745 10783
10783 10841
10841 10879
10879 10936
10936 10972
10972 11031
11031 11068
11068 11164
11164 11258
11258 11319
11319 11357
11357 11412
11412 11449
11449 11507
11507 11545
11545 11603
11603 11640
11640 11698
11698 11736
11736 11794
11794 11832
11832 11892
11892 11930
11930 12023
12023 12081
12081 12119
12119 12180
12180 12217
12217 12273
12273 12311
12311 12369
12369 12406
12406 12465
12465 12502
12502 12600
12600 12656
12656 12694
12694 12755
12755 12792
12792 12885
12885 12981
12981 13042
13042 13079
13079 13173
13173 13231
13231 13268
13268 13329
13329 13366
13366 13422
13422 13460
13460 13556
13556 13616
13616 13653
13653 13709
13709 13745
13745 13801
13801 13862
13862 13899
13899 13992
13992 14050
14050 14088
14088 14148
14148 14186
14186 14240
14240 14278
14278 14373
14373 14433
14433 14471
14471 14526
14526 14565
14565 14621
14621 14658
14658 14717
14717 14754
14754 14812
14812 14850
14850 14907
14907 14944
14944 15005
15005 15042
15042 15135
15135 15193
15193 15231
15231 15288
15288 15325
15325 15383
15383 15420
15420 15478
15478 15516
15516 15576
15576 15614
15614 15669
15669 15706
15706 15764
15764 15801
15801 15863
15863 15899
15899 15956
15956 15993
15993 16052
16052 16089
16089 16148
16148 16186
16186 16243
16243 16339
16339 16376
16376 16438
16438 16476
16476 16532
16532 16569
16569 16628
16628 16665
16665 16726
16726 16763
16763 16820
16820 16857
16857 16952
16952 17014
17014 17050
17050 17107
17107 17144
17144 17202
17202 17240
17240 17299
17299 17336
17336 17394
17394 17431
17431 17490
17490 17527
17527 17588
17588 17625
17625 17718
17718 17776
17776 17814
17814 17872
17872 17910
17910 17966
17966 18004
18004 18061
18061 18100
18100 18157
18157 18193
18193 18252
18252 18289
18289 18385
18385 18444
18444 18480
18480 18537
18537 18574
18574 18632
18632 18668
18668 18727
18727 18764
18764 18822
18822 18859
18859 18917
18917 18955
18955 19014
19014 19051
19051 19107
19107 19145
19145 19202
19202 19238
19238 19297
19297 19334
19334 19392
19392 19430
19430 19524
19524 19585
19585 19623
19623 19677
19677 19715
19715 19772
19772 19811
19811 19868
19868 19905
19905 19963
19963 20000
20000 20058
20058 20096
20096 20156
20156 20194
20194 20249
20249 20285
20285 20344
20344 20381
20381 20439
20439 20477
20477 20535
20535 20571
20571 20630
20630 20666
20666 20728
20728 20766
20766 20821
20821 20858
20858 20916
20916 20954
20954 21012
21012 21049
21049 21107
21107 21145
21145 21203
21203 21241
21241 21301
21301 21339
21339 21395
21395 21432
21432 21490
21490 21528
21528 21588
21588 21626
21626 21682
21682 21720
21720 21777
21777 21815
21815 21873
21873 21911
21911 21968
21968 22005
22005 22063
22063 22101
22101 22161
22161 22199
22199 22290
22290 22348
22348 22386
22386 22444
22444 22481
22481 22538
22538 22575
22575 22633
22633 22669
22669 22730
22730 22767
22767 22823
22823 22860
22860 22917
22917 22987
22987 23025
23025 23082
23082 23119
23119 23176
23176 23214
23214 23271
23271 23308
23308 23366
23366 23404
23404 23461
23461 23497
23497 23556
23556 23593
23593 23651
23651 23689
23689 23746
23746 23785
23785 23844
23844 23881
23881 23937
23937 23974
23974 24031
24031 24070
24070 24129
24129 24166
24166 24222
24222 24259
24259 24316
24316 24353
24353 24412
24412 24449
24449 24509
24509 24547
24547 24601
24601 24638
24638 24699
24699 24736
24736 24791
24791 24828
24828 24886
24886 24924
24924 24981
24981 25019
25019 25075
25075 25113
25113 25170
25170 25207
25207 25264
25264 25301
25301 25396
25396 25452
25452 25490
25490 25547
25547 25584
25584 25641
25641 25679
25679 25735
25735 25773
25773 25832
25832 25869
25869 25924
25924 25962
25962 26018
26018 26056
26056 26115
26115 26152
26152 26207
26207 26244
26244 26339
26339 26399
26399 26437
26437 26491
26491 26529
26529 26586
26586 26623
26623 26683
26683 26720
26720 26776
26776 26814
26814 26871
26871 26908
26908 26969
26969 27008
27008 27062
27062 27099
27099 27160
27160 27197
27197 27253
27253 27291
27291 27349
27349 27387
27387 27444
27444 27482
27482 27539
27539 27576
27576 27635
27635 27672
27672 27730
27730 27768
27768 27828
27828 27866
27866 27921
27921 27959
27959 28016
28016 28055
28055 28112
28112 28149
28149 28207
28207 28244
28244 28302
28302 28338
28338 28400
28400 28438
28438 28529
28529 28588
28588 28625
28625 28683
28683 28721
28721 28778
28778 28815
28815 28874
28874 28911
28911 28973
28973 29010
29010 29065
29065 29102
29102 29161
29161 29200
29200 29260
29260 29298
29298 29352
29352 29389
29389 29448
29448 29485
29485 29546
29546 29585
29585 29639
29639 29677
29677 29734
29734 29770
29770 29832
29832 29870
29870 29925
29925 29962
29962 30058
30058 30118
30118 30155
30155 30210
30210 30247
30247 30305
30305 30343
30343 30403
30403 30441
30441 30496
30496 30534
30534 30591
30591 30628
30628 30686
30686 30724
30724 30820
30820 30877
30877 30915
30915 30972
30972 31009
31009 31067
31067 31105
31105 31162
31162 31199
31199 31260
31260 31298
31298 31353
31353 31390
31390 31448
31448 31486
31486 31546
31546 31584
31584 31638
31638 31675
31675 31734
31734 31771
31771 31829
31829 31867
31867 31924
31924 31961
31961 32019
32019 32056
32056 32118
32118 32154
32154 32210
32210 32248
32248 32306
32306 32344
32344 32401
32401 32439
32439 32496
32496 32533
32533 32592
32592 32629
32629 32690
32690 32727
32727 32782
32782 32820
32820 32877
32877 32914
32914 32975
32975 33014
33014 33068
33068 33105
33105 33162
33162 33199
33199 33258
33258 33295
33295 33391
33391 33448
33448 33486
33486 33545
33545 33582
33582 33638
33638 33676
33676 33733
33733 33770
33770 33828
33828 33865
33865 33923
33923 33959
33959 34018
34018 34055
34055 34116
34116 34153
34153 34209
34209 34246
34246 34306
34306 34344
34344 34436
34436 34494
34494 34532
34532 34592
34592 34630
34630 34685
34685 34721
34721 34780
34780 34819
34819 34875
34875 34913
34913 35008
35008 35066
35066 35104
35104 35161
35161 35200
35200 35257
35257 35294
35294 35352
35352 35389
35389 35447
35447 35485
35485 35543
35543 35581
35581 35638
35638 35675
35675 35736
35736 35774
35774 35866
35866 35924
35924 35962
35962 36022
36022 36060
36060 36116
36116 36153
36153 36211
36211 36249
36249 36309
36309 36347
36347 36402
36402 36439
36439 36498
36498 36535
36535 36593
36593 36630
36630 36726
36726 36784
36784 36822
