12188 12352
45855 46137
46137 46245
46245 46353
46353 46464
46464 46571
46571 46681
46681 46789
46789 46898
46898 47008
47008 47051
47051 47160
47160 47269
47269 47377
47377 47487
47487 47595
47595 47704
47704 47814
47814 47922
47922 48031
48031 48141
48141 48249
48249 48359
48359 48467
48467 48576
48576 48686
48686 48795
48795 48904
48904 49015
49015 49123
49123 49233
49233 49342
49342 49451
49451 49561
49561 49669
49669 49778
49778 49888
