26 62
506 580
580 654
654 728
728 802
802 876
876 950
950 1073
1073 1147
1147 1221
1221 1295
1295 1369
1369 1443
1443 1517
1517 1591
1591 1665
1665 1740
1740 1814
1814 1888
1888 1963
1963 2037
2037 2112
2112 2187
2187 2261
2261 2336
2336 2410
2410 2485
2485 2559
2559 2634
2634 2709
2709 2784
2784 2859
2859 2933
2933 3008
3008 3083
3083 3158
3158 3234
3234 3309
3309 3383
3383 3458
3458 3533
3533 3607
3607 3683
3683 3758
3758 3832
