895 1005
1005 1123
1123 1223
1223 1319
1319 1412
1412 1505
1505 1598
1598 1701
1701 1808
1808 1907
1907 2005
2005 2145
2145 2238
4532 4648
4648 4767
4767 4880
9924 10040
10040 10149
10346 10443
10443 10541
10541 10637
10637 10744
10744 10857
10857 10963
10963 11070
11070 11181
11181 11289
11289 11389
11389 11493
11493 11596
11596 11698
11698 11799
11799 11909
12024 12084
12084 12214
12214 12341
12341 12458
12458 12572
12572 12695
12695 12820
12820 12936
13116 13226
13712 13832
13832 13926
13832 13926
14082 14195
14082 14195
14195 14311
14311 14431
14431 14547
15499 15610
15610 15726
15726 15844
15844 15935
16793 16907
17639 17756
17756 17865
17865 17979
19251 19366
19366 19479
19935 20097
21822 21940
21940 22037
22486 22594
22594 22705
22705 22813
