200 312
312 430
430 543
543 645
977 1114
1842 1937
1937 2080
2234 2310
2310 2384
2384 2461
2461 2539
2539 2616
2616 2693
2693 2773
2773 2857
2857 2934
2934 3012
3012 3093
3093 3175
3175 3260
3260 3347
3347 3428
3428 3512
3512 3596
3596 3676
3676 3763
3763 3854
3854 3939
3939 4033
4033 4129
4129 4225
4225 4325
4325 4424
4424 4517
4517 4614
4614 4735
4735 4849
4849 4955
4955 5053
5053 5153
5153 5251
5251 5352
5352 5467
5467 5577
5577 5678
5678 5779
5779 5873
5873 5972
5972 6079
6079 6191
6191 6313
6313 6424
6424 6537
6537 6648
6648 6754
6754 6859
6859 6969
6969 7079
7079 7170
7170 7253
7253 7339
7339 7429
7429 7513
7513 7603
7603 7699
7699 7792
7792 7889
7889 7983
7983 8073
8073 8170
8170 8267
8267 8368
8368 8467
8467 8570
8570 8673
8673 8793
8793 8906
8906 9015
9015 9125
9125 9233
9233 9340
9340 9446
9446 9539
9539 9632
9632 9731
9731 9828
9828 9933
9933 10039
10039 10134
10134 10220
10220 10308
10308 10392
10392 10479
10479 10575
10575 10677
10677 10765
10765 10852
10852 10940
10940 11024
11024 11080
11080 11178
11178 11276
11276 11375
11375 11472
11472 11577
11577 11674
11674 11775
11775 11878
11878 11990
11990 12091
12091 12190
12190 12280
12280 12367
12367 12457
12457 12547
12547 12650
12650 12761
12761 12875
12875 12990
12990 13096
13096 13202
13202 13305
13305 13406
13406 13498
13498 13597
13597 13699
13699 13798
13798 13902
13902 14008
14008 14058
14058 14172
14172 14289
14289 14402
14402 14512
14512 14623
14623 14742
14742 14856
14856 14962
14962 15077
15077 15169
15169 15265
15265 15359
15359 15453
15453 15552
15552 15654
15654 15757
15757 15880
15880 15994
15994 16108
16108 16195
16195 16307
16307 16428
16428 16539
16539 16654
16654 16767
16767 16872
16872 16974
16974 17075
17075 17165
17165 17257
17257 17359
17359 17467
17467 17567
17567 17663
17663 17754
17754 17837
17837 17921
17921 18002
18002 18086
18086 18173
18173 18228
18228 18329
18329 18416
18416 18501
18501 18587
18587 18667
18667 18753
18753 18839
18839 18927
18927 19031
19031 19133
19133 19227
19227 19324
19324 19416
19416 19507
19507 19605
19605 19709
19709 19814
19814 19913
19913 20000
20000 20058
20058 20143
20143 20233
20233 20328
20328 20420
20420 20517
20517 20615
20615 20712
20712 20820
20820 20926
20926 21026
21026 21133
21133 21238
21238 21355
21355 21462
21462 21571
21571 21683
21683 21805
21805 21919
21919 22020
22020 22124
22124 22211
