53 134
1027 1116
1116 1210
1210 1311
1311 1409
1409 1505
1505 1604
1604 1704
1704 1804
1804 1912
1912 2018
2018 2117
2117 2220
2220 2322
2322 2421
2421 2526
2526 2633
2633 2738
2738 2846
2846 2953
2953 3109
3109 3216
3216 3328
3328 3439
3439 3542
3542 3644
3644 3756
3756 3860
3860 3961
3961 4069
4069 4177
4177 4279
4279 4386
4386 4500
4500 4611
4611 4717
4717 4828
4828 4930
4930 5023
5023 5117
5117 5236
5236 5355
5355 5460
5460 5558
5558 5663
5663 5777
5777 5888
5888 6008
6008 6119
6119 6221
6221 6326
6326 6427
6427 6522
6522 6616
6616 6716
6716 6818
6818 6923
6923 7048
7048 7153
8175 8290
8290 8381
8381 8489
8489 8594
8901 9005
9005 9076
9393 9506
9506 9612
9897 9999
9999 10078
11135 11242
11242 11348
11893 12001
12001 12069
13540 13651
13651 13761
13960 14117
14117 14218
15787 15910
15996 16062
16062 16163
16163 16266
16266 16367
16367 16464
16464 16564
16564 16667
16667 16774
16774 16875
16875 16974
16974 17079
17079 17189
17189 17297
17297 17413
17413 17522
17522 17621
17621 17724
17724 17829
17829 17928
17928 18031
18031 18130
18130 18229
18229 18323
18323 18412
18412 18499
