3988 4089
7931 8030
8030 8085
8918 9019
9019 9135
9135 9227
9227 9323
9323 9418
9418 9515
9515 9609
9609 9708
9708 9814
9814 9917
9917 10015
10015 10121
10121 10224
10224 10324
10324 10425
10425 10532
10532 10637
10637 10738
10738 10845
10845 10950
10950 11053
11053 11159
11159 11271
11271 11383
11383 11492
11492 11604
11604 11718
11718 11830
11830 11938
11938 12050
12050 12165
12165 12279
12279 12389
12389 12495
12495 12605
12605 12719
12719 12827
12827 12929
12929 13038
13038 13150
13150 13255
13255 13358
13358 13467
13467 13571
13571 13676
13676 13781
13781 13885
13885 13985
13985 14084
14084 14185
14185 14289
14289 14389
14389 14486
14486 14591
14591 14702
14702 14810
