4996 5085
5819 5904
5904 5990
5990 6075
6075 6161
6161 6250
6250 6343
6343 6437
6437 6529
6529 6627
6627 6730
6730 6829
6829 6928
6928 7024
7024 7121
7121 7213
7213 7309
7309 7406
7406 7504
7504 7602
7602 7701
7701 7799
7799 7895
7895 7993
7993 8090
8090 8186
8186 8284
8284 8382
8382 8478
8478 8575
8575 8673
8673 8769
8769 8864
8864 8959
8959 9055
9055 9152
9152 9250
9250 9349
9349 9452
9452 9551
9551 9646
9646 9741
9741 9836
9836 9931
9931 10025
10025 10123
10123 10219
10219 10315
10315 10411
10411 10508
10508 10605
10605 10700
10700 10799
10799 10899
10899 10996
10996 11090
11090 11182
11182 11277
11277 11370
11370 11458
11458 11547
11547 11638
11638 11729
11729 11818
11818 11907
11907 11998
11998 12088
12088 12178
12178 12269
12269 12360
12360 12448
12448 12535
12535 12626
