6939 7109
10154 10254
11926 12016
12016 12081
13917 14009
14009 14068
14967 15103
16909 17009
17009 17051
34844 34911
34911 34997
35052 35155
35155 35252
35252 35346
35346 35442
35442 35542
35542 35643
35643 35749
35749 35855
35855 35958
35958 36060
36060 36163
36163 36266
36266 36367
36367 36464
36464 36565
36565 36665
36665 36764
36764 36862
36862 36966
36966 37072
37072 37176
37176 37276
37276 37378
37378 37485
37485 37589
37589 37690
37690 37795
37795 37904
37904 38008
38008 38107
38107 38204
38204 38305
38305 38411
38411 38515
38515 38615
38615 38720
38720 38823
38823 38925
38925 39051
39051 39150
39150 39249
39249 39347
39347 39442
39442 39542
39542 39645
39645 39748
39748 39847
39847 39943
39943 40059
40059 40165
40165 40268
40268 40367
40367 40465
40465 40564
40564 40665
40665 40764
40764 40860
40860 40957
40957 41056
41056 41155
41155 41256
41256 41359
41359 41463
41463 41562
41562 41661
41661 41759
41759 41861
41861 41963
41963 42062
42062 42159
42159 42252
42252 42351
42351 42450
42450 42549
42549 42648
42648 42749
42749 42848
42848 42951
42951 43052
43052 43152
43152 43251
43251 43348
43348 43450
43450 43548
43548 43645
43645 43746
43746 43852
43852 43951
43951 44050
44050 44153
44153 44251
44251 44349
44349 44449
44449 44548
44548 44644
44644 44738
44738 44836
44836 44933
44933 45029
45029 45124
45124 45221
45221 45326
45326 45430
45430 45531
45531 45627
45627 45729
45729 45830
45830 45927
45927 46028
46028 46134
46134 46237
46237 46336
46336 46436
46436 46535
46535 46632
46632 46728
46728 46829
46829 46933
46933 47034
47034 47140
47140 47243
47243 47338
47338 47431
47431 47525
47525 47619
47619 47712
47712 47807
47807 47907
47907 48008
48008 48108
48108 48206
48206 48302
48302 48397
48397 48492
48492 48588
48588 48683
48683 48781
48781 48879
48879 48974
48974 49068
49068 49165
49165 49262
49262 49359
49359 49455
49455 49555
49555 49658
49658 49760
49760 49863
49863 49968
49968 50071
50071 50172
50172 50271
50271 50372
50372 50476
50476 50580
50580 50683
50683 50791
50791 50898
50898 50999
50999 51093
51093 51193
51193 51297
51297 51401
51401 51505
51505 51613
