1394 1482
1482 1568
1568 1657
1657 1743
1743 1830
1830 1918
1918 2003
2003 2090
2090 2179
2179 2267
2267 2353
2353 2439
2439 2525
2525 2612
2612 2702
2702 2790
2790 2878
2878 2965
2965 3053
3053 3140
3140 3224
3224 3312
3312 3400
3400 3485
3485 3573
3573 3662
3662 3750
3750 3838
3838 3926
3926 4034
4034 4121
4121 4210
4210 4294
4294 4380
4380 4467
4467 4557
4557 4644
4644 4731
4731 4820
4820 4907
4907 4992
4992 5048
5048 5136
5136 5221
5221 5307
5307 5393
5393 5481
5481 5566
5566 5652
5652 5737
5737 5823
5823 5910
5910 5996
5996 6036
6036 6122
6122 6210
6210 6295
6295 6384
6384 6471
6471 6557
6557 6643
6643 6731
6731 6816
6816 6903
6903 6988
6988 7083
7083 7170
7170 7258
7258 7345
7345 7432
7432 7519
7519 7609
7609 7698
7698 7788
7788 7875
7875 7962
7962 8050
8050 8137
8137 8200
8200 8312
8312 8403
8403 8489
8489 8575
8575 8660
8660 8747
8747 8832
8832 8917
8917 9001
9001 9117
9117 9203
9203 9288
9288 9375
9375 9462
9462 9550
9550 9641
9641 9731
9731 9821
9821 9910
9910 10001
10001 10090
10090 10180
10180 10271
10271 10359
10359 10447
10447 10539
10539 10631
10631 10723
10723 10814
10814 10903
10903 10991
10991 11080
11080 11171
11171 11259
11259 11350
11350 11440
11440 11529
11529 11619
11619 11706
11706 11794
11794 11882
11882 11972
11972 12053
12053 12139
12139 12225
12225 12309
12309 12395
12395 12481
12481 12567
12567 12656
12656 12744
12744 12832
12832 12920
12920 13011
13011 13101
13101 13190
13190 13279
13279 13367
13367 13458
13458 13548
13548 13637
13637 13728
13728 13816
13816 13907
13907 13996
13996 14088
14088 14176
14176 14264
14264 14350
14350 14438
14438 14525
14525 14614
14614 14701
14701 14788
14788 14877
14877 14964
14964 15051
15051 15138
15138 15224
15224 15309
15309 15393
15393 15479
15479 15564
15564 15649
15649 15737
15737 15823
15823 15910
15910 15997
15997 16083
16083 16168
16168 16253
16253 16339
16339 16423
16423 16510
16510 16594
16594 16680
16680 16765
16765 16850
16850 16935
16935 17020
17020 17105
17105 17191
17191 17277
17277 17360
17360 17445
17445 17525
17525 17608
17608 17691
17691 17772
17772 17856
17856 17938
17938 18021
18021 18101
18101 18186
18186 18270
18270 18352
18352 18435
18435 18515
18515 18596
18596 18676
18676 18756
18756 18834
18834 18916
18916 18997
18997 19079
19079 19159
19159 19242
19242 19325
19325 19408
19408 19489
19489 19570
19570 19651
19651 19734
19734 19816
19816 19901
19901 19981
19981 20092
20092 20176
20176 20260
20260 20342
20342 20422
20422 20504
20504 20587
20587 20669
20669 20752
20752 20837
20837 20920
20920 21003
21003 21062
21062 21161
21161 21246
21246 21331
21331 21415
21415 21498
21498 21579
21579 21663
21663 21745
21745 21832
21832 21917
21917 22002
22002 22083
22083 22167
22167 22253
22253 22338
22338 22421
22421 22503
22503 22584
22584 22667
22667 22749
22749 22832
22832 22915
22915 23000
23000 23079
23079 23163
23163 23245
23245 23327
23327 23411
23411 23496
23496 23577
23577 23662
23662 23745
23745 23827
23827 23913
23913 23998
23998 24080
24080 24162
24162 24245
24245 24331
24331 24416
24416 24498
24498 24583
24583 24666
24666 24750
24750 24834
24834 24918
24918 25000
25000 25122
25122 25205
25205 25291
25291 25373
25373 25454
25454 25537
25537 25619
25619 25703
25703 25786
25786 25871
25871 25954
25954 26039
26039 26125
26125 26204
26204 26288
26288 26371
26371 26453
26453 26538
26538 26621
26621 26705
26705 26786
26786 26869
26869 26954
26954 27037
27037 27122
27122 27207
27207 27288
27288 27370
27370 27453
27453 27538
27538 27623
27623 27705
27705 27788
27788 27871
27871 27957
27957 28092
28092 28178
28178 28259
28259 28344
28344 28433
28433 28518
28518 28604
28604 28688
28688 28771
28771 28857
28857 28942
28942 29030
29030 29117
29117 29201
29201 29286
29286 29370
29370 29455
29455 29539
29539 29621
29621 29703
29703 29785
29785 29869
29869 29955
29955 30036
30036 30119
30119 30204
