4808 4969
4969 5060
5060 5153
5153 5244
5244 5336
5336 5428
5428 5521
5521 5615
5615 5712
5712 5807
5807 5902
5902 5995
5995 6087
6087 6179
6179 6271
6271 6361
6361 6453
6453 6546
6546 6640
6640 6731
6731 6824
6824 6915
6915 7006
7006 7097
7097 7189
7189 7284
7284 7377
7377 7470
7470 7561
7561 7651
7651 7742
7742 7832
7832 7921
7921 8011
8011 8103
8103 8194
8194 8285
8285 8375
8375 8466
8466 8557
8557 8647
8647 8737
8737 8828
8828 8921
8921 9012
9012 9105
9105 9197
9197 9289
9289 9382
9382 9478
9478 9573
9573 9669
9669 9763
9763 9858
9858 9951
9951 10043
10043 10137
10137 10231
10231 10324
10324 10419
10419 10512
10512 10605
10605 10704
10704 10799
10799 10893
10893 10986
10986 11078
11078 11169
11169 11259
11259 11350
11350 11440
11440 11530
11530 11623
11623 11714
11714 11805
11805 11896
11896 11987
11987 12077
12077 12166
12166 12255
12255 12342
12342 12434
12434 12523
12523 12612
12612 12702
12702 12791
12791 12881
12881 12970
12970 13151
13151 13241
13241 13331
13331 13420
13420 13509
13509 13597
13597 13686
13686 13774
13774 13862
13862 13950
13950 14041
14041 14130
14130 14219
14219 14307
14307 14395
14395 14484
14484 14572
14572 14660
14660 14751
14751 14841
14841 14930
14930 15019
15019 15107
15107 15195
15195 15283
15283 15372
15372 15464
15464 15553
15553 15642
15642 15730
15730 15818
15818 15905
15905 16080
16080 16169
16169 16258
16258 16348
16348 16436
16436 16525
16525 16732
16732 16821
16821 16908
16908 16995
16995 17095
17095 17184
17184 17272
17272 17359
22922 23014
23014 23105
24735 24830
24830 24922
24922 25014
25014 25104
25104 25195
25195 25284
25284 25373
25373 25465
25465 25554
25554 25643
25643 25730
25730 25817
25817 25906
25906 25993
25993 26037
26037 26125
26125 26212
26212 26300
26300 26390
26390 26480
26480 26568
26568 26656
26656 26744
26744 26831
26831 26918
26918 27007
27007 27096
27096 27184
27184 27272
27272 27361
27361 27452
27452 27541
27541 27630
27630 27719
27719 27897
27897 27987
27987 28076
28076 28165
28165 28253
28253 28342
28342 28433
28433 28524
28524 28613
28613 28703
28703 28792
28792 28880
28880 28971
28971 29060
29060 29149
29149 29236
29236 29413
29413 29502
29502 29591
29591 29679
29679 29767
29767 29855
29855 29942
29942 30033
30033 30122
30122 30212
30212 30300
30300 30389
30389 30478
30478 30566
30566 30658
30658 30747
30747 30838
30838 30927
30927 31017
31017 31109
31109 31199
31199 31290
31290 31379
31379 31467
31467 31555
31555 31733
31733 31821
31821 31970
31970 32072
32072 32160
32160 32246
32246 32332
32332 32417
32417 32502
32502 32588
32588 32676
32676 32765
32765 32852
32852 32939
32939 33026
33026 33112
33112 33176
33176 33263
33263 33350
33350 33435
33435 33521
33521 33607
33607 33692
33692 33780
33780 33867
33867 33954
33954 34044
34044 34129
34129 34213
34213 34298
34298 34385
34385 34471
34471 34557
34557 34643
34643 34728
34728 34902
34902 34987
34987 35074
35074 35159
35159 35244
35244 35328
35328 35415
35415 35500
35500 35586
35586 35670
35670 35755
35755 35839
35839 35925
35925 36011
36011 36096
36096 36180
36180 36265
36265 36348
36348 36434
36434 36518
36518 36603
36603 36686
36686 36771
36771 36854
36854 36939
36939 37025
37025 37109
37109 37193
37193 37277
37277 37447
37447 37533
37533 37618
37618 37678
37678 37764
37764 37849
37849 37914
37914 38001
38001 38086
38086 38171
38171 38256
38256 38340
38340 38427
38427 38512
38512 38598
38598 38684
38684 38770
38770 38856
38856 38941
38941 39047
39047 39131
39131 39218
39218 39303
39303 39386
39386 39471
39471 39555
39555 39640
39640 39725
39725 39809
39809 39893
39893 39976
39976 40059
40059 40145
40145 40229
40229 40313
40313 40397
40397 40480
40480 40563
40563 40646
40646 40730
40730 40849
40849 40932
40932 41016
41016 41100
41100 41187
41187 41272
41272 41358
41358 41443
41443 41528
41528 41613
41613 41698
41698 41786
41786 41872
41872 41958
41958 42043
42043 42128
42128 42215
42215 42302
42302 42388
42388 42474
42474 42560
42560 42646
42646 42733
42733 42820
42820 42907
42907 42993
42993 43079
43079 43167
43167 43252
43252 43339
43339 43424
43424 43511
43511 43572
43572 43659
43659 43746
43746 43831
43831 43917
43917 44003
44003 44089
44089 44178
44178 44265
44265 44353
44353 44440
44440 44527
44527 44617
44617 44705
44705 44793
44793 44879
44879 45053
45053 45140
45140 45227
45227 45313
45313 45398
45398 45484
45484 45570
45570 45657
45657 45744
45744 45830
45830 45917
45917 46003
46003 46053
46053 46141
46141 46228
46228 46316
46316 46401
46401 46488
46488 46576
46576 46663
46663 46750
46750 46835
46835 46921
46921 47006
47006 47093
47093 47183
47183 47272
47272 47360
47360 47448
47448 47536
47536 47623
47623 47712
47712 47800
47800 47887
47887 47973
47973 48059
48059 48144
48144 48232
48232 48319
48319 48406
48406 48492
48492 48579
48579 48664
48664 48752
48752 48838
48838 48925
48925 49010
49010 49075
49075 49160
49160 49248
49248 49334
49334 49421
49421 49507
49507 49593
49593 49765
49765 49852
49852 49938
49938 50024
50024 50110
50110 50195
50195 50283
50283 50369
50369 50456
50456 50542
50542 50628
50628 50713
50713 50801
50801 50887
50887 50973
50973 51056
51056 51142
51142 51227
51227 51312
51312 51400
