13633 13707
13707 13781
13781 13854
13854 13928
13928 14002
14002 14076
14076 14150
14150 14224
14224 14297
14297 14371
14371 14445
14445 14518
14518 14592
14592 14666
14666 14740
14740 14814
14814 14888
14888 14962
14962 15036
15036 15109
15109 15183
15183 15257
15257 15331
15331 15405
15405 15478
15478 15552
15552 15625
15625 15699
15699 15772
15772 15846
15846 15919
15919 15993
15993 16066
16066 16139
16139 16212
16212 16285
16285 16359
16359 16432
16432 16505
16505 16578
16578 16651
16651 16724
16724 16797
16797 16870
16870 16944
16944 17017
17017 17090
17090 17164
17164 17237
17237 17311
17311 17384
17384 17458
17458 17532
17532 17606
17606 17680
17680 17755
17755 17829
17829 17904
17904 17978
17978 18053
18053 18128
18128 18202
18202 18277
18277 18352
18352 18427
18427 18502
18502 18577
18577 18652
18652 18727
18727 18802
18802 18878
18878 18953
18953 19028
19028 19103
19103 19178
19178 19253
19253 19327
19327 19402
19402 19477
19477 19552
19552 19627
19627 19701
19701 19776
19776 19851
19851 19926
19926 20000
20000 20075
20075 20150
20150 20224
20224 20299
20299 20373
20373 20448
20448 20522
20522 20597
20597 20671
20671 20745
20745 20820
20820 20894
20894 20968
20968 21042
21042 21116
21116 21190
21190 21264
21264 21338
21338 21411
21411 21485
21485 21559
21559 21632
21632 21706
21706 21780
21780 21853
21853 21927
21927 22000
22000 22074
22074 22148
22148 22221
22221 22295
22295 22369
22369 22443
22443 22517
22517 22591
22591 22665
22665 22740
22740 22814
22814 22888
22888 22962
22962 23036
23036 23110
23110 23185
23185 23259
23259 23333
23333 23407
23407 23482
23482 23556
23556 23631
23631 23705
23705 23779
23779 23853
23853 23928
23928 24002
24002 24076
24076 24151
24151 24225
24225 24299
24299 24373
24373 24447
24447 24521
24521 24595
24595 24669
24669 24743
24743 24817
24817 24890
24890 24964
24964 25038
25038 25112
25112 25186
25186 25260
25260 25334
25334 25408
25408 25482
25482 25556
25556 25630
25630 25704
25704 25778
25778 25853
25853 25927
25927 26001
26001 26076
26076 26150
26150 26224
26224 26299
26299 26373
26373 26448
26448 26522
26522 26597
26597 26671
26671 26746
26746 26820
26820 26895
26895 26969
26969 27044
27044 27118
27118 27193
27193 27267
27267 27341
27341 27416
27416 27491
27491 27565
27565 27640
27640 27714
27714 27789
27789 27863
27863 27937
27937 28012
28012 28086
28086 28161
28161 28235
28235 28310
28310 28384
28384 28458
28458 28532
28532 28607
28607 28681
28681 28755
28755 28829
28829 28903
28903 28978
28978 29052
29052 29126
29126 29200
29200 29274
29274 29348
29348 29421
29421 29495
29495 29569
29569 29643
29643 29717
29717 29791
29791 29864
29864 29938
29938 30012
30012 30086
30086 30160
30160 30234
30234 30308
30308 30382
30382 30456
30456 30530
30530 30605
30605 30679
30679 30754
30754 30828
30828 30903
30903 30977
30977 31052
31052 31126
31126 31201
31201 31276
31276 31351
31351 31426
31426 31501
31501 31575
31575 31650
31650 31725
31725 31801
31801 31875
31875 31950
31950 32026
32026 32100
32100 32175
32175 32250
32250 32324
32324 32398
32398 32472
32472 32547
32547 32621
32621 32695
32695 32770
32770 32844
32844 32918
32918 32993
32993 33067
33067 33142
33142 33216
33216 33291
33291 33365
33365 33440
33440 33515
33515 33589
33589 33664
33664 33739
33739 33814
33814 33888
33888 33963
33963 34038
34038 34112
34112 34187
34187 34261
34261 34336
34336 34410
34410 34485
34485 34559
34559 34634
34634 34708
34708 34782
34782 34857
34857 34931
34931 35005
35005 35080
35080 35154
35154 35229
35229 35303
35303 35378
35378 35453
35453 35528
35528 35602
35602 35677
35677 35752
35752 35827
35827 35902
35902 35977
35977 36052
36052 36127
36127 36202
36202 36277
36277 36352
36352 36427
36427 36503
36503 36578
36578 36653
36653 36728
36728 36804
36804 36879
36879 36954
36954 37029
37029 37104
37104 37179
37179 37253
37253 37328
37328 37402
37402 37477
37477 37552
37552 37627
37627 37703
37703 37778
37778 37853
37853 37928
37928 38003
38003 38079
38079 38155
38155 38230
38230 38306
38306 38381
38381 38457
38457 38533
38533 38608
38608 38684
38684 38759
38759 38835
38835 38910
38910 38985
38985 39060
39060 39135
39135 39211
39211 39286
39286 39361
39361 39435
39435 39510
39510 39585
39585 39659
39659 39734
39734 39809
39809 39883
39883 39958
39958 40032
40032 40106
40106 40181
40181 40255
40255 40330
40330 40404
40404 40479
40479 40553
40553 40628
40628 40702
40702 40776
40776 40850
40850 40924
40924 40998
40998 41121
41121 41195
41195 41269
41269 41344
41344 41418
41418 41492
41492 41567
41567 41641
41641 41716
41716 41791
41791 41866
41866 41940
41940 42015
42015 42090
42090 42165
42165 42241
42241 42315
42315 42391
42391 42466
42466 42541
42541 42616
42616 42691
42691 42766
42766 42841
42841 42916
42916 42991
42991 43066
43066 43141
43141 43216
43216 43292
43292 43367
43367 43441
43441 43516
43516 43591
43591 43666
43666 43741
43741 43816
43816 43891
43891 43967
43967 44043
44043 44118
44118 44194
44194 44269
44269 44344
44344 44419
44419 44495
44495 44570
44570 44645
44645 44720
44720 44795
44795 44869
44869 44944
44944 45019
45019 45094
45094 45169
45169 45244
45244 45319
45319 45393
45393 45468
45468 45543
45543 45618
45618 45692
45692 45767
45767 45842
45842 45917
45917 45992
45992 46067
46067 46142
46142 46217
46217 46293
46293 46369
46369 46444
46444 46520
46520 46596
46596 46671
46671 46747
46747 46822
46822 46898
46898 46973
46973 47049
47049 47124
47124 47199
47199 47275
47275 47350
47350 47425
47425 47500
47500 47575
47575 47650
47650 47725
47725 47800
47800 47875
47875 47950
47950 48024
48024 48099
48099 48174
48174 48249
48249 48325
48325 48400
48400 48475
48475 48550
48550 48625
48625 48701
48701 48776
48776 48851
48851 48926
48926 49001
49001 49076
49076 49151
49151 49226
49226 49301
49301 49375
49375 49450
49450 49525
49525 49599
49599 49674
49674 49749
49749 49823
49823 49898
49898 49973
49973 50048
50048 50122
50122 50197
50197 50272
50272 50347
50347 50423
50423 50498
50498 50573
50573 50648
50648 50724
50724 50799
50799 50875
50875 50950
50950 51025
51025 51100
51100 51176
51176 51252
51252 51328
51328 51403
51403 51479
51479 51555
51555 51631
51631 51706
51706 51782
51782 51858
51858 51933
51933 52008
52008 52083
52083 52158
52158 52233
52233 52307
52307 52382
52382 52456
52456 52531
52531 52605
52605 52679
52679 52753
52753 52827
52827 52901
52901 52975
52975 53049
53049 53123
53123 53196
53196 53270
53270 53344
53344 53418
53418 53492
53492 53566
53566 53640
53640 53714
53714 53788
53788 53862
53862 53936
53936 54010
54010 54084
54084 54158
54158 54232
54232 54306
54306 54380
54380 54454
54454 54528
54528 54603
54603 54677
54677 54751
54751 54825
54825 54900
54900 54975
54975 55050
55050 55126
55126 55201
55201 55276
55276 55351
55351 55426
55426 55501
55501 55577
55577 55651
55651 55726
55726 55801
55801 55876
55876 55951
55951 56027
56027 56122
56122 56197
56197 56271
56271 56346
56346 56420
56420 56495
56495 56569
56569 56643
56643 56717
56717 56791
56791 56865
56865 56939
56939 57013
57013 57087
57087 57161
57161 57236
57236 57310
57310 57384
57384 57458
57458 57533
57533 57607
57607 57682
57682 57756
57756 57831
57831 57905
57905 57980
57980 58054
58054 58129
58129 58203
58203 58278
58278 58352
58352 58427
58427 58501
58501 58576
58576 58650
58650 58725
58725 58799
58799 58874
58874 58948
58948 59023
59023 59097
59097 59171
59171 59246
59246 59320
59320 59395
59395 59469
59469 59543
59543 59618
59618 59692
59692 59767
59767 59841
59841 59916
59916 59990
59990 60064
60064 60138
60138 60213
60213 60287
60287 60361
60361 60435
60435 60509
60509 60583
60583 60657
60657 60731
60731 60805
60805 60880
60880 60954
60954 61028
61028 61102
61102 61177
61177 61251
61251 61326
61326 61400
61400 61475
61475 61549
61549 61624
61624 61699
61699 61773
61773 61848
61848 61923
61923 61988
61988 62070
62070 62146
62146 62220
62220 62295
62295 62370
62370 62445
62445 62520
62520 62595
62595 62670
62670 62745
62745 62820
62820 62895
62895 62969
62969 63044
63044 63119
63119 63194
63194 63269
63269 63343
63343 63418
63418 63492
63492 63567
63567 63642
63642 63716
63716 63790
63790 63865
63865 63939
63939 64014
64014 64088
64088 64163
64163 64238
64238 64312
64312 64387
64387 64461
64461 64536
64536 64611
64611 64686
64686 64761
64761 64836
64836 64911
64911 64986
64986 65061
65061 65137
65137 65212
65212 65288
65288 65363
65363 65439
65439 65514
65514 65590
65590 65666
65666 65741
65741 65817
65817 65893
65893 65969
65969 66045
66045 66121
66121 66197
66197 66273
66273 66349
66349 66425
66425 66501
66501 66576
66576 66652
66652 66727
66727 66803
66803 66878
66878 66953
66953 67028
67028 67086
67086 67162
67162 67238
67238 67313
67313 67389
67389 67465
67465 67540
67540 67616
67616 67691
67691 67766
67766 67842
67842 67917
67917 67991
67991 68066
68066 68141
68141 68216
68216 68290
68290 68365
68365 68439
68439 68514
68514 68589
68589 68663
68663 68738
68738 68813
68813 68888
68888 68963
68963 69037
69037 69112
69112 69187
69187 69311
69311 69386
69386 69460
69460 69535
69535 69609
69609 69684
69684 69758
69758 69832
69832 69907
