1918 2020
2020 2148
2148 2250
2250 2353
2353 2455
2455 2558
2558 2661
2661 2764
2764 2866
2866 2969
2969 3071
3071 3173
3173 3275
3275 3378
3378 3479
3479 3581
3581 3683
3683 3785
3785 3887
3887 3989
3989 4092
4092 4195
4195 4297
4297 4399
4399 4499
4499 4601
4601 4701
4701 4803
4803 4903
4903 5004
5004 5105
5105 5205
5205 5306
5306 5407
5407 5509
5509 5610
5610 5712
5712 5813
5813 5915
5915 6032
6032 6134
6134 6235
6235 6336
6336 6438
6438 6540
6540 6641
6641 6742
6742 6843
6843 6944
6944 7044
7044 7144
7144 7243
7243 7343
7343 7443
7443 7543
7543 7643
7643 7743
7743 7842
7842 7941
7941 8041
8041 8141
8141 8241
8241 8342
8342 8443
8443 8544
8544 8646
8646 8748
8748 8850
8850 8952
8952 9054
9054 9157
9157 9260
9260 9363
9363 9466
9466 9570
9570 9673
9673 9776
9776 9879
9879 9982
9982 10085
10085 10187
10187 10291
10291 10394
10394 10497
10497 10599
10599 10701
10701 10803
10803 10905
10905 11005
11005 11106
11106 11207
11207 11307
11307 11408
11408 11508
11508 11608
11608 11708
11708 11808
11808 11908
11908 12007
12007 12107
12107 12207
12207 12306
12306 12407
12407 12508
12508 12608
12608 12709
12709 12811
12811 12912
12912 13014
13014 13133
13133 13234
13234 13336
13336 13437
13437 13540
13540 13643
13643 13745
13745 13847
13847 13950
13950 14053
14053 14154
14154 14256
14256 14358
14358 14461
14461 14563
14563 14666
14666 14769
14769 14872
14872 14975
14975 15079
15079 15182
15182 15285
15285 15387
15387 15489
15489 15591
15591 15693
15693 15795
15795 15896
15896 15997
15997 16099
16099 16201
16201 16303
16303 16405
16405 16507
16507 16609
16609 16711
16711 16813
16813 16915
16915 17017
17017 17156
17156 17260
17260 17364
17364 17469
17469 17573
17573 17677
17677 17780
17780 17884
17884 17986
17986 18089
18089 18191
18191 18293
18293 18394
18394 18496
18496 18598
18598 18699
18699 18800
18800 18902
18902 19002
19002 19104
19104 19204
19204 19306
19306 19406
19406 19507
19507 19607
19607 19707
19707 19808
19808 19908
19908 20009
20009 20110
20110 20211
20211 20311
20311 20411
20411 20512
20512 20612
20612 20713
20713 20813
20813 20914
20914 21014
21014 21148
21148 21249
21249 21351
21351 21453
21453 21556
21556 21658
21658 21762
21762 21866
21866 21969
21969 22073
22073 22176
22176 22280
22280 22384
22384 22487
22487 22590
22590 22694
22694 22797
22797 22900
22900 23002
23002 23104
23104 23206
23206 23308
23308 23410
23410 23512
23512 23614
23614 23715
23715 23817
23817 23918
23918 24020
24020 24144
24144 24247
24247 24350
24350 24453
24453 24556
24556 24660
24660 24763
24763 24866
24866 24970
24970 25076
25076 25180
25180 25284
25284 25386
25386 25490
25490 25592
25592 25694
25694 25797
25797 25900
25900 26002
26002 26139
26139 26242
26242 26345
26345 26448
26448 26551
26551 26653
26653 26756
26756 26859
26859 26962
26962 27065
27065 27169
27169 27273
27273 27375
27375 27478
27478 27580
27580 27683
27683 27785
27785 27886
27886 27988
27988 28091
28091 28193
28193 28297
28297 28399
28399 28504
28504 28608
28608 28713
28713 28817
28817 28923
28923 29028
29028 29068
29068 29172
29172 29275
29275 29378
29378 29481
29481 29583
29583 29686
29686 29789
29789 29891
29891 29995
29995 30098
30098 30201
30201 30303
30303 30406
30406 30508
30508 30610
30610 30711
30711 30813
30813 30915
30915 31017
31017 31067
31067 31171
31171 31276
31276 31381
31381 31486
31486 31590
31590 31694
31694 31798
31798 31902
31902 32006
32006 32056
32056 32158
32158 32262
32262 32364
32364 32466
32466 32569
32569 32671
32671 32772
32772 32873
32873 32974
32974 33075
33075 33176
33176 33278
33278 33379
33379 33480
33480 33582
33582 33684
33684 33786
33786 33888
33888 33991
33991 34094
34094 34197
34197 34300
34300 34403
34403 34506
34506 34610
34610 34714
34714 34817
34817 34921
34921 35045
35045 35147
35147 35249
35249 35353
35353 35455
35455 35558
35558 35661
35661 35764
35764 35868
35868 35970
35970 36074
36074 36177
36177 36280
36280 36383
36383 36486
36486 36588
36588 36692
36692 36795
36795 36898
36898 37001
37001 37103
37103 37206
37206 37308
37308 37410
37410 37512
37512 37614
37614 37716
37716 37818
37818 37921
37921 38023
38023 38157
38157 38259
38259 38361
38361 38464
38464 38566
38566 38668
38668 38771
38771 38873
38873 38975
38975 39077
39077 39179
39179 39281
39281 39383
39383 39484
39484 39586
39586 39687
39687 39789
39789 39890
39890 39992
39992 40038
40038 40140
40140 40242
40242 40344
40344 40446
40446 40547
40547 40649
40649 40751
40751 40853
40853 40955
40955 41057
41057 41159
41159 41259
41259 41361
41361 41461
41461 41562
41562 41662
41662 41763
41763 41864
41864 41965
41965 42065
42065 42166
42166 42266
42266 42367
42367 42467
42467 42568
42568 42669
42669 42770
42770 42870
42870 43073
43073 43174
43174 43274
43274 43376
43376 43477
43477 43578
43578 43679
43679 43779
43779 43880
43880 43980
43980 44079
44079 44180
44180 44279
44279 44380
44380 44481
44481 44581
44581 44682
44682 44783
44783 44885
44885 44986
44986 45089
45089 45191
45191 45294
45294 45396
45396 45499
45499 45601
45601 45704
45704 45807
45807 45910
45910 46037
46037 46141
46141 46243
46243 46347
46347 46449
46449 46552
46552 46655
46655 46759
46759 46861
46861 46965
46965 47067
47067 47169
47169 47271
47271 47373
47373 47475
47475 47577
47577 47678
47678 47780
47780 47881
47881 47983
47983 48085
48085 48187
48187 48289
48289 48391
48391 48493
48493 48595
48595 48698
48698 48801
48801 48903
48903 49005
49005 49071
49071 49176
49176 49280
49280 49384
49384 49488
49488 49592
49592 49697
49697 49802
49802 49906
49906 50011
50011 50051
50051 50155
50155 50259
50259 50363
50363 50467
50467 50572
50572 50676
50676 50781
50781 50885
