30 126
484 601
601 721
791 842
842 960
960 1061
1061 1114
1180 1229
1229 1352
1352 1468
1468 1591
1591 1708
1708 1775
1775 1826
1826 1945
1945 2050
2050 2182
2182 2235
2235 2354
2354 2421
2421 2472
2472 2593
2593 2712
2712 2779
2779 2832
2832 2897
2897 2947
2947 3048
3048 3101
3101 3167
