30 113
2788 2876
2876 3062
4459 4659
4659 4831
4831 4931
4931 5030
5030 5130
5130 5225
5225 5329
5329 5428
5428 5529
5529 5629
5629 5728
5728 5828
5828 5928
5928 6026
6026 6126
6126 6326
6326 6624
6624 6722
6722 6823
6823 6924
6924 7023
7023 7123
7123 7222
7222 7325
7325 7423
7423 7523
7523 7622
7622 7724
7724 7823
7823 7924
7924 8024
8024 8123
8123 8223
8223 8325
8325 8425
8425 8522
8522 8625
8625 8723
8723 8826
8826 8924
8924 9001
9001 9199
9199 9299
9299 9399
9399 9501
9501 9601
9601 9699
9699 9798
9798 9897
9897 9999
9999 10098
10098 10198
10198 10300
10300 10399
10399 10499
10499 10598
10598 10700
10700 10799
10799 10900
10900 10996
10996 11170
11170 11269
11269 11368
11368 11469
11469 11570
11570 11668
11668 11769
11769 11867
11867 11965
11965 12065
12065 12165
12165 12266
12266 12363
12363 12463
12463 12565
12565 12665
12665 12762
12762 12862
12862 12960
12960 13062
13062 13160
13160 13258
13258 13360
13360 13458
13458 13560
13560 13656
13656 13757
13757 13857
13857 13954
13954 14054
14054 14153
14153 14255
14255 14353
14353 14454
14454 14551
14551 14652
14652 14751
14751 14853
14853 14952
14952 15050
15050 15150
15150 15249
15249 15349
15349 15451
15451 15551
15551 15649
15649 15749
15749 15852
15852 15949
15949 16047
16047 16147
16147 16249
16249 16348
16348 16445
16445 16546
16546 16646
16646 16747
16747 16846
16846 16946
16946 17042
17042 17144
17144 17244
17244 17342
17342 17444
17444 17541
17541 17642
17642 17744
17744 17844
17844 17944
17944 18042
18042 18141
18141 18242
18242 18344
18344 18443
18443 18541
18541 18641
18641 18745
18745 18843
18843 19018
19018 19216
19216 19317
19317 19416
19416 19517
19517 19615
19615 19714
19714 19816
19816 19914
19914 20012
20012 20113
20113 20212
20212 20309
20309 20410
20410 20509
20509 20607
20607 20708
20708 20801
20801 20903
20903 21001
21001 21109
21109 21210
21210 21307
21307 21405
21405 21507
21507 21603
21603 21702
21702 21801
21801 21899
21899 21998
21998 22077
22077 22175
22175 22272
22272 22373
22373 22470
22470 22568
22568 22664
22664 22763
22763 22860
22860 22960
22960 23089
23089 23184
23184 23283
23283 23382
23382 23480
23480 23577
23577 23676
23676 23774
23774 23872
23872 23968
23968 24106
24106 24202
24202 24302
24302 24399
24399 24497
24497 24595
24595 24695
24695 24793
24793 24891
24891 24989
24989 25089
25089 25188
25188 25284
25284 25382
25382 25482
25482 25580
25580 25678
25678 25778
25778 25877
25877 25977
25977 26076
26076 26174
26174 26275
26275 26373
26373 26472
26472 26573
26573 26673
26673 26769
26769 26871
26871 26968
26968 27068
27068 27165
27165 27266
27266 27363
27363 27464
27464 27561
27561 27661
27661 27758
27758 27857
27857 27957
27957 28054
28054 28153
28153 28251
28251 28349
28349 28449
28449 28547
28547 28645
28645 28744
28744 28842
28842 28942
28942 29042
29042 29140
29140 29240
29240 29341
29341 29438
29438 29536
29536 29636
29636 29738
29738 29835
29835 29933
29933 30030
30030 30103
30103 30200
30200 30300
30300 30400
30400 30497
30497 30595
30595 30692
30692 30794
30794 30893
30893 30991
30991 31089
31089 31188
31188 31286
31286 31386
31386 31484
31484 31586
31586 31683
31683 31783
31783 31881
31881 31982
31982 32073
32073 32172
32172 32272
32272 32370
32370 32467
32467 32566
32566 32663
32663 32763
32763 32861
32861 32957
32957 33057
33057 33157
33157 33254
33254 33353
33353 33454
33454 33550
33550 33649
33649 33748
33748 33846
33846 33945
33945 34045
34045 34144
34144 34243
34243 34339
34339 34441
34441 34539
34539 34634
34634 34741
34741 34838
34838 34912
34912 35012
35012 35113
35113 35213
35213 35313
35313 35412
35412 35515
35515 35615
35615 35715
35715 35813
35813 35913
35913 36013
36013 36087
36087 36185
36185 36287
36287 36388
36388 36487
36487 36587
36587 36685
36685 36785
36785 36888
36888 36986
36986 37087
37087 37187
37187 37286
37286 37385
37385 37486
37486 37587
37587 37683
37683 37788
37788 37888
37888 37989
37989 38087
38087 38185
38185 38289
38289 38386
38386 38489
38489 38590
38590 38689
38689 38789
38789 38892
38892 38991
38991 39091
39091 39191
39191 39292
39292 39394
39394 39494
39494 39592
39592 39694
39694 39793
39793 39895
39895 39994
39994 40096
40096 40196
40196 40297
40297 40398
40398 40498
40498 40600
40600 40698
40698 40800
40800 40900
40900 40998
40998 41099
41099 41197
41197 41300
41300 41398
41398 41499
41499 41600
41600 41697
41697 41799
41799 41897
41897 41998
41998 42097
42097 42199
42199 42298
42298 42398
42398 42499
42499 42601
42601 42698
42698 42802
42802 42900
42900 43002
43002 43128
43128 43229
43229 43329
43329 43431
43431 43530
43530 43630
43630 43730
43730 43831
43831 43932
43932 44029
44029 44132
44132 44230
44230 44332
44332 44433
44433 44534
44534 44633
44633 44733
44733 44836
44836 44937
44937 45037
45037 45136
45136 45237
45237 45336
45336 45438
45438 45539
45539 45639
