365 660
660 860
860 1544
1544 1643
1643 1943
1943 2042
2042 2333
2333 3810
3810 3906
3906 4204
4204 4402
4402 4672
4672 4765
4765 5067
5067 5948
5948 6051
6051 6534
6534 7490
7490 7978
7978 8271
8271 8958
8958 9153
9153 9737
9737 10520
10520 11106
11106 11794
11794 13259
13259 14236
14236 14831
14831 14928
14928 15026
15026 15124
15124 15416
15416 15514
15514 15614
15614 16003
16003 16104
16104 16592
16592 17083
17083 17181
17181 17281
17281 17379
17379 17477
17477 17575
17575 17969
17969 18557
18557 18753
18753 19242
19242 20362
20362 20850
20850 21187
21187 21675
21675 22067
22067 22163
22163 22751
22751 23337
23337 23434
23434 23822
23822 23922
23922 24501
24501 24597
24597 24679
24679 24793
24793 25180
25180 25666
25666 32210
32210 32692
32692 34737
34737 34832
34832 34928
34928 37231
37231 37798
37798 38271
38271 39125
39125 39220
39220 40649
40649 41028
41028 42029
42029 42289
42289 42774
42774 43766
43766 45844
45844 45983
45983 48012
48012 48277
