199 326
326 454
454 583
583 711
711 840
840 968
968 1096
1096 1223
1223 1351
1351 1479
1479 1606
1606 1734
1734 1862
1862 1989
1989 2111
2238 2365
2365 2619
2619 2796
2796 2919
2919 3030
3030 3198
3198 3326
3326 3454
3454 3581
3581 3708
3708 3836
3836 3963
3963 4091
4091 4219
4219 4346
4346 4473
4473 4600
4600 4727
4727 4855
4855 4982
4982 5115
5115 5241
5241 5367
5367 5493
5493 5619
5619 5744
5744 6032
6032 6350
6350 6475
6475 6601
6601 6727
6727 6852
6852 6978
6978 7104
7104 7231
7231 7357
7357 7482
7482 7607
7607 7733
7733 7858
7858 7983
7983 8109
8109 8234
8234 8360
8360 8486
8486 8612
8612 8738
8738 8863
8863 8989
8989 9115
9115 9240
9240 9366
9366 9492
9492 9618
9618 9744
9744 9870
9870 9995
9995 10031
10031 10358
10358 10485
10485 10611
10611 10739
10739 10865
10865 10992
10992 11119
11119 11245
11245 11372
11372 11499
11499 11626
11626 11752
11752 11879
11879 12005
12005 12131
12131 12258
12258 12384
12384 12511
12511 12636
12636 12762
12762 12889
12889 13014
13014 13141
13141 13266
13266 13392
13392 13517
13517 13644
13644 13770
13770 13897
13897 14024
14024 14150
14150 14277
14277 14403
14403 14530
14530 14656
14656 14783
14783 14909
14909 15060
15060 15200
15200 15326
15326 15453
15453 15581
15581 15708
