136 535
535 1028
535 1028
1028 1279
1279 1405
1405 1937
1937 4234
4234 4355
4355 4480
4480 4605
4605 4730
4730 4855
4855 4980
4980 5080
5080 5204
5204 5327
5327 5449
5449 5573
5573 5694
5694 5817
5817 10898
10898 11021
11021 11233
11233 11354
11354 12312
12312 12435
12435 12556
12556 12683
12683 16034
16034 16155
16155 16279
16279 16403
16403 16525
16525 16650
16650 16774
16774 16896
16896 17019
17019 17143
17143 17263
17263 20753
20753 20874
20874 20999
20999 21122
21122 21249
21249 21369
21369 21495
21495 21617
21617 21738
21738 21863
21863 21984
21984 22104
22104 22228
22228 22350
22350 24452
24452 24577
24577 24696
24696 24817
24817 24942
24942 25031
25031 26264
26264 26392
26392 26496
26496 26621
26621 27941
27941 28504
28504 30062
30062 30969
30969 31090
31090 31206
31206 31323
31323 31441
31441 31558
31558 31677
31677 31793
31793 32723
32723 32840
32840 32959
32959 33073
33073 33193
33193 33309
33309 33426
33426 33542
33542 33660
33660 34360
34360 34477
34477 34593
34593 34710
34710 34828
34828 34946
34946 35063
35063 35179
35179 35298
35298 35414
35414 35531
35531 35652
35652 35766
35766 35881
35881 35998
35998 36229
36229 36348
36348 36464
36464 36580
36580 36699
36699 37116
37116 37557
37557 37674
37674 37791
37791 37909
37909 38026
38026 38144
38144 38263
38263 38380
38380 38497
38497 38615
38615 38732
38732 38848
38848 39316
39316 39432
39432 39548
39548 39665
39665 39784
39784 39903
39903 40020
40020 40138
40138 40254
40254 40372
40372 40490
40490 40608
40608 40723
40723 40840
40840 41774
41774 41890
41890 42008
42008 42143
42143 42271
42271 42397
42397 42522
42522 42650
42650 42777
42777 42902
42902 43030
43030 43156
43156 43282
43282 43409
43409 43537
43537 43664
43664 43789
43789 44167
44167 44972
44972 45080
45080 45180
45180 45307
45307 45782
45782 45905
45905 46030
46030 47966
47966 48086
48086 48211
48211 48332
48332 48461
48461 48585
48585 48685
48685 52635
52635 52760
52760 52868
52868 53002
53002 53267
53267 54901
