182 309
309 437
437 565
565 693
693 820
820 948
948 1076
1076 1204
1204 1332
1332 1462
1462 1590
1590 1719
1719 1847
1847 1975
1975 2103
2103 2231
2231 2360
2360 2488
2488 2617
2617 2745
2745 2873
2873 3001
3001 3129
3129 3257
3257 3385
3385 3514
3514 3642
3642 3771
3771 3899
3899 4058
3899 4058
5212 6029
6029 6563
6563 6690
6690 6817
6817 6944
6944 7072
7072 7198
7198 7325
7325 7454
7454 7581
7581 7709
7709 7837
7837 7963
7963 8090
8090 8217
8217 8344
8344 8470
8470 8597
8597 8723
8723 8850
8850 8976
8976 9103
9103 9230
9230 9356
9356 9482
9482 9609
9609 9735
9735 9861
9861 9986
9986 10112
10112 10362
10362 11029
11029 11143
11143 11266
11266 11389
11389 11510
11510 11633
11633 11753
11753 11874
11874 11998
11998 12106
12106 12221
12221 12338
12338 12448
12448 12562
12562 12650
12650 12764
12764 12877
12877 12991
12991 13105
13105 13218
13218 13334
13334 13445
13445 13562
13562 13672
13672 13786
13786 13901
13901 14011
14011 14130
14130 14242
14242 14356
14356 14471
14471 14586
14586 14698
14698 14811
14811 14925
14925 15037
15037 15151
15151 15265
15265 15378
15378 15493
15493 15605
15605 15720
15720 15833
15833 15950
15950 16062
16062 16175
16175 16289
16289 16403
16403 16516
16516 16630
16630 16743
16743 16859
16859 16973
16973 17086
17086 17199
17199 17315
17315 17426
17426 17540
17540 17656
17656 17771
17771 17881
17881 17996
17996 18110
18110 18227
18227 18339
18339 18454
18454 18566
18566 18680
18680 18791
18791 18907
18907 19021
19021 19135
19135 19249
19249 19364
19364 19476
19476 19592
19592 19705
19705 19820
19820 19934
19934 20047
20047 20163
20163 20278
20278 20390
20390 20505
20505 20619
20619 20736
20736 20848
20848 21102
21102 21216
21216 21331
21331 21445
21445 21558
21558 21675
21675 21789
21789 21905
21905 22017
22017 22133
22133 22246
22246 22361
22361 22477
22477 22589
22589 22704
22704 22819
22819 22933
22933 23048
23048 23162
23162 23278
23278 23393
23393 23507
23507 23622
23622 23736
23736 23851
23851 24224
24224 24338
24338 24455
24455 24569
24569 24685
24685 24800
24800 24915
24915 25027
25027 25144
25144 25256
25256 25373
25373 25487
25487 25602
25602 25716
25716 25826
25826 25943
25943 26060
26060 26174
26174 26287
26287 26405
26405 26520
26520 26634
26634 26749
26749 26865
26865 26980
26980 27093
27093 27208
27208 27321
27321 27436
27436 27552
27552 27669
27669 27783
27783 27898
27898 28012
28012 28128
28128 28243
28243 28356
28356 28470
28470 28585
28585 28699
28699 28816
28816 28930
28930 29046
29046 29161
29161 29275
29275 29394
29394 29510
29510 29625
29625 29740
29740 30232
30232 30347
30347 30463
30463 30576
30576 30692
30692 30809
30809 30922
30922 31038
31038 31157
31157 31271
31271 31384
31384 31502
31502 31617
31617 31729
31729 31845
31845 32221
32221 32335
32335 32448
32448 32563
32563 32678
32678 32795
32795 32910
32910 33024
33024 33139
33139 33253
33253 33370
33370 33485
33485 33599
33599 33718
33718 34044
34044 34210
34210 34325
34325 34441
34441 34556
34556 34672
34672 34789
34789 34906
34906 35020
35020 35137
35137 35251
35251 35368
35368 35486
35486 35828
35828 35944
35944 36060
36060 36177
36177 36292
36292 36408
36408 36525
36525 36640
36640 36757
36757 36870
36870 36986
36986 37103
37103 37217
37217 37334
37334 37449
37449 37565
37565 37682
37682 37798
37798 37913
37913 38030
38030 38148
38148 38261
38261 38377
38377 38494
38494 38610
38610 38952
38952 39068
39068 39160
39160 39274
39274 39393
39393 39508
39508 39624
39624 39739
39739 40240
40240 40355
40355 40471
40471 40590
40590 40705
40705 41030
41030 41207
41207 41323
41323 41440
41440 41554
41554 41669
41669 41785
41785 41900
41900 42017
42017 42336
42336 42451
42451 42566
42566 42685
42685 42801
42801 42915
42915 43034
43034 43150
43150 43264
43264 43381
43381 43497
43497 44346
44346 44463
44463 44580
44580 44692
44692 44809
