774 864
864 956
956 1045
1045 1137
1137 1229
1229 1322
1322 1414
1414 1507
1507 1599
1599 1692
1692 1785
1785 1877
1877 1969
1969 2061
2061 2155
2155 2248
2248 2340
2340 2433
2433 2526
2526 2619
2619 2712
2712 2805
2805 2898
2898 2991
2991 3086
3086 3179
3179 3272
3272 3365
3365 3459
3459 3552
3552 3646
3646 3739
3739 3831
3831 3925
3925 4020
4020 4113
4113 4206
4206 4299
4299 4391
4391 4484
4484 4578
4578 4671
4671 4763
4763 4855
4855 4947
4947 5042
5042 5135
5135 5226
5226 5318
5318 5409
5409 5501
5501 5593
5593 5684
5684 5774
5774 5867
5867 5958
5958 6049
6049 6139
6139 6228
6228 6321
6321 6412
6412 6501
6501 6591
6591 6684
6684 6774
6774 6864
6864 6954
6954 7046
7046 7136
7136 7226
7226 7316
7316 7406
7406 7496
7496 7587
7587 7676
7676 7766
7766 7857
7857 7947
7947 8037
8037 8128
8128 8218
8218 8310
8310 8401
8401 8492
8492 8583
8583 8674
8674 8766
8766 8858
8858 8950
8950 9041
9041 9135
9135 9227
9227 9319
9319 9412
9412 9505
9505 9598
9598 9691
9691 9784
9784 9876
9876 9968
9968 10062
10062 10154
10154 10246
10246 10339
10339 10431
10431 10524
10524 10618
10618 10711
10711 10804
10804 10897
10897 10990
10990 11083
11083 11177
11177 11270
11270 11363
11363 11456
11456 11549
11549 11643
11643 11736
11736 11831
11831 11925
11925 12019
12019 12112
12112 12206
12206 12300
12300 12393
12393 12487
12487 12581
12581 12675
12675 12769
12769 12862
12862 12956
12956 13051
13051 13145
13145 13239
13239 13333
13333 13428
13428 13522
13522 13615
13615 13711
13711 13805
13805 13899
13899 13994
13994 14088
14088 14183
14183 14277
14277 14371
14371 14466
14466 14561
14561 14655
14655 14750
14750 14844
14844 14938
14938 15033
15033 15127
15127 15222
15222 15316
15316 15410
15410 15505
15505 15600
15600 15695
15695 15789
15789 15884
15884 15978
15978 16073
16073 16167
16167 16261
16261 16355
16355 16450
16450 16520
16520 16614
16614 16708
16708 16803
16803 16897
16897 16992
16992 17086
17086 17181
17181 17275
17275 17370
17370 17465
17465 17559
17559 17655
17655 17750
17750 17844
17844 17938
17938 18033
18033 18127
18127 18222
18222 18317
18317 18411
18411 18506
18506 18601
18601 18696
18696 18791
18791 18887
18887 18982
18982 19077
19077 19172
19172 19267
19267 19362
19362 19457
19457 19551
19551 19646
19646 19742
19742 19837
19837 19932
19932 20027
20027 20122
20122 20217
20217 20312
20312 20407
20407 20502
20502 20596
20596 20693
20693 20788
20788 20883
20883 20978
20978 21074
21074 21169
21169 21264
21264 21360
21360 21455
21455 21551
21551 21646
21646 21741
21741 21838
21838 21933
21933 22029
22029 22124
22124 22220
22220 22316
22316 22411
22411 22507
22507 22602
22602 22698
22698 22793
22793 22890
22890 22986
22986 23082
23082 23179
23179 23275
23275 23372
23372 23468
23468 23565
23565 23662
23662 23758
23758 23854
23854 23950
23950 24048
24048 24144
24144 24240
24240 24337
24337 24433
24433 24529
24529 24626
24626 24722
24722 24818
24818 24913
24913 25009
25009 25106
25106 25202
25202 25298
25298 25394
25394 25490
25490 25586
25586 25683
25683 25780
25780 25875
25875 25971
25971 26069
26069 26165
26165 26262
26262 26359
26359 26455
26455 26552
26552 26649
26649 26745
26745 26841
26841 26939
26939 27123
27123 27219
27219 27315
27315 27410
27410 27505
27505 27600
27600 27695
27695 27790
27790 27885
27885 27981
27981 28075
28075 28170
28170 28267
28267 28361
28361 28456
28456 28552
28552 28647
28647 28742
28742 28837
28837 28933
28933 29028
29028 29124
29124 29219
29219 29315
29315 29410
29410 29506
29506 29602
29602 29699
29699 29795
29795 29892
29892 29989
29989 30085
30085 30181
30181 30279
30279 30376
30376 30473
30473 30570
30570 30667
30667 30763
30763 30860
30860 30958
30958 31054
31054 31151
31151 31247
31247 31343
31343 31441
31441 31537
31537 31634
31634 31730
31730 31827
31827 31923
31923 32019
32019 32116
32116 32212
32212 32308
32308 32404
32404 32500
32500 32597
32597 32693
32693 32790
32790 32886
32886 32983
32983 33080
33080 33177
33177 33274
33274 33370
33370 33466
33466 33563
33563 33659
33659 33755
33755 33852
33852 33948
33948 34118
34118 34213
34213 34308
34308 34403
34403 34498
34498 34593
34593 34688
34688 34784
34784 34879
34879 34975
34975 35111
35111 35208
35208 35304
35304 35400
35400 35498
35498 35595
35595 35691
35691 35788
35788 35885
35885 35981
35981 36078
36078 36175
36175 36271
36271 36367
36367 36463
36463 36561
36561 36658
36658 36755
36755 36852
36852 36949
36949 37046
37046 37143
37143 37240
37240 37338
37338 37435
37435 37532
37532 37629
37629 37725
37725 37824
37824 37921
37921 38018
38018 38116
38116 38213
38213 38310
