30 70
3081 3181
9381 9484
9381 9484
9484 9586
22577 22672
22672 22772
22772 22871
22871 22943
22943 23064
23064 23163
23163 23266
23266 23366
23366 23462
23462 23565
23565 23666
23666 23762
23762 23864
23864 23964
23964 24063
24063 24166
24166 24264
24264 24364
24364 24464
24464 24562
24562 24660
24660 24762
24762 24861
24861 24959
24959 25060
25060 25159
25159 25256
25256 25356
25356 25457
25457 25555
25555 25653
25653 25757
25757 25857
25857 25953
25953 26056
26056 26155
26155 26256
26256 26357
26357 26457
26457 26558
26558 26660
26660 26758
26758 26860
26860 26961
26961 27097
27097 27198
27198 27300
27300 27397
27397 27499
27499 27601
27601 27699
27699 27800
27800 27901
27901 28001
28001 28066
28066 28169
28169 28270
28270 28369
28369 28471
28471 28574
28574 28672
28672 28775
28775 28877
28877 28978
28978 29081
29081 29182
29182 29283
29283 29386
29386 29487
29487 29586
29586 29691
29691 29791
29791 29892
29892 29995
29995 30096
30096 30196
30196 30300
30300 30400
30400 30502
30502 30604
30604 30704
30704 30806
30806 30908
30908 31008
31008 31109
31109 31213
31213 31313
31313 31414
31414 31518
31518 31620
31620 31718
31718 31823
31823 31924
31924 32023
32023 32126
32126 32228
32228 32327
32327 32431
32431 32532
32532 32632
32632 32735
32735 32838
32838 32939
32939 33039
33039 33144
33144 33245
33245 33345
33345 33450
33450 33551
33551 33654
33654 33757
33757 33857
33857 33960
33960 34061
34061 34164
34164 34262
34262 34367
34367 34443
34443 34541
34541 34646
34646 34747
34747 34845
34845 34949
34949 35051
35051 35152
35152 35252
35252 35357
35357 35458
35458 35560
35560 35664
35664 35766
35766 35865
35865 35970
35970 36071
36071 36173
36173 36274
36274 36378
36378 36476
36476 36580
36580 36683
36683 36782
36782 36887
36887 36989
36989 37115
37115 37214
37214 37317
37317 37421
37421 37519
37519 37623
37623 37726
37726 37825
37825 37929
37929 38032
38032 38131
38131 38235
38235 38338
38338 38437
38437 38543
38543 38645
38645 38744
38744 38848
38848 38951
38951 39057
39057 39156
39156 39262
39262 39365
39365 39467
39467 39570
39570 39676
39676 39779
39779 39879
39879 39986
39986 40089
40089 40192
40192 40294
40294 40399
40399 40504
40504 40605
40605 40712
40712 40816
40816 40918
40918 41023
41023 41062
41062 41164
41164 41268
41268 41373
41373 41473
41473 41580
41580 41683
41683 41786
41786 41892
41892 41992
41992 42098
42098 42202
42202 42302
42302 42407
