6976 7113
7113 7210
7210 7308
7308 7405
7405 7503
7503 7600
7600 7697
7697 7793
7793 7890
7890 7988
7988 8058
8058 8155
8155 8252
8252 8350
8350 8447
8447 8545
8545 8641
8641 8738
8738 8835
8835 8933
8933 9031
9031 9129
9129 9227
9227 9325
9325 9422
9422 9520
9520 9618
9618 9704
9704 9812
9812 9909
9909 10007
10007 10104
10104 10203
10203 10301
10301 10398
10398 10495
10495 10593
10593 10691
10691 10788
10788 10887
10887 10985
10985 11082
11082 11180
11180 11278
11278 11376
11376 11473
11473 11573
11573 11670
11670 11768
11768 11867
11867 11964
11964 12062
12062 12160
12160 12258
12258 12356
12356 12453
12453 12551
12551 12649
12649 12747
12747 12845
12845 12943
12943 13081
13081 13179
13179 13276
13276 13374
13374 13473
13473 13570
13570 13668
13668 13767
13767 13864
13864 13962
13962 14061
14061 14158
14158 14257
14257 14354
14354 14451
14451 14549
14549 14646
14646 14744
14744 14842
14842 14940
14940 15038
15038 15135
15135 15233
15233 15330
15330 15427
15427 15524
15524 15622
15622 15719
15719 15817
15817 15891
15891 16005
16005 16074
16074 16172
16172 16269
16269 16367
16367 16465
16465 16562
16562 16660
16660 16757
16757 16854
16854 16952
16952 17021
17021 17116
17116 17215
17215 17313
17313 17410
17410 17507
17507 17606
17606 17704
17704 17845
17845 17942
17942 18041
18041 18139
27043 27141
28906 29004
29004 29060
32940 33076
34921 35081
35081 35179
35179 35276
35276 35375
35375 35473
35473 35571
35571 35670
35670 35767
35767 35865
35865 35963
35963 36052
36052 36159
36159 36257
36257 36356
36356 36454
36454 36553
36553 36651
36651 36750
36750 36848
36848 36916
36916 37030
37030 37067
38904 39001
39001 39126
39126 39224
39224 39322
39322 39419
39419 39519
39519 39617
39617 39715
39715 39815
39815 39913
39913 40010
40010 40059
40059 40127
40127 40233
40233 40331
40331 40429
40429 40527
40527 40626
40626 40725
40725 40823
40823 40922
40922 41036
41036 41135
41135 41234
41234 41332
41332 41431
41431 41528
41528 41626
41626 41725
41725 41823
41823 41921
41921 42020
42020 42087
42087 42185
42185 42260
42260 42378
42378 42476
42476 42575
42575 42674
42674 42771
42771 42871
42871 42969
42969 43104
43104 43175
43175 43294
43294 43394
43394 43494
43494 43593
43593 43692
43692 43790
43790 43889
43889 43988
43988 44058
44058 44174
44174 44248
44248 44347
44347 44446
44446 44546
44546 44619
44619 44718
44718 44816
44816 44914
44914 45012
45012 45110
45110 45208
45208 45307
45307 45404
45404 45502
45502 45600
45600 45698
45698 45796
45796 45894
