567 663
663 758
3568 3667
3960 4085
8209 8303
8303 8377
9805 9901
9901 9996
16415 16512
19100 19196
20524 20620
21674 21770
27703 27798
27798 27893
30045 30140
30140 30234
36974 37089
37089 37186
37186 37282
38427 38522
38522 38616
38897 39004
39004 39101
40346 40540
40540 40636
40636 40732
40732 40828
40828 40923
40923 41019
41019 41114
41114 41209
41209 41304
41304 41399
41399 41494
41494 41589
41589 41684
41684 41780
41780 41876
41876 41971
41971 42069
42069 42166
42166 42264
42264 42361
42361 42458
42458 42554
42554 42651
42651 42747
42747 42843
42843 42938
42938 43033
43033 43128
43128 43224
43224 43319
43319 43414
43414 43511
43511 43607
43607 43704
43704 43800
43800 43896
43896 43992
43992 44088
44088 44184
44184 44279
44279 44374
44374 44468
44468 44563
44563 44658
44658 44753
44753 44849
44849 44945
44945 45041
45041 45136
45136 45232
45232 45327
45327 45423
45423 45518
45518 45613
45613 45708
45708 45802
45802 45897
45897 45992
45992 46087
46087 46183
46183 46279
46279 46376
46376 46472
46472 46569
46569 46665
46665 46761
46761 46857
46857 46953
46953 47081
47081 47179
47179 47276
47276 47372
47372 47469
47469 47565
47565 47661
47661 47756
47756 47852
47852 47947
47947 48059
48059 48154
48154 48249
48249 48345
48345 48443
48443 48540
48540 48637
48637 48734
48734 48831
48831 48928
48928 49024
49024 49121
49121 49217
49217 49313
49313 49409
49409 49505
49505 49601
49601 49697
49697 49793
49793 49891
49891 49987
49987 50084
50084 50181
50181 50277
50277 50373
50373 50469
50469 50564
50564 50660
50660 50755
50755 50849
50849 50945
50945 51040
51040 51135
51135 51231
51231 51327
51327 51423
51423 51522
51522 51622
51622 51724
51724 51825
51825 51925
51925 52025
52025 52124
52124 52223
52223 52321
52321 52419
52419 52516
52516 52613
52613 52709
52709 52805
52805 52902
52902 52997
52997 53034
55035 55131
55131 55228
55997 56120
56120 56218
