35 144
144 254
254 365
365 476
476 586
586 699
699 811
811 925
925 1123
1123 1232
1232 1343
1343 1455
1455 1568
1568 1681
1681 1797
1797 1913
1913 2027
2027 2101
2212 2321
2321 2431
2431 2540
2540 2650
2650 2761
2761 2873
2873 2985
2985 3100
3100 3214
3214 3329
3329 3442
3442 3554
3554 3667
3667 3779
3779 3891
3891 4002
4104 4216
4216 4327
4327 4438
4438 4550
4550 4662
4662 4773
4773 4885
4885 4997
4997 5108
5108 5219
5219 5331
5331 5442
5442 5552
5774 5884
5994 6105
6105 6214
6214 6325
6325 6435
6435 6546
6546 6657
6769 6881
6881 6992
6992 7079
7079 7189
7189 7298
7298 7408
7408 7519
7519 7629
7629 7741
7741 7831
7831 7942
7942 8114
8114 8226
8226 8338
8338 8449
8449 8561
8561 8673
8673 8785
8785 8897
8897 9009
9009 9055
9055 9166
9166 9276
9276 9388
9388 9498
9498 9608
9608 9718
9718 9807
9807 9917
9917 10028
10028 10138
10138 10248
10248 10358
10358 10469
10469 10579
10579 10690
10690 10800
10800 10914
10914 11026
11026 11139
11139 11251
11251 11363
11363 11475
11475 11586
11586 11698
11698 11809
11809 11920
11920 12030
12030 12073
12073 12184
12184 12295
12295 12406
12406 12516
12516 12626
12626 12736
12736 12845
12845 12955
12955 13067
13067 13177
13177 13287
13287 13396
13396 13505
13505 13615
13615 13724
13724 13835
13835 13947
13947 14059
14059 14172
14172 14286
14286 14400
14400 14514
14514 14604
14604 14718
14718 14832
14832 14945
14945 15058
15058 15171
15171 15282
15282 15393
15393 15596
15596 15707
15707 15819
15819 15929
15929 16109
16109 16221
16221 16334
16334 16446
16446 16559
16559 16671
16671 16783
16783 16895
16895 17008
17008 17120
17120 17233
17233 17346
17346 17459
17459 17573
17573 17686
17686 17799
17799 17913
17913 18026
18026 18080
18080 18195
18195 18309
18309 18422
18422 18535
18535 18647
18647 18760
18760 18871
18871 18983
18983 19111
19111 19223
19223 19334
19334 19445
19445 19556
19556 19666
19666 19776
19776 19887
