1208 1309
1309 1409
6935 7100
7100 7202
7202 7303
7303 7404
7404 7480
7480 7581
7581 7683
7683 7759
7759 7834
7834 7958
7958 8059
8059 8160
8160 8261
8261 8343
8343 8460
8460 8561
8561 8662
8662 8763
8763 8864
8864 8966
8966 9020
9020 9129
9129 9228
9228 9327
9327 9426
9426 9527
9527 9627
9627 9726
9726 9826
9826 9925
9925 10025
10025 10124
10124 10224
10224 10325
10325 10425
10425 10525
10525 10626
10626 10725
10725 10825
10825 10925
10925 11023
11023 11123
11123 11222
11222 11321
11321 11421
11421 11519
11519 11619
11619 11719
11719 11818
11818 11919
11919 12019
12019 12119
12119 12219
12219 12319
12319 12420
12420 12492
12492 12607
12607 12693
12693 12794
12794 12895
12895 12995
12995 13096
13096 13197
13197 13297
13297 13373
13373 13474
13474 13574
13574 13674
13674 13774
13774 13874
13874 13975
13975 14075
14075 14176
14176 14277
14277 14378
14378 14479
14479 14580
14580 14682
14682 14783
14783 14884
14884 14985
14985 15085
15085 15186
15186 15286
15286 15388
15388 15490
15490 15591
15591 15692
15692 15793
15793 15895
15895 15996
15996 16098
16098 16201
16201 16302
16302 16379
16379 16480
16480 16582
16582 16684
16684 16785
16785 16887
16887 16965
16965 17067
17067 17170
17170 17272
17272 17373
17373 17456
17456 17573
17573 17666
17666 17778
17778 17853
