1242 1355
1355 1449
2118 2218
2936 3073
3485 3594
3594 3676
3910 4015
4015 4159
4972 5186
5186 5294
5294 5370
5370 5496
5496 5603
5603 5708
5708 5781
5781 5906
5906 6012
6012 6056
6056 6136
6136 6258
6258 6364
6364 6470
6470 6553
6553 6672
6672 6778
6778 6883
6883 6989
6989 7067
7067 7166
7166 7290
7290 7397
7397 7503
7503 7581
7581 7704
7704 7811
7811 7916
7916 8020
8020 8062
8062 8182
8182 8286
8286 8389
8389 8473
8473 8591
8591 8697
8697 8803
8803 8902
8902 8976
8976 9071
9071 9186
9186 9289
9289 9390
9390 9489
9489 9579
9579 9691
9691 9790
9790 9890
9890 9993
9993 10117
10117 10222
10222 10311
10311 10431
10431 10540
10540 10645
10645 10719
10719 10845
10845 10951
10951 11102
11102 11208
11208 11314
11314 11420
11420 11525
11525 11601
11601 11724
11724 11829
11829 11933
11933 12072
12072 12175
12175 12276
12276 12349
12349 12466
12466 12568
12568 12667
12667 12767
12767 12843
12843 12943
12943 13061
13061 13166
13166 13272
13272 13376
13376 13482
13482 13556
13556 13681
13681 13789
13789 13893
13893 13964
13964 14088
14088 14194
14194 14300
14300 14374
14374 14502
14502 14611
14611 14717
14717 14822
14822 14927
14927 15000
15000 15061
15061 15134
15134 15259
15259 15363
15363 15466
15466 15570
15570 15643
15643 15770
15770 15877
15877 15984
15984 16089
16089 16174
16174 16292
16292 16396
16396 16501
16501 16605
16605 16707
16707 16779
16779 16898
16898 17001
17001 17104
17104 17171
17171 17291
17291 17397
17397 17499
17499 17601
17601 17676
17676 17771
17771 17890
17890 17992
17992 18092
18092 18192
18192 18290
18290 18369
18369 18465
18465 18582
18582 18685
18685 18787
18787 18889
18889 18994
18994 19097
19097 19200
19200 19271
19271 19392
19392 19498
19498 19602
19602 19704
19704 19807
19807 19911
19911 20080
20080 20185
20185 20289
20289 20392
20392 20496
20496 20563
20563 20685
20685 20789
20789 20890
20890 20992
20992 21065
21065 21164
21164 21259
21259 21347
21347 21418
21418 21518
21518 21605
21605 21691
21691 21763
21763 21862
21862 21950
21950 22065
22065 22164
22164 22256
22256 22347
22347 22429
22429 22525
22525 22616
22616 22707
22707 22796
22796 22885
