2958 3030
3030 3074
4321 4439
4439 4509
9822 9921
9921 10019
10064 10165
18952 19118
19118 19219
25935 26095
29973 30040
33923 34021
34021 34063
38481 38591
38591 38699
46302 46371
47845 47923
47923 48062
