944 1079
1079 1177
1177 1275
1275 1373
1373 1471
1471 1570
1570 1668
1668 1767
1767 1865
1865 1956
1956 2026
2026 2150
2150 2244
2244 2338
2338 2432
2432 2526
2526 2620
2620 2712
2712 2807
2807 2896
2896 2988
2988 3112
3112 3209
3209 3308
3308 3406
3406 3503
3503 3601
3601 3698
3698 3795
3795 3891
3891 3987
3987 4075
4075 4171
4171 4267
4267 4362
4362 4457
4457 4551
4551 4647
4647 4741
4741 4831
4831 4926
4926 5013
5013 5053
5053 5148
5148 5245
5245 5342
5342 5437
5437 5536
5536 5631
5631 5729
5729 5824
5824 5922
5922 6020
6020 6122
6122 6218
6218 6314
6314 6412
6412 6508
6508 6606
6606 6701
6701 6799
6799 6897
