327 446
446 564
564 658
1468 1588
1588 1683
4424 4545
4545 4666
5240 5359
5359 5478
13239 13354
13354 13469
14134 14249
16657 16775
16775 16893
19403 19519
21296 21413
21413 21532
21532 21651
21651 21769
21769 21887
21887 22004
22004 22079
22079 22197
22197 22290
22290 22407
22407 22524
22524 22640
22640 22756
22756 22871
22871 22986
22986 23100
23100 23213
23213 23327
23327 23439
23439 23551
23551 23663
23663 23775
23775 23886
23886 23997
23997 24108
24108 24218
24218 24329
24329 24440
24440 24551
24551 24662
24662 24773
24773 24883
24883 24993
24993 25104
25104 25214
25214 25324
25324 25410
25410 25520
25520 25630
25630 25740
25740 25850
25850 25960
25960 26069
26069 26179
26179 26288
26288 26398
26398 26507
26507 26590
26590 26699
26699 26807
26807 26915
27022 27066
27066 27177
27177 27289
27289 27400
27400 27512
27512 27622
27622 27733
27733 27843
27843 27954
27954 28034
28034 28147
28147 28259
28259 28371
28371 28459
28459 28572
28572 28685
28685 28797
28797 28909
28909 29021
29021 29132
29132 29243
29243 29354
29354 29465
29465 29575
29575 29684
29684 29795
29795 29905
29905 30015
30015 30125
30125 30235
30235 30346
30346 30456
30456 30567
30567 30677
30677 30788
30788 30899
30899 31010
31010 31120
31120 31231
31231 31341
31341 31450
31450 31560
31560 31669
31669 31778
31778 31887
31887 31995
31995 32099
32099 32207
32207 32315
32315 32422
32422 32529
32529 32637
32637 32745
32745 32818
32818 32953
32953 33063
33063 33172
33172 33280
33280 33388
33388 33497
33497 33606
33606 33689
33689 33774
33774 33883
33883 33992
33992 34101
34101 34210
34210 34320
34320 34428
34428 34537
34537 34646
34646 34753
34753 34861
34861 34969
34969 35104
35104 35212
35212 35321
35321 35429
35429 35538
35538 35646
35646 35754
35754 35862
35862 35970
35970 36078
36078 36187
36187 36296
36296 36406
36406 36515
36515 36625
36625 36734
36734 36818
36818 36928
36928 37037
37037 37147
37147 37256
37256 37366
37366 37476
37476 37586
37586 37695
37695 37805
37805 37915
37915 38024
38024 38133
38133 38244
38244 38353
38353 38463
38463 38572
38572 38682
38682 38792
38792 38902
38902 39012
39012 39122
39122 39232
39232 39343
39343 39453
39453 39564
39564 39675
39675 39786
39786 39897
39897 40008
40008 40119
40119 40230
40230 40341
40341 40452
40452 40564
40564 40674
40674 40785
40785 40896
40896 41007
41007 41118
41118 41229
41229 41340
41340 41450
41450 41560
41560 41671
41671 41782
41782 41893
41893 41991
41991 42115
42115 42227
42227 42338
42338 42423
42423 42534
42534 42645
42645 42730
42730 42840
42840 42950
42950 43060
43060 43171
43171 43281
43281 43392
43392 43503
43503 43614
43614 43724
43724 43835
43835 43945
44102 44211
45918 46026
46026 46094
50312 50421
50421 50506
