72 532
532 877
532 877
877 994
994 1066
1066 1182
1182 1411
1411 1526
1526 1873
1873 1987
1987 2043
2043 2272
2272 2388
2388 2734
2734 2849
2849 3159
3159 3273
3273 3618
3618 3735
3735 3964
3964 4080
4080 4194
4194 4426
4426 4540
4540 4885
4885 5002
5002 5056
5056 5287
5287 5401
5401 5747
5747 5863
5863 6209
6209 6323
6323 6439
6439 6555
