85 208
208 21460
21460 22795
22795 22860
22860 23482
23482 23634
23634 24325
24325 24419
24419 24694
24694 25930
25930 26291
26291 27238
27238 27376
27376 27420
27420 28128
28128 29195
29195 29366
29366 29532
29532 29824
