128 213
213 310
1309 1391
1391 1475
1475 1559
1559 1640
1640 1725
1725 1807
1807 1892
1892 1974
1974 2058
2058 2140
2140 2225
2225 2307
2307 2392
2392 2473
2473 2557
2557 2641
2641 2724
2724 2806
2806 2890
2890 2972
2972 3055
3055 3139
3139 3222
3222 3304
3304 3388
3388 3470
3470 3554
3554 3636
3636 3720
3720 3802
3802 3887
3887 3970
3970 4051
4051 4135
4135 4217
4217 4302
4302 4383
4383 4466
4466 4550
