269 351
351 435
435 520
520 601
601 686
686 769
769 853
853 937
937 1020
1020 1103
1103 1188
1188 1270
1270 1354
1354 1438
1438 1520
1520 1605
1605 1687
1687 1772
1772 1855
1855 1937
1937 2021
2021 2106
2106 2188
2188 2271
2271 2356
2356 2438
2438 2523
2523 2607
2607 2689
