369 488
570 1072
1072 1153
1153 1236
1236 1322
1322 1403
1403 1488
1488 1654
1654 1737
1737 1819
1819 1875
1875 1978
1978 2032
2032 2117
2117 2198
2198 2284
2284 2365
2365 2449
2449 2533
2533 2616
2616 2700
2700 2784
2784 2866
