110 194
2389 2489
2489 2574
2574 2654
2654 2736
2736 2820
2820 2901
2901 2985
2985 3101
3101 3186
3186 3269
3269 3351
3351 3436
3436 3518
3518 3601
3601 3686
3686 3769
3769 3851
3851 3935
3935 4017
4017 4100
4100 4186
4186 4267
4267 4350
4350 4435
4435 4517
4517 4602
4602 4683
4683 4768
4768 4850
4850 4933
4933 5017
5017 5099
5099 5183
5183 5264
5264 5349
5349 5431
5431 5516
5516 5597
5597 5681
5681 5766
5766 5847
5847 5933
5933 6038
6038 6120
6120 6205
6205 6288
6288 6371
6371 6456
6456 6538
6538 6621
6621 6705
6705 6790
6790 6874
6874 6956
6956 7041
7041 7123
7123 7207
7207 7293
7293 7375
7375 7461
7461 7543
7543 7628
7628 7710
7710 7795
7795 7877
7877 7961
7961 8046
8046 8128
8128 8213
8213 8296
8296 8378
8378 8463
8463 8547
8547 8628
8628 8713
8713 8795
8795 8878
8878 8963
8963 9095
9095 9178
9178 9263
9263 9345
9345 9428
9428 9513
9513 9595
9595 9678
9678 9763
9763 9847
9847 9929
9929 10014
10014 10095
10095 10180
10180 10264
10264 10345
10345 10431
10431 10514
10514 10596
10596 10681
10681 10764
10764 10846
10846 10931
10931 11012
11012 11064
11064 11145
11145 11230
11230 11312
11312 11395
11395 11479
11479 11562
11562 11643
11643 11728
11728 11809
11809 11892
11892 11976
11976 12059
12059 12140
12140 12225
12225 12307
12307 12390
12390 12474
12474 12556
12556 12639
12639 12723
12723 12804
12804 12888
12888 12971
12971 13053
13053 13136
13136 13217
13217 13300
13300 13382
13382 13466
13466 13548
13548 13630
13630 13714
13714 13796
13796 13878
13878 13963
13963 14105
14105 14189
14189 14275
14275 14357
14357 14441
14441 14527
14527 14609
14609 14694
14694 14778
14778 14860
14860 14946
14946 15028
15028 15086
15086 15187
15187 15273
15273 15358
15358 15440
15440 15525
15525 15609
15609 15690
15690 15776
15776 15859
15859 15941
15941 16024
16024 16110
16110 16192
16192 16277
16277 16360
16360 16442
16442 16527
16527 16611
16611 16692
16692 16778
16778 16860
16860 16944
16944 17029
17029 17112
17112 17198
17198 17280
17280 17363
17363 17448
17448 17531
17531 17615
17615 17698
17698 17781
17781 17865
17865 17946
17946 18029
18029 18114
18114 18195
18195 18278
18278 18362
18362 18444
18444 18528
18528 18609
18609 18670
18670 18751
18751 18836
18836 18919
18919 19000
19000 19085
19085 19168
19168 19249
19249 19334
19334 19417
19417 19499
19499 19583
19583 19667
19667 19748
19748 19834
19834 19916
19916 19974
19974 20075
20075 20161
20161 20245
20245 20328
20328 20411
20411 20496
20496 20578
20578 20663
20663 20747
20747 20829
20829 20913
20913 20998
20998 21080
21080 21164
21164 21248
21248 21330
21330 21414
21414 21497
21497 21579
21579 21664
21664 21747
21747 21829
21829 21914
21914 21996
21996 22052
22052 22134
22134 22218
22218 22302
22302 22386
22386 22467
22467 22553
22553 22635
22635 22719
22719 22801
22801 22886
22886 22968
22968 23053
23053 23137
23137 23218
23218 23304
23304 23385
23385 23470
23470 23553
23553 23635
23635 23718
23718 23803
23803 23884
23884 23969
23969 24046
24046 24127
24127 24210
24210 24293
24293 24376
24376 24459
24459 24544
24544 24626
24626 24710
24710 24793
24793 24875
24875 24959
24959 25040
25040 25125
25125 25206
25206 25291
25291 25372
25372 25456
25456 25539
25539 25621
25621 25705
25705 25788
25788 25869
25869 25955
25955 26066
26066 26151
26151 26233
26233 26315
26315 26399
26399 26482
26482 26563
26563 26648
26648 26729
26729 26813
26813 26898
26898 27037
27037 27120
27120 27204
27204 27285
27285 27368
27368 27453
27453 27535
27535 27618
27618 27702
27702 27783
27783 27866
27866 27951
27951 28064
28064 28146
28146 28231
28231 28313
28313 28396
28396 28481
28481 28563
28563 28646
28646 28732
28732 28814
28814 28899
28899 28982
28982 29052
29052 29135
29135 29219
29219 29302
29302 29386
29386 29469
29469 29551
29551 29635
29635 29718
29718 29800
29800 29885
29885 29966
29966 30045
30045 30130
30130 30212
30212 30296
30296 30381
30381 30463
30463 30548
30548 30630
30630 30715
30715 30797
30797 30883
30883 30965
30965 31041
31041 31124
31124 31205
31205 31290
31290 31371
31371 31454
31454 31539
31539 31620
31620 31703
31703 31788
31788 31870
31870 31954
