1911 1997
3205 3292
3292 3377
3948 4053
4053 4140
4140 4228
4228 4313
4313 4398
4398 4485
4485 4570
4570 4655
4655 4741
4741 4826
4826 4911
4911 4999
4999 5104
5104 5189
5189 5274
5274 5359
5359 5443
5443 5530
5530 5614
5614 5700
5700 5787
5787 5871
5871 5928
5928 6034
6034 6118
6118 6205
6205 6289
6289 6375
6375 6459
6459 6543
6543 6628
6628 6713
6713 6797
6797 6883
6883 6968
6968 7052
7052 7139
7139 7222
7222 7307
7307 7393
7393 7477
7477 7562
7562 7648
7648 7733
7733 7819
7819 7903
7903 7989
7989 8084
8084 8170
8170 8256
8256 8340
8340 8426
8426 8511
8511 8595
8595 8681
8681 8766
8766 8851
8851 8937
8937 9053
9053 9139
9139 9227
9227 9312
9312 9396
9396 9482
9482 9567
9567 9653
9653 9737
9737 9822
9822 9910
9910 9994
9994 10048
10048 10132
10132 10218
10218 10304
10304 10388
10388 10473
10473 10559
10559 10643
10643 10728
10728 10814
10814 10898
10898 10955
10955 11059
11059 11147
11147 11234
11234 11318
11318 11403
11403 11488
11488 11574
11574 11659
11659 11744
11744 11828
11828 11915
11915 11998
11998 12061
12061 12145
12145 12230
12230 12315
12315 12399
12399 12484
12484 12569
12569 12653
12653 12739
12739 12824
12824 12908
12908 12995
12995 13083
13083 13169
13169 13254
13254 13339
13339 13426
13426 13511
13511 13596
13596 13683
13683 13768
13768 13852
13852 13938
13938 14049
14049 14133
14133 14219
14219 14304
14304 14390
14390 14475
14475 14561
14561 14646
14646 14732
14732 14818
14818 14905
14905 14989
14989 15059
15059 15144
15144 15230
15230 15318
15318 15402
15402 15489
15489 15574
15574 15659
15659 15746
15746 15831
15831 15918
15918 16003
16003 16064
16064 16149
16149 16234
16234 16319
16319 16404
16404 16491
16491 16577
16577 16661
16661 16746
16746 16831
16831 16917
16917 17001
17001 17087
17087 17172
17172 17259
17259 17343
17343 17429
17429 17515
17515 17600
17600 17685
17685 17772
17772 17857
17857 17945
17945 18046
18046 18133
18133 18222
18222 18307
18307 18394
18394 18481
18481 18567
18567 18654
18654 18739
18739 18826
18826 18915
18915 19000
19000 19042
19042 19127
19127 19214
19214 19299
19299 19384
19384 19470
19470 19557
19557 19642
19642 19705
19705 19789
19789 19875
19875 19962
19962 20047
20047 20132
20132 20219
20219 20304
20304 20389
20389 20476
20476 20563
20563 20647
20647 20734
20734 20820
20820 20905
20905 20990
20990 21076
21076 21163
21163 21249
21249 21334
21334 21420
21420 21506
21506 21592
21592 21679
21679 21765
21765 21849
21849 21937
21937 22051
22051 22136
22136 22222
22222 22307
22307 22393
22393 22478
22478 22566
22566 22650
22650 22736
22736 22822
22822 22907
22907 22993
22993 23079
23079 23166
23166 23253
23253 23338
23338 23425
23425 23510
23510 23596
23596 23682
23682 23767
23767 23829
23829 23914
23914 24000
24000 24087
24087 24171
24171 24258
24258 24342
24342 24429
24429 24514
24514 24599
24599 24685
24685 24771
24771 24856
24856 24944
24944 25028
25028 25070
