212 296
296 381
549 633
633 718
718 802
802 886
886 971
971 1055
1055 1139
1139 1223
1223 1307
1307 1391
1391 1475
1475 1559
1559 1643
1643 1727
1727 1811
1811 1895
1895 1979
1979 2063
2063 2147
2147 2231
2231 2315
2315 2399
2399 2484
2484 2568
2568 2652
2652 2736
2736 2820
2820 2905
2905 2989
2989 3074
3074 3158
3158 3242
3242 3327
3327 3496
3496 3580
3580 3665
3665 3749
3749 3833
3833 3918
3918 4002
