164 234
234 301
301 371
371 438
438 507
507 574
574 644
644 715
715 784
784 851
851 921
921 988
988 1052
1052 1124
1124 1194
1194 1261
1261 1331
1331 1398
1398 1467
1467 1534
1534 1604
1604 1671
1671 1740
1740 1808
1808 1871
1871 1944
1944 2039
2039 2106
2106 2176
2176 2243
2243 2312
2312 2380
2380 2449
2449 2516
2516 2586
2586 2653
2653 2720
2720 2790
2790 2860
2860 2927
2927 2996
