10 103
2253 2320
2320 2387
2387 2455
2455 2522
2522 2589
2723 2790
2790 2858
2858 2925
2925 2992
2992 3059
3059 3126
3126 3193
3193 3260
3260 3328
3328 3395
3395 3462
3462 3504
3504 3572
3572 3639
3639 3706
3706 3773
3773 3840
3840 3907
3907 3974
3974 4042
4042 4109
4109 4172
4172 4243
4243 4310
4310 4377
4377 4445
4445 4512
4512 4579
4579 4646
4646 4713
4713 4780
4780 4846
4846 4914
4914 4982
4982 5049
5049 5116
5116 5183
5183 5250
5250 5317
5317 5384
5384 5452
5452 5519
5519 5586
5586 5653
5653 5720
5720 5787
5787 5855
5855 5922
5922 5989
5989 6038
6038 6105
6105 6172
6172 6240
6240 6307
6307 6373
6373 6441
6441 6508
6508 6575
6575 6642
6642 6709
6709 6777
6777 6844
6844 6911
6911 6978
6978 7044
7044 7112
7112 7179
7179 7246
7246 7313
7313 7381
7381 7448
7448 7515
7515 7582
7582 7649
7649 7716
7716 7783
7783 7851
7851 7918
7918 7985
7985 8052
8052 8119
8119 8186
8186 8253
8253 8321
8321 8383
8383 8455
8455 8522
8522 8589
8589 8656
8656 8724
8724 8791
8791 8858
8858 8925
8925 8993
8993 9060
9060 9127
9127 9194
9194 9261
9261 9318
9318 9393
9393 9461
9461 9528
9528 9595
9595 9662
9662 9730
9730 9797
9797 9864
9864 9931
9931 9999
9999 10066
10066 10132
10132 10200
10200 10267
10267 10334
10334 10402
10402 10469
10469 10536
10536 10603
10603 10670
10670 10738
10738 10805
10805 10872
10872 10939
10939 11006
11006 11074
11074 11141
11141 11208
11208 11276
11276 11343
11343 11410
11410 11477
11477 11544
11544 11612
11612 11679
11679 11746
11746 11813
11813 11881
11881 11948
11948 12015
12015 12082
12082 12150
12150 12217
12217 12284
12284 12352
12352 12419
12419 12486
12486 12553
12553 12621
12621 12688
12688 12755
12755 12822
12822 12889
12889 12957
12957 13024
13024 13091
13091 13158
13158 13226
13226 13293
13293 13360
13360 13427
13427 13494
13494 13561
13561 13628
13628 13695
13695 13763
13763 13830
13830 13897
13897 13964
13964 14031
14031 14098
14098 14165
14165 14232
14232 14299
14299 14366
14366 14433
14433 14500
14500 14567
14567 14634
14634 14702
14702 14769
14769 14837
14837 14903
14903 14970
14970 15037
15037 15105
15105 15172
15172 15239
15239 15306
15306 15374
15374 15441
15441 15508
15508 15570
15570 15642
15642 15709
15709 15776
15776 15844
15844 15911
15911 15978
15978 16091
16091 16163
16163 16230
16230 16297
16297 16364
16364 16431
16431 16499
16499 16566
16566 16633
16633 16700
16700 16767
16767 16834
16834 16901
16901 16968
16968 17035
17035 17102
17102 17169
17169 17236
17236 17303
17303 17370
17370 17438
17438 17505
17505 17547
17547 17614
17614 17681
17681 17748
17748 17815
17815 17882
17882 17949
17949 18016
18016 18083
18083 18150
18150 18217
18217 18284
18284 18351
18351 18418
18418 18485
18485 18553
18553 18620
18620 18687
18687 18754
18754 18821
18821 18888
18888 18955
18955 19022
19022 19089
19089 19153
19153 19224
19224 19291
19291 19358
19358 19425
19425 19492
19492 19559
19559 19627
19627 19694
19694 19761
19761 19828
19828 19895
19895 19962
19962 20030
20030 20097
20097 20164
20164 20232
20232 20299
20299 20366
20366 20433
20433 20500
20500 20567
20567 20633
20633 20702
20702 20769
20769 20836
20836 20904
20904 20971
20971 21038
21038 21105
21105 21172
21172 21240
21240 21304
21304 21374
21374 21441
21441 21508
21508 21576
21576 21643
21643 21710
21710 21777
21777 21845
21845 21912
21912 21976
21976 22046
22046 22113
22113 22180
22180 22248
22248 22315
22315 22382
22382 22449
22449 22517
22517 22584
22584 22651
22651 22718
22718 22785
22785 22853
22853 22920
22920 22987
22987 23036
23036 23103
23103 23170
23170 23238
23238 23305
23305 23372
23372 23439
23439 23506
23506 23573
23573 23640
23640 23707
23707 23775
23775 23842
23842 23909
23909 23976
23976 24044
24044 24111
24111 24178
24178 24245
24245 24312
24312 24379
24379 24446
24446 24513
24513 24580
24580 24647
24647 24710
24710 24781
24781 24848
24848 24915
24915 24982
24982 25050
25050 25117
25117 25184
25184 25251
25251 25318
25318 25385
25385 25452
25452 25519
25519 25586
25586 25653
25653 25720
25720 25787
25787 25854
25854 25921
25921 25963
25963 26031
26031 26098
26098 26162
26162 26232
26232 26299
26299 26366
26366 26433
26433 26500
26500 26568
26568 26635
26635 26702
26702 26769
26769 26836
26836 26900
26900 26971
26971 27038
27038 27105
27105 27172
27172 27240
27240 27307
27307 27374
27374 27441
27441 27508
27508 27575
27575 27643
27643 27710
27710 27777
27777 27844
27844 27911
27911 27978
27978 28095
28095 28162
28162 28229
28229 28296
28296 28363
28363 28430
28430 28497
28497 28564
28564 28631
28631 28698
28698 28765
28765 28832
28832 28900
28900 28967
28967 29034
29034 29101
29101 29168
29168 29235
29235 29302
29302 29369
29369 29437
29437 29504
29504 29571
29571 29638
29638 29705
29705 29772
29772 29839
29839 29906
29906 29973
29973 30041
30041 30108
30108 30175
30175 30242
30242 30309
30309 30376
30376 30443
30443 30510
30510 30577
30577 30644
30644 30711
30711 30778
30778 30845
30845 30912
30912 30979
30979 31047
31047 31114
31114 31181
31181 31248
31248 31315
31315 31382
31382 31449
31449 31516
31516 31583
31583 31650
31650 31717
31717 31784
31784 31851
31851 31918
31918 31985
31985 32052
32052 32119
32119 32187
32187 32254
32254 32321
32321 32388
32388 32455
32455 32522
32522 32589
32589 32657
32657 32724
32724 32791
32791 32858
32858 32925
32925 32993
32993 33085
33085 33152
33152 33220
33220 33287
33287 33354
33354 33421
33421 33488
33488 33555
33555 33622
33622 33690
33690 33757
33757 33824
33824 33891
33891 33958
33958 34026
34026 34093
34093 34160
34160 34228
34228 34295
34295 34362
34362 34429
34429 34496
34496 34564
34564 34631
34631 34698
34698 34765
34765 34832
34832 34900
34900 34967
34967 35034
35034 35101
35101 35144
35144 35211
35211 35278
35278 35345
35345 35412
35412 35480
35480 35547
35547 35614
35614 35681
35681 35749
35749 35816
35816 35883
35883 35950
35950 36017
36017 36085
36085 36152
36152 36219
36219 36286
36286 36353
36353 36421
36421 36488
36488 36555
36555 36622
36622 36689
36689 36757
36757 36824
36824 36887
36887 36958
36958 37026
37026 37093
37093 37160
37160 37227
37227 37294
37294 37362
37362 37429
37429 37496
37496 37563
37563 37631
37631 37698
37698 37765
37765 37832
37832 37899
37899 37966
37966 38033
38033 38101
38101 38168
38168 38235
38235 38302
38302 38369
38369 38437
38437 38504
38504 38571
38571 38638
38638 38705
38705 38772
38772 38839
38839 38906
38906 38974
38974 39041
39041 39108
39108 39175
39175 39243
39243 39310
39310 39377
39377 39444
39444 39512
39512 39579
39579 39646
39646 39713
39713 39780
39780 39847
39847 39915
39915 39982
39982 40049
40049 40116
40116 40183
40183 40250
40250 40318
40318 40385
40385 40452
40452 40519
40519 40586
40586 40653
40653 40720
40720 40787
40787 40854
40854 40922
40922 40989
40989 41056
41056 41123
41123 41190
41190 41257
41257 41324
41324 41391
41391 41458
41458 41525
41525 41592
41592 41659
41659 41726
41726 41793
41793 41860
41860 41927
41927 41994
41994 42061
42061 42128
42128 42196
42196 42263
42263 42330
42330 42397
42397 42464
42464 42531
42531 42598
42598 42665
42665 42732
42732 42799
42799 42866
42866 42933
42933 43000
43000 43067
43067 43134
43134 43201
43201 43268
43268 43335
43335 43401
43401 43468
43468 43535
43535 43602
43602 43669
43669 43736
43736 43804
43804 43871
43871 43937
43937 44004
44004 44071
44071 44138
44138 44205
44205 44273
44273 44340
44340 44407
44407 44474
44474 44541
44541 44608
44608 44672
44672 44742
44742 44810
44810 44877
44877 44943
44943 45011
45011 45078
45078 45146
45146 45213
45213 45280
45280 45347
45347 45415
45415 45482
45482 45549
45549 45616
45616 45683
45683 45750
45750 45817
45817 45885
45885 45952
45952 46019
46019 46068
46068 46135
46135 46202
46202 46269
46269 46336
46336 46404
46404 46471
46471 46538
46538 46605
46605 46672
46672 46739
46739 46806
46806 46873
46873 46941
46941 47008
47008 47075
47075 47142
47142 47209
47209 47276
47276 47343
47343 47410
47410 47478
47478 47545
47545 47612
47612 47679
47679 47746
47746 47813
47813 47880
47880 47948
47948 48015
48015 48082
48082 48150
48150 48214
48214 48284
48284 48351
48351 48418
48418 48485
48485 48552
48552 48620
48620 48687
48687 48754
48754 48821
48821 48884
48884 48955
48955 49022
49022 49090
49090 49157
49157 49224
49224 49291
49291 49358
49358 49425
49425 49493
49493 49560
49560 49627
49627 49694
49694 49762
49762 49829
49829 49896
49896 49963
49963 50030
50030 50097
50097 50165
50165 50232
50232 50299
50299 50366
50366 50434
50434 50501
50501 50568
50568 50635
50635 50702
50702 50770
50770 50837
50837 50904
50904 50971
50971 51038
51038 51105
51105 51173
51173 51240
51240 51307
51307 51374
51374 51441
51441 51508
51508 51576
51576 51643
51643 51710
51710 51777
51777 51844
51844 51912
51912 51979
51979 52046
52046 52113
52113 52180
52180 52247
52247 52314
52314 52382
52382 52449
52449 52516
52516 52583
52583 52650
52650 52717
52717 52784
52784 52851
52851 52919
52919 52986
52986 53053
53053 53120
53120 53187
53187 53254
53254 53321
53321 53388
53388 53455
53455 53522
53522 53589
53589 53656
53656 53723
53723 53790
53790 53857
53857 53924
53924 53991
53991 54059
54059 54126
54126 54192
54192 54259
54259 54326
54326 54393
54393 54460
54460 54528
54528 54594
54594 54661
54661 54728
54728 54795
54795 54862
54862 54929
54929 54996
54996 55063
55063 55130
55130 55197
55197 55264
55264 55331
55331 55398
55398 55465
55465 55532
55532 55599
55599 55666
55666 55733
55733 55800
55800 55867
55867 55934
55934 56001
56001 56068
56068 56135
56135 56202
56202 56269
56269 56336
56336 56403
56403 56470
56470 56537
56537 56604
56604 56671
56671 56738
56738 56805
56805 56872
56872 56939
56939 57006
57006 57073
57073 57140
57140 57208
57208 57275
57275 57342
57342 57409
57409 57476
57476 57543
57543 57610
57610 57677
57677 57744
57744 57812
57812 57879
57879 57946
57946 58013
58013 58063
58063 58130
58130 58197
58197 58264
58264 58332
58332 58399
58399 58466
58466 58533
58533 58600
58600 58667
58667 58734
58734 58802
58802 58869
58869 58936
58936 59003
59003 59078
59078 59145
59145 59212
59212 59279
59279 59346
59346 59414
59414 59481
59481 59548
59548 59615
59615 59682
59682 59749
59749 59816
59816 59883
59883 59950
59950 60018
60018 60085
60085 60152
60152 60219
60219 60286
60286 60353
60353 60420
60420 60487
60487 60555
60555 60622
60622 60689
60689 60756
60756 60823
60823 60890
