844 911
980 1046
1046 1113
1113 1179
1179 1246
1246 1312
1312 1379
1379 1445
1445 1511
1511 1578
1578 1644
1644 1711
1711 1776
1776 1843
1843 1910
1910 1976
1976 2042
2042 2108
2108 2175
2175 2242
2242 2308
2308 2375
2375 2442
2442 2508
2508 2575
2575 2641
2641 2708
2708 2775
2775 2842
2842 2908
2908 2974
2974 3041
3041 3108
3108 3174
3174 3239
3239 3306
3306 3372
3372 3439
3439 3506
3506 3573
3573 3640
3640 3708
3708 3775
3775 3842
3842 3909
3909 3976
3976 4043
4043 4110
4110 4176
4176 4242
4242 4309
4309 4376
4376 4442
4442 4509
4509 4576
4576 4643
4643 4710
4710 4777
4777 4843
4843 4910
4910 4977
4977 5043
5043 5109
5109 5176
5176 5243
5243 5309
5309 5375
5375 5441
5441 5508
5508 5574
5574 5639
5639 5704
5704 5771
5771 5836
5836 5902
5902 5967
5967 6033
6033 6099
6099 6165
6165 6231
6231 6296
6296 6362
6362 6428
6428 6494
6494 6560
6560 6626
6626 6693
6693 6759
6759 6825
6825 6891
6891 6957
6957 7024
7024 7071
7071 7139
7139 7206
7206 7275
7275 7343
7343 7410
7410 7477
7477 7546
7546 7614
7614 7682
7682 7751
7751 7819
7819 7888
7888 7955
7955 8024
8024 8092
8092 8159
8159 8227
8227 8295
8295 8363
8363 8430
8430 8498
8498 8566
8566 8634
8634 8701
8701 8768
8768 8836
8836 8903
8903 8970
8970 9038
9038 9106
9106 9174
9174 9242
9242 9311
9311 9380
9380 9448
9448 9516
9516 9586
9586 9655
9655 9722
9722 9791
9791 9859
9859 9926
9926 9993
9993 10061
10061 10128
10128 10195
10195 10262
10262 10330
10330 10397
10397 10464
10464 10531
10531 10598
10598 10665
10665 10732
10732 10799
10799 10867
10867 10934
10934 11001
11001 11068
11068 11135
11135 11203
11203 11270
11270 11337
11337 11405
11405 11473
11473 11540
11540 11608
11608 11676
11676 11744
11744 11811
11811 11878
11878 11947
11947 12014
12014 12089
12089 12154
12154 12220
12220 12284
12284 12349
12349 12414
12414 12478
12478 12542
12542 12606
12606 12671
12671 12735
12735 12799
12799 12865
12865 12929
12929 12993
12993 13074
13074 13139
13139 13204
13204 13268
13268 13334
13334 13399
13399 13465
13465 13530
13530 13597
13597 13663
13663 13729
13729 13796
13796 13864
13864 13931
13931 13998
13998 14065
14065 14132
14132 14199
14199 14264
14264 14330
14330 14395
14395 14460
14460 14524
14524 14588
14588 14653
14653 14717
14717 14781
14781 14845
14845 14908
14908 14972
14972 15062
15062 15128
15128 15193
15193 15257
15257 15321
15321 15386
15386 15450
15450 15513
15513 15577
15577 15641
15641 15704
15704 15768
15768 15831
15831 15896
15896 15960
15960 16025
16025 16088
16088 16153
16153 16218
16218 16284
16284 16350
16350 16415
16415 16481
16481 16547
16547 16613
16613 16679
16679 16744
16744 16809
16809 16875
16875 16940
16940 17038
17038 17102
17102 17166
17166 17229
17229 17292
17292 17355
17355 17419
17419 17483
17483 17546
17546 17609
17609 17673
17673 17737
17737 17800
17800 17863
17863 17927
17927 17991
17991 18055
18055 18118
18118 18183
18183 18247
18247 18311
18311 18374
18374 18414
18414 18479
18479 18542
18542 18606
18606 18670
18670 18734
18734 18798
18798 18860
18860 18925
18925 18988
18988 19052
19052 19115
19115 19179
19179 19244
19244 19308
19308 19371
19371 19435
19435 19500
19500 19564
19564 19628
19628 19692
19692 19757
19757 19821
19821 19885
19885 19949
19949 20013
20013 20078
20078 20142
20142 20206
20206 20269
20269 20334
20334 20398
20398 20462
20462 20526
20526 20591
20591 20655
20655 20720
20720 20784
20784 20848
20848 20913
20913 20978
20978 21042
21042 21106
21106 21172
21172 21236
21236 21301
21301 21364
21364 21429
21429 21493
21493 21557
21557 21619
21619 21682
21682 21746
21746 21809
21809 21871
21871 21934
21934 21997
21997 22059
22059 22122
22122 22184
22184 22248
22248 22311
22311 22374
22374 22437
22437 22501
22501 22565
22565 22629
22629 22693
22693 22758
22758 22823
22823 22888
22888 22953
22953 23017
23017 23063
23063 23128
23128 23194
23194 23259
23259 23325
23325 23430
23430 23496
23496 23561
23561 23625
23625 23691
23691 23757
23757 23823
23823 23888
23888 23953
23953 24020
24020 24085
24085 24151
24151 24216
24216 24281
24281 24347
24347 24413
24413 24477
24477 24543
24543 24609
24609 24674
24674 24738
24738 24804
24804 24869
24869 24934
24934 24998
24998 25064
25064 25131
25131 25196
25196 25262
25262 25329
25329 25395
25395 25461
25461 25526
25526 25592
25592 25658
25658 25723
25723 25787
25787 25853
25853 25917
25917 25982
25982 26045
26045 26109
26109 26174
26174 26237
26237 26301
26301 26364
26364 26429
26429 26493
26493 26557
26557 26620
26620 26686
26686 26751
26751 26816
26816 26881
26881 26946
26946 27012
27012 27077
27077 27141
27141 27207
27207 27273
27273 27339
27339 27404
27404 27468
27468 27534
27534 27599
27599 27664
27664 27727
27727 27792
27792 27857
27857 27921
27921 27986
27986 28050
28050 28116
28116 28181
28181 28247
28247 28312
28312 28378
28378 28444
28444 28510
28510 28574
28574 28640
28640 28706
28706 28771
28771 28835
28835 28900
28900 28965
28965 29030
29030 29095
29095 29159
29159 29224
29224 29289
29289 29354
29354 29418
29418 29483
29483 29549
29549 29614
29614 29678
29678 29743
29743 29809
29809 29874
29874 29939
29939 30004
30004 30069
30069 30135
30135 30199
30199 30264
30264 30329
30329 30394
30394 30458
30458 30522
30522 30587
30587 30653
30653 30718
30718 30784
30784 30849
30849 30915
30915 30981
30981 31047
31047 31112
31112 31177
31177 31243
31243 31308
31308 31372
31372 31436
31436 31501
31501 31566
31566 31630
31630 31681
31681 31751
31751 31815
31815 31878
31878 31940
31940 32031
32031 32095
32095 32158
32158 32222
32222 32286
32286 32350
32350 32414
32414 32477
32477 32542
32542 32606
32606 32670
32670 32734
32734 32798
32798 32863
32863 32928
32928 32992
32992 33057
33057 33121
33121 33186
33186 33249
33249 33314
33314 33379
33379 33443
33443 33507
33507 33570
33570 33635
33635 33699
33699 33802
33802 33866
33866 33931
33931 33995
33995 34059
34059 34123
34123 34188
34188 34253
34253 34317
34317 34382
34382 34448
34448 34514
34514 34578
34578 34644
34644 34710
34710 34775
34775 34839
34839 34905
34905 34969
34969 35033
35033 35097
35097 35162
35162 35226
35226 35290
35290 35354
35354 35419
35419 35483
35483 35547
35547 35610
35610 35673
35673 35737
35737 35800
35800 35863
35863 35925
35925 35988
35988 36036
36036 36100
36100 36163
36163 36226
36226 36290
36290 36354
36354 36417
36417 36480
36480 36544
36544 36609
36609 36673
36673 36737
36737 36800
36800 36865
36865 36930
36930 36995
36995 37059
37059 37123
37123 37189
37189 37254
37254 37319
37319 37383
37383 37448
37448 37513
37513 37579
37579 37643
37643 37708
37708 37773
37773 37839
37839 37903
37903 37967
37967 38033
38033 38098
38098 38162
38162 38226
38226 38291
38291 38356
38356 38421
38421 38485
38485 38549
38549 38614
38614 38678
38678 38742
38742 38805
38805 38870
38870 38935
38935 38999
38999 39063
39063 39128
39128 39193
39193 39257
39257 39321
39321 39386
39386 39450
39450 39514
39514 39577
39577 39641
39641 39705
39705 39768
39768 39830
39830 39894
39894 39957
39957 40020
40020 40083
40083 40145
40145 40209
40209 40271
40271 40334
40334 40396
40396 40459
40459 40522
40522 40585
40585 40647
40647 40710
40710 40774
40774 40838
40838 40901
40901 40966
40966 41031
41031 41096
41096 41161
41161 41226
41226 41292
41292 41358
41358 41423
41423 41488
41488 41554
41554 41619
41619 41684
41684 41748
41748 41813
41813 41879
41879 41943
41943 42006
42006 42071
42071 42136
42136 42200
42200 42265
42265 42329
42329 42394
42394 42459
42459 42523
42523 42587
42587 42651
42651 42716
42716 42781
42781 42846
42846 42911
42911 42977
42977 43044
43044 43109
43109 43175
43175 43241
43241 43307
43307 43373
43373 43438
43438 43504
43504 43569
43569 43634
43634 43698
43698 43762
43762 43827
43827 43891
43891 43955
43955 44019
44019 44083
44083 44147
44147 44210
44210 44273
44273 44338
44338 44401
44401 44463
44463 44526
44526 44589
44589 44653
44653 44716
44716 44779
44779 44844
44844 44908
44908 44972
44972 45035
45035 45099
45099 45163
45163 45227
45227 45290
45290 45354
45354 45418
45418 45482
45482 45546
45546 45609
45609 45673
45673 45736
45736 45799
45799 45862
45862 45925
45925 45989
45989 46052
46052 46114
46114 46178
46178 46241
46241 46304
46304 46367
46367 46431
46431 46495
46495 46559
46559 46622
46622 46687
46687 46752
46752 46816
46816 46879
46879 46944
