2768 2880
2880 2994
5816 5929
5929 6123
7365 7477
7477 7580
11165 11278
16709 16823
16823 16935
17831 17943
17943 18009
22635 22746
22746 22857
24625 24739
25627 25736
25736 25846
26064 26173
33173 33284
33284 33376
33723 33835
34370 34483
39601 39714
39714 39826
42757 42869
42869 42982
43945 44057
44057 44170
44170 44278
44278 44374
44374 44505
44505 44615
44615 44728
44728 44815
44815 44926
44926 45038
45038 45151
45151 45263
45263 45376
45376 45466
45466 45573
45573 45685
45685 45798
45798 45911
45911 46023
46023 46081
46081 46193
46193 46307
46307 46408
46408 46531
46531 46643
46643 46756
46756 46868
46868 46981
46981 47092
47092 47207
47207 47320
47320 47409
47409 47534
47534 47648
47648 47761
47761 47859
47859 47986
47986 48084
48084 48210
48210 48322
48322 48433
48433 48546
48546 48659
48659 48772
48772 48885
48885 48998
48998 49110
49110 49224
49224 49311
49311 49424
49424 49536
49536 49620
49620 49752
49752 49866
49866 49979
49979 50091
50091 50204
50204 50318
50318 50430
50430 50543
50543 50634
50634 50764
50764 50878
50878 50992
50992 51092
51092 51215
51215 51328
51328 51441
51441 51554
51554 51666
51666 51779
51779 51892
51892 52005
52005 52118
52118 52231
52231 52344
52344 52457
52457 52565
52565 52682
52682 52795
52795 52908
52908 53020
53020 53113
53113 53244
53244 53356
53356 53469
53469 53582
53582 53694
53694 53807
53807 53901
53901 54031
54031 54144
54144 54255
54255 54368
54368 54482
54482 54594
54594 54707
54707 54820
54820 54921
54921 55031
55031 55139
55139 55260
55260 55360
55360 55484
55484 55597
55597 55709
55709 55823
55823 55926
55926 56049
56049 56158
56158 56273
56273 56385
56385 56497
56497 56611
56611 56724
56724 56837
56837 56950
56950 57064
57064 57177
57177 57289
57289 57402
57402 57514
57514 57627
57627 57740
57740 57853
57853 57966
57966 58078
58078 58192
58192 58305
58305 58416
58416 58529
58529 58642
58642 58754
58754 58867
58867 58980
58980 59087
59087 59204
59204 59316
59316 59429
59429 59542
59542 59653
59653 59766
59766 59840
59840 59973
59973 60064
60064 60179
60179 60291
60291 60405
60405 60518
60518 60632
60632 60746
60746 60836
60836 60969
60969 61083
61083 61195
61195 61283
61283 61396
61396 61509
61509 61623
61623 61735
61735 61848
61848 61957
61957 62073
62073 62186
62186 62299
62299 62411
62411 62517
62517 62638
