2578 2693
2693 2777
5275 5389
6293 6406
6406 6519
12903 13012
13012 13097
14566 14678
14678 14783
16917 17032
17032 17117
18005 18231
18345 18460
18460 18545
22296 22410
22410 22497
22746 22860
22860 22974
29176 29288
29288 29402
31784 31898
31898 31982
35197 35312
35312 35428
35540 35655
35655 35769
39036 39151
47306 47421
47421 47496
48651 48766
50919 51051
51051 51138
52506 52620
55014 55126
65903 66049
66049 66183
