145 259
259 373
9969 10082
10082 10195
10510 10623
10623 10737
10737 10827
17055 17167
17167 17281
18278 18392
18392 18470
18950 19064
19064 19178
24715 24828
27384 27497
27497 27576
42161 42277
42277 42393
42393 42507
42507 42621
42621 42736
42736 42850
42850 42965
42965 43078
43078 43191
43191 43305
43305 43417
43417 43531
43531 43645
43645 43734
43734 43847
43847 43960
43960 44074
44074 44187
44187 44301
44301 44413
44413 44529
44529 44619
44619 44732
44732 44846
44846 44960
44960 45075
45075 45190
45190 45304
45304 45417
45417 45532
45532 45646
45646 45761
45761 45876
45876 45989
45989 46103
46103 46217
46217 46331
46331 46446
46446 46561
46561 46675
46675 46789
46789 46902
46902 47016
47016 47129
47129 47242
47242 47356
47356 47469
47469 47556
47556 47669
47669 47783
47783 47895
47895 48010
48010 48097
48097 48211
48211 48286
48286 48419
48419 48486
48486 48599
48599 48712
48712 48826
48826 48939
48939 49053
49053 49166
49166 49280
49280 49394
49394 49507
49507 49620
49620 49734
49734 49848
49848 49961
49961 50074
50074 50187
50187 50300
50300 50412
50412 50525
50525 50638
50638 50751
50751 50863
50863 50976
50976 51089
51089 51202
51202 51314
51314 51427
51427 51540
51540 51654
51654 51767
51767 51879
51879 51992
51992 52104
52104 52216
52216 52331
52331 52444
52444 52558
52558 52672
52672 52787
52787 52901
52901 53014
53014 53128
53128 53242
53242 53356
53356 53470
53470 53582
53582 53696
53696 53809
53809 53921
53921 54035
54035 54147
54147 54261
54261 54374
54374 54488
54488 54600
54600 54713
54713 54826
54826 54939
54939 55052
55052 55166
55166 55245
55245 55377
55377 55493
55493 55607
55607 55720
55720 55834
55834 55947
55947 56061
56061 56173
56173 56287
56287 56399
56399 56512
56512 56626
56626 56739
56739 56853
56853 56967
56967 57081
57081 57196
57196 57309
57309 57422
57422 57535
57535 57648
57648 57762
57762 57875
57875 57989
57989 58102
58102 58214
58214 58329
58329 58442
58442 58555
58555 58668
58668 58781
58781 58895
58895 59009
59009 59123
59123 59237
59237 59350
59350 59463
59463 59576
59576 59689
59689 59802
59802 59916
59916 60049
60049 60163
60163 60276
60276 60389
60389 60502
60502 60616
60616 60730
60730 60842
60842 60956
60956 61069
61069 61183
61183 61296
61296 61408
61408 61521
61521 61634
61634 61747
61747 61860
61860 61973
61973 62063
62063 62177
62177 62292
62292 62405
62405 62518
62518 62632
62632 62746
62746 62860
62860 62975
62975 63088
63088 63202
63202 63315
63315 63428
63428 63541
63541 63654
63654 63767
63767 63881
63881 63994
63994 64108
64108 64221
64221 64333
64333 64447
64447 64561
64561 64675
64675 64790
64790 64903
64903 65017
65017 65132
65132 65245
65245 65354
65354 65474
65474 65587
65587 65702
65702 65815
65815 65928
65928 66042
66042 66155
66155 66270
66270 66384
66384 66497
66497 66611
66611 66722
66722 66837
66837 66926
66926 67039
67039 67128
67128 67244
67244 67358
67358 67472
67472 67585
67585 67698
67698 67813
67813 67926
67926 68040
68040 68153
68153 68266
68266 68381
68381 68461
68461 68593
68593 68708
68708 68823
68823 68936
68936 69050
69050 69163
69163 69278
69278 69391
69391 69505
69505 69619
