162 272
272 382
1924 2135
2891 2998
2998 3047
5907 6014
6014 6054
6163 6273
6273 6381
6820 6930
6930 7121
7121 7230
7230 7339
7339 7419
7419 7532
7532 7643
7643 7708
7708 7840
7840 7954
7954 8132
8132 8242
8242 8351
8351 8461
8461 8562
8562 8680
8680 8789
8789 8897
8897 9008
9008 9063
9063 9171
9171 9280
9280 9389
9389 9497
9497 9605
9605 9713
9713 9822
9822 9931
9931 10074
10074 10183
10183 10291
10291 10400
10400 10511
10511 10620
10620 10730
10730 10840
10840 10949
10949 11058
11058 11168
11168 11277
11277 11387
11387 11498
11498 11607
11607 11717
11717 11826
11826 11936
11936 12103
12103 12213
12213 12323
13278 13388
16916 17025
17025 17076
19909 20018
20018 20105
21037 21163
21163 21273
21273 21340
21340 21473
21805 21914
21914 22024
22024 22093
22280 22496
22496 22597
22496 22597
22896 23029
23029 23099
27413 27520
27953 28093
30921 31028
31028 31064
32893 33001
33001 33127
34766 34873
34873 34980
35086 35193
35193 35300
35407 35515
