3364 3476
10894 11007
11007 11079
11302 11414
19816 20008
20008 20121
20121 20234
20234 20347
20347 20449
20449 20571
20571 20683
20683 20795
20795 20908
20908 21020
21020 21132
21132 21245
21245 21358
21358 21470
21470 21583
21583 21695
21695 21807
21807 21921
21921 22034
22034 22146
22146 22258
22258 22371
22371 22484
22484 22595
22595 22708
22708 22820
22820 22932
22932 23046
23046 23158
23158 23270
23270 23383
23383 23495
23495 23607
23607 23720
23720 23832
23832 23946
23946 24057
24057 24171
24171 24284
24284 24396
24396 24510
24510 24622
24622 24735
24735 24848
24848 24961
24961 25073
25073 25186
25186 25299
25299 25412
25412 25525
25525 25638
25638 25750
25750 25863
25863 25974
25974 26085
26085 26196
26196 26308
26308 26422
26422 26534
26534 26646
26646 26760
26760 26872
26872 26983
26983 27070
27070 27185
27185 27297
27297 27410
27410 27522
27522 27635
27635 27748
27748 27861
27861 27973
27973 28086
28086 28198
28198 28312
28312 28425
28425 28537
28537 28651
28651 28763
28763 28875
28875 28988
28988 29100
29100 29212
29212 29325
29325 29437
29437 29549
29549 29662
29662 29773
29773 29884
29884 29996
29996 30108
30108 30220
30220 30332
30332 30444
30444 30558
30558 30669
30669 30780
30780 30892
30892 31004
31004 31117
31117 31230
31230 31341
31341 31454
31454 31566
31566 31678
31678 31792
31792 31905
31905 32016
32016 32128
32128 32240
32240 32352
32352 32464
32464 32575
32575 32688
32688 32799
32799 32910
32910 33023
33023 33136
33136 33248
33248 33361
33361 33473
33473 33586
33586 33699
33699 33812
33812 33924
33924 34037
34037 34150
34150 34261
34261 34374
34374 34487
34487 34600
34600 34713
34713 34825
34825 34936
34936 35047
35047 35160
35160 35272
35272 35385
35385 35499
35499 35610
35610 35722
35722 35834
35834 35945
35945 36055
36055 36166
36166 36276
36276 36386
36386 36498
36498 36609
36609 36722
36722 36833
36833 36945
36945 37032
37032 37144
37144 37257
37257 37370
37370 37483
37483 37597
37597 37710
37710 37823
37823 37937
37937 38049
38049 38163
38163 38275
38275 38387
38387 38501
38501 38612
38612 38722
38722 38835
38835 38948
38948 39060
39060 39174
39174 39287
39287 39398
39398 39511
39511 39623
39623 39736
39736 39848
39848 39959
39959 40071
40071 40184
40184 40297
40297 40409
40409 40521
40521 40634
40634 40748
40748 40859
40859 40971
40971 41083
41083 41195
41195 41306
41306 41417
41417 41529
41529 41640
41640 41751
41751 41864
41864 41976
41976 42088
42088 42199
42199 42311
42311 42424
42424 42535
42535 42647
42647 42759
42759 42872
42872 42985
42985 43097
43097 43211
43211 43324
43324 43438
43438 43550
43550 43637
43637 43750
43750 43861
43861 43974
43974 44087
44087 44200
44200 44313
44313 44425
44425 44536
44536 44647
44647 44731
44731 44864
44864 44977
44977 45090
45090 45203
45203 45315
45315 45428
45428 45541
45541 45654
45654 45767
45767 45881
45881 45996
45996 46110
46110 46222
46222 46336
46336 46450
46450 46563
46563 46675
46675 46786
46786 46895
46895 47004
47004 47115
47115 47226
47226 47311
47311 47439
47439 47548
47548 47657
47657 47766
47766 47873
47873 47981
47981 48088
48088 48195
48195 48302
48302 48409
48409 48515
48515 48621
48621 48726
48726 48832
48832 48940
48940 49047
49047 49154
49154 49263
49263 49372
49372 49483
49483 49593
49593 49704
49704 49814
49814 49925
49925 50035
50035 50145
50145 50253
50253 50362
50362 50472
50472 50582
50582 50692
50692 50802
50802 50914
50914 51026
51026 51136
51136 51247
51247 51357
51357 51467
51467 51578
51578 51689
51689 51800
51800 51912
51912 52023
52023 52134
52134 52245
52245 52355
52355 52467
52467 52578
52578 52689
52689 52801
52801 52911
52911 53023
53023 53134
53134 53247
53247 53360
53360 53444
53444 53578
53578 53691
53691 53804
53804 53917
53917 54030
54030 54144
54144 54256
54256 54369
54369 54481
54481 54593
54593 54705
54705 54819
54819 54931
54931 55044
55044 55157
55157 55270
55270 55385
55385 55498
55498 55612
55612 55724
55724 55838
55838 55951
55951 56063
56063 56176
56176 56289
56289 56402
56402 56514
56514 56626
56626 56740
56740 56852
56852 56963
56963 57076
57076 57187
57187 57297
57297 57408
57408 57521
57521 57632
57632 57745
57745 57859
57859 57972
57972 58083
58083 58193
58193 58272
58272 58405
58405 58518
58518 58630
58630 58743
58743 58856
58856 58970
58970 59082
59082 59194
59194 59308
59308 59419
59419 59531
59531 59643
59643 59754
59754 59865
59865 59976
59976 60088
60088 60199
60199 60311
60311 60423
60423 60534
60534 60645
60645 60756
60756 60866
60866 60976
60976 61089
61089 61202
61202 61314
61314 61425
61425 61539
61539 61651
61651 61765
61765 61879
61879 61991
61991 62105
62105 62218
62218 62332
62332 62447
62447 62561
62561 62676
62676 62790
62790 62903
62903 63018
63018 63133
63133 63247
63247 63362
63362 63476
63476 63588
63588 63702
63702 63815
63815 63928
63928 64041
64041 64153
64153 64265
64265 64378
64378 64490
64490 64602
64602 64715
64715 64827
64827 64939
64939 65051
65051 65163
65163 65274
65274 65386
65386 65500
65500 65612
65612 65724
65724 65838
65838 65950
65950 66064
66064 66151
66151 66263
66263 66375
66375 66488
66488 66600
66600 66714
66714 66828
66828 66940
66940 67053
67053 67164
67164 67274
67274 67387
67387 67498
67498 67610
67610 67723
67723 67835
67835 67949
67949 68063
68063 68177
68177 68289
68289 68402
68402 68515
68515 68628
68628 68743
68743 68857
68857 68969
68969 69083
69083 69196
69196 69311
69311 69426
69426 69540
69540 69653
69653 69767
69767 69880
69880 69993
69993 70105
70105 70216
70216 70329
70329 70440
70440 70529
70529 70663
