2926 3089
4892 5002
5002 5049
7272 7395
8991 9110
9110 9221
10076 10187
10187 10297
10838 10945
10945 11117
11117 11229
18148 18256
18256 18341
20004 20056
20056 20168
20168 20280
20280 20390
22905 23014
23014 23062
23062 23174
24002 24132
24354 24465
24465 24542
24892 25002
25002 25063
