213 333
333 452
452 572
4384 4503
4503 4622
7030 7148
7386 7505
7505 7622
7742 7860
7860 7979
13700 13820
13820 13939
13939 14033
39629 39750
39750 39869
39869 39987
40439 40591
40591 40711
41789 41909
41909 42028
42028 42102
42938 43057
43057 43176
53332 53450
53450 53569
53569 53689
54505 54625
54625 54723
56900 57020
57020 57081
65891 66011
66011 66130
66130 66251
66941 67085
67085 67204
67442 67562
67562 67681
69235 69355
69355 69474
