854 976
5805 5925
5925 6115
6115 6234
6234 6356
6356 6478
6478 6598
6598 6720
6720 6841
6841 6961
6961 7085
7085 7206
7206 7327
7327 7448
7448 7570
7570 7690
7690 7811
7811 7933
7933 8054
8054 8175
8175 8297
8297 8420
8420 8543
8543 8665
8665 8787
8787 8908
8908 9029
9029 9151
9151 9271
9271 9393
9393 9514
9514 9636
9636 9757
9757 9880
9880 10002
10002 10126
10126 10247
10247 10369
10369 10492
10492 10613
10613 10735
10735 10856
10856 10975
10975 11095
11095 11216
11216 11337
11337 11458
11458 11580
11580 11701
11701 11822
11822 11943
11943 12086
12086 12208
12208 12328
12328 12448
12448 12567
12567 12686
12686 12807
12807 12927
12927 13049
13049 13171
13171 13292
13292 13412
13412 13531
13531 13650
13650 13770
13770 13888
13888 14010
14010 14131
14131 14250
14250 14371
14371 14492
14492 14611
14611 14730
14730 14853
14853 14973
14973 15092
15092 15212
15212 15332
15332 15452
15452 15571
15571 15690
15690 15809
15809 15927
15927 16045
16045 16165
16165 16284
16284 16402
16402 16521
16521 16640
16640 16757
16757 16877
16877 16997
16997 17116
17116 17236
17236 17356
17356 17474
17474 17596
17596 17715
17715 17833
17833 17953
17953 18071
18071 18189
18189 18310
18310 18429
18429 18547
18547 18667
18667 18787
18787 18907
18907 19027
19027 19145
19145 19263
19263 19381
19381 19500
19500 19620
19620 19738
19738 19856
19856 19974
19974 20092
20092 20212
20212 20330
20330 20449
20449 20568
20568 20688
20688 20807
20807 20926
20926 21044
21044 21163
21163 21283
21283 21401
21401 21520
21520 21637
21637 21755
21755 21872
21872 21989
21989 22106
22106 22223
22223 22340
22340 22457
22457 22575
22575 22693
22693 22812
22812 22930
22930 23048
23048 23166
23166 23285
23285 23403
23403 23522
23522 23641
23641 23760
23760 23880
23880 23999
23999 24118
24118 24237
24237 24356
24356 24475
24475 24595
24595 24713
24713 24832
