3151 3283
3283 3397
3397 3511
20838 20957
20957 21031
22938 23250
23250 23371
23371 23490
23490 23610
23610 23730
23730 23849
23849 23970
23970 24088
24088 24207
24207 24326
24326 24446
24446 24566
24566 24684
24684 24802
