42403 42536
42536 42614
42614 42693
42693 42771
42771 42849
42849 42928
42928 43006
43006 43085
43085 43163
43163 43241
43241 43319
43319 43397
43397 43476
43476 43554
43554 43633
43633 43711
43711 43790
43790 43868
43868 43947
43947 44026
44026 44105
44105 44183
44183 44262
44262 44341
44341 44420
44420 44499
44499 44578
44578 44657
44657 44736
44736 44814
44814 44893
44893 44972
44972 45050
45050 45129
45129 45208
45208 45287
45287 45366
45366 45445
45445 45524
45524 45603
45603 45683
45683 45762
45762 45842
45842 45921
45921 46000
46000 46079
46079 46159
46159 46238
46238 46317
46317 46396
46396 46475
46475 46554
46554 46633
46633 46712
46712 46791
46791 46870
46870 46948
46948 47027
47027 47106
47106 47185
47185 47264
47264 47343
47343 47421
47421 47500
47500 47579
47579 47658
47658 47737
47737 47816
47816 47895
