1130 1193
1193 1256
1256 1320
1320 1383
1383 1446
1446 1510
1510 1574
1574 1637
1637 1701
1701 1764
1764 1802
1802 1865
1865 1929
1929 1992
1992 2030
2030 2093
2093 2156
2156 2219
2219 2282
2282 2345
2345 2408
2408 2472
2472 2535
2535 2599
2599 2662
2662 2725
2725 2788
2788 2851
2851 2914
2914 2977
2977 3040
3040 3103
3103 3166
3166 3229
3229 3292
3292 3355
3355 3419
3419 3482
3482 3545
3545 3608
3608 3671
3671 3734
3734 3797
3797 3860
3860 3923
3923 3985
3985 4048
4048 4111
4111 4173
4173 4236
4236 4299
4299 4361
4361 4424
4424 4487
4487 4549
4549 4612
4612 4675
4675 4737
4737 4799
4799 4861
4861 4923
4923 4986
4986 5048
5048 5111
5111 5173
5173 5236
5236 5300
5300 5363
5363 5426
5426 5489
5489 5552
5552 5589
5589 5652
5652 5715
5715 5778
5778 5816
5816 5879
5879 5942
5942 6004
6004 6068
6068 6130
6130 6193
6193 6255
6255 6316
6316 6378
6378 6440
6440 6502
6502 6565
6565 6602
6602 6664
6664 6726
6726 6788
6788 6851
6851 6913
6913 6976
6976 7067
7067 7130
7130 7192
7192 7292
7292 7355
7355 7417
7417 7479
7479 7541
7541 7603
7603 7665
7665 7727
7727 7790
7790 7852
7852 7915
7915 7978
7978 8041
8041 8104
8104 8167
8167 8231
8231 8294
8294 8357
8357 8421
8421 8485
8485 8548
8548 8611
8611 8676
8676 8739
8739 8803
8803 8867
8867 8930
8930 8994
8994 9057
9057 9121
9121 9184
9184 9247
9247 9310
9310 9373
9373 9436
9436 9500
9500 9563
9563 9625
9625 9688
9688 9751
9751 9813
9813 9876
9876 9939
9939 10002
10002 10040
10040 10103
10103 10165
10165 10228
10228 10292
10292 10355
10355 10418
10418 10480
10480 10543
10543 10606
10606 10669
10669 10732
10732 10794
10794 10856
10856 10919
10919 10981
10981 11060
11060 11123
11123 11185
11185 11247
11247 11310
11310 11372
11372 11435
11435 11498
11498 11599
11599 11662
11662 11725
11725 11787
11787 11850
11850 11913
11913 11976
11976 12038
12038 12101
12101 12163
12163 12226
12226 12289
12289 12382
12382 12477
12477 12539
12539 12601
12601 12663
12663 12725
12725 12787
12787 12849
12849 12911
12911 12972
12972 13048
13048 13110
13110 13173
13173 13235
13235 13298
13298 13360
13360 13423
13423 13487
13487 13588
13588 13652
13652 13715
13715 13779
13779 13842
13842 13905
13905 13969
13969 14082
14082 14145
14145 14209
14209 14272
14272 14335
14335 14399
14399 14463
14463 14526
14526 14590
14590 14654
14654 14718
14718 14781
14781 14846
14846 14910
14910 14973
14973 15058
15058 15122
15122 15185
15185 15249
15249 15313
15313 15376
15376 15439
15439 15501
15501 15564
15564 15625
15625 15687
15687 15750
15750 15812
15812 15874
15874 15935
15935 15997
15997 16059
16059 16121
16121 16182
16182 16244
16244 16306
16306 16368
16368 16431
16431 16493
16493 16555
16555 16617
16617 16679
16679 16742
16742 16805
16805 16867
16867 16930
16930 16993
16993 17056
17056 17119
17119 17182
17182 17245
17245 17308
17308 17371
17371 17434
17434 17497
17497 17561
17561 17624
17624 17687
17687 17751
17751 17814
17814 17877
17877 17940
17940 18004
18004 18074
18074 18137
18137 18200
18200 18263
18263 18326
18326 18389
18389 18453
18453 18516
18516 18579
18579 18642
18642 18705
18705 18768
18768 18831
18831 18894
18894 18958
18958 19020
19020 19073
19073 19136
19136 19199
19199 19262
19262 19325
19325 19389
19389 19452
