562 640
718 796
796 874
1034 1113
1348 1426
1426 1504
1504 1582
1582 1661
1661 1739
1739 1818
1818 1896
1896 1975
1975 2110
2110 2189
3470 3550
3713 3794
3794 3876
3876 3957
3957 4039
4039 4120
4120 4201
4201 4282
4282 4363
4363 4444
4444 4525
4525 4606
4606 4686
4686 4767
4767 4848
4848 4929
4929 5010
5010 5091
5091 5171
5171 5252
5252 5332
5332 5413
5413 5493
5493 5574
5574 5654
5654 5735
5735 5816
5816 5897
5897 5977
5977 6058
6058 6138
6138 6218
6218 6299
6299 6379
6379 6459
6459 6539
6539 6620
6620 6701
6701 6781
6781 6861
6861 6942
6942 7022
7022 7103
7103 7183
7183 7263
7263 7344
7344 7424
7424 7504
7504 7584
7584 7664
7664 7745
7745 7825
7825 7905
7905 7985
7985 8064
8064 8144
8144 8223
8223 8303
8303 8382
8382 8461
8461 8541
8541 8620
8620 8699
8699 8778
8778 8858
8858 8938
8938 9017
9017 9098
9098 9178
9178 9258
9258 9338
9338 9419
9419 9498
9498 9578
9578 9658
9658 9737
9737 9817
9817 9897
9897 9976
9976 10056
10056 10135
10135 10215
10215 10295
10295 10374
10374 10454
10454 10533
10533 10613
