3910 4007
4007 4055
6939 7088
10565 10760
10760 10857
10857 10953
10953 11048
11048 11143
11143 11239
11239 11336
11336 11432
11432 11528
11528 11624
11624 11719
11719 11813
11813 11909
11909 12006
12006 12102
12102 12198
12198 12293
12293 12389
12389 12483
12483 12578
12578 12676
12676 12772
12772 12868
12868 12964
12964 13059
13059 13154
13154 13250
13250 13347
13347 13443
13443 13540
13540 13636
13636 13732
13732 13827
13827 13922
13922 14020
14020 14117
14117 14213
14213 14309
14309 14405
14405 14501
14501 14596
14596 14693
14693 14790
14790 14887
14887 14983
14983 15079
15079 15174
15174 15269
15269 15365
15365 15462
15462 15558
15558 15654
15654 15750
15750 15845
15845 15939
15939 16091
16091 16185
16185 16278
16278 16373
16373 16471
16471 16566
16566 16661
16661 16756
16756 16850
16850 16943
16943 17085
17085 17179
17179 17273
17273 17367
17367 17462
17462 17557
17557 17652
17652 17746
17746 17840
17840 17934
17934 18027
18027 18122
18122 18216
18216 18311
18311 18405
18405 18499
18499 18593
18593 18685
18685 18780
18780 18875
18875 18969
18969 19064
19064 19158
19158 19252
19252 19345
19345 19439
19439 19535
19535 19630
19630 19724
19724 19818
19818 19913
19913 20006
20006 20082
20082 20184
20184 20285
20285 20382
20382 20477
20477 20572
20572 20666
20666 20760
20760 20857
20857 20952
20952 21048
21048 21142
21142 21238
21238 21331
21331 21426
21426 21523
21523 21619
21619 21714
21714 21809
21809 21904
21904 21999
21999 22093
22093 22173
22173 22284
22284 22379
22379 22474
22474 22569
22569 22664
22664 22757
22757 22853
22853 22949
22949 23044
23044 23139
23139 23235
23235 23330
23330 23424
23424 23518
23518 23615
23615 23710
23710 23805
23805 23900
23900 23995
23995 24089
24089 24184
24184 24280
24280 24375
24375 24470
24470 24565
24565 24660
24660 24754
24754 24848
24848 24943
24943 25039
25039 25134
25134 25229
25229 25324
25324 25418
25418 25512
25512 25607
25607 25703
25703 25798
25798 25893
25893 25987
25987 26082
26082 26175
26175 26270
26270 26366
26366 26462
26462 26557
26557 26652
26652 26747
26747 26840
26840 26935
26935 27031
27031 27126
27126 27221
27221 27315
27315 27409
27409 27502
27502 27596
27596 27692
27692 27786
27786 27881
27881 27975
27975 28069
28069 28162
28162 28255
28255 28351
28351 28445
28445 28539
28539 28634
28634 28728
28728 28821
28821 28914
28914 29009
29009 29104
29104 29198
29198 29293
29293 29387
29387 29481
29481 29574
29574 29669
29669 29764
29764 29859
29859 29953
29953 30048
30048 30142
30142 30235
30235 30329
30329 30425
30425 30520
30520 30615
30615 30710
30710 30804
30804 30897
30897 30991
30991 31088
31088 31183
31183 31278
31278 31373
31373 31468
31468 31562
31562 31656
31656 31753
31753 31848
31848 31944
31944 32039
32039 32134
32134 32228
32228 32322
32322 32418
32418 32513
32513 32608
32608 32703
32703 32798
32798 32893
32893 32986
32986 33081
33081 33177
33177 33273
33273 33368
33368 33463
33463 33557
33557 33650
33650 33745
33745 33841
33841 33936
33936 34031
34031 34125
34125 34219
34219 34312
34312 34405
34405 34501
34501 34596
34596 34690
34690 34785
34785 34879
34879 34973
34973 35066
35066 35161
35161 35256
35256 35350
35350 35445
35445 35539
35539 35632
35632 35725
35725 35821
35821 35915
35915 36010
36010 36104
36104 36198
36198 36293
36293 36385
36385 36480
36480 36575
36575 36670
36670 36764
36764 36859
36859 36953
36953 37047
37047 37141
37141 37238
37238 37333
37333 37428
37428 37523
37523 37618
37618 37712
37712 37807
37807 37903
37903 37999
37999 38094
38094 38190
38190 38285
38285 38379
38379 38474
38474 38572
38572 38668
38668 38763
38763 38859
38859 38955
38955 39050
39050 39145
39145 39243
39243 39339
39339 39435
39435 39530
39530 39626
39626 39720
39720 39814
39814 39912
39912 40035
40035 40127
40127 40222
40222 40319
40319 40414
40414 40509
40509 40603
40603 40697
40697 40790
40790 40883
40883 40979
40979 41073
41073 41167
41167 41260
41260 41354
41354 41420
41420 41527
41527 41626
41626 41727
41727 41821
41821 41915
41915 42009
42009 42102
42102 42196
42196 42290
42290 42384
42384 42478
42478 42570
42570 42665
42665 42760
42760 42854
42854 42949
42949 43071
43071 43165
43165 43258
43258 43351
43351 43444
43444 43536
43536 43628
43628 43702
43702 43811
43811 43908
43908 44002
44002 44096
44096 44189
44189 44282
44282 44376
44376 44471
44471 44566
44566 44660
44660 44755
44755 44849
44849 44942
44942 45036
45036 45132
45132 45227
45227 45322
45322 45417
45417 45512
45512 45605
45605 45700
45700 45797
45797 45893
45893 45989
45989 46085
46085 46180
46180 46273
46273 46369
46369 46468
46468 46564
46564 46660
46660 46756
46756 46852
46852 46945
46945 47041
47041 47140
47140 47236
47236 47333
47333 47429
47429 47525
47525 47619
47619 47714
47714 47813
47813 47909
47909 48005
48005 48101
48101 48197
48197 48291
48291 48386
48386 48483
48483 48578
48578 48674
48674 48770
48770 48865
48865 48960
48960 49054
49054 49151
49151 49247
49247 49342
49342 49438
49438 49533
49533 49628
49628 49721
49721 49817
49817 49913
49913 50009
50009 50104
50104 50199
50199 50295
50295 50389
50389 50483
50483 50580
50580 50676
50676 50772
50772 50867
50867 50963
50963 51057
51057 51152
51152 51249
51249 51346
51346 51442
51442 51537
51537 51633
51633 51729
51729 51823
51823 51920
51920 52017
52017 52113
52113 52209
52209 52305
52305 52401
52401 52496
52496 52592
52592 52690
52690 52786
52786 52883
52883 52979
52979 53076
53076 53171
53171 53267
53267 53365
53365 53461
53461 53558
53558 53654
53654 53751
53751 53845
53845 53940
53940 54038
54038 54134
54134 54230
54230 54326
54326 54421
54421 54515
54515 54609
54609 54706
54706 54801
54801 54896
54896 54991
54991 55086
55086 55179
55179 55273
55273 55368
55368 55463
55463 55557
55557 55651
55651 55746
55746 55840
55840 55932
55932 56027
56027 56122
56122 56217
56217 56311
56311 56406
56406 56500
56500 56594
56594 56688
56688 56785
56785 56881
56881 56976
56976 57071
57071 57166
57166 57260
57260 57354
57354 57451
57451 57546
57546 57640
57640 57735
57735 57830
57830 57923
57923 58017
58017 58113
58113 58208
58208 58303
58303 58398
58398 58493
58493 58567
58567 58665
58665 58764
58764 58865
58865 58964
58964 59060
59060 59155
59155 59250
59250 59343
59343 59439
59439 59535
59535 59630
59630 59725
59725 59819
59819 59914
59914 60007
60007 60103
60103 60199
60199 60294
60294 60389
60389 60484
60484 60579
60579 60672
60672 60768
60768 60864
60864 60960
60960 61055
61055 61150
61150 61245
61245 61339
61339 61434
61434 61531
61531 61626
61626 61722
61722 61817
61817 61912
61912 62005
62005 62101
62101 62198
62198 62294
62294 62389
62389 62485
62485 62579
62579 62672
62672 62767
62767 62865
