3993 4116
4932 5111
5111 5214
5214 5316
5316 5418
5418 5521
5521 5624
5624 5727
5727 5830
5830 5933
5933 6035
6035 6138
6138 6241
6241 6344
6344 6447
6447 6550
6550 6653
6653 6757
6757 6860
6860 6963
6963 7066
7066 7169
7169 7273
7273 7376
7376 7480
7480 7582
7582 7685
7685 7789
7789 7892
7892 7995
7995 8097
8097 8200
8200 8303
8303 8406
8406 8509
8509 8611
8611 8714
8714 8817
8817 8920
8920 9023
9023 9076
9076 9179
9179 9282
9282 9385
9385 9488
9488 9591
9591 9693
9693 9797
9797 9901
9901 10004
10004 10107
10107 10209
10209 10312
10312 10416
10416 10519
10519 10622
10622 10724
10724 10827
10827 10930
10930 11032
11032 11135
11135 11236
11236 11338
11338 11441
11441 11544
11544 11646
11646 11748
11748 11850
11850 11951
11951 12052
12052 12154
12154 12256
12256 12358
12358 12459
12459 12560
12560 12663
12663 12765
12765 12866
12866 12968
12968 13069
13069 13171
13171 13274
13274 13376
13376 13478
13478 13580
13580 13682
13682 13784
13784 13886
13886 13989
13989 14108
14108 14210
14210 14311
14311 14414
14414 14516
14516 14618
14618 14720
14720 14822
14822 14924
14924 15027
15027 15130
15130 15232
15232 15334
15334 15437
15437 15540
15540 15642
15642 15745
15745 15847
