164 269
1916 2019
2019 2059
2161 2266
7938 8054
9912 9969
9969 10102
18975 19122
19927 20028
20028 20071
21922 22025
24925 25064
25064 25169
25169 25272
25272 25376
25376 25478
25478 25580
25580 25685
25685 25789
25789 25892
25892 25995
25995 26098
26098 26200
26200 26305
26305 26409
26409 26511
26511 26613
26613 26715
26715 26819
26819 26921
26921 27024
27024 27083
27083 27185
27185 27290
27290 27393
27393 27496
27496 27598
27598 27702
27702 27806
27806 27909
27909 28011
28011 28141
28141 28243
28243 28347
28347 28451
28451 28554
28554 28655
28655 28757
28757 28860
28860 28963
28963 29122
29122 29225
29225 29327
29327 29429
29429 29530
29530 29634
29634 29737
29737 29840
29840 29942
29942 30043
30043 30148
30148 30251
30251 30354
30354 30456
30456 30557
30557 30661
30661 30764
30764 30867
30867 30958
30958 31068
31068 31172
31172 31275
31275 31377
31377 31478
31478 31579
31579 31683
31683 31785
31785 31887
31887 31988
31988 32063
32063 32166
32166 32270
32270 32372
32372 32473
32473 32575
32575 32678
32678 32780
32780 32883
32883 32983
32983 33090
33090 33193
33193 33295
33295 33397
33397 33498
33498 33602
33602 33704
33704 33806
33806 33908
33908 34009
34009 34106
34106 34208
34208 34308
34308 34410
34410 34512
34512 34614
34614 34716
34716 34816
