1198 1296
4333 4431
14350 14447
15124 15221
15221 15318
16409 16510
16909 17010
20115 20211
20211 20308
20308 20407
20407 20505
20505 20603
20603 20701
20701 20798
20798 20899
20899 20997
20997 21095
21095 21192
21192 21287
21287 21385
21385 21485
21485 21584
21584 21684
21684 21783
21783 21880
21880 21979
21979 22078
22078 22175
22175 22274
22274 22371
22371 22469
22469 22568
22568 22667
22667 22765
22765 22864
22864 22962
22962 23063
23063 23162
23162 23259
23259 23358
23358 23454
23454 23553
23553 23652
23652 23752
23752 23852
23852 23953
23953 24052
24052 24154
24154 24255
24255 24355
24355 24455
24455 24554
24554 24657
24657 24758
24758 24859
24859 24960
24960 25059
25059 25160
25160 25262
25262 25364
25364 25464
25464 25563
25563 25661
25661 25762
25762 25860
25860 25959
25959 26092
26092 26191
26191 26288
26288 26387
26387 26485
26485 26582
26582 26680
26680 26776
26776 26873
26873 26972
26972 27070
27070 27168
27168 27265
27265 27362
27362 27462
27462 27560
27560 27658
27658 27756
27756 27852
27852 27950
27950 28048
28048 28146
28146 28244
28244 28342
28342 28439
28439 28538
28538 28638
28638 28737
28737 28836
28836 28934
28934 29036
29036 29135
29135 29233
29233 29331
29331 29427
29427 29524
29524 29622
29622 29720
29720 29817
29817 29915
29915 30012
30012 30112
30112 30211
30211 30309
30309 30407
30407 30504
30504 30601
30601 30701
30701 30800
30800 30898
30898 30997
30997 31096
31096 31197
31197 31298
31298 31397
31397 31496
31496 31593
31593 31692
31692 31791
31791 31888
31888 31986
31986 32084
32084 32180
32180 32278
32278 32377
32377 32475
32475 32573
32573 32670
32670 32767
32767 32867
32867 32966
32966 33064
33064 33163
33163 33260
33260 33358
33358 33458
33458 33558
33558 33658
33658 33757
33757 33856
33856 33958
33958 34059
34059 34158
34158 34258
34258 34357
34357 34458
34458 34558
34558 34657
34657 34756
34756 34855
34855 34954
34954 35048
35048 35126
35126 35227
35227 35326
35326 35425
35425 35523
35523 35624
35624 35724
35724 35823
35823 35922
35922 36018
36018 36116
36116 36215
36215 36314
36314 36413
36413 36512
36512 36610
36610 36711
36711 36812
36812 36911
36911 37011
37011 37109
37109 37208
37208 37307
37307 37406
37406 37504
37504 37602
37602 37700
37700 37801
37801 37900
37900 37998
37998 38050
38050 38147
38147 38244
38244 38340
38340 38438
38438 38537
38537 38635
38635 38732
38732 38828
38828 38925
38925 39024
39024 39121
39121 39218
39218 39315
39315 39411
39411 39509
39509 39607
39607 39703
39703 39799
39799 39894
39894 39991
39991 40087
40087 40184
40184 40280
40280 40375
40375 40471
40471 40569
40569 40665
40665 40760
40760 40855
40855 40949
40949 41046
41046 41142
41142 41238
41238 41334
41334 41431
41431 41527
41527 41628
41628 41727
41727 41826
41826 41925
41925 42023
42023 42124
42124 42224
42224 42323
42323 42423
42423 42523
42523 42622
42622 42723
42723 42824
42824 42924
42924 43025
43025 43121
43121 43218
43218 43316
43316 43416
43416 43516
43516 43615
43615 43714
43714 43812
43812 43913
43913 44012
44012 44111
44111 44210
44210 44307
44307 44406
44406 44504
44504 44603
44603 44700
44700 44796
44796 44893
44893 44991
44991 45089
45089 45187
45187 45283
45283 45380
45380 45479
45479 45577
45577 45674
45674 45772
45772 45868
45868 45967
45967 46117
46117 46215
46215 46311
46311 46409
46409 46508
46508 46606
46606 46703
46703 46800
46800 46897
46897 46995
46995 47094
47094 47191
47191 47288
47288 47386
47386 47488
47488 47588
47588 47687
47687 47786
47786 47883
47883 47982
47982 48055
48055 48155
48155 48253
48253 48350
48350 48448
48448 48547
48547 48645
48645 48743
48743 48840
48840 48936
48936 49033
49033 49132
49132 49231
49231 49328
49328 49424
49424 49521
49521 49619
49619 49717
49717 49816
49816 49915
49915 50012
50012 50110
50110 50209
50209 50307
50307 50404
50404 50503
50503 50600
50600 50700
50700 50798
50798 50896
50896 50994
50994 51091
51091 51189
51189 51288
51288 51386
51386 51484
51484 51582
51582 51679
51679 51778
51778 51877
51877 51974
51974 52073
52073 52173
52173 52272
52272 52374
52374 52474
52474 52573
52573 52673
52673 52770
52770 52871
52871 52970
52970 53067
53067 53165
53165 53262
53262 53360
53360 53459
53459 53558
53558 53658
53658 53757
53757 53854
53854 53954
53954 54054
54054 54153
54153 54253
54253 54353
54353 54453
54453 54555
54555 54655
54655 54755
54755 54855
54855 54953
54953 55053
55053 55152
55152 55250
55250 55349
55349 55448
