77 186
186 290
290 394
836 942
942 1137
1137 1244
2623 2738
2931 3101
3537 3650
3650 3761
6459 6579
6579 6675
7017 7132
8354 8472
8472 8558
9597 9720
9720 9815
10859 10972
10972 11160
11160 11270
11270 11387
11387 11467
11467 11575
11575 11690
11690 11804
11804 11911
11911 12013
12013 12119
12119 12226
12226 12331
12331 12431
12431 12533
12533 12641
12641 12747
12747 12850
12850 12952
12952 13057
13057 13164
13164 13268
13268 13370
13370 13477
13477 13592
13592 13708
13708 13816
13816 13924
13924 14040
14040 14155
14155 14262
14262 14366
14366 14467
14467 14566
14566 14671
14671 14782
14782 14901
14901 15011
15011 15115
15115 15221
15221 15335
15335 15446
15446 15551
15551 15657
15657 15767
15767 15879
15879 15987
15987 16092
16092 16179
16179 16294
16294 16402
16402 16508
16508 16619
16619 16735
16735 16844
16844 16949
16949 17055
17055 17148
17148 17236
17236 17341
17341 17451
17451 17565
17565 17672
17672 17777
17777 17885
17885 17998
17998 18104
18104 18209
18209 18319
18319 18407
18407 18514
18514 18620
18620 18733
18733 18852
18852 18961
18961 19071
19071 19185
19185 19298
19298 19407
19407 19517
19517 19607
19607 19702
19702 19812
19812 19924
19924 20069
20069 20175
20175 20277
20277 20377
20377 20475
20475 20578
20578 20684
20684 20897
20897 20998
20998 21077
21077 21185
21185 21293
21293 21396
21396 21503
21503 21616
21616 21731
21731 21837
21837 21944
21944 22033
22033 22108
22108 22219
22219 22338
22338 22435
22435 22548
22548 22660
22660 22779
22779 22900
22900 23013
23013 23129
23129 23248
23248 23364
23364 23473
23473 23587
23587 23709
23709 23825
23825 23936
23936 24035
24035 24136
24136 24240
24240 24440
24440 24540
24540 24641
24641 24745
24745 24829
24829 24938
24938 25126
25126 25238
25238 25354
25354 25440
25440 25545
25545 25655
25655 25770
25770 25884
25884 25993
25993 26122
26122 26250
26250 26367
26367 26482
26482 26603
26603 26737
26737 26858
26858 26983
26983 27073
27073 27179
27179 27282
27282 27381
27381 27482
27482 27584
27584 27662
27662 27761
27761 27859
27859 27959
27959 28060
28060 28161
28161 28260
28260 28362
28362 28468
28468 28575
28575 28679
28679 28784
28784 28893
28893 28977
28977 29057
29057 29166
29166 29282
29282 29397
29397 29505
29505 29616
29616 29737
29737 29859
29859 29970
29970 30080
30080 30194
30194 30305
30305 30410
30410 30521
30521 30637
30637 30747
30747 30855
30855 30963
30963 31072
31072 31177
31177 31283
31283 31394
31394 31507
31507 31617
31617 31728
31728 31841
31841 31932
31932 32044
32044 32155
32155 32270
32270 32391
32391 32504
32504 32618
32618 32712
32712 32827
32827 32936
32936 33130
33130 33237
33237 33343
33343 33451
33451 33564
33564 33672
33672 33780
33780 33893
33893 34006
34006 34113
34113 34218
34218 34330
34330 34448
34448 34534
34534 34646
34646 34763
34763 34876
34876 34983
34983 35092
35092 35206
35206 35322
35322 35434
35434 35547
35547 35668
35668 35791
35791 35903
35903 36015
36015 36131
36131 36223
36223 36333
36333 36445
36445 36564
36564 36662
36662 36776
36776 36890
36890 37007
37007 37125
37125 37228
37228 37327
37327 37427
37427 37530
37530 37635
37635 37713
37713 37813
37813 37915
37915 38022
38022 38111
38111 38220
38220 38338
38338 38459
38459 38545
38545 38655
38655 38770
38770 38891
38891 39002
39002 39117
39117 39242
39242 39370
39370 39485
39485 39597
39597 39715
39715 39837
39837 39951
39951 40123
40123 40228
40228 40329
40329 40433
40433 40542
40542 40652
40652 40731
40731 40836
40836 40944
40944 41028
41028 41135
41135 41239
41239 41344
41344 41453
41453 41564
41564 41670
41670 41776
41776 41886
41886 42004
42004 42115
42115 42222
42222 42334
42334 42451
42451 42564
42564 42673
42673 42784
42784 42902
42902 42990
42990 43100
43100 43215
43215 43308
43308 43419
43419 43524
43524 43634
43634 43751
43751 43860
43860 43965
43965 44075
44075 44200
44200 44319
44319 44432
44432 44548
44548 44672
44672 44790
44790 44906
44906 45029
45029 45150
45150 45262
45262 45379
45379 45500
45500 45591
45591 45709
45709 45811
45811 45937
45937 46058
46058 46177
46177 46300
46300 46419
46419 46534
46534 46653
46653 46781
