69 182
182 286
286 380
380 473
473 566
566 660
660 753
753 850
850 950
950 1046
1046 1140
1140 1236
1236 1332
1332 1428
1428 1523
1523 1620
1620 1719
1719 1817
1817 1917
1917 2023
2023 2069
2069 2172
2172 2274
2274 2372
2372 2471
2471 2576
2576 2682
2682 2803
2803 2928
2928 3038
3038 3144
3144 3249
3249 3356
3356 3432
3432 3527
3527 3622
3622 3718
3718 3814
3814 3911
3911 4005
4005 4100
4100 4198
4198 4295
4295 4392
4392 4492
4492 4594
4594 4696
4696 4802
4802 4911
4911 5018
5018 5130
5130 5246
5246 5355
5355 5465
5465 5568
5568 5671
5671 5781
5781 5892
5892 6001
6001 6104
6104 6203
6203 6302
6302 6401
6401 6500
6500 6602
6602 6703
6703 6801
6801 6899
6899 6994
6994 7034
7034 7136
7136 7237
7237 7335
7335 7431
7431 7525
7525 7617
7617 7708
7708 7798
7798 7887
7887 7975
7975 8064
8064 8153
8153 8241
8241 8330
8330 8420
8420 8511
8511 8604
8604 8699
8699 8896
8896 8990
8990 9074
9074 9169
9169 9271
9271 9374
9374 9472
9472 9564
9564 9654
9654 9744
9744 9836
9836 9932
9932 10029
10029 10124
10124 10218
10218 10309
10309 10398
10398 10487
10487 10576
10576 10665
10846 10937
12162 12275
12275 12352
14808 14919
14919 15030
15701 15813
15813 15898
16599 16732
16732 16833
16961 17100
17100 17202
17202 17326
17326 17427
17427 17548
17548 17638
18847 18961
18961 19123
19123 19237
19123 19237
20334 20450
20450 20559
20559 20649
20864 20959
20959 21105
21884 21986
21986 22031
22031 22152
22152 22245
23341 23458
23458 23554
23554 23644
23644 23738
23738 23832
23832 23924
24294 24417
24417 24510
24854 24964
24964 25076
25076 25167
25617 25730
25730 25825
26033 26153
26153 26242
26827 26942
26942 27127
27127 27218
27218 27341
27341 27460
27460 27679
27679 27793
27793 27914
27914 28009
28009 28075
28075 28195
28195 28286
28286 28376
28376 28494
28494 28608
28608 28727
28727 28845
28845 28934
28934 29026
29026 29140
29140 29251
29251 29370
29370 29490
29490 29605
29605 29721
29721 29835
29835 29946
29946 30059
30059 30178
30178 30292
30292 30389
30389 30514
30514 30635
30635 30740
30740 30840
30840 30936
30936 31081
31081 31202
31202 31328
31328 31421
31421 31537
31537 31653
31653 31765
31765 31859
31859 31977
31977 32093
32093 32216
32216 32336
32336 32452
32452 32575
32575 32665
32665 32782
32782 32901
32901 33020
33020 33079
33079 33210
33210 33311
33311 33437
33437 33504
33504 33624
33624 33748
33748 33865
33865 33979
33979 34094
34094 34204
34204 34296
34296 34416
34416 34533
34533 34627
34627 34720
34720 34838
34838 34971
34971 35095
35095 35195
35195 35322
35322 35439
35439 35561
35561 35685
35685 35802
35802 35898
35898 36019
36019 36097
36097 36220
36220 36346
36346 36466
36466 36576
36576 36706
36706 36839
36839 36950
36950 37048
37048 37152
37152 37279
37279 37379
37379 37481
37481 37595
37595 37709
37709 37826
37826 37937
37937 38078
38078 38168
38168 38280
38280 38389
38389 38497
38497 38611
38611 38724
38724 38833
38833 38945
38945 39080
39080 39214
39214 39350
39350 39482
39482 39578
39578 39699
39699 39812
39812 39920
39920 40028
40028 40110
40110 40214
40214 40317
40317 40421
40421 40523
40523 40633
40633 40726
40726 40846
40846 40985
40985 41109
41109 41209
41209 41307
41307 41408
41408 41508
41508 41606
41606 41707
41707 41811
