21615 21707
37399 37492
37492 37558
39472 39565
39565 39633
44689 44779
44779 44870
44870 44962
44962 45054
45054 45145
45145 45234
45234 45324
45324 45414
45414 45506
45506 45600
45600 45693
45693 45787
45787 45881
45881 45976
45976 46072
46072 46165
46165 46262
46262 46357
46357 46449
46449 46541
46541 46634
46634 46727
46727 46820
46820 46912
46912 47003
47003 47093
47093 47183
47183 47271
47271 47360
47360 47451
47451 47548
47548 47650
47650 47747
47747 47842
47842 47936
47936 48028
48028 48119
48119 48208
48208 48297
48297 48385
48385 48474
48474 48562
48562 48651
48651 48740
48740 48828
48828 48916
48916 49004
49004 49092
49092 49180
49355 49442
55271 55458
55458 55549
55639 55821
58206 58394
58394 58486
58486 58579
58579 58673
58673 58769
58769 58863
58863 58959
58959 59056
59056 59151
59151 59246
59246 59343
59343 59442
59442 59538
59538 59635
59635 59734
59734 59830
59830 59923
59923 60016
60016 60085
60085 60175
60175 60265
60265 60357
60357 60634
60634 60724
60724 60814
60814 61057
61057 61146
61146 61234
61234 61324
61324 61592
61592 61859
61859 61949
61949 62117
62117 62207
62207 62297
62297 62388
62388 62481
62481 62573
62573 62664
62664 62936
62936 63025
63025 63114
63114 63296
63296 63386
63386 63656
63656 63930
63930 64020
64020 64167
64167 64258
64258 64442
64442 64534
64534 64723
64723 64819
