18928 19017
19017 19074
27942 28033
41910 42002
42002 42051
42948 43120
45932 46018
46018 46076
46925 47010
47010 47114
47114 47198
47198 47283
47283 47368
47368 47453
47453 47537
47537 47621
47621 47706
47706 47791
47791 47876
47876 47960
47960 48044
48044 48128
48128 48213
48213 48298
48298 48383
48383 48468
48468 48552
48552 48636
48636 48720
48720 48806
48806 48891
48891 48977
48977 49063
49063 49148
49148 49235
49235 49322
49322 49409
49409 49496
49496 49582
49582 49669
49669 49756
49756 49842
49842 49930
49930 50017
50017 50104
50104 50191
50191 50279
50279 50366
50366 50453
50453 50540
50540 50625
50625 50710
50710 50797
50797 50883
50883 50969
50969 51055
51055 51141
51141 51227
51227 51313
51313 51400
51400 51487
51487 51575
51575 51662
51662 51748
51748 51836
51836 51923
51923 52011
52011 52097
52097 52184
52184 52270
52270 52358
52358 52446
52446 52534
52534 52621
52621 52708
52708 52794
52794 52882
52882 52969
52969 53097
53097 53184
53184 53271
53271 53358
53358 53446
53446 53533
53533 53621
53621 53708
53708 53795
53795 53883
53883 53972
53972 54061
54061 54149
54149 54236
54236 54324
54324 54413
54413 54502
54502 54591
54591 54680
54680 54768
54768 54857
54857 54946
54946 55036
55036 55126
55126 55216
55216 55305
55305 55393
55393 55482
55482 55572
55572 55663
55663 55752
55752 55840
