952 1095
1095 1181
1181 1268
1268 1355
1355 1441
1441 1527
1527 1614
1614 1701
1701 1788
1788 1874
1874 1960
1960 2047
2047 2134
2134 2221
2221 2307
2307 2394
2394 2480
2480 2567
2567 2655
2655 2741
2741 2827
2827 2913
2913 3000
3000 3087
3087 3173
3173 3259
3259 3345
3345 3431
3431 3518
3518 3604
3604 3691
3691 3777
3777 3863
3863 3949
3949 4036
4036 4122
4122 4208
4208 4294
4294 4380
4380 4466
4466 4552
4552 4638
4638 4724
4724 4810
4810 4896
4896 4983
4983 5104
5104 5190
5190 5276
5276 5362
5362 5448
5448 5534
5534 5619
5619 5705
5705 5791
5791 5877
5877 5963
5963 6048
6048 6134
6134 6220
6220 6307
6307 6393
6393 6480
6480 6566
6566 6652
6652 6739
6739 6825
6825 6912
