929 1099
2554 2785
2785 2900
2900 3018
3018 3135
3135 3251
3251 3366
3366 3481
3481 3596
3596 3711
3711 3827
3827 3941
3941 4045
4045 4162
4162 4279
4279 4395
4395 4511
4511 4627
4627 4742
4742 4856
4856 4972
4972 5063
5063 5179
5179 5294
5294 5408
5408 5525
5525 5641
5641 5755
5755 5870
5870 6022
6022 6141
6141 6260
6260 6380
6380 6500
6500 6619
6619 6738
6738 6781
6781 6858
6858 6975
6975 7092
7092 7211
7211 7328
7328 7447
7447 7562
7562 7678
7678 7794
7794 7910
7910 8033
8033 8148
8148 8262
8262 8377
8377 8490
8490 8603
8603 8716
8716 8828
8828 8940
8940 9051
9051 9161
9161 9271
9271 9382
9382 9493
9493 9601
9601 9687
9687 9798
9798 9911
9911 10027
10027 10140
10140 10252
10252 10365
10365 10476
10476 10587
10587 10696
10696 10804
10804 10911
10911 11018
11018 11125
11125 11233
11233 11342
11342 11451
11451 11560
11560 11672
11672 11781
11781 11893
11893 12003
12003 12113
12113 12225
12225 12337
12337 12450
12450 12564
12564 12679
12679 12792
12792 12905
12905 13016
13016 13128
13128 13239
13239 13349
13349 13459
13459 13568
13568 13676
13676 13787
13787 13896
13896 14005
14005 14115
14115 14224
14224 14334
14334 14444
14444 14556
14556 14668
14668 14779
14779 14889
14889 15001
15001 15112
15112 15221
15221 15331
15331 15441
15441 15549
15549 15660
15660 15771
15771 15881
15881 15991
15991 16102
16102 16213
16213 16325
16325 16436
16436 16549
16549 16661
16661 16771
16771 16885
16885 16998
16998 17085
17085 17200
17200 17314
17314 17430
17430 17544
17544 17658
17658 17772
17772 17886
17886 17999
17999 18115
18115 18230
18230 18344
18344 18458
18458 18547
18547 18661
18661 18775
18775 18889
18889 19003
19003 19117
19117 19206
19206 19323
19323 19440
19440 19555
19555 19671
19671 19784
19784 19899
19899 20015
20015 20132
20132 20250
20250 20366
20366 20482
20482 20596
20596 20710
20710 20824
20824 20939
20939 21054
21054 21169
21169 21283
21283 21399
21399 21515
21515 21630
21630 21745
21745 21860
21860 21973
21973 22089
22089 22204
22204 22318
22318 22434
22434 22525
22525 22642
22642 22760
22760 22878
22878 22995
22995 23088
23088 23205
23205 23321
23321 23440
23440 23558
23558 23677
23677 23794
23794 23914
23914 24033
24033 24151
24151 24268
24268 24386
24386 24505
24505 24622
24622 24739
24739 24857
24857 24974
24974 25093
25093 25211
25211 25331
25331 25449
25449 25566
25566 25681
25681 25798
25798 25913
25913 26028
26028 26142
26142 26257
26257 26371
26371 26486
26486 26600
26600 26713
26713 26827
26827 26940
26940 27053
27053 27167
27167 27279
27279 27392
27392 27505
27505 27618
27618 27731
27731 27819
27819 27932
27932 28074
28074 28186
28186 28273
28273 28360
28360 28474
28474 28587
28587 28700
28700 28812
28812 28925
28925 29037
29037 29148
29148 29260
29260 29372
29372 29486
29486 29601
29601 29718
29718 29833
29833 29951
29951 30066
30066 30180
30180 30296
30296 30412
30412 30528
30528 30619
30619 30735
30735 30850
30850 30965
30965 31079
31079 31193
31193 31308
31308 31422
31422 31535
31535 31647
31647 31761
31761 31873
31873 31986
31986 32075
32075 32190
32190 32305
32305 32421
32421 32538
32538 32652
32652 32765
32765 32877
32877 32989
32989 33098
33098 33207
33207 33317
33317 33426
33426 33534
33534 33645
33645 33729
33729 33841
33841 33952
33952 34063
34063 34176
34176 34287
34287 34399
34399 34489
34489 34604
34604 34720
34720 34836
34836 34952
34952 35043
35043 35157
35157 35269
35269 35381
35381 35491
35491 35600
35600 35710
35710 35821
35821 35930
35930 36044
36044 36155
36155 36267
36267 36379
36379 36492
36492 36605
36605 36719
36719 36833
36833 36948
36948 37061
37061 37174
37174 37289
37289 37401
37401 37512
37512 37624
37624 37737
37737 37850
37850 37964
37964 38078
38078 38194
38194 38308
38308 38422
38422 38537
38537 38651
38651 38765
38765 38878
38878 38991
38991 39114
39114 39227
39227 39340
39340 39453
39453 39569
39569 39684
39684 39799
39799 39914
39914 40030
40030 40147
40147 40264
40264 40380
40380 40496
40496 40610
40610 40725
40725 40814
40814 40926
40926 41038
41038 41149
41149 41259
41259 41370
41370 41483
41483 41569
41569 41681
41681 41792
41792 41901
41901 42012
42012 42122
42122 42233
42233 42343
42343 42454
42454 42565
42565 42677
42677 42789
42789 42902
42902 43015
43015 43127
43127 43240
43240 43350
43350 43460
43460 43572
43572 43683
43683 43793
43793 43906
43906 44018
44018 44131
44131 44243
44243 44360
44360 44475
44475 44565
44565 44682
44682 44800
44800 44896
44896 45016
45016 45134
45134 45251
45251 45368
45368 45484
45484 45599
45599 45690
45690 45805
45805 45921
45921 46037
46037 46156
46156 46272
46272 46390
46390 46504
46504 46618
46618 46708
46708 46821
46821 46982
46982 47094
47094 47207
47207 47322
47322 47436
47436 47548
47548 47663
47663 47750
47750 47865
47865 47979
47979 48091
48091 48205
48205 48318
48318 48432
48432 48550
48550 48639
48639 48752
48752 48868
48868 48983
48983 49098
49098 49211
49211 49326
49326 49443
49443 49557
49557 49674
49674 49790
49790 49908
49908 50026
50026 50143
50143 50258
50258 50373
50373 50486
50486 50599
50599 50712
50712 50824
50824 50936
50936 51047
51047 51156
51156 51264
51264 51373
51373 51483
51483 51593
51593 51704
51704 51814
51814 51926
51926 52037
52037 52150
52150 52263
52263 52353
52353 52468
52468 52584
52584 52675
52675 52791
52791 52906
52906 53019
53019 53135
53135 53248
53248 53360
53360 53449
53449 53562
53562 53673
53673 53787
53787 53900
53900 54014
54014 54128
54128 54243
54243 54472
54472 54588
54588 54704
54704 54819
54819 54905
54905 55039
55039 55154
55154 55268
55268 55381
55381 55494
55494 55605
55605 55716
55716 55850
55850 55934
55934 56103
56103 56228
56228 56353
56353 56476
56476 56597
56597 56716
56716 56835
