842 886
886 996
4239 4348
4348 4439
4880 4968
4968 5053
5529 5647
5647 5741
5741 5834
5834 5925
5925 6016
6016 6140
6140 6227
6227 6314
6314 6401
6401 6448
6448 6558
6558 6651
6651 6741
6741 6828
6828 6915
6915 7002
7002 7090
7090 7177
7177 7330
7330 7426
7426 7517
7517 7605
7605 7693
7693 7742
7742 7855
7855 7949
7949 8075
8075 8164
8164 8254
8254 8341
8341 8428
8428 8515
8515 8603
8603 8691
8691 8779
8779 8868
8868 8955
8955 9041
9041 9129
9129 9216
9216 9302
9302 9388
9388 9474
9474 9559
9559 9644
9644 9730
9730 9782
9782 9892
9892 9959
9959 10131
10131 10224
10224 10313
10313 10401
10401 10488
10488 10575
10575 10662
10662 10749
10749 10902
10902 10995
10995 11047
11047 11137
11137 11226
11226 11314
11314 11401
11401 11487
11487 11574
11574 11620
11620 11736
11736 11831
11831 11923
11923 12014
12014 12075
12075 12168
12168 12262
12262 12355
12355 12448
12448 12538
12538 12629
12629 12720
12720 12809
12809 12857
12857 12972
12972 13081
13081 13168
13168 13256
13256 13343
13343 13497
13497 13589
13589 13744
13744 13839
13839 13929
13929 14018
14018 14116
14116 14204
14204 14292
14292 14382
14382 14470
14470 14557
14557 14645
14645 14732
14732 14886
14886 14979
14979 15067
15067 15155
15155 15242
15242 15395
15395 15487
15487 15576
15576 15664
15664 15752
15752 15839
15839 15926
15926 16014
16014 16067
16067 16158
16158 16249
16249 16341
16341 16431
16431 16522
16522 16613
16613 16703
16703 16792
16792 16882
16882 17043
17043 17138
17138 17230
17230 17321
17321 17413
17413 17504
17504 17594
17594 17684
17684 17775
17775 17865
17865 17956
17956 18086
18086 18173
18173 18260
18260 18412
18412 18454
18454 18545
18545 18635
18635 18723
18723 18812
18812 18875
18875 18964
18964 19053
19053 19142
19142 19231
19231 19277
19277 19392
19392 19486
19486 19575
19575 19665
19665 19753
19753 19841
19841 19929
19929 20017
20017 20172
20172 20264
20264 20355
20355 20444
20444 20534
20534 20624
20624 20716
20716 20811
20811 20903
20903 20994
20994 21049
21049 21134
21134 21281
21281 21345
21345 21430
21430 21516
21516 21601
21601 21726
21726 21818
21818 21910
21910 22000
22000 22088
22088 22177
22177 22266
22266 22356
22356 22445
22445 22534
22534 22624
22624 22712
22712 22800
22800 22887
22887 22974
22974 23054
23054 23142
