158 238
238 315
315 393
393 473
473 550
550 629
629 706
706 782
782 862
862 939
939 1016
1016 1097
1097 1178
1178 1259
1259 1339
1339 1419
1419 1498
1498 1577
1577 1656
1656 1734
1734 1812
1812 1890
1890 1968
1968 2045
2045 2122
2122 2202
2202 2279
2279 2356
2356 2435
2435 2512
2512 2589
2589 2667
2667 2745
2745 2823
2823 2900
2900 2980
2980 3057
3057 3136
3136 3214
3214 3292
3292 3373
3373 3452
3452 3530
3530 3612
3612 3690
3690 3769
3769 3850
3850 3929
3929 4009
4009 4087
4087 4166
4166 4245
4245 4324
4324 4402
4402 4481
4481 4561
4561 4640
4640 4719
4719 4797
4797 4877
4877 4955
4955 5034
5034 5116
5116 5194
5194 5273
5273 5352
5352 5432
5432 5511
5511 5591
5591 5673
5673 5752
5752 5832
5832 5911
5911 5994
5994 6073
6073 6153
6153 6233
6233 6315
6315 6394
6394 6474
6474 6556
6556 6636
6636 6717
6717 6799
6799 6879
6879 6960
6960 7040
7040 7123
7123 7204
7204 7284
7284 7364
7364 7446
7446 7526
7526 7607
7607 7690
7690 7770
7770 7852
7852 7933
7933 8016
8016 8097
8097 8178
8178 8259
8259 8342
8342 8423
8423 8504
8504 8585
8585 8668
8668 8749
8749 8830
8830 8911
8911 8994
8994 9075
9075 9158
9158 9238
9238 9322
9322 9404
9404 9485
9485 9567
9567 9650
9650 9731
9731 9813
9813 9894
9894 9978
9978 10059
10059 10141
10141 10223
10223 10307
10307 10388
10388 10471
10471 10553
10553 10636
10636 10719
10719 10801
10801 10884
10884 10964
10964 11048
11048 11129
11129 11211
11211 11293
11293 11376
11376 11458
11458 11540
11540 11622
11622 11707
11707 11788
11788 11870
11870 11952
11952 12035
12035 12117
12117 12199
12199 12283
12283 12365
12365 12447
12447 12529
12529 12613
12613 12695
12695 12777
12777 12858
12858 12941
12941 13023
13023 13105
13105 13185
13185 13268
13268 13349
13349 13430
13430 13510
13510 13593
13593 13673
13673 13754
13754 13835
13835 13918
13918 13999
13999 14080
14080 14161
14161 14245
14245 14326
14326 14409
14409 14491
14491 14573
14573 14658
14658 14740
14740 14823
14823 14906
14906 14988
14988 15071
15071 15154
15154 15238
15238 15320
15320 15403
15403 15485
15485 15568
15568 15653
15653 15736
15736 15818
15818 15901
15901 15983
15983 16068
16068 16151
16151 16233
16233 16316
16316 16399
16399 16484
16484 16566
16566 16649
16649 16732
16732 16817
16817 16899
16899 16981
16981 17064
17064 17146
17146 17231
17231 17314
17314 17396
17396 17479
17479 17563
17563 17646
17646 17729
17729 17812
17812 17894
17894 17978
17978 18060
18060 18143
18143 18225
18225 18307
18307 18392
18392 18474
18474 18556
18556 18637
18637 18722
18722 18803
18803 18885
18885 18967
18967 19052
19052 19134
19134 19216
19216 19298
19298 19382
19382 19465
19465 19547
19547 19630
19630 19713
19713 19796
19796 19879
19879 19962
19962 20045
20045 20128
20128 20211
20211 20293
20293 20375
20375 20458
20458 20540
20540 20622
20622 20703
20703 20787
20787 20869
20869 20950
20950 21032
21032 21114
21114 21196
21196 21278
21278 21359
21359 21440
21440 21522
21522 21603
21603 21684
21684 21765
21765 21847
21847 21929
21929 22010
22010 22091
22091 22172
22172 22257
22257 22339
22339 22421
22421 22504
22504 22586
22586 22670
22670 22753
22753 22837
22837 22920
22920 23003
23003 23086
23086 23170
23170 23253
23253 23336
23336 23418
23418 23501
23501 23586
23586 23669
23669 23753
23753 23836
23836 23919
23919 24003
24003 24087
24087 24170
24170 24254
24254 24337
24337 24420
24420 24502
24502 24586
24586 24669
24669 24752
24752 24835
24835 24917
24917 25002
25002 25084
25084 25167
25167 25250
25250 25333
25333 25418
25418 25502
25502 25586
25586 25670
25670 25754
25754 25839
25839 25923
25923 26006
26006 26090
26090 26174
26174 26257
26257 26340
26340 26423
26423 26507
26507 26589
26589 26672
26672 26754
26754 26838
26838 26920
26920 27002
27002 27084
27084 27166
27166 27249
27249 27331
27331 27413
27413 27494
27494 27577
27577 27658
27658 27740
27740 27821
27821 27904
27904 27985
27985 28067
28067 28148
28148 28230
28230 28314
28314 28395
28395 28477
28477 28559
28559 28641
28641 28726
28726 28807
28807 28889
28889 28971
28971 29052
29052 29135
29135 29217
29217 29299
29299 29382
29382 29464
29464 29547
29547 29631
29631 29714
29714 29797
29797 29879
29879 29962
29962 30046
30046 30129
30129 30212
30212 30295
30295 30378
30378 30463
30463 30547
30547 30630
30630 30714
30714 30797
30797 30882
30882 30965
30965 31049
31049 31132
31132 31215
31215 31299
31299 31382
31382 31464
31464 31546
31546 31629
31629 31712
31712 31795
31795 31877
31877 31960
31960 32042
32042 32125
32125 32210
32210 32293
32293 32376
32376 32455
32455 32543
32543 32628
32628 32712
32712 32796
32796 32880
32880 32964
32964 33048
33048 33134
33134 33218
33218 33302
33302 33386
33386 33470
33470 33555
33555 33639
33639 33723
33723 33807
33807 33890
33890 33975
33975 34059
34059 34142
34142 34226
34226 34310
34310 34393
34393 34478
34478 34562
34562 34645
34645 34729
34729 34812
34812 34896
34896 34979
34979 35063
35063 35147
35147 35231
35231 35315
35315 35400
35400 35484
35484 35568
35568 35652
35652 35736
35736 35821
35821 35905
35905 35989
35989 36073
36073 36156
36156 36240
36240 36322
36322 36405
36405 36488
36488 36572
36572 36655
36655 36738
36738 36821
36821 36903
36903 36987
36987 37071
37071 37154
37154 37237
37237 37320
37320 37404
37404 37487
37487 37570
37570 37654
37654 37737
37737 37821
37821 37905
37905 37989
37989 38072
38072 38155
38155 38239
38239 38323
38323 38407
38407 38491
38491 38575
38575 38661
38661 38745
38745 38829
38829 38914
38914 38998
38998 39082
39082 39166
39166 39250
39250 39335
39335 39420
39420 39504
39504 39590
39590 39674
39674 39760
39760 39846
39846 39932
39932 40017
40017 40103
40103 40189
40189 40276
40276 40362
40362 40447
40447 40532
40532 40617
40617 40703
40703 40788
40788 40874
40874 40958
40958 41043
41043 41130
41130 41215
41215 41300
41300 41385
41385 41472
41472 41556
41556 41643
41643 41729
41729 41814
41814 41900
41900 41987
41987 42072
42072 42159
42159 42245
42245 42330
42330 42415
42415 42501
42501 42587
42587 42673
42673 42758
42758 42843
42843 42929
42929 43016
43016 43102
43102 43188
43188 43274
43274 43359
43359 43445
43445 43531
43531 43617
43617 43702
43702 43787
43787 43873
43873 43958
43958 44042
44042 44128
44128 44212
44212 44297
44297 44383
44383 44468
44468 44552
44552 44637
44637 44721
44721 44807
44807 44893
44893 44978
44978 45063
45063 45148
45148 45233
45233 45318
45318 45403
45403 45487
45487 45572
45572 45657
45657 45743
45743 45827
45827 45912
45912 45997
45997 46081
46081 46167
46167 46252
46252 46336
46336 46421
46421 46505
46505 46591
46591 46675
46675 46760
46760 46844
46844 46929
46929 47013
47013 47100
47100 47184
47184 47269
47269 47354
47354 47439
47439 47524
47524 47610
47610 47695
47695 47780
47780 47866
47866 47951
47951 48037
48037 48122
48122 48208
48208 48293
48293 48378
48378 48463
48463 48550
48550 48635
48635 48720
48720 48805
48805 48891
48891 48976
48976 49062
49062 49148
49148 49233
49233 49319
49319 49405
49405 49491
49491 49577
49577 49662
49662 49748
49748 49833
49833 49920
49920 50006
50006 50092
50092 50178
50178 50263
50263 50350
50350 50435
50435 50521
50521 50605
50605 50690
50690 50774
50774 50860
50860 50945
50945 51029
51029 51113
51113 51198
51198 51282
51282 51366
51366 51451
51451 51535
51535 51619
51619 51704
51704 51789
51789 51874
51874 51958
51958 52043
52043 52127
52127 52213
52213 52299
52299 52385
52385 52470
52470 52554
52554 52639
52639 52725
52725 52809
52809 52894
52894 52978
52978 53062
53062 53148
53148 53232
53232 53316
53316 53400
53400 53484
53484 53569
53569 53655
53655 53739
53739 53824
53824 53908
53908 53993
53993 54078
54078 54164
54164 54249
54249 54334
54334 54420
54420 54505
54505 54590
54590 54676
54676 54762
54762 54847
54847 54932
54932 55017
55017 55102
55102 55188
55188 55273
55273 55357
55357 55442
55442 55527
55527 55613
55613 55698
55698 55783
55783 55868
55868 55955
55955 56039
56039 56125
56125 56211
56211 56297
56297 56382
56382 56467
56467 56553
56553 56639
56639 56724
56724 56809
56809 56894
56894 56979
56979 57063
57063 57149
57149 57235
57235 57322
57322 57408
57408 57494
57494 57580
57580 57667
57667 57753
57753 57840
57840 57927
57927 58013
58013 58100
58100 58187
58187 58272
58272 58358
58358 58443
58443 58527
58527 58613
58613 58698
58698 58783
58783 58868
58868 58952
58952 59035
59035 59119
59119 59202
59202 59285
59285 59367
59367 59448
59448 59528
59528 59611
59611 59690
59690 59770
59770 59853
59853 59931
59931 60011
60011 60090
60090 60172
60172 60250
60250 60330
60330 60409
60409 60488
60488 60567
60567 60646
60646 60726
60726 60804
60804 60883
60883 60961
60961 61043
61043 61121
61121 61199
61199 61277
61277 61358
61358 61436
61436 61514
61514 61596
61596 61674
61674 61752
61752 61831
61831 61912
61912 61990
61990 62068
62068 62149
62149 62227
62227 62306
62306 62385
62385 62468
62468 62546
62546 62626
62626 62705
62705 62788
62788 62866
62866 62946
62946 63025
63025 63107
63107 63186
63186 63265
63265 63345
63345 63425
63425 63507
63507 63587
63587 63667
63667 63747
63747 63827
63827 63910
63910 63990
63990 64070
64070 64151
64151 64232
64232 64311
64311 64391
64391 64472
64472 64551
64551 64630
64630 64713
64713 64791
64791 64869
64869 64947
64947 65028
65028 65106
65106 65184
65184 65265
65265 65342
65342 65421
65421 65501
65501 65579
65579 65658
65658 65739
65739 65816
65816 65894
65894 65975
65975 66052
66052 66130
66130 66211
66211 66288
66288 66366
66366 66445
66445 66525
66525 66602
66602 66680
66680 66758
66758 66836
66836 66917
66917 66994
66994 67072
67072 67154
67154 67231
67231 67310
67310 67391
67391 67469
67469 67548
67548 67626
67626 67708
67708 67786
67786 67865
67865 67943
67943 68025
68025 68103
68103 68182
68182 68263
68263 68341
68341 68420
68420 68500
68500 68581
68581 68660
68660 68740
68740 68820
68820 68900
68900 68980
68980 69061
69061 69141
69141 69222
69222 69302
69302 69383
69383 69463
69463 69544
69544 69624
69624 69706
69706 69786
69786 69866
69866 69946
69946 70030
70030 70110
70110 70190
70190 70271
70271 70354
70354 70434
70434 70515
70515 70596
70596 70680
70680 70760
70760 70842
70842 70923
70923 71004
71004 71086
71086 71167
71167 71248
71248 71329
71329 71413
71413 71494
71494 71575
71575 71656
71656 71740
