238 302
302 367
367 431
431 496
496 560
560 624
624 688
688 752
752 816
816 879
879 943
943 1006
1006 1069
1069 1132
1132 1196
1322 1386
1386 1449
1449 1513
1513 1576
1576 1641
1641 1705
1705 1769
1769 1833
1833 1898
1898 1963
1963 2027
2027 2089
2089 2154
2154 2219
2219 2283
2283 2348
2348 2412
2412 2476
2476 2540
2540 2604
2604 2668
2668 2731
2731 2795
2795 2858
2858 2921
2921 2984
2984 3047
3047 3110
3110 3174
3174 3237
3237 3300
3300 3364
3364 3427
3427 3530
3530 3595
3595 3660
3660 3725
3725 3790
3790 3855
3855 3921
3921 3986
3986 4051
4051 4117
4117 4183
4183 4248
4248 4314
4314 4379
4379 4445
4445 4510
4510 4576
4576 4641
4641 4706
4706 4771
4771 4835
4835 4900
4900 4965
4965 5030
5030 5113
5113 5177
5177 5241
5241 5305
5305 5369
5369 5433
5433 5497
5497 5560
5560 5624
5624 5688
5688 5752
5752 5815
5815 5879
5879 5942
5942 6006
6006 6070
6070 6134
6134 6198
6198 6301
6301 6366
6366 6431
6431 6495
6495 6560
6560 6625
6625 6691
6691 6756
6756 6820
6820 6885
6885 6950
6950 7014
7014 7079
7079 7143
7143 7208
7208 7272
7272 7336
7336 7400
7400 7464
7464 7527
7527 7591
7591 7655
7655 7718
7718 7782
7782 7845
7845 7909
7909 7972
7972 8043
8043 8108
8108 8173
8173 8238
8238 8303
8303 8368
8368 8432
8432 8496
8496 8561
8561 8625
8625 8689
8689 8754
8754 8819
8819 8883
8883 8948
8948 9039
9039 9102
9102 9165
9165 9229
9229 9292
9292 9341
9341 9414
9414 9478
9478 9542
9542 9605
9605 9668
9668 9731
9731 9794
9794 9857
9857 9921
9921 9984
9984 10022
10022 10085
10085 10149
10149 10212
10212 10276
10276 10340
10340 10405
10405 10469
10469 10533
10533 10598
10598 10662
10662 10727
10727 10792
10792 10857
10857 10921
10921 10985
10985 11034
11034 11097
11097 11159
11159 11221
11221 11284
11284 11346
11346 11409
11409 11471
11471 11534
11534 11598
11598 11661
11661 11724
11724 11788
11788 11851
11851 11915
11915 11978
11978 12017
12017 12080
12080 12144
12144 12207
12207 12270
12270 12334
12334 12397
12397 12460
12460 12524
12524 12587
12587 12651
12651 12715
12715 12778
12778 12842
12842 12906
12906 12970
12970 13034
13034 13098
13098 13162
13162 13226
13226 13290
13290 13354
13354 13417
13417 13481
13481 13544
13544 13608
13608 13671
13671 13734
13734 13796
13796 13859
13859 13922
13922 13984
13984 14047
14047 14109
14109 14171
14171 14233
14233 14294
14294 14356
14356 14417
14417 14479
14479 14540
14540 14602
14602 14663
14663 14724
14724 14786
14786 14847
14847 14908
14908 14970
14970 15086
15086 15149
15149 15213
15213 15277
15277 15341
15341 15405
15405 15443
15443 15507
15507 15571
15571 15634
15634 15697
15697 15760
15760 15824
15824 15887
15887 15950
15950 16013
16013 16075
16075 16138
16138 16201
16201 16264
16264 16327
16327 16389
16389 16452
16452 16515
16515 16577
16577 16640
16640 16702
16702 16765
16765 16827
16827 16890
16890 16953
16953 17015
17015 17078
17078 17141
17141 17203
17203 17266
17266 17329
17329 17392
17392 17454
17454 17517
17517 17580
17580 17643
17643 17705
17705 17769
17769 17832
17832 17896
17896 17960
17960 18024
18024 18089
18089 18153
18153 18217
18217 18281
18281 18346
18346 18410
18410 18474
18474 18538
18538 18602
18602 18666
18666 18730
18730 18793
18793 18857
18857 18920
18920 18983
18983 19078
19078 19141
19141 19203
19203 19266
19266 19328
19328 19391
19391 19453
19453 19515
19515 19578
19578 19640
19640 19702
19702 19765
19765 19827
19827 19889
19889 19951
19951 20013
20013 20094
20094 20159
20159 20223
20223 20287
20287 20351
20351 20415
20415 20478
20478 20542
20542 20606
20606 20669
20669 20733
20733 20797
20797 20860
20860 20924
20924 20988
20988 21038
21038 21101
21101 21165
21165 21228
21228 21292
21292 21356
21356 21420
21420 21483
21483 21547
21547 21610
21610 21673
21673 21736
21736 21799
21799 21862
21862 21925
21925 21987
21987 22089
22089 22153
22153 22216
22216 22280
22280 22343
22343 22407
22407 22470
22470 22533
22533 22597
22597 22660
22660 22723
22723 22787
22787 22850
22850 22913
22913 22976
22976 23060
23060 23123
23123 23187
23187 23250
23250 23314
23314 23378
23378 23441
23441 23504
23504 23567
23567 23605
23605 23668
23668 23706
23706 23798
23798 23861
23861 23923
23923 23961
23961 24058
24058 24120
24120 24183
24183 24245
24245 24282
24282 24345
24345 24407
24407 24470
24470 24532
24532 24594
24594 24657
24657 24719
24719 24782
24782 24845
24845 24907
24907 24970
24970 25037
25037 25100
25100 25163
25163 25226
25226 25289
25289 25353
25353 25417
25417 25481
25481 25545
25545 25610
25610 25674
25674 25739
25739 25804
25804 25868
25868 25933
25933 25997
25997 26061
26061 26124
26124 26188
26188 26252
26252 26315
26315 26378
26378 26442
26442 26505
26505 26567
26567 26630
26630 26693
26693 26756
26756 26818
26818 26881
26881 26944
26944 27006
27006 27069
27069 27132
27132 27195
27195 27258
27258 27320
27320 27383
27383 27446
27446 27509
27509 27572
27572 27635
27635 27698
27698 27761
27761 27824
27824 27887
27887 27950
27950 28014
28014 28077
28077 28141
28141 28204
28204 28268
