36 115
115 191
191 271
271 351
351 429
429 508
508 587
587 666
666 744
744 822
822 901
901 980
980 1057
1057 1136
1136 1215
1215 1293
1293 1372
1372 1451
1451 1529
1529 1609
1609 1687
1687 1766
1766 1845
1845 1924
1924 1992
1992 2080
2080 2160
2160 2239
2239 2319
2319 2398
2398 2477
2477 2556
2556 2635
2635 2715
2715 2796
2796 2875
2875 2954
2954 3034
3034 3113
3113 3193
3193 3273
3273 3353
3353 3433
3433 3513
3513 3592
3592 3672
3672 3752
3752 3832
3832 3912
3912 3992
3992 4100
4100 4179
4179 4258
4258 4337
4337 4415
4415 4489
4489 4571
4571 4650
4729 4809
4809 4887
4887 4965
5098 5176
5176 5254
5254 5333
5333 5412
5412 5490
5490 5568
5568 5647
5647 5725
5725 5804
5804 5882
5882 5961
5961 6040
6040 6117
6117 6194
6194 6275
6275 6353
6353 6431
6431 6511
6511 6589
6589 6668
6668 6747
6747 6826
6826 6905
6905 6984
6984 7089
7089 7167
7167 7246
7246 7324
7324 7403
7403 7482
7482 7560
7560 7638
7638 7717
7717 7796
7796 7875
7875 7953
7953 8032
8032 8110
8110 8189
8189 8267
8267 8346
8346 8425
8425 8502
8502 8581
8581 8659
8659 8738
8738 8817
8817 8896
8896 8975
8975 9078
9078 9157
9157 9236
9236 9315
9315 9395
9395 9474
9474 9553
9553 9632
9632 9712
9712 9791
9791 9870
9870 9950
9950 10029
10029 10108
10108 10186
10186 10265
10265 10344
10344 10422
10422 10500
10500 10579
10579 10657
10657 10735
10735 10813
10813 10892
10892 10970
10970 11048
11048 11126
11126 11204
11204 11282
11282 11360
11360 11439
11439 11517
11517 11595
11595 11673
11673 11752
11752 11830
11830 11908
11908 11987
11987 12084
12084 12162
12162 12240
12240 12318
12318 12396
12396 12475
12475 12553
12553 12631
12631 12709
12709 12787
12787 12866
12866 12944
12944 13022
13022 13100
13100 13178
13178 13256
13256 13335
13335 13413
13413 13491
13491 13570
13570 13648
13648 13727
13727 13805
13805 13883
13883 13961
13961 14101
14101 14177
14177 14255
14255 14332
14332 14410
14410 14487
14487 14565
14565 14643
14643 14721
14721 14798
14798 14876
14876 14954
14954 15032
15032 15110
15110 15187
15187 15265
15265 15342
15342 15420
15420 15498
15498 15575
15575 15653
15653 15731
15731 15809
15809 15887
15887 15965
15965 16042
16042 16121
16121 16199
16199 16276
16276 16354
16354 16432
16432 16510
16510 16589
16589 16667
16667 16744
16744 16822
16822 16901
16901 16979
16979 17057
17057 17134
17134 17212
17212 17290
17290 17369
17369 17447
17447 17525
17525 17603
17603 17681
17681 17760
17760 17838
17838 17916
17916 17994
17994 18073
18073 18152
18152 18231
18231 18309
18309 18388
18388 18466
18466 18545
18545 18624
18624 18703
18703 18782
18782 18860
18860 18939
18939 19018
19018 19096
19096 19176
19176 19255
19255 19334
19334 19413
19413 19492
19492 19571
19571 19650
19650 19729
19729 19809
19809 19888
19888 19967
19967 20079
20079 20157
20157 20235
20235 20313
20313 20391
20391 20469
20469 20547
20547 20625
20625 20703
20703 20780
20780 20859
20859 20937
20937 21014
21014 21092
21092 21170
21170 21248
21248 21326
21326 21404
21404 21482
21482 21560
21560 21638
21638 21716
21716 21794
21794 21872
21872 21950
21950 22029
22029 22107
22107 22185
22185 22264
22264 22342
22342 22420
22420 22499
22499 22577
22577 22656
22656 22734
22734 22813
22813 22891
22891 22970
22970 23048
23048 23127
23127 23205
23205 23283
23283 23361
23361 23441
23441 23519
23519 23597
23597 23676
23676 23753
23753 23833
23833 23912
23912 23990
23990 24081
24081 24163
24163 24241
24241 24319
24319 24396
24396 24474
24474 24552
24552 24629
24629 24706
24706 24780
24780 24860
24860 24939
24939 25016
25016 25094
25094 25171
25171 25248
25248 25326
25326 25404
25404 25481
25481 25558
25558 25636
25636 25714
25714 25791
25791 25869
25869 25947
25947 26025
26025 26103
26103 26181
26181 26259
26259 26336
26336 26414
26414 26492
26492 26570
26570 26648
26648 26726
26726 26804
26804 26882
26882 26960
26960 27038
27038 27116
27116 27194
27194 27273
27273 27351
27351 27429
27429 27507
27507 27584
27584 27663
27663 27741
27741 27819
27819 27896
27896 27974
27974 28056
28056 28133
28133 28210
28210 28287
28287 28365
28365 28442
28442 28518
28518 28595
28595 28673
28673 28750
28750 28827
28827 28905
28905 28982
28982 29060
29060 29137
29137 29214
29214 29291
29291 29369
29369 29446
29446 29524
29524 29601
29601 29679
29679 29756
29756 29834
29834 29912
29912 29989
29989 30067
30067 30145
30145 30223
30223 30300
30300 30378
30378 30456
30456 30534
30534 30612
30612 30690
30690 30768
30768 30846
30846 30924
30924 31003
31003 31081
31081 31160
31160 31238
31238 31317
31317 31395
31395 31474
31474 31553
31553 31632
31632 31710
31710 31789
31789 31867
31867 31947
31947 32025
32025 32104
32104 32183
32183 32261
32261 32340
32340 32419
32419 32498
32498 32577
32577 32655
32655 32734
32734 32813
32813 32892
32892 32972
32972 33079
33079 33159
33159 33238
33238 33318
33318 33397
33397 33477
33477 33555
33555 33635
33635 33714
33714 33794
33794 33873
33873 33952
33952 34032
34032 34111
34111 34191
34191 34270
34270 34350
34350 34430
34430 34509
34509 34589
34589 34668
34668 34748
34748 34828
34828 34907
34907 34987
34987 35067
35067 35147
35147 35227
35227 35307
35307 35387
35387 35466
35466 35547
35547 35627
35627 35707
35707 35787
35787 35864
35864 35947
35947 36028
36028 36109
36109 36189
36189 36270
36270 36350
36350 36430
36430 36511
36511 36591
36591 36671
36671 36746
36746 36830
36830 36911
36911 36992
36992 37105
37105 37186
37186 37268
37268 37349
37349 37430
37430 37511
37511 37593
37593 37675
37675 37757
37757 37838
37838 37919
37919 38089
38089 38169
38169 38248
38248 38327
38327 38406
38406 38485
38485 38565
38565 38644
38644 38723
38723 38802
38802 38881
38881 38960
38960 39039
39039 39118
39118 39186
39186 39274
39274 39354
39354 39434
39434 39513
39513 39591
39591 39671
39671 39750
39750 39828
39828 39897
39897 39965
39965 40033
40033 40112
40112 40191
40191 40270
40270 40350
40350 40429
40429 40508
40508 40587
40587 40666
40666 40746
40746 40825
40825 40905
40905 40984
40984 41063
41063 41142
41142 41219
41219 41300
41300 41381
41381 41460
41460 41540
41540 41619
41619 41699
41699 41779
41779 41859
41859 41938
41938 42018
42018 42098
42098 42178
42178 42258
42258 42338
42338 42417
42417 42497
42497 42577
42577 42657
42657 42737
42737 42817
42817 42898
42898 42978
42978 43095
43095 43174
43174 43253
43253 43332
43332 43411
43411 43490
43490 43569
43569 43648
43648 43727
43727 43806
43806 43885
43885 43964
43964 44042
44042 44121
44121 44200
44200 44279
44279 44358
44358 44436
44436 44515
44515 44594
44594 44673
44673 44753
44753 44832
44832 44912
44912 44991
44991 45070
45070 45150
45150 45229
45229 45308
45308 45388
45388 45467
45467 45546
45546 45626
45626 45705
45705 45784
45784 45863
45863 45942
45942 46021
46021 46100
46100 46180
46180 46259
46259 46338
46338 46417
46417 46496
46496 46576
46576 46655
46655 46735
46735 46814
46814 46894
46894 46974
46974 47083
47083 47162
47162 47241
47241 47317
47317 47399
47399 47479
47479 47559
47559 47638
47638 47718
47718 47797
47797 47876
47876 47955
47955 48035
48035 48115
48115 48194
48194 48274
48274 48354
48354 48432
48432 48512
48512 48592
48592 48671
48671 48752
48752 48831
48831 48911
48911 48991
48991 49071
49071 49151
49151 49231
49231 49312
49312 49393
