3494 3606
3606 3719
3719 3832
4618 4730
5518 5630
5630 5742
5742 5855
6417 6529
6529 6642
6642 6754
7204 7317
7317 7430
7430 7543
7543 7656
8337 8451
8451 8564
8564 8678
8678 8791
9129 9242
10145 10259
10259 10372
10372 10485
12718 12831
15750 15861
15861 15973
15973 16084
16643 16755
16755 16866
16866 16977
17531 17642
17642 17753
19307 19419
19419 19530
21389 21498
22915 23026
23026 23104
28569 28679
29558 29669
31211 31321
31321 31430
31430 31516
31842 31951
31951 32130
32130 32240
32240 32349
32349 32459
32459 32568
32568 32677
32677 32788
32788 32899
32899 33010
33010 33120
33120 33231
33231 33342
33342 33452
33452 33562
33562 33671
33671 33784
33784 33894
33894 34005
34005 34114
34114 34224
34224 34334
34334 34444
34444 34554
34554 34664
34664 34773
34773 34883
34883 34992
34992 35101
35101 35214
35214 35324
35324 35434
35434 35544
35544 35654
35654 35764
35764 35874
35874 35982
35982 36091
36091 36202
36202 36311
36311 36420
36420 36530
36530 36639
36639 36750
36750 36859
36859 36967
36967 37077
37077 37187
37187 37297
37297 37407
37407 37517
37517 37627
37627 37736
37736 37844
37844 37956
37956 38066
38066 38175
38175 38284
38284 38393
38393 38502
38502 38612
38612 38718
38718 38826
38826 38937
38937 39046
39046 39155
39155 39264
39264 39373
39373 39482
39482 39592
39592 39702
39702 39811
39811 39919
39919 40028
40028 40139
40139 40248
40248 40357
40357 40467
40467 40577
40577 40687
40687 40797
40797 40906
40906 41014
41014 41126
41126 41237
41237 41347
41347 41458
41458 41568
41568 41678
41678 41787
41787 41896
41896 42008
42008 42119
42119 42228
42228 42338
42338 42448
42448 42557
42557 42667
42667 42776
42776 42883
42883 42995
42995 43104
43104 43213
43213 43322
43322 43430
43430 43539
43539 43648
43648 43755
43755 43862
43862 43972
43972 44082
44082 44191
44191 44301
44301 44411
44411 44520
44520 44630
44630 44738
44738 44850
44850 44960
44960 45070
45070 45179
45179 45289
45289 45398
45398 45505
45505 45588
45588 45697
45697 45806
45806 45915
45915 46024
46024 46133
46133 46243
46243 46353
46353 46463
46463 46571
46571 46684
46684 46794
46794 46904
46904 47015
47015 47124
47124 47235
47235 47346
47346 47456
47456 47565
47565 47677
47677 47788
47788 47898
47898 47983
47983 48067
48067 48176
48176 48286
48286 48396
48396 48505
48505 48613
48613 48726
48726 48836
48836 48947
48947 49057
49057 49167
49167 49278
49278 49385
49385 49497
49497 49607
49607 49718
49718 49828
49828 49938
49938 50047
50047 50157
50157 50266
50266 50375
50375 50486
50486 50596
50596 50706
50706 50816
50816 50927
50927 51037
51037 51147
51147 51257
51257 51368
51368 51476
51476 51672
51672 51782
51782 51892
51892 52002
52002 52113
52113 52223
52223 52333
52333 52442
52442 52550
52550 52662
52662 52772
52772 52881
52881 52990
52990 53099
53099 53209
53209 53318
53318 53426
53426 53539
53539 53649
53649 53759
53759 53869
53869 53979
53979 54090
54090 54200
54200 54310
54310 54419
54419 54532
54532 54644
54644 54755
54755 54866
54866 54977
54977 55086
55086 55195
55195 55306
55306 55417
55417 55528
55528 55638
55638 55749
55749 55860
55860 55971
55971 56081
56081 56190
56190 56302
56302 56413
56413 56524
56524 56635
56635 56746
56746 56857
56857 56968
56968 57079
57079 57190
57190 57300
57300 57409
57409 57521
57521 57632
57632 57742
57742 57853
57853 57963
57963 58074
58074 58185
58185 58295
58295 58403
58403 58516
58516 58626
58626 58736
58736 58845
58845 58955
58955 59065
59065 59176
59176 59286
59286 59397
59397 59506
59506 59615
59615 59728
59728 59839
59839 59949
59949 60059
60059 60169
60169 60279
60279 60389
60389 60497
60497 60606
60606 60715
60715 60825
60825 60935
60935 61045
61045 61155
61155 61265
61265 61374
61374 61482
61482 61590
61590 61700
61700 61808
61808 61917
61917 62026
62026 62134
62134 62243
62243 62352
62352 62460
62460 62567
62567 62677
62677 62787
62787 62896
62896 63005
63005 63115
63115 63223
63223 63330
63330 63441
63441 63550
63550 63659
63659 63768
63768 63877
63877 63986
63986 64095
64095 64204
64204 64316
64316 64426
64426 64536
64536 64646
64646 64755
64755 64865
64865 64974
64974 65083
65083 65191
65191 65304
65304 65414
65414 65524
65524 65634
65634 65743
65743 65853
65853 65963
65963 66073
66073 66181
66181 66291
66291 66401
66401 66511
66511 66621
66621 66731
66731 66841
66841 66951
66951 67062
67062 67173
67173 67282
67282 67395
67395 67506
67506 67618
67618 67729
67729 67841
67841 67952
67952 68064
68064 68176
68176 68286
68286 68400
68400 68512
68512 68625
68625 68737
68737 68848
68848 68960
68960 69071
69071 69182
69182 69291
69291 69404
69404 69515
69515 69627
69627 69738
69738 69849
69849 69959
69959 70070
70070 70181
70181 70292
70292 70402
70402 70514
70514 70626
70626 70738
70738 70850
70850 70963
70963 71074
71074 71186
71186 71297
71297 71407
71407 71521
71521 71633
71633 71745
71745 71857
