1607 1689
1689 1771
1853 1935
1935 2019
2019 2066
2066 2148
2148 2231
2231 2288
2616 2698
2698 2766
2858 2939
2939 3021
3021 3061
4118 4200
4200 4282
4282 4363
4363 4445
4445 4528
4528 4608
4608 4690
4690 4773
4773 4856
4856 4939
4939 5021
5021 5104
5104 5188
5188 5272
5272 5356
5356 5439
5439 5524
5524 5608
5608 5692
5692 5775
5775 5859
5859 5943
5943 6027
6027 6112
6112 6197
6197 6280
6280 6363
6363 6446
6446 6529
6529 6611
6611 6692
6692 6775
6775 6857
6857 6940
6940 6997
6997 7079
7079 7161
7161 7244
7244 7325
7325 7407
7407 7490
7490 7572
7572 7652
7652 7734
7734 7816
7816 7899
7899 7982
7982 8064
8064 8149
8149 8233
8233 8318
8318 8400
8400 8485
8485 8569
8569 8655
8655 8741
8741 8825
8825 8910
8910 8996
8996 9082
9082 9164
9164 9248
9248 9390
9390 9470
9470 9551
9551 9631
9631 9712
9712 9768
9768 9849
9849 9932
9932 10014
10014 10095
10095 10178
10178 10261
10261 10344
10344 10427
10427 10509
10509 10594
10594 10678
10678 10764
10764 10847
10847 10933
10933 11018
11018 11103
11103 11186
11186 11271
11271 11356
11356 11440
11440 11525
11525 11609
11609 11694
11694 11780
11780 11865
11865 11950
11950 12035
12035 12119
12119 12203
12203 12284
12284 12366
12366 12449
12449 12532
12532 12616
12616 12700
12700 12782
12782 12867
12867 12951
12951 13034
13034 13116
13116 13200
13200 13283
13283 13366
13366 13447
13447 13530
13530 13613
13613 13696
13696 13777
13777 13860
13860 13944
13944 14027
14027 14111
14111 14194
14194 14279
14279 14364
14364 14449
14449 14534
14534 14618
14618 14704
14704 14790
14790 14876
14876 14961
14961 15046
15046 15135
15135 15222
15222 15310
15310 15397
15397 15482
15482 15570
15570 15657
15657 15744
15744 15828
15828 15913
15913 16000
16000 16122
16122 16206
16729 16815
16815 16901
16901 16984
16984 17070
17070 17156
17156 17242
17242 17328
17328 17416
17416 17503
17503 17589
17589 17679
17679 17766
17766 17854
17854 17943
17943 18032
18032 18118
18118 18205
18205 18294
18294 18382
18382 18470
18470 18561
18561 18646
18646 18734
18734 18823
18823 18910
18910 18998
18998 19086
19086 19172
19172 19262
19262 19349
19349 19438
19438 19525
19525 19613
19613 19703
19703 19792
19792 19881
19881 19971
19971 20058
20058 20146
20146 20236
20236 20326
20326 20416
20416 20506
20506 20598
20598 20685
20685 20773
20773 20863
20863 20950
20950 21060
21060 21147
21147 21208
21208 21295
21295 21383
21383 21468
21468 21557
21557 21644
21644 21732
21732 21816
21816 21903
21903 21989
21989 22075
22075 22160
22160 22245
22245 22332
22332 22419
22419 22507
22507 22596
22596 22681
22681 22768
22768 22857
22857 22945
22945 23034
23034 23123
23123 23210
23210 23300
23300 23363
23363 23451
23451 23511
23511 23599
23599 23687
23687 23774
23774 23862
23862 23923
23923 24012
24012 24099
24099 24188
24188 24272
24272 24360
24360 24448
24448 24535
24535 24621
24621 24707
24707 24794
24794 24881
24881 24968
24968 25074
25074 25160
25160 25244
25244 25332
25332 25418
25418 25505
25505 25592
25592 25676
25676 25737
25737 25824
25824 25909
25909 25994
25994 26081
26081 26165
26165 26249
26249 26331
26331 26417
26417 26502
26502 26586
26586 26670
26670 26756
26756 26926
26926 26985
26985 27069
27069 27152
27152 27236
27236 27318
27318 27402
27402 27486
27486 27569
27569 27651
27651 27733
27733 27817
27817 27900
27900 27980
27980 28063
28063 28145
28145 28228
28228 28311
28311 28392
28392 28452
28452 28536
28536 28620
28620 28704
28704 28789
28789 28875
28875 28959
28959 29043
29043 29130
29130 29191
29191 29275
29275 29361
29361 29448
29448 29535
29535 29621
29621 29708
29708 29796
29796 29884
29884 29972
29972 30058
30058 30147
30147 30236
30236 30325
30325 30414
30414 30500
30500 30589
30589 30677
30677 30765
30765 30854
30854 30940
30940 31027
31027 31064
31064 31146
31146 31228
31228 31312
31312 31394
31394 31478
31478 31562
31562 31621
31621 31703
31703 31785
31785 31869
31869 31952
31952 32010
32010 32091
32091 32173
32173 32258
32258 32341
32341 32426
32426 32508
32508 32592
32592 32677
32677 32762
32762 32844
32844 32930
32930 33014
33014 33098
33098 33182
33182 33267
33267 33350
33350 33435
33435 33522
33522 33608
33608 33693
33693 33778
33778 33865
33865 33951
33951 34034
34034 34119
34119 34205
34205 34291
34291 34378
34378 34461
34461 34546
34546 34634
34634 34722
34722 34810
34810 34899
34899 34986
34986 35136
35136 35218
35218 35304
35304 35388
35388 35469
35469 35551
35551 35633
35633 35713
35713 35796
35796 35877
35877 35959
35959 36054
36054 36129
36129 36205
36205 36281
36281 36356
36356 36433
36433 36509
36509 36583
36583 36660
36660 36719
36719 36810
36810 36884
36884 36960
36960 37037
37037 37113
37113 37189
37189 37265
37265 37341
37341 37418
37418 37494
37494 37571
37571 37651
37651 37729
37729 37808
37808 37886
37886 37965
37965 38044
38044 38124
38124 38203
38203 38275
38275 38363
38363 38442
38442 38522
38522 38601
38601 38682
38682 38762
38762 38843
38843 38923
38923 39004
39004 39083
39083 39164
39164 39244
39244 39324
39324 39405
39405 39484
39484 39565
39565 39646
39646 39726
39726 39806
39806 39886
39886 39965
39965 40059
40059 40139
40139 40217
40217 40297
40297 40378
40378 40458
40458 40540
40540 40596
40596 40677
40677 40759
40759 40841
40841 40923
40923 41003
41003 41086
41086 41167
41167 41250
41250 41333
41333 41414
41414 41497
41497 41580
41580 41664
41664 41720
41720 41804
41804 41887
41887 41972
41972 42054
42054 42138
42138 42224
42224 42309
42309 42391
42391 42475
42475 42560
42560 42643
42643 42723
42723 42804
42804 42884
42884 42964
42964 43043
43043 43123
43123 43203
43203 43284
43284 43365
43365 43446
43446 43527
43527 43608
43608 43690
43690 43770
43770 43852
43852 43933
43933 44013
44013 44094
44094 44175
44175 44256
44256 44338
44338 44420
44420 44502
44502 44584
44584 44668
44668 44751
44751 44834
44834 44915
44915 44998
44998 45037
45037 45122
45122 45206
45206 45291
