194 265
265 336
336 408
408 479
621 692
692 762
762 831
831 876
831 876
1048 1116
1048 1116
1116 1182
1272 1343
1343 1415
1560 1631
1631 1702
1702 1773
1773 1846
1846 1917
1917 2036
2036 2109
2109 2180
2180 2254
2254 2326
2326 2399
2399 2471
2471 2544
2544 2617
2617 2690
2690 2762
2762 2835
2835 2908
2908 2980
2980 3053
3053 3125
3125 3199
3199 3271
3271 3344
3344 3415
3415 3489
3489 3561
3561 3634
3634 3706
3706 3778
3778 3851
3851 3924
3924 3997
3997 4070
4070 4144
4144 4218
4218 4293
4293 4367
4367 4441
4441 4515
4515 4589
4589 4663
4663 4736
4736 4809
4809 4881
4881 4954
4954 5027
5027 5100
5100 5172
5172 5246
5246 5319
5319 5392
5392 5465
5465 5538
5538 5610
5610 5685
5685 5759
5759 5833
5833 5906
5906 5981
5981 6055
6055 6129
6129 6203
6203 6351
6351 6424
6424 6496
6496 6569
6569 6640
6640 6714
6714 6788
6788 6861
6861 6935
6935 7007
7007 7090
7090 7160
7160 7232
7232 7304
7304 7376
7376 7447
7447 7518
7518 7592
7592 7663
7663 7734
7734 7805
7805 7878
7878 7949
7949 8020
8020 8090
8090 8162
8162 8233
8233 8305
8305 8376
8376 8447
8447 8520
8520 8592
8592 8663
8663 8735
8735 8805
8805 8878
8878 8949
8949 9021
9021 9093
9093 9168
9168 9243
9243 9318
9318 9392
9392 9466
9466 9541
9541 9615
9615 9690
9690 9763
9763 9839
9839 9914
9914 9989
9989 10064
10064 10137
10137 10214
10214 10288
10288 10362
10362 10435
10435 10508
10508 10581
10581 10654
10654 10727
10727 10800
10800 10871
10871 10946
10946 11018
11018 11090
11090 11162
11162 11234
11234 11306
11306 11380
11380 11453
11453 11526
11526 11598
11598 11671
11671 11745
11745 11817
11817 11890
11890 11962
11962 12069
12069 12141
12141 12212
12212 12284
12284 12358
12358 12430
12430 12502
12502 12574
12574 12645
12645 12717
12717 12791
12791 12864
12864 12936
12936 13008
13008 13104
13104 13177
13177 13250
13250 13321
13321 13393
13393 13466
13466 13539
13539 13612
13612 13684
13684 13759
13759 13832
13832 13881
13881 13928
13928 14002
14002 14126
14126 14196
14196 14267
14267 14337
14337 14408
14408 14480
14480 14551
14551 14621
14621 14692
14692 14762
14762 14834
14834 14905
14905 14976
14976 15039
15039 15115
15115 15185
15185 15256
15256 15326
15326 15397
15397 15468
15468 15539
15539 15610
15610 15681
15681 15751
15751 15823
15823 15894
15894 15965
15965 16036
16036 16108
16108 16180
16180 16251
16251 16322
16322 16395
16395 16466
16466 16538
16538 16610
16610 16681
16681 16753
16753 16824
16824 16895
16895 16966
16966 17037
17037 17108
17108 17182
17182 17253
17253 17324
17324 17396
17396 17467
17467 17540
17540 17612
17612 17684
17684 17756
17756 17827
17827 17901
17901 17974
17974 18046
18046 18119
18119 18191
18191 18261
18261 18337
18337 18410
18410 18483
18483 18557
18557 18630
18630 18704
18704 18778
18778 18851
18851 18925
18925 18999
18999 19073
19073 19146
19146 19220
19220 19295
19295 19369
19369 19442
19442 19515
19515 19589
19589 19664
19664 19738
19738 19812
19812 19885
19885 19959
19959 20033
20033 20106
20106 20180
20180 20253
20253 20327
20327 20401
20401 20475
20475 20549
20549 20622
20622 20697
20697 20771
20771 20845
20845 20919
20919 20992
20992 21067
21067 21141
21141 21215
21215 21287
21287 21339
21339 21422
21422 21497
21497 21570
21570 21643
21643 21716
21716 21790
21790 21864
21864 21937
21937 22010
22010 22086
22086 22160
22160 22234
22234 22307
22307 22381
22381 22455
22455 22529
22529 22603
22603 22677
22677 22752
22752 22826
22826 22900
22900 22973
22973 23047
23047 23121
23121 23195
23195 23268
23268 23342
23342 23416
23416 23490
23490 23564
23564 23638
23638 23711
23711 23785
23785 23858
23858 23931
23931 24003
24003 24061
24061 24133
24133 24206
24206 24279
24279 24352
24352 24425
24425 24498
24498 24571
24571 24644
24644 24716
24716 24789
24789 24862
24862 24935
24935 25007
25007 25079
25079 25151
25151 25223
25223 25297
25297 25369
25369 25441
25441 25513
25513 25585
25585 25658
25658 25731
25731 25803
25803 25875
25875 25947
25947 26020
26020 26061
26061 26134
26134 26208
26208 26281
26281 26354
26354 26428
26428 26502
26502 26575
26575 26649
26649 26722
26722 26797
26797 26869
26869 26942
26942 27015
27015 27064
27064 27125
27125 27187
27187 27248
27248 27311
27311 27372
27372 27434
27434 27496
27496 27560
27560 27596
27596 27660
27660 27721
27721 27784
27784 27845
27845 27908
27908 27969
27969 28031
28031 28094
28094 28155
28155 28220
28220 28281
28281 28343
28343 28406
28406 28471
28471 28535
28535 28597
28597 28660
28660 28721
28721 28786
28786 28849
28849 28914
28914 28976
28976 29039
29039 29102
29102 29188
29188 29255
29255 29325
29325 29395
29395 29464
29464 29534
29534 29602
29602 29673
29673 29742
29742 29812
29812 29881
29881 29950
29950 30020
30020 30122
30122 30192
30192 30262
30262 30332
30332 30402
30402 30473
30473 30543
30543 30615
30615 30686
30686 30757
30757 30827
30827 30898
30898 30971
30971 31096
31096 31169
31169 31240
31240 31312
31312 31384
31384 31456
31456 31527
31527 31598
31598 31669
31669 31741
31741 31787
31787 31859
31859 31930
31930 32003
32003 32075
32075 32147
32147 32219
32219 32291
32291 32362
32362 32435
32435 32507
32507 32579
32579 32651
32651 32723
32723 32796
32796 32869
32869 32942
32942 33015
33015 33089
33089 33163
33163 33236
33236 33383
33383 33457
33457 33530
33530 33601
33601 33673
33673 33744
33744 33815
33815 33887
33887 33958
33958 34029
34029 34076
34076 34147
34147 34219
34219 34291
34291 34363
34363 34436
34436 34508
34508 34581
34581 34655
34655 34728
34728 34800
34800 34873
34873 34945
34945 35018
35018 35090
35090 35162
35162 35234
35234 35305
35305 35377
35377 35450
35450 35522
35522 35594
35594 35666
35666 35736
35736 35809
35809 35879
35879 35950
35950 36055
36055 36126
36126 36197
36197 36268
36268 36340
36340 36411
36411 36481
36481 36552
36552 36622
36622 36694
36694 36765
36765 36835
36835 36906
36906 36977
36977 37048
37048 37118
37118 37188
37188 37257
37257 37327
37327 37398
37398 37468
37468 37538
37538 37608
37608 37679
37679 37751
37751 37822
37822 37892
37892 37938
37938 38009
38009 38081
38081 38152
38152 38224
38224 38296
38296 38369
38369 38441
38441 38512
38512 38583
38583 38653
38653 38725
38725 38796
38796 38867
38867 38938
38938 39008
39008 39047
39047 39119
39119 39190
39190 39263
39263 39335
39335 39408
39408 39481
39481 39553
39553 39627
39627 39700
39700 39773
39773 39844
39844 39918
39918 39989
39989 40061
40061 40132
40132 40202
40202 40274
40274 40345
40345 40416
40416 40487
40487 40558
40558 40631
40631 40702
40702 40774
40774 40846
40846 40917
40917 40990
40990 41031
41031 41101
41101 41170
