149 237
237 325
325 413
413 501
501 590
590 678
678 766
766 854
854 942
942 1030
1030 1119
1119 1207
1207 1295
1295 1383
1383 1471
1471 1559
1559 1647
1647 1735
1735 1824
1824 1912
1912 2000
2000 2088
2088 2176
2176 2264
2264 2352
2352 2440
2440 2528
2528 2616
2616 2705
2705 2793
2793 2881
2881 2969
2969 3057
3057 3145
3145 3233
3233 3322
3322 3410
3410 3498
3498 3586
3586 3675
3675 3763
3763 3851
3851 3939
3939 4027
4027 4116
4116 4204
4204 4292
4292 4380
4380 4468
4468 4556
4556 4644
4644 4732
4732 4821
4821 4909
4909 4997
4997 5085
5085 5173
5173 5262
5262 5350
5350 5438
5438 5526
5526 5615
5615 5703
5703 5791
5791 5879
5879 5968
5968 6056
6056 6144
6144 6233
6233 6321
6321 6410
6410 6498
6498 6586
6586 6675
6675 6763
6763 6851
6851 6939
6939 7027
7027 7116
7116 7204
7204 7292
7292 7381
7381 7469
7469 7557
7557 7645
7645 7733
7733 7822
7822 7910
7910 7998
7998 8086
8086 8174
8174 8263
8263 8351
8351 8439
8439 8527
8527 8615
8615 8703
8703 8792
8792 8880
8880 8968
8968 9056
9056 9145
9145 9233
9233 9321
9321 9410
9410 9498
9498 9586
9586 9675
9675 9763
9763 9851
9851 9939
9939 10028
10028 10116
10116 10204
10204 10293
10293 10381
10381 10469
10469 10558
10558 10646
10646 10735
10735 10823
10823 10912
10912 11000
11000 11089
11089 11177
11177 11266
11266 11354
11354 11443
11443 11531
11531 11620
11620 11708
11708 11796
11796 11885
11885 11973
11973 12062
12062 12150
12150 12239
12239 12327
12327 12416
12416 12505
12505 12593
12593 12682
12682 12770
12770 12859
12859 12947
12947 13036
13036 13124
13124 13213
13213 13301
13301 13390
13390 13479
13479 13567
13567 13656
13656 13745
13745 13833
13833 13922
13922 14011
14011 14100
14100 14188
14188 14277
14277 14366
14366 14455
14455 14543
14543 14632
14632 14721
14721 14810
14810 14898
14898 14987
14987 15076
15076 15165
15165 15254
15254 15343
15343 15432
15432 15521
15521 15609
15609 15699
15699 15788
15788 15876
15876 15965
15965 16054
16054 16143
16143 16232
16232 16320
16320 16409
16409 16498
16498 16587
16587 16676
16676 16764
16764 16853
16853 16942
16942 17031
17031 17120
17120 17209
17209 17298
17298 17387
17387 17475
17475 17564
17564 17653
17653 17742
17742 17831
17831 17920
17920 18009
18009 18098
18098 18186
18186 18275
18275 18364
18364 18453
18453 18542
18542 18631
18631 18720
18720 18809
18809 18898
18898 18986
18986 19076
19076 19165
19165 19253
19253 19342
19342 19431
19431 19520
19520 19609
19609 19698
19698 19787
19787 19876
19876 19964
19964 20053
20053 20142
20142 20231
20231 20320
20320 20408
20408 20497
20497 20586
20586 20675
20675 20764
20764 20853
20853 20942
20942 21031
21031 21120
21120 21209
21209 21298
21298 21387
21387 21476
21476 21564
21564 21653
21653 21742
21742 21831
21831 21920
21920 22009
22009 22098
22098 22187
22187 22275
22275 22364
22364 22453
22453 22542
22542 22631
22631 22720
22720 22809
22809 22898
22898 22987
22987 23076
23076 23165
23165 23254
23254 23342
23342 23431
23431 23520
23520 23609
23609 23698
23698 23786
23786 23875
23875 23964
23964 24053
24053 24142
24142 24230
24230 24319
24319 24408
24408 24497
24497 24585
24585 24674
24674 24763
24763 24851
24851 24940
24940 25028
25028 25117
25117 25205
25205 25294
25294 25383
25383 25472
25472 25560
25560 25649
25649 25738
25738 25827
25827 25915
25915 26004
26004 26093
26093 26182
26182 26271
26271 26359
26359 26448
26448 26537
26537 26626
26626 26714
26714 26803
26803 26892
26892 26981
26981 27070
27070 27158
27158 27247
27247 27336
27336 27425
27425 27514
27514 27602
27602 27691
27691 27780
27780 27869
27869 27958
27958 28046
28046 28135
28135 28224
28224 28312
28312 28401
28401 28490
28490 28579
28579 28667
28667 28756
28756 28845
28845 28934
28934 29023
29023 29111
29111 29201
29201 29289
29289 29378
29378 29467
29467 29556
29556 29645
29645 29734
29734 29823
29823 29911
29911 30000
30000 30089
30089 30178
30178 30266
30266 30355
30355 30444
30444 30532
30532 30621
30621 30710
30710 30799
30799 30887
30887 30976
30976 31065
31065 31154
31154 31243
31243 31331
31331 31420
31420 31509
31509 31598
31598 31686
31686 31775
31775 31864
31864 31952
31952 32041
32041 32129
32129 32218
32218 32307
32307 32395
32395 32484
32484 32573
32573 32661
32661 32750
32750 32839
32839 32927
32927 33016
33016 33105
33105 33194
33194 33283
33283 33372
33372 33460
33460 33549
33549 33638
33638 33727
33727 33816
33816 33905
33905 33993
33993 34082
34082 34171
34171 34260
34260 34349
34349 34438
34438 34527
34527 34616
34616 34705
34705 34794
34794 34883
34883 34972
34972 35060
35060 35149
35149 35238
35238 35327
35327 35416
35416 35505
35505 35594
35594 35683
35683 35772
35772 35861
35861 35951
35951 36040
36040 36129
36129 36218
36218 36307
36307 36396
36396 36485
36485 36574
36574 36663
36663 36752
36752 36841
36841 36930
36930 37019
37019 37108
37108 37197
37197 37286
37286 37375
37375 37464
37464 37553
37553 37642
37642 37731
37731 37820
37820 37909
37909 37998
37998 38087
38087 38176
38176 38265
38265 38353
38353 38442
38442 38531
38531 38620
38620 38709
38709 38798
38798 38887
38887 38976
38976 39065
39065 39154
39154 39243
39243 39332
39332 39421
39421 39509
39509 39598
39598 39687
39687 39776
39776 39865
39865 39954
39954 40043
40043 40132
40132 40221
40221 40310
40310 40399
40399 40488
40488 40577
40577 40666
40666 40755
40755 40844
40844 40933
40933 41022
41022 41111
41111 41200
41200 41290
41290 41379
41379 41468
41468 41557
41557 41646
41646 41735
41735 41824
41824 41913
41913 42002
42002 42091
42091 42180
42180 42269
42269 42358
42358 42447
42447 42536
42536 42625
42625 42714
42714 42804
42804 42893
42893 42982
42982 43071
43071 43160
43160 43249
43249 43338
43338 43427
43427 43517
43517 43606
43606 43695
43695 43784
43784 43873
43873 43962
43962 44051
44051 44140
44140 44229
44229 44318
44318 44407
44407 44495
44495 44584
44584 44673
44673 44762
44762 44851
44851 44940
44940 45029
45029 45118
45118 45207
45207 45296
45296 45384
45384 45473
45473 45562
45562 45651
45651 45739
45739 45828
45828 45917
45917 46005
46005 46094
46094 46183
46183 46271
46271 46360
46360 46449
46449 46538
46538 46626
46626 46715
46715 46804
46804 46893
46893 46981
46981 47070
47070 47159
47159 47248
47248 47336
47336 47425
47425 47514
47514 47602
47602 47691
47691 47780
47780 47868
47868 47957
47957 48046
48046 48135
48135 48223
48223 48312
48312 48401
48401 48490
48490 48579
48579 48668
48668 48757
48757 48845
48845 48934
48934 49023
49023 49112
49112 49201
49201 49290
49290 49379
49379 49468
49468 49557
49557 49646
49646 49734
49734 49824
49824 49913
49913 50001
50001 50090
50090 50179
50179 50269
50269 50357
50357 50446
50446 50535
50535 50624
50624 50713
50713 50802
50802 50891
50891 50980
50980 51069
51069 51158
51158 51247
51247 51336
51336 51425
51425 51514
51514 51603
51603 51692
51692 51781
51781 51870
51870 51959
51959 52048
52048 52137
52137 52226
52226 52314
52314 52403
52403 52492
52492 52581
52581 52670
52670 52759
52759 52848
52848 52937
52937 53026
53026 53115
53115 53204
53204 53293
53293 53382
53382 53471
53471 53560
53560 53648
53648 53737
53737 53826
53826 53915
53915 54004
54004 54093
54093 54182
54182 54271
54271 54360
54360 54449
54449 54538
54538 54627
54627 54716
54716 54805
54805 54893
54893 54982
54982 55071
55071 55160
55160 55249
55249 55338
55338 55427
55427 55516
55516 55604
55604 55693
55693 55782
55782 55871
55871 55960
55960 56049
56049 56138
56138 56227
56227 56316
56316 56405
56405 56494
56494 56583
56583 56672
56672 56761
56761 56850
56850 56939
56939 57028
57028 57117
57117 57206
57206 57295
57295 57384
57384 57473
57473 57562
57562 57650
57650 57739
57739 57828
57828 57917
57917 58005
58005 58094
58094 58183
58183 58271
58271 58360
58360 58449
58449 58538
58538 58627
58627 58715
58715 58804
58804 58893
58893 58982
58982 59071
59071 59160
59160 59249
59249 59338
59338 59426
59426 59515
59515 59604
59604 59693
59693 59781
59781 59870
59870 59959
59959 60047
60047 60136
60136 60225
60225 60314
60314 60402
60402 60491
60491 60580
60580 60669
60669 60757
60757 60846
60846 60935
60935 61023
61023 61112
61112 61201
61201 61289
61289 61378
61378 61466
61466 61555
61555 61643
61643 61732
61732 61821
61821 61909
61909 61998
61998 62086
62086 62175
62175 62264
62264 62352
62352 62441
62441 62529
62529 62618
62618 62707
62707 62795
62795 62884
62884 62973
62973 63061
63061 63150
63150 63239
63239 63327
63327 63416
63416 63505
63505 63593
63593 63682
63682 63771
63771 63859
63859 63948
63948 64036
64036 64125
64125 64214
64214 64302
64302 64391
64391 64480
64480 64568
64568 64657
64657 64746
64746 64834
64834 64923
64923 65012
65012 65100
65100 65189
65189 65278
65278 65366
65366 65455
65455 65544
65544 65633
65633 65721
65721 65810
65810 65899
65899 65987
65987 66076
66076 66165
66165 66253
66253 66342
66342 66431
66431 66519
66519 66608
66608 66697
66697 66785
66785 66874
66874 66962
66962 67051
67051 67140
67140 67228
67228 67317
67317 67406
67406 67494
67494 67583
67583 67672
67672 67760
67760 67849
67849 67938
67938 68026
68026 68115
68115 68203
68203 68292
68292 68380
68380 68469
68469 68558
68558 68646
68646 68735
68735 68823
68823 68912
68912 69000
69000 69089
69089 69177
69177 69266
69266 69355
69355 69443
69443 69532
69532 69621
69621 69709
69709 69798
69798 69886
69886 69975
69975 70064
70064 70152
70152 70241
70241 70329
70329 70418
70418 70507
70507 70595
70595 70684
70684 70772
70772 70861
70861 70949
70949 71038
71038 71127
71127 71215
71215 71304
71304 71392
71392 71481
71481 71570
71570 71658
71658 71747
71747 71836
71836 71924
71924 72013
72013 72102
72102 72190
72190 72279
72279 72368
72368 72456
72456 72545
72545 72633
72633 72722
72722 72811
72811 72900
72900 72988
72988 73077
73077 73166
73166 73254
73254 73343
73343 73432
73432 73520
73520 73609
73609 73698
