49 123
123 196
196 247
247 323
323 400
400 476
476 552
552 628
628 705
705 782
782 859
859 935
935 1013
1013 1090
1090 1168
1168 1245
1245 1322
1322 1399
1399 1476
1476 1553
1553 1630
1630 1707
1707 1785
1785 1861
1861 1937
1937 2014
2014 2091
2091 2167
2167 2243
2243 2318
2318 2394
2394 2469
2469 2545
2545 2621
2621 2672
2672 2747
2747 2798
2798 2873
2873 2948
2948 3023
3023 3099
3099 3174
3174 3224
3224 3299
3299 3374
3374 3451
3451 3502
3502 3579
3579 3656
3656 3733
3733 3811
3811 3888
3888 3964
3964 4041
4041 4118
4118 4195
4195 4246
4246 4322
4322 4398
4398 4474
4474 4525
4525 4601
4601 4677
4677 4727
4727 4803
4803 4879
4879 4954
4954 5029
5029 5105
5105 5180
5180 5256
5256 5331
5331 5407
5407 5482
5482 5558
5558 5635
5635 5711
5711 5787
5787 5864
5864 5915
5915 5992
5992 6068
6068 6145
6145 6222
6222 6298
6298 6374
6374 6450
6450 6526
6526 6602
6602 6679
6679 6757
6757 6836
6836 6914
6914 6993
6993 7041
7041 7118
7118 7196
7196 7273
7273 7350
7350 7428
7428 7505
7505 7581
7581 7657
7657 7734
7734 7811
7811 7887
7887 7964
7964 8040
8040 8117
8117 8193
8193 8270
8270 8346
8346 8422
8422 8498
8498 8573
8573 8649
8649 8725
8725 8801
8801 8876
8876 8952
8952 9027
9027 9084
9084 9159
9159 9233
9233 9309
9309 9384
9384 9461
9461 9535
9535 9609
9609 9686
9686 9760
9760 9837
9837 9911
9911 9986
9986 10063
10063 10137
10137 10211
10211 10288
10288 10363
10363 10437
10437 10513
10513 10587
10587 10664
10664 10739
10739 10816
10816 10891
10891 10969
10969 11045
11045 11122
11122 11198
11198 11276
11276 11353
11353 11433
11433 11511
11511 11589
11589 11669
11669 11748
11748 11828
11828 11907
11907 11986
11986 12034
12034 12109
12109 12186
12186 12262
12262 12338
12338 12417
12417 12494
12494 12571
12571 12650
12650 12729
12729 12807
12807 12886
12886 12964
12964 13044
13044 13122
13122 13199
13199 13278
13278 13355
13355 13433
13433 13510
13510 13588
13588 13665
13665 13742
13742 13819
13819 13897
13897 13974
13974 14084
14084 14159
14159 14235
14235 14311
14311 14386
14386 14462
14462 14538
14538 14617
14617 14694
14694 14773
14773 14851
14851 14929
14929 15007
15007 15086
15086 15164
15164 15242
15242 15319
15319 15397
15397 15474
15474 15550
15550 15628
15628 15704
15704 15780
15780 15856
15856 15933
15933 16008
16008 16083
16083 16158
16158 16234
16234 16308
16308 16384
16384 16458
16458 16533
16533 16608
16608 16683
16683 16758
16758 16832
16832 16908
16908 16982
16982 17057
17057 17131
17131 17207
17207 17281
17281 17356
17356 17430
17430 17506
17506 17580
17580 17656
17656 17732
17732 17808
17808 17883
17883 17959
17959 18035
18035 18112
18112 18187
18187 18262
18262 18338
18338 18414
18414 18489
18489 18564
18564 18639
18639 18714
18714 18789
18789 18863
18863 18937
18937 19040
19040 19114
19114 19188
19188 19264
19264 19338
19338 19413
19413 19486
19486 19561
19561 19635
19635 19710
19710 19784
19784 19859
19859 19935
19935 20009
20009 20085
20085 20161
20161 20236
20236 20313
20313 20388
20388 20463
20463 20538
20538 20613
20613 20687
20687 20763
20763 20837
20837 20912
20912 20985
20985 21060
21060 21135
21135 21209
21209 21283
21283 21358
21358 21433
21433 21507
21507 21582
21582 21655
21655 21729
21729 21804
21804 21878
21878 21953
21953 22028
22028 22103
22103 22178
