930 1004
1004 1043
2252 2325
2937 3010
3010 3098
3098 3170
3170 3243
3243 3315
3315 3387
3387 3459
3459 3532
3532 3603
3603 3676
3676 3748
3748 3820
3820 3892
3892 3965
3965 4036
4036 4109
4109 4155
4155 4228
4228 4301
4301 4373
4373 4445
4445 4517
4517 4589
4589 4662
4662 4734
4734 4807
4807 4879
4879 4952
4952 5024
5024 5095
5095 5168
5168 5240
5240 5314
5314 5385
5385 5459
5459 5531
5531 5604
5604 5677
5677 5749
5749 5823
5823 5896
