1235 1309
1309 1358
1729 1804
1804 1854
5834 5908
5908 5957
6399 6472
6472 6521
9266 9341
9341 9390
9977 10049
10049 10097
12066 12138
12138 12186
12186 12258
12258 12306
15659 15732
15732 15806
15806 15881
15881 15957
15957 16032
16032 16108
16108 16184
16184 16260
16260 16337
16337 16413
16413 16490
16490 16567
16567 16644
16644 16722
16722 16799
16799 16876
16876 16954
16954 17031
17031 17108
17108 17184
17184 17261
17261 17337
17337 17413
17413 17488
17488 17563
17563 17637
17637 17712
17712 17761
17761 17835
17835 17909
17909 17983
17983 18057
18057 18130
18130 18204
18204 18277
18277 18350
18350 18423
18423 18497
18497 18570
18570 18644
18644 18717
18717 18791
18791 18864
18864 18938
18938 19011
19011 19085
19085 19159
19159 19232
19232 19306
19306 19380
19380 19454
19454 19528
19528 19601
19601 19676
19676 19749
19749 19823
19823 19897
19897 19971
19971 20046
20046 20120
20120 20194
20194 20269
20269 20344
20344 20419
20419 20494
20494 20569
20569 20644
20644 20720
20720 20795
20795 20871
20871 20946
20946 20997
20997 21073
21073 21149
21149 21225
21225 21301
21301 21377
21377 21454
21454 21530
21530 21606
21606 21682
21682 21757
21757 21833
21833 21909
21909 21984
21984 22059
22059 22134
22134 22208
22208 22283
22283 22357
22357 22431
22431 22505
22505 22579
22579 22653
22653 22727
22727 22800
22800 22874
22874 22948
22948 23022
23022 23095
23095 23169
23169 23243
23243 23316
23316 23390
23390 23464
23464 23538
23538 23612
23612 23686
23686 23760
23760 23834
23834 23908
23908 23983
23983 24057
24057 24131
24131 24205
24205 24280
24280 24354
24354 24428
24428 24502
24502 24577
24577 24653
24653 24728
24728 24804
24804 24880
24880 24932
24932 25044
25044 25117
