15 119
496 615
615 713
1453 1576
5677 5778
5778 5875
8862 8990
8990 9086
9328 9450
9450 9574
9574 9694
9694 9814
9814 9937
9937 10034
11226 11348
11348 11447
11568 11688
11688 11809
13165 13293
13293 13397
13893 14021
14021 14098
15450 15575
15575 15674
