3085 3185
3766 3868
4917 5022
5022 5228
8253 8355
8355 8434
8537 8639
8639 8744
8744 8847
8847 8951
8951 9039
9039 9145
9145 9250
9250 9454
9454 9558
9558 9663
9663 9768
9768 9871
9871 9974
9974 10126
10126 10228
10228 10329
10329 10431
10431 10533
10533 10635
10635 10734
10734 10836
10836 10937
10937 11039
11039 11141
11141 11241
11241 11344
11344 11445
11445 11547
11547 11651
11651 11752
11752 11855
11855 11958
11958 12061
12061 12164
12164 12266
12266 12368
12368 12472
12472 12573
12573 12676
12676 12780
12780 12882
12882 12961
12961 13065
13065 13169
13169 13273
13273 13375
13375 13478
13478 13581
13581 13684
13684 13788
13788 13891
13891 13996
13996 14100
14100 14203
14203 14308
14308 14509
14509 14615
14615 14719
14719 14823
14823 14927
14927 15030
15030 15133
15133 15238
15238 15342
15342 15446
15446 15502
15502 15617
15617 15722
15722 15826
15826 15931
15931 16035
16035 16138
16138 16241
16241 16321
16321 16424
16424 16527
16527 16629
16629 16734
16734 16836
16836 16938
16938 16995
16995 17106
17106 17211
17211 17314
17314 17418
17418 17521
17521 17623
17623 17727
17727 17831
17831 17936
17936 18094
18094 18201
18201 18304
18304 18410
18410 18491
18491 18597
18597 18702
18702 18806
18806 18910
18910 19014
19014 19119
19119 19223
19223 19328
19328 19431
19431 19534
19534 19638
19638 19740
19740 19842
19842 19944
19944 20047
20047 20150
20150 20252
20252 20353
20353 20410
20410 20525
20525 20628
20628 20730
20730 20832
20832 20934
20934 21037
21037 21139
21139 21243
21243 21346
21346 21449
21449 21529
21529 21631
21631 21733
21733 21838
21838 21941
21941 22045
22045 22149
22149 22253
22253 22357
22357 22461
22461 22565
22565 22672
22672 22776
22776 22881
22881 22988
22988 23093
23093 23198
23198 23304
23304 23385
23385 23493
23493 23599
23599 23704
23704 23799
23799 23861
23861 23908
23908 23949
23949 23989
23989 24052
24052 24139
24139 24235
24235 24328
24328 24421
24421 24515
24515 24591
24591 24693
24693 24785
24785 24942
24942 25056
25056 25164
25164 25271
25271 25376
25376 25484
25484 25589
25589 25697
25697 25801
25801 25904
25904 26010
26010 26063
26063 26168
26168 26274
26274 26378
26378 26446
26446 26555
26555 26662
26662 26768
26768 26875
26875 26983
26983 27090
27090 27192
27192 27301
27301 27410
27410 27516
27516 27623
27623 27728
27728 27835
27835 27942
27942 28047
28047 28152
28152 28258
28258 28342
28342 28459
28459 28564
28564 28668
28668 28774
28774 28879
28879 28982
28982 29088
29088 29192
29192 29295
29295 29400
29400 29503
29503 29605
29605 29708
29708 29813
29813 29917
29917 30021
30021 30124
30124 30230
30230 30331
30331 30436
30436 30614
30614 30697
30697 30800
30800 30902
30902 31006
31006 31108
31108 31212
31212 31314
31314 31417
31417 31518
31518 31620
31620 31723
31723 31826
31826 31928
31928 32030
32030 32095
32095 32195
32195 32296
32296 32398
32398 32498
32498 32539
32539 32640
32640 32742
32742 32844
32844 32946
32946 33063
33063 33154
33154 33252
33252 33348
33348 33444
33444 33540
33540 33635
33635 33734
33734 33827
33827 33927
33927 34023
34023 34121
34121 34219
34219 34313
34313 34412
34412 34507
34507 34606
34606 34704
34704 34758
34758 34863
34863 34964
34964 35108
35108 35202
35202 35300
35300 35399
35399 35495
35495 35592
35592 35656
35656 35790
35790 35882
35882 35986
35986 36080
36080 36176
36176 36275
36275 36372
36372 36469
36469 36569
36569 36666
36666 36767
36767 36865
36865 36941
36941 37038
37038 37142
37142 37235
37235 37340
37340 37434
37434 37511
37511 37609
37609 37707
37707 37809
37809 37910
37910 38005
38005 38121
38121 38181
38181 38294
38294 38379
38379 38484
38484 38580
38580 38682
38682 38777
38777 38883
38883 38974
38974 39081
39081 39185
39185 39291
39291 39397
39397 39503
39503 39606
39606 39689
39689 39794
39794 39899
39899 40003
40003 40109
40109 40213
40213 40319
40319 40427
40427 40532
40532 40640
40640 40748
40748 40854
40854 40961
40961 41044
41044 41151
41151 41258
41258 41364
41364 41472
41472 41578
41578 41684
41684 41764
41764 41867
41867 41978
41978 42087
42087 42193
42193 42300
42300 42403
42403 42495
42495 42585
42585 42693
42693 42797
42797 42899
42899 43004
43004 43106
43106 43207
43207 43311
43311 43414
43414 43517
43517 43620
43620 43722
43722 43797
43797 43913
43913 44014
44014 44118
44118 44219
44219 44323
44323 44425
44425 44526
44526 44629
44629 44732
44732 44835
44835 44937
44937 45042
45042 45145
45145 45249
45249 45353
45353 45459
45459 45567
45567 45673
45673 45780
45780 45887
45887 45996
45996 46104
46104 46214
46214 46323
46323 46430
46430 46540
46540 46648
46648 46758
46758 46869
46869 46978
46978 47087
47087 47197
47197 47309
47309 47416
47416 47526
47526 47636
47636 47744
47744 47850
47850 47958
47958 48064
48064 48173
48173 48279
48279 48384
48384 48493
48493 48599
48599 48707
48707 48814
48814 48921
48921 49027
49027 49135
49135 49218
49218 49326
49326 49435
49435 49544
49544 49620
49620 49743
49743 49851
49851 49962
49962 50071
50071 50180
50180 50290
50290 50376
50376 50485
50485 50593
50593 50701
50701 50811
50811 50918
50918 51025
51025 51135
51135 51243
51243 51329
51329 51439
51439 51548
51548 51656
51656 51741
51741 51848
51848 51955
51955 52045
52045 52154
