1473 1548
1548 1620
1620 1693
1693 1748
1748 1832
1832 1907
1907 1965
1965 2047
2047 2123
2123 2199
2199 2271
2271 2333
2333 2414
2414 2489
2489 2563
2563 2635
2635 2711
2711 2784
2784 2859
2859 2913
2913 2996
2996 3076
3076 3153
3153 3229
3229 3304
3304 3378
3378 3453
3453 3528
3528 3602
3602 3678
3678 3752
3752 3828
3828 3902
3902 3976
3976 4053
4053 4128
4128 4205
4205 4280
4280 4356
4356 4434
4434 4508
4508 4585
4585 4660
4660 4737
4737 4814
4814 4889
4889 4967
4967 5044
5044 5121
5121 5197
5197 5274
5274 5350
5350 5428
5428 5504
5504 5572
5572 5648
5648 5729
5729 5808
5808 5885
5885 5964
5964 6084
6084 6167
6167 6251
6251 6329
6329 6407
6407 6492
6492 6563
6563 6656
6656 6743
6743 6836
6836 6926
6926 7019
7019 7085
7085 7178
7178 7260
7260 7349
7349 7440
7440 7524
7524 7593
7593 7698
7698 7790
7790 7878
7878 7958
7958 8050
8050 8115
8115 8210
8210 8295
8295 8392
8392 8484
8484 8576
8576 8661
8661 8746
8746 8836
8836 8911
8911 9004
9004 9098
9098 9189
9189 9281
9281 9371
9371 9463
9463 9553
9553 9642
9642 9733
9733 9823
9823 9914
9914 10004
10004 10096
10096 10186
10186 10280
10280 10372
10372 10463
10463 10554
10554 10649
10649 10738
10738 10833
10833 10925
10925 11018
11018 11098
11098 11192
11192 11281
11281 11375
11375 11463
11463 11557
