404 525
525 627
997 1105
1105 1195
1725 1846
1846 1954
2276 2439
2439 2543
2969 3124
3124 3259
3259 3361
4083 4195
4195 4284
4374 4487
4487 4598
4598 4711
4711 4822
4822 4933
4933 5020
5020 5133
5133 5215
5215 5341
5341 5457
5457 5572
5572 5688
