3082 3194
3194 3306
3306 3396
3849 3962
3962 4051
5167 5280
5280 5370
5461 5576
5783 5899
5899 5991
6107 6225
6225 6302
7629 7746
7746 7867
7867 7931
8093 8207
8093 8207
8207 8283
8891 9013
9013 9079
9937 10097
10350 10480
10480 10578
10578 10704
10704 10808
12378 12508
12926 13062
13062 13139
13139 13269
13269 13386
13386 13504
13504 13597
13597 13712
13712 13827
13827 13919
13919 14033
14033 14148
14148 14241
14241 14356
14356 14471
14471 14587
14587 14679
14679 14793
14793 14909
14909 15021
15021 15109
15109 15221
15221 15332
15332 15440
15440 15550
15550 15660
15660 15768
15768 15877
15877 15984
15984 16062
16062 16172
16172 16259
16259 16370
16370 16481
16481 16594
16594 16681
16681 16792
16792 16903
16903 17014
17014 17051
17051 17158
17158 17266
17266 17375
17375 17482
17482 17558
17558 17680
17680 17766
17766 17839
17839 17957
17957 18106
18106 18240
18240 18341
18341 18463
18463 18582
18582 18702
18702 18822
18822 18918
18918 19035
19035 19131
19131 19248
19248 19364
19364 19479
19479 19569
19569 19684
19684 19777
19777 19892
19892 20008
20008 20124
20124 20244
20244 20337
20337 20454
20454 20572
20572 20689
20689 20805
20805 20921
20921 21040
21040 21155
21155 21246
21246 21359
21359 21473
21473 21588
21588 21700
21700 21815
