1973 2077
2598 2700
2806 2901
2901 3011
3080 3179
3179 3282
3384 3485
3485 3589
4820 4926
4926 5026
5073 5172
5172 5286
5286 5395
5395 5501
5501 5609
5609 5715
5715 5820
5820 5925
5925 6030
6030 6108
6108 6224
6224 6333
6333 6437
6437 6541
6541 6622
6622 6718
6718 6828
6828 6926
6926 7038
7038 7144
7144 7250
7250 7356
7356 7461
7461 7565
7565 7671
7671 7777
7777 7882
7882 7988
7988 8094
8094 8201
8201 8290
8290 8404
8404 8515
8515 8620
8620 8727
8727 8835
8835 8941
8941 9079
9079 9197
9197 9306
9306 9412
9412 9468
9468 9614
9614 9722
9722 9828
9828 9935
9935 10037
10037 10148
10148 10255
10255 10360
10360 10465
10465 10572
10572 10658
10658 10777
10777 10884
10884 10989
10989 11109
11109 11215
11215 11320
11320 11423
11423 11528
11528 11628
11628 11737
11737 11842
11842 11946
11946 12086
12086 12194
12194 12304
12304 12411
12411 12519
12519 12627
12627 12723
12723 12839
12839 12945
12945 13032
13032 13129
13129 13242
13242 13346
13346 13450
13450 13555
13555 13661
13661 13864
13864 13969
13969 14072
14072 14176
14176 14280
14280 14382
14382 14461
14461 14565
14565 14668
14668 14774
14774 14876
14876 14981
14981 15085
15085 15189
15189 15293
15293 15397
15397 15491
15491 15602
15602 15708
15708 15813
15813 15917
15917 15992
15992 16108
16108 16216
16216 16320
16320 16425
16425 16530
16530 16633
16633 16738
16738 16844
16844 16947
16947 17089
17089 17193
17193 17298
17298 17396
17396 17507
17507 17589
17589 17695
17695 17801
17801 17906
17906 18010
18010 18116
18116 18223
18223 18329
