874 1000
1000 1081
1927 2110
2110 2235
2235 2330
2330 2456
2456 2578
2578 2669
2669 2793
2793 2913
2913 3023
3023 3087
3087 3178
3178 3304
3304 3408
3408 3474
3474 3599
3599 3699
3699 3811
3811 3924
3924 3998
3998 4099
4099 4179
4179 4257
4257 4370
4370 4460
4460 4591
4591 4691
4691 4779
4779 4870
