1097 1206
1206 1295
2425 2530
3892 3998
3998 4105
4105 4210
4210 4302
4302 4421
4421 4530
4530 4611
4611 4718
4718 4824
4824 4932
5017 5063
5063 5254
5254 5358
5465 5570
5777 5984
5984 6088
6959 7087
7891 8110
8110 8215
10977 11099
10977 11099
11298 11502
11746 11805
11805 11903
11903 11986
11986 12082
12082 12175
12175 12269
12269 12361
12361 12456
12456 12547
12547 12622
12622 12716
12716 12811
12811 12916
12916 13021
13021 13064
13064 13172
13172 13276
13276 13379
13379 13484
13484 13588
13588 13695
13695 13799
13799 13905
13905 14011
14011 14125
14125 14226
14226 14326
14326 14423
14423 14513
14513 14614
14614 14710
14710 14806
14806 14898
14898 14982
14982 15072
15072 15164
15164 15258
15258 15352
