12933 13030
13030 13079
14637 14824
16932 17128
17128 17237
17237 17345
17345 17452
17452 17558
17558 17665
17665 17772
17772 17879
17879 17985
17985 18093
18093 18201
18201 18309
18309 18417
18417 18524
18524 18629
18629 18736
18736 18842
18842 18948
18948 19053
19053 19157
19157 19262
19262 19366
19366 19470
19470 19572
19572 19674
19674 19774
19774 19874
19874 19975
19975 20076
20076 20177
20177 20280
20280 20384
20384 20488
20488 20593
20593 20699
20699 20805
20805 20910
20910 21015
21015 21122
21122 21228
21228 21334
21334 21438
21438 21541
21541 21643
21643 21745
21745 21844
21844 21943
21943 22043
22043 22142
22142 22241
22241 22339
22339 22436
22436 22533
22533 22630
22630 22728
22728 22824
22824 22918
22918 23013
23013 23108
23108 23203
23203 23298
23298 23393
23393 23490
23490 23587
23587 23684
23684 23782
23782 23881
23881 23979
23979 24077
24077 24175
24175 24272
24272 24369
24369 24466
24466 24563
24563 24661
24661 24759
24759 24858
24858 24956
25419 25515
25708 25804
25804 25901
25901 25997
25997 26093
26093 26334
26334 26485
26485 26584
59269 59310
59310 59356
59356 59430
59430 59514
59514 59620
59620 59713
