637 849
849 970
970 1084
1084 1201
1201 1321
1321 1437
1437 1557
1557 1675
1675 1793
1793 1884
1884 2031
2031 2143
2143 2260
2260 2349
2349 2463
2463 2579
2579 2693
2693 2805
2805 2919
2919 3030
3030 3095
3095 3209
3209 3295
3295 3408
3408 3514
3514 3593
3593 3696
3696 3775
3775 3877
3877 3960
3960 4047
4047 4148
4148 4247
4247 4351
4351 4453
4453 4558
4558 4662
4662 4769
4769 4873
4873 4981
4981 5094
5094 5188
5188 5263
5263 5356
5356 5456
5456 5533
5533 5629
5629 5724
5724 5828
5828 5911
5911 6012
6012 6113
6113 6225
6225 6336
6336 6446
6446 6558
6558 6642
6642 6752
6752 6864
6864 6972
6972 7083
7083 7191
7191 7299
7299 7409
7409 7517
7517 7625
7625 7735
7735 7843
7843 7952
7952 8011
8011 8088
8636 8749
8749 8834
9058 9170
9170 9256
10376 10493
10493 10568
10915 11028
11028 11162
11265 11366
11366 11467
11969 12150
12150 12253
