49 263
1452 1728
1728 1805
1805 1909
1909 2010
2010 2110
2110 2212
2212 2313
2313 2397
2397 2511
2511 2608
2608 2684
2684 2784
2784 2884
2884 3088
3088 3163
3163 3279
3279 3379
3379 3478
3478 3576
3576 3674
3674 3756
3756 3851
3851 3957
3957 4054
4054 4150
4150 4247
4247 4343
4343 4436
4436 4515
4515 4616
4616 4710
4710 4762
4762 4838
4838 5112
5112 5208
5208 5302
5302 5370
5370 5465
5465 5551
5551 5641
5641 5738
5738 5929
5929 6014
6014 6131
6131 6220
6220 6321
6321 6416
6416 6513
6513 6609
6609 6690
6690 6792
6792 6890
6890 6989
6989 7039
7039 7139
7139 7240
7240 7436
7436 7533
7533 7631
7631 7727
7727 7823
7823 7919
7919 7992
7992 8172
8172 8272
8272 8378
8378 8576
8576 8664
8664 8771
8771 8872
8872 9177
9177 9276
9276 9376
9376 9454
9454 9557
9557 9633
9633 9714
9714 9925
9925 10009
10009 10058
10058 10160
10160 10262
10262 10362
10362 10841
10841 10945
10945 11041
11041 11146
11146 11247
11247 11340
11340 11419
11419 11523
11523 11627
11627 11729
11729 11831
11831 11932
11932 12014
12014 12127
12127 12203
12203 12297
12297 12378
12378 12478
12478 12586
12586 12682
12682 12759
12759 12846
12846 12953
12953 13091
13091 13204
13204 13309
13309 13411
13411 13589
13589 13690
13690 13904
13904 13974
13974 14039
14039 14134
14134 14228
14228 14324
14324 14422
14422 14514
14514 14617
14617 14692
14692 14798
14798 14903
14903 14963
14963 15061
15061 15173
15173 15280
15280 15388
15388 15494
15494 15600
15600 15708
15708 15814
15814 15917
15917 16178
16178 16273
16273 16369
16369 16456
16456 16639
16639 16711
16711 16807
16807 16901
16901 16998
16998 17123
17123 17218
17218 17507
17507 17591
17591 17688
17688 17784
17784 17880
17880 18083
18083 18175
18175 18266
18266 18358
18358 18442
18442 18539
18539 18635
18635 18727
18727 18905
18905 18996
18996 19067
19067 19170
19170 19266
19266 19367
19367 19450
19450 19548
19548 19639
19639 19742
19742 19820
