268 390
390 484
544 651
651 737
939 1121
2318 2451
2922 3037
3037 3114
3821 3934
3934 4012
4012 4125
4125 4212
4212 4324
4324 4411
4607 4717
4717 4803
4912 5060
5060 5149
5149 5237
5237 5352
5555 5671
5671 5758
7957 8116
8116 8203
8203 8310
8310 8393
8393 8505
8505 8599
8599 8708
8708 8809
8809 8920
8920 8991
8991 9106
9106 9223
9223 9307
9307 9429
9429 9544
9544 9662
9662 9776
9776 9868
9868 9984
9984 10102
10102 10218
10218 10309
10309 10419
10419 10504
10504 10615
10615 10700
10700 10822
10822 10943
10943 11085
11085 11200
11200 11317
11317 11431
11431 11528
11528 11656
11656 11770
11770 11885
11885 11998
11998 12113
12113 12203
12203 12313
12313 12420
12420 12509
12509 12612
12612 12696
12696 12807
12807 12917
12917 12986
12986 13039
13039 13156
13156 13249
13249 13354
13354 13432
13432 13545
13545 13635
13635 13737
13737 13842
13842 13940
13940 14045
14045 14120
14120 14242
14242 14351
14351 14459
14459 14568
14568 14677
14677 14786
14786 14893
14893 15000
15000 15068
15068 15172
15172 15277
15592 15696
