126 214
440 552
552 643
643 757
757 847
1389 1501
1501 1591
1937 2102
2102 2214
2214 2324
2324 2438
2438 2549
2549 2660
2660 2772
2772 2858
2858 2946
2946 3031
3031 3144
3144 3258
3258 3368
3368 3483
3483 3595
3595 3685
3685 3797
3797 3885
3885 3997
3997 4112
4112 4223
4223 4338
4338 4450
4450 4567
4567 4679
4679 4795
4795 4909
4909 5023
5023 5140
5140 5254
5254 5369
5369 5481
5481 5595
5595 5683
5683 5796
5796 5911
5911 6022
6022 6136
6136 6248
6248 6338
6338 6450
6450 6564
6564 6676
6676 6789
6789 6901
6901 7014
7014 7101
7327 7527
7527 7637
7637 7750
7750 7860
7860 7972
7972 8084
8084 8192
8192 8298
8298 8405
8405 8511
8511 8618
8618 8726
8726 8831
8831 8939
8939 9137
9137 9251
9251 9367
9367 9483
9483 9599
9599 9716
9716 9832
9832 9948
9948 10062
10062 10176
10176 10286
10286 10372
10372 10484
10484 10571
10571 10681
10681 10792
10792 10903
10903 11013
11013 11055
11055 11164
11164 11272
11272 11380
11380 11489
11489 11597
11597 11705
11705 11814
11814 11922
11922 12030
12030 12107
12107 12222
12222 12342
12342 12458
12458 12550
12550 12664
12664 12779
12779 12893
12893 13007
13007 13095
13095 13209
13209 13320
13320 13432
13432 13606
13606 13721
13721 13838
13838 13951
13951 14068
14068 14181
14181 14297
14297 14410
14410 14526
14526 14639
14639 14753
14753 14868
14868 14981
14981 15094
15094 15207
15207 15321
15321 15432
15432 15522
15522 15633
15633 15746
15746 15857
15857 15970
15970 16082
16082 16170
16170 16283
16283 16368
16368 16483
16483 16594
16594 16684
16684 16795
16795 16909
16909 17024
17024 17136
17136 17251
17251 17364
17364 17455
17455 17569
17569 17660
17660 17777
17777 17893
17893 18010
18010 18125
18125 18243
18243 18357
18357 18474
18474 18591
18591 18704
18704 18822
18822 18935
18935 19051
19051 19167
19167 19280
19280 19396
19396 19510
19510 19625
19625 19740
19740 19854
19854 19970
19970 20091
20091 20203
20203 20290
20290 20404
20404 20514
20514 20603
20603 20685
20685 20813
20813 20901
20901 21016
21016 21129
21129 21241
21241 21340
21340 21464
21464 21578
21578 21689
21689 21802
21802 21915
21915 22025
22025 22137
22137 22226
22226 22336
22336 22449
22449 22538
22538 22649
22649 22738
22738 22849
22849 22963
22963 23078
23078 23190
23190 23281
23281 23394
23394 23510
23510 23622
23622 23736
23736 23853
23853 23965
23965 24048
24048 24163
24163 24276
24276 24392
24392 24505
24505 24620
24620 24734
24734 24825
24825 24939
24939 25055
25055 25171
25171 25288
25288 25405
25405 25519
25519 25635
25635 25752
25752 25868
