219 340
1948 2091
2331 2449
2449 2571
2927 3092
3092 3210
3092 3210
3210 3304
3903 4025
4025 4091
4950 5070
5070 5168
5168 5289
5289 5387
5626 5746
5746 5841
5958 6149
6149 6272
7102 7215
7102 7215
7215 7327
8011 8124
8124 8239
8930 9102
9102 9222
9222 9319
9319 9437
9437 9535
9655 9774
9774 9871
