931 1022
1022 1099
1578 1696
1696 1777
1897 2047
2514 2627
2950 3118
3118 3238
3238 3332
3332 3453
3453 3574
3574 3692
3692 3813
3813 3913
3913 4112
4112 4230
4230 4349
4349 4468
4468 4589
4589 4709
4709 4832
4832 4953
4953 5035
5035 5150
5150 5265
5265 5380
5380 5495
5495 5610
5610 5701
5701 5817
5817 5934
5934 6046
6046 6163
6163 6278
6278 6392
6392 6507
6507 6620
6620 6736
6736 6851
6851 6966
6966 7080
7080 7195
7195 7308
7308 7421
7421 7535
7535 7648
7648 7762
7762 7876
7876 7990
7990 8103
8103 8214
8214 8303
8303 8387
8387 8497
8497 8605
8605 8713
8713 8819
8819 8923
8923 9002
9002 9107
9107 9212
9212 9315
9315 9419
9419 9502
9502 9604
9604 9706
9706 9809
9809 9912
9912 10012
10012 10089
10089 10189
10189 10290
10290 10375
10375 10476
10476 10576
10576 10678
10678 10779
10779 10882
10882 10985
10985 11075
11075 11188
11188 11310
11310 11431
11431 11555
11555 11676
11676 11758
11758 11877
11877 11994
11994 12084
12084 12201
12201 12320
12320 12434
12434 12556
12556 12668
12668 12785
12785 12903
12903 13018
13018 13143
13143 13252
