87 207
1296 1417
1417 1537
1537 1658
1658 1773
1773 1895
2015 2134
2134 2254
2254 2346
3171 3288
3288 3405
3405 3522
3522 3639
4933 5114
5114 5232
5711 5829
5829 5947
5947 6064
6064 6180
6180 6299
6299 6416
7851 7969
7969 8089
8089 8181
9122 9240
9240 9333
12117 12232
13916 14030
14030 14091
14204 14319
14319 14434
14434 14520
14986 15099
15099 15187
15769 15878
15878 15990
16421 16534
16534 16622
16972 17070
17070 17197
18177 18295
18295 18414
18414 18534
19973 20051
20051 20169
20169 20289
20289 20407
20407 20526
20526 20646
