954 1053
1855 1959
1959 2128
2128 2189
2375 2480
2375 2480
2987 3113
3113 3190
4239 4338
4338 4409
5085 5188
5188 5263
5571 5679
5679 5757
5964 6107
6936 7101
7101 7208
7208 7312
7312 7416
7416 7522
7522 7625
7625 7729
7729 7832
7832 7938
7938 8061
8061 8168
8168 8275
8275 8382
8382 8487
8487 8691
8691 8767
8767 8850
8850 8942
8942 9047
9047 9155
9155 9263
9263 9346
9346 9427
9427 9513
9513 9616
9616 9714
9714 9823
9823 9907
9907 10014
10014 10091
10091 10175
10175 10290
10290 10406
10406 10495
10495 10574
10574 10691
10691 10768
10768 10898
10898 11012
11012 11128
11128 11240
11240 11352
11352 11464
11464 11574
11574 11685
11685 11793
11793 11904
11904 12039
12039 12154
12154 12272
12272 12389
12389 12507
12507 12620
12620 12738
12738 12853
12853 12969
12969 13085
13085 13198
13198 13317
13317 13430
13430 13546
13546 13664
13664 13755
13755 13870
