2727 2835
2835 2891
5989 6106
6106 6186
7125 7228
7338 7450
7774 7888
8396 8570
8570 8610
8610 8723
8829 8936
8936 9015
9610 9717
9717 9806
9993 10044
10044 10147
11939 12110
12110 12227
12227 12345
12345 12459
12459 12576
12576 12690
13932 14071
14071 14179
14179 14273
16297 16394
16966 17023
17023 17126
17358 17475
17475 17569
18275 18393
18393 18508
18508 18625
18625 18717
