55 170
170 284
284 398
847 959
959 1107
959 1107
1697 1808
1808 1913
3921 4081
4446 4564
4564 4680
4680 4773
5907 6042
6042 6161
6161 6279
6279 6393
6393 6468
6468 6589
6589 6663
6663 6785
6785 6890
6890 7007
7007 7061
7061 7167
7167 7285
7285 7386
7386 7504
7504 7606
7606 7684
7684 7792
7792 7905
7905 7986
7986 8082
8082 8202
8202 8300
8300 8379
8379 8485
8485 8565
8565 8687
8687 8793
