80 182
486 587
587 663
1757 1859
1961 2039
2039 2132
2132 2225
2225 2318
2318 2411
2411 2505
2505 2597
2597 2690
2690 2784
2784 2876
2876 2969
2969 3062
3062 3155
3155 3249
3249 3342
3342 3411
3411 3473
3473 3600
3600 3674
3674 3768
3768 3863
3863 3957
3957 4053
4053 4121
4121 4216
4216 4311
4311 4406
4406 4502
4502 4598
4598 4693
4693 4747
4747 4840
4840 4935
4935 5036
5036 5133
5133 5234
5234 5334
5334 5435
5435 5536
5536 5602
5602 5707
5707 5812
5812 5891
5891 5970
5970 6076
6076 6182
6182 6289
6289 6358
6358 6466
6466 6574
6574 6682
6682 6789
6789 6896
6896 7001
7001 7108
7108 7216
7216 7297
7297 7404
7404 7510
7510 7616
7616 7722
7722 7828
7828 7933
7933 8040
8040 8145
8145 8250
8250 8356
8356 8462
8462 8566
8566 8672
8672 8752
8752 8856
8856 8961
8961 9097
9097 9205
9205 9305
9305 9412
9412 9511
9511 9618
9618 9715
9715 9824
9824 9920
9920 10028
10028 10121
10121 10228
10228 10308
10308 10414
10414 10517
10517 10600
10600 10681
10681 10771
10771 10880
10880 10986
10986 11095
11095 11201
11201 11308
11308 11414
11414 11518
11518 11623
11623 11727
11727 11830
11830 11933
11933 12061
12061 12161
12161 12261
12261 12360
12360 12460
12460 12558
12558 12657
12657 12757
12757 12913
12913 12977
12977 13091
13091 13194
13194 13298
13298 13381
13381 13493
13493 13599
13599 13703
13703 13782
13782 13885
13885 13988
13988 14103
14103 14205
14205 14306
14306 14409
14409 14473
14473 14575
14575 14677
14677 14777
14777 14878
14878 14979
14979 15081
15081 15181
15181 15281
15281 15381
15381 15480
15480 15579
15579 15653
15653 15750
15750 15849
15849 15948
15948 16046
16046 16145
16145 16243
16243 16340
16340 16437
16437 16534
16534 16610
16610 16717
16717 16816
16816 16913
16913 17042
17042 17139
17139 17236
17236 17333
17333 17431
17431 17527
17527 17625
17625 17720
17720 17817
17817 17914
17914 18011
18011 18110
18110 18277
18277 18364
18364 18453
18453 18542
18542 18629
18629 18717
18717 18806
18806 18895
18895 18983
18983 19107
19107 19304
19304 19380
19380 19477
19477 19573
19573 19668
19668 19762
19762 19857
19857 19952
19952 20086
20086 20185
20185 20282
20282 20381
20381 20455
20455 20533
20533 20630
20630 20731
20731 20832
20832 20931
20931 21029
21029 21201
21201 21300
21300 21396
21396 21495
21495 21566
21566 21663
21663 21762
21762 21849
21849 21926
22201 22300
22696 22860
22860 22928
23032 23135
23135 23235
24028 24132
24132 24231
24330 24530
25018 25116
26817 26915
26915 27013
32891 32994
32994 33051
35985 36127
36127 36218
36218 36316
36316 36412
36412 36515
36515 36609
36609 36706
36706 36808
36808 36905
36905 37011
37011 37102
37102 37197
37197 37302
37302 37396
37396 37492
37492 37582
37582 37655
37655 37752
37752 37855
37855 37960
37960 38038
38038 38142
38142 38244
38244 38347
38347 38448
38448 38551
38551 38652
38652 38753
38753 38853
38853 38939
38939 39103
39103 39206
39206 39304
39304 39407
39407 39503
39503 39606
39606 39707
39707 39809
39809 39909
39909 40014
40014 40115
40115 40220
40220 40299
40299 40412
40412 40514
40514 40579
40579 40693
40693 40799
40799 40906
40906 41013
41013 41119
41119 41224
41224 41329
41329 41434
41434 41537
41537 41641
41641 41744
41744 41847
41847 41951
41951 42051
42051 42154
42154 42255
42255 42358
42358 42460
42460 42562
42562 42664
42664 42765
42765 42866
42866 42968
42968 43076
43076 43177
43177 43279
43279 43379
43379 43428
43428 43539
43539 43641
43641 43740
43740 43839
43839 43938
43938 44036
44036 44135
44135 44233
44233 44331
44331 44429
44429 44527
44527 44626
44626 44722
44722 44821
