1938 2119
5403 5510
5510 5611
6942 7074
7074 7168
7168 7261
7261 7355
7355 7450
7450 7544
7544 7638
7638 7734
7734 7828
7828 7924
7924 8020
8020 8118
8118 8214
8214 8273
8273 8408
8908 9011
9011 9067
9294 9407
9407 9519
9519 9626
11319 11413
