1451 1662
1662 1738
1738 1842
1842 1941
1941 2043
2043 2141
2141 2242
2242 2340
2340 2438
2438 2535
2535 2631
2631 2729
2729 2825
2825 2918
2918 3012
3012 3144
3144 3258
3258 3368
3368 3481
3481 3591
3591 3704
3704 3819
3819 3930
3930 4044
4044 4156
4156 4268
4268 4383
4383 4495
4495 4606
4606 4674
4674 4789
4789 4902
4902 5013
5013 5103
5103 5217
5217 5311
5311 5426
5426 5523
5523 5640
5640 5748
5748 5859
5859 5965
5965 6088
6088 6192
6192 6295
6295 6399
6399 6500
6500 6602
6602 6705
6705 6805
6805 6907
6907 6988
6988 7101
7101 7202
7202 7303
7303 7407
7407 7508
7508 7610
7610 7713
7713 7815
7815 7920
7920 8054
8054 8159
8159 8264
8264 8367
8367 8473
8473 8576
8576 8657
8657 8762
8762 8866
8866 8974
8974 9040
9040 9152
9152 9259
9259 9365
9365 9475
9475 9583
9583 9691
9691 9799
9799 9906
9906 10014
10014 10140
10140 10246
10246 10353
10353 10458
10458 10564
10564 10670
10670 10774
10774 10844
