20 67
890 931
1939 2053
2900 2998
2998 3040
4032 4139
4139 4210
7923 8091
10924 11020
11020 11059
11153 11251
11978 12165
12165 12255
12255 12343
12343 12434
12434 12524
12524 12602
12602 12702
12702 12778
12778 12882
12882 12969
12969 13117
13117 13208
13208 13286
13286 13385
13385 13471
13471 13568
13568 13659
13659 13752
13752 13842
