958 1091
1159 1346
1675 1816
1816 1900
1900 1982
1982 2066
2066 2147
2147 2227
2227 2309
2309 2391
2391 2473
2473 2554
2554 2634
2634 2691
2691 2772
2772 2855
2855 2936
2936 3015
3015 3154
3154 3237
3237 3306
3306 3397
3397 3485
3485 3571
3571 3656
3656 3732
3732 3816
3816 3905
